,name,request_time,price,chance_of_playing,weekly_price_change,current_selection_percentage,probability_price_up_percentage,probability_price_down_percentage
0,AlphaTauri,2021-05-08_00:11:03,12.9,1.0,-0.2,6,0,69
1,Perez,2021-05-08_00:11:03,18.3,1.0,0.0,31,0,64
2,Alpine,2021-05-08_00:11:03,15.2,1.0,0.2,4,69,0
3,Hamilton,2021-05-08_00:11:03,33.3,1.0,-0.1,27,10,0
4,Raikkonen,2021-05-08_00:11:03,9.3,1.0,-0.1,13,0,44
5,Gasly,2021-05-08_00:11:03,11.7,1.0,0.0,41,0,56
6,Red Bull,2021-05-08_00:11:03,26.1,1.0,0.0,32,0,6
7,Stroll,2021-05-08_00:11:03,13.6,1.0,0.0,9,0,90
8,Mazepin,2021-05-08_00:11:03,5.3,1.0,0.0,5,0,47
9,Vettel,2021-05-08_00:11:03,15.0,1.0,-0.1,12,0,50
10,Tsunoda,2021-05-08_00:11:03,9.0,1.0,-0.3,28,0,65
11,Russell,2021-05-08_00:11:03,6.3,1.0,0.1,43,0,47
12,Alonso,2021-05-08_00:11:03,15.0,1.0,0.0,11,0,72
13,Verstappen,2021-05-08_00:11:03,25.3,1.0,0.0,56,68,0
14,McLaren,2021-05-08_00:11:03,18.9,1.0,0.1,30,35,0
15,Ricciardo,2021-05-08_00:11:03,16.3,1.0,-0.2,29,0,52
16,Schumacher,2021-05-08_00:11:03,5.7,1.0,0.0,26,78,0
17,Ocon,2021-05-08_00:11:03,10.2,1.0,0.4,21,80,0
18,Leclerc,2021-05-08_00:11:03,17.9,1.0,0.1,38,54,0
19,Bottas,2021-05-08_00:11:03,23.3,1.0,0.0,11,0,69
20,Ferrari,2021-05-08_00:11:03,18.7,1.0,-0.2,11,0,12
21,Mercedes,2021-05-08_00:11:03,37.6,1.0,0.0,10,0,63
22,Haas,2021-05-08_00:11:03,6.1,1.0,0.0,4,0,25
23,Aston Martin,2021-05-08_00:11:03,16.5,1.0,-0.1,5,0,5
24,Latifi,2021-05-08_00:11:03,6.4,1.0,-0.1,4,0,16
25,Williams,2021-05-08_00:11:03,6.3,1.0,0.0,4,0,42
26,Giovinazzi,2021-05-08_00:11:03,7.8,1.0,0.0,7,0,55
27,Norris,2021-05-08_00:11:03,13.8,1.0,0.1,62,58,0
28,Sainz,2021-05-08_00:11:03,14.4,1.0,0.1,26,0,98
29,Alfa Romeo,2021-05-08_00:11:03,8.9,1.0,0.0,4,35,0
