,name,request_time,price,chance_of_playing,weekly_price_change,current_selection_percentage,probability_price_up_percentage,probability_price_down_percentage
0,Mercedes,2021-04-02_20:00:02,37.9,1.0,-0.1,12,0,20
1,McLaren,2021-04-02_20:00:02,18.9,1.0,0.0,30,12,0
2,Red Bull,2021-04-02_20:00:02,26.0,1.0,0.100000000000001,31,62,0
3,Giovinazzi,2021-04-02_20:00:02,7.9,1.0,0.0,8,0,46
4,Alfa Romeo,2021-04-02_20:00:02,8.9,1.0,0.0,1,0,0
5,Stroll,2021-04-02_20:00:02,13.8,1.0,-0.0999999999999996,10,0,42
6,Sainz,2021-04-02_20:00:02,14.4,1.0,0.0,27,0,67
7,Alpine,2021-04-02_20:00:02,15.2,1.0,-0.2,3,0,4
8,Norris,2021-04-02_20:00:02,13.3,1.0,0.2,54,8,0
9,Verstappen,2021-04-02_20:00:02,25.0,1.0,0.2,52,29,0
10,Raikkonen,2021-04-02_20:00:02,9.6,1.0,0.0,15,0,87
11,Haas,2021-04-02_20:00:02,6.1,1.0,0.0,1,0,16
12,Hamilton,2021-04-02_20:00:02,33.5,1.0,0.0,29,0,69
13,Schumacher,2021-04-02_20:00:02,5.8,1.0,0.0,27,0,12
14,Ferrari,2021-04-02_20:00:02,18.2,1.0,0.0999999999999979,8,78,0
15,AlphaTauri,2021-04-02_20:00:02,12.9,1.0,0.200000000000001,6,38,0
16,Perez,2021-04-02_20:00:02,18.3,1.0,-0.0999999999999979,32,10,0
17,Vettel,2021-04-02_20:00:02,15.8,1.0,-0.399999999999999,17,0,78
18,Latifi,2021-04-02_20:00:02,6.5,1.0,0.0,4,0,42
19,Russell,2021-04-02_20:00:02,6.2,1.0,0.0,42,0,6
20,Aston Martin,2021-04-02_20:00:02,17.2,1.0,-0.4,7,0,45
21,Leclerc,2021-04-02_20:00:02,17.1,1.0,0.300000000000001,30,83,0
22,Bottas,2021-04-02_20:00:02,23.5,1.0,-0.100000000000001,12,0,17
23,Mazepin,2021-04-02_20:00:02,5.4,1.0,-0.0999999999999996,5,0,31
24,Tsunoda,2021-04-02_20:00:02,9.1,1.0,0.3,30,49,0
25,Williams,2021-04-02_20:00:02,6.3,1.0,0.0,1,0,22
26,Ricciardo,2021-04-02_20:00:02,17.1,1.0,-0.199999999999999,37,0,73
27,Ocon,2021-04-02_20:00:02,9.9,1.0,-0.199999999999999,15,0,60
28,Alonso,2021-04-02_20:00:02,15.4,1.0,-0.199999999999999,13,0,50
29,Gasly,2021-04-02_20:00:02,11.8,1.0,0.1,43,0,2
