,name,request_time,price,chance_of_playing,weekly_price_change,current_selection_percentage,probability_price_up_percentage,probability_price_down_percentage
0,AlphaTauri,2021-05-13_05:41:03,12.8,1.0,0.0,6,0,72
1,Perez,2021-05-13_05:41:03,18.1,1.0,-0.1,30,0,27
2,Alpine,2021-05-13_05:41:03,15.3,1.0,0.1,4,0,11
3,Gasly,2021-05-13_05:41:03,11.6,1.0,-0.1,40,0,71
4,Vettel,2021-05-13_05:41:03,14.9,1.0,-0.1,12,0,3
5,Tsunoda,2021-05-13_05:41:03,8.8,1.0,-0.1,26,0,63
6,Verstappen,2021-05-13_05:41:03,25.3,1.0,0.0,56,92,0
7,Mazepin,2021-05-13_05:41:03,5.3,1.0,0.0,5,0,48
8,Raikkonen,2021-05-13_05:41:03,9.3,1.0,0.0,13,0,45
9,Hamilton,2021-05-13_05:41:03,33.3,1.0,0.0,28,26,0
10,Alonso,2021-05-13_05:41:03,14.9,1.0,-0.1,10,0,19
11,McLaren,2021-05-13_05:41:03,18.9,1.0,0.0,30,0,5
12,Mercedes,2021-05-13_05:41:03,37.6,1.0,0.0,10,0,76
13,Haas,2021-05-13_05:41:03,6.1,1.0,0.0,4,0,17
14,Aston Martin,2021-05-13_05:41:03,16.5,1.0,0.0,5,0,57
15,Latifi,2021-05-13_05:41:03,6.4,1.0,0.0,4,0,23
16,Russell,2021-05-13_05:41:03,6.2,1.0,-0.1,42,0,1
17,Ricciardo,2021-05-13_05:41:03,16.2,1.0,0.0,29,27,0
18,Ocon,2021-05-13_05:41:03,10.5,1.0,0.2,24,49,0
19,Schumacher,2021-05-13_05:41:03,5.9,1.0,0.1,28,10,0
20,Leclerc,2021-05-13_05:41:03,18.1,1.0,0.1,40,43,0
21,Bottas,2021-05-13_05:41:03,23.2,1.0,-0.1,11,0,14
22,Ferrari,2021-05-13_05:41:03,18.7,1.0,0.0,11,27,0
23,Red Bull,2021-05-13_05:41:03,26.1,1.0,0.0,32,5,0
24,Stroll,2021-05-13_05:41:03,13.5,1.0,0.0,8,0,71
25,Williams,2021-05-13_05:41:03,6.3,1.0,0.0,4,0,38
26,Norris,2021-05-13_05:41:03,13.9,1.0,0.0,63,13,0
27,Giovinazzi,2021-05-13_05:41:03,7.8,1.0,0.0,7,0,43
28,Sainz,2021-05-13_05:41:03,14.3,1.0,0.0,26,0,36
29,Alfa Romeo,2021-05-13_05:41:03,8.9,1.0,0.0,4,82,0
