,name,request_time,price,chance_of_playing,weekly_price_change,current_selection_percentage,probability_price_up_percentage,probability_price_down_percentage
0,AlphaTauri,2021-04-20_06:31:02,13.2,1.0,0.0,7,0,31
1,Raikkonen,2021-04-20_06:31:02,9.4,1.0,0.0,14,0,15
2,Hamilton,2021-04-20_06:31:02,33.4,1.0,0.0,28,0,65
3,Mazepin,2021-04-20_06:31:02,5.3,1.0,0.0,5,0,22
4,Mercedes,2021-04-20_06:31:02,37.7,1.0,-0.1,11,0,23
5,Haas,2021-04-20_06:31:02,6.1,1.0,0.0,4,0,28
6,Vettel,2021-04-20_06:31:02,15.3,1.0,-0.1,14,0,74
7,Alonso,2021-04-20_06:31:02,15.1,1.0,-0.1,11,0,86
8,Verstappen,2021-04-20_06:31:02,25.2,1.0,0.1,54,41,0
9,McLaren,2021-04-20_06:31:02,18.7,1.0,0.0,28,15,0
10,Ocon,2021-04-20_06:31:02,9.7,1.0,0.0,13,0,97
11,Schumacher,2021-04-20_06:31:02,5.7,1.0,0.0,25,0,16
12,Bottas,2021-04-20_06:31:02,23.4,1.0,-0.1,12,0,12
13,Red Bull,2021-04-20_06:31:02,26.1,1.0,0.1,32,6,0
14,Williams,2021-04-20_06:31:02,6.3,1.0,0.0,4,0,34
15,Norris,2021-04-20_06:31:02,13.6,1.0,0.2,58,5,0
16,Alfa Romeo,2021-04-20_06:31:02,8.9,1.0,0.0,4,10,0
17,Alpine,2021-04-20_06:31:02,15.0,1.0,-0.1,4,0,4
18,Latifi,2021-04-20_06:31:02,6.5,1.0,0.0,4,0,63
19,Russell,2021-04-20_06:31:02,6.2,1.0,0.0,44,74,0
20,Ferrari,2021-04-20_06:31:02,18.8,1.0,0.1,11,27,0
21,Tsunoda,2021-04-20_06:31:02,9.4,1.0,0.0,34,0,8
22,Ricciardo,2021-04-20_06:31:02,16.6,1.0,-0.1,32,0,33
23,Leclerc,2021-04-20_06:31:02,17.6,1.0,0.2,35,35,0
24,Stroll,2021-04-20_06:31:02,13.6,1.0,0.0,9,0,6
25,Giovinazzi,2021-04-20_06:31:02,7.8,1.0,0.0,7,0,31
26,Sainz,2021-04-20_06:31:02,14.3,1.0,0.0,26,0,8
27,Aston Martin,2021-04-20_06:31:02,16.8,1.0,-0.1,6,0,63
28,Perez,2021-04-20_06:31:02,18.4,1.0,0.0,32,0,71
29,Gasly,2021-04-20_06:31:02,11.7,1.0,0.0,43,75,0
