,name,request_time,price,chance_of_playing,weekly_price_change,current_selection_percentage,probability_price_up_percentage,probability_price_down_percentage
0,Mercedes,2021-04-03_06:10:02,37.9,1.0,-0.1,12,0,22
1,McLaren,2021-04-03_06:10:02,18.9,1.0,0.0,30,12,0
2,Red Bull,2021-04-03_06:10:02,26.0,1.0,0.100000000000001,31,63,0
3,Ricciardo,2021-04-03_06:10:02,17.1,1.0,-0.199999999999999,37,0,77
4,Ocon,2021-04-03_06:10:02,9.9,1.0,-0.199999999999999,15,0,63
5,Alonso,2021-04-03_06:10:02,15.4,1.0,-0.199999999999999,13,0,53
6,Giovinazzi,2021-04-03_06:10:02,7.9,1.0,0.0,8,0,45
7,Alfa Romeo,2021-04-03_06:10:02,8.9,1.0,0.0,1,0,0
8,Stroll,2021-04-03_06:10:02,13.8,1.0,-0.0999999999999996,10,0,43
9,Sainz,2021-04-03_06:10:02,14.4,1.0,0.0,26,0,67
10,Alpine,2021-04-03_06:10:02,15.2,1.0,-0.2,3,0,7
11,Norris,2021-04-03_06:10:02,13.3,1.0,0.2,54,11,0
12,Verstappen,2021-04-03_06:10:02,25.0,1.0,0.2,52,31,0
13,Raikkonen,2021-04-03_06:10:02,9.6,1.0,0.0,15,0,87
14,Haas,2021-04-03_06:10:02,6.1,1.0,0.0,1,0,16
15,Hamilton,2021-04-03_06:10:02,33.5,1.0,0.0,29,0,68
16,Schumacher,2021-04-03_06:10:02,5.8,1.0,0.0,27,0,12
17,Ferrari,2021-04-03_06:10:02,18.2,1.0,0.0999999999999979,8,79,0
18,AlphaTauri,2021-04-03_06:10:02,12.9,1.0,0.200000000000001,6,39,0
19,Perez,2021-04-03_06:10:02,18.3,1.0,-0.0999999999999979,32,12,0
20,Latifi,2021-04-03_06:10:02,6.5,1.0,0.0,4,0,41
21,Russell,2021-04-03_06:10:02,6.2,1.0,0.0,42,0,6
22,Aston Martin,2021-04-03_06:10:02,17.2,1.0,-0.4,7,0,51
23,Leclerc,2021-04-03_06:10:02,17.1,1.0,0.300000000000001,30,86,0
24,Vettel,2021-04-03_06:10:02,15.8,1.0,-0.399999999999999,17,0,83
25,Bottas,2021-04-03_06:10:02,23.5,1.0,-0.100000000000001,12,0,17
26,Mazepin,2021-04-03_06:10:02,5.4,1.0,-0.0999999999999996,5,0,32
27,Tsunoda,2021-04-03_06:10:02,9.1,1.0,0.3,30,54,0
28,Williams,2021-04-03_06:10:02,6.3,1.0,0.0,1,0,22
29,Gasly,2021-04-03_06:10:02,11.8,1.0,0.1,43,0,2
