,name,request_time,price,chance_of_playing,weekly_price_change,current_selection_percentage,probability_price_up_percentage,probability_price_down_percentage
0,Ocon,2021-07-19_00:51:03,10.1,1.0,-0.1,19,0,89
1,Bottas,2021-07-19_00:51:03,23.0,1.0,0.0,10,0,38
2,Ferrari,2021-07-19_00:51:03,18.7,1.0,0.0,10,0,78
3,Red Bull,2021-07-19_00:51:03,26.7,1.0,0.1,36,27,0
4,Stroll,2021-07-19_00:51:03,13.3,1.0,0.0,8,5,0
5,Gasly,2021-07-19_00:51:03,11.9,1.0,0.0,46,29,0
6,Vettel,2021-07-19_00:51:03,15.2,1.0,0.0,13,0,8
7,Tsunoda,2021-07-19_00:51:03,8.5,1.0,0.0,23,0,21
8,Williams,2021-07-19_00:51:03,6.3,1.0,0.0,4,0,42
9,Norris,2021-07-19_00:51:03,14.1,1.0,0.1,66,80,0
10,Mazepin,2021-07-19_00:51:03,5.3,1.0,0.0,5,0,10
11,Mercedes,2021-07-19_00:51:03,37.1,1.0,-0.1,8,0,1
12,Hamilton,2021-07-19_00:51:03,33.0,1.0,0.0,24,0,60
13,Aston Martin,2021-07-19_00:51:03,16.4,1.0,0.0,5,57,0
14,Haas,2021-07-19_00:51:03,6.1,1.0,0.0,4,0,26
15,AlphaTauri,2021-07-19_00:51:03,12.7,1.0,0.0,6,0,6
16,Perez,2021-07-19_00:51:03,18.8,1.0,0.0,36,0,17
17,Alpine,2021-07-19_00:51:03,15.1,1.0,0.0,4,0,79
18,Raikkonen,2021-07-19_00:51:03,9.3,1.0,0.0,13,0,67
19,Sainz,2021-07-19_00:51:03,14.4,1.0,0.1,28,1,0
20,Alfa Romeo,2021-07-19_00:51:03,9.2,1.0,0.0,4,0,79
21,McLaren,2021-07-19_00:51:03,18.6,1.0,0.0,28,7,0
22,Ricciardo,2021-07-19_00:51:03,15.8,1.0,0.0,25,0,49
23,Schumacher,2021-07-19_00:51:03,5.8,1.0,0.0,27,32,0
24,Leclerc,2021-07-19_00:51:03,17.5,1.0,-0.1,34,16,0
25,Giovinazzi,2021-07-19_00:51:03,8.0,1.0,0.0,9,73,0
26,Latifi,2021-07-19_00:51:03,6.4,1.0,0.0,4,0,60
27,Russell,2021-07-19_00:51:03,6.2,1.0,0.0,41,0,37
28,Alonso,2021-07-19_00:51:03,14.8,1.0,0.0,10,49,0
29,Verstappen,2021-07-19_00:51:03,25.7,1.0,0.0,61,75,0
