,name,request_time,price,chance_of_playing,weekly_price_change,current_selection_percentage,probability_price_up_percentage,probability_price_down_percentage
0,Sainz,2021-07-04_18:41:02,14.3,1.0,0.0,27,17,0
1,Alfa Romeo,2021-07-04_18:41:02,9.2,1.0,0.0,4,0,72
2,AlphaTauri,2021-07-04_18:41:02,12.7,1.0,0.0,6,38,0
3,Perez,2021-07-04_18:41:02,18.8,1.0,0.1,37,61,0
4,Alpine,2021-07-04_18:41:02,15.1,1.0,-0.1,4,0,53
5,Vettel,2021-07-04_18:41:02,15.2,1.0,0.0,13,3,0
6,Red Bull,2021-07-04_18:41:02,26.6,1.0,0.1,36,82,0
7,Stroll,2021-07-04_18:41:02,13.3,1.0,0.0,8,45,0
8,Williams,2021-07-04_18:41:02,6.3,1.0,0.0,4,0,46
9,Giovinazzi,2021-07-04_18:41:02,8.0,1.0,0.0,9,58,0
10,Mazepin,2021-07-04_18:41:02,5.3,1.0,0.0,5,0,9
11,Hamilton,2021-07-04_18:41:02,33.0,1.0,-0.1,24,0,32
12,Raikkonen,2021-07-04_18:41:02,9.3,1.0,0.0,13,0,54
13,Gasly,2021-07-04_18:41:02,11.9,1.0,0.0,46,60,0
14,Tsunoda,2021-07-04_18:41:02,8.5,1.0,0.1,23,34,0
15,Bottas,2021-07-04_18:41:02,23.0,1.0,0.0,10,0,48
16,Ferrari,2021-07-04_18:41:02,18.7,1.0,0.0,11,0,23
17,Haas,2021-07-04_18:41:02,6.1,1.0,0.0,4,0,26
18,Aston Martin,2021-07-04_18:41:02,16.4,1.0,0.0,5,74,0
19,Mercedes,2021-07-04_18:41:02,37.2,1.0,0.0,9,0,54
20,McLaren,2021-07-04_18:41:02,18.6,1.0,0.0,27,0,46
21,Ricciardo,2021-07-04_18:41:02,15.8,1.0,-0.1,25,0,22
22,Ocon,2021-07-04_18:41:02,10.2,1.0,-0.2,20,0,93
23,Leclerc,2021-07-04_18:41:02,17.6,1.0,0.0,34,0,92
24,Schumacher,2021-07-04_18:41:02,5.8,1.0,0.0,27,0,5
25,Norris,2021-07-04_18:41:02,14.0,1.0,0.0,65,84,0
26,Latifi,2021-07-04_18:41:02,6.4,1.0,0.0,4,0,53
27,Russell,2021-07-04_18:41:02,6.2,1.0,0.0,41,0,51
28,Alonso,2021-07-04_18:41:02,14.8,1.0,0.0,10,15,0
29,Verstappen,2021-07-04_18:41:02,25.7,1.0,0.1,60,30,0
