,name,request_time,price,chance_of_playing,weekly_price_change,current_selection_percentage,probability_price_up_percentage,probability_price_down_percentage
0,Norris,2021-08-03_12:21:03,14.2,1.0,0.1,66,0,4
1,Gasly,2021-08-03_12:21:03,11.9,1.0,0.0,45,0,27
2,Vettel,2021-08-03_12:21:03,15.2,1.0,0.0,13,0,51
3,Tsunoda,2021-08-03_12:21:03,8.4,1.0,-0.1,22,0,0
4,Ocon,2021-08-03_12:21:03,10.0,1.0,-0.1,19,68,0
5,Bottas,2021-08-03_12:21:03,23.1,1.0,0.1,10,0,37
6,Ferrari,2021-08-03_12:21:03,18.8,1.0,0.1,11,12,0
7,Red Bull,2021-08-03_12:21:03,26.6,1.0,-0.1,35,0,64
8,Stroll,2021-08-03_12:21:03,13.3,1.0,0.0,7,0,7
9,Williams,2021-08-03_12:21:03,6.3,1.0,0.0,4,0,36
10,Hamilton,2021-08-03_12:21:03,33.0,1.0,0.0,24,0,19
11,Mazepin,2021-08-03_12:21:03,5.3,1.0,0.0,5,2,0
12,Mercedes,2021-08-03_12:21:03,37.1,1.0,-0.1,8,0,1
13,AlphaTauri,2021-08-03_12:21:03,12.7,1.0,0.0,5,0,60
14,Aston Martin,2021-08-03_12:21:03,16.4,1.0,0.0,5,52,0
15,Haas,2021-08-03_12:21:03,6.1,1.0,0.0,4,0,27
16,Perez,2021-08-03_12:21:03,18.6,1.0,-0.2,34,0,40
17,Alpine,2021-08-03_12:21:03,15.1,1.0,0.0,4,0,64
18,Raikkonen,2021-08-03_12:21:03,9.3,1.0,0.0,13,0,72
19,Giovinazzi,2021-08-03_12:21:03,8.1,1.0,0.1,9,0,89
20,Sainz,2021-08-03_12:21:03,14.5,1.0,0.1,28,14,0
21,McLaren,2021-08-03_12:21:03,18.7,1.0,0.1,28,2,0
22,Ricciardo,2021-08-03_12:21:03,15.8,1.0,0.0,25,0,80
23,Schumacher,2021-08-03_12:21:03,5.8,1.0,0.0,27,0,3
24,Leclerc,2021-08-03_12:21:03,17.7,1.0,0.1,36,0,0
25,Alfa Romeo,2021-08-03_12:21:03,9.2,1.0,0.0,4,0,88
26,Latifi,2021-08-03_12:21:03,6.4,1.0,0.0,4,0,56
27,Russell,2021-08-03_12:21:03,6.2,1.0,0.0,42,6,0
28,Alonso,2021-08-03_12:21:03,14.9,1.0,0.1,11,29,0
29,Verstappen,2021-08-03_12:21:03,25.7,1.0,0.0,60,35,0
