,name,request_time,price,chance_of_playing,weekly_price_change,current_selection_percentage,probability_price_up_percentage,probability_price_down_percentage
0,AlphaTauri,2021-05-02_12:51:03,13.0,1.0,-0.1,7,0,18
1,Ocon,2021-05-02_12:51:03,9.8,1.0,0.0,16,74,0
2,Raikkonen,2021-05-02_12:51:03,9.4,1.0,0.0,14,0,15
3,Hamilton,2021-05-02_12:51:03,33.3,1.0,-0.1,27,0,3
4,Mercedes,2021-05-02_12:51:03,37.6,1.0,0.0,10,0,47
5,Red Bull,2021-05-02_12:51:03,26.1,1.0,0.0,31,0,20
6,Verstappen,2021-05-02_12:51:03,25.3,1.0,0.0,56,47,0
7,Bottas,2021-05-02_12:51:03,23.3,1.0,0.0,11,0,56
8,McLaren,2021-05-02_12:51:03,18.8,1.0,0.0,29,42,0
9,Norris,2021-05-02_12:51:03,13.7,1.0,0.0,60,22,0
10,Alfa Romeo,2021-05-02_12:51:03,8.9,1.0,0.0,4,32,0
11,Mazepin,2021-05-02_12:51:03,5.3,1.0,0.0,5,0,37
12,Haas,2021-05-02_12:51:03,6.1,1.0,0.0,4,0,32
13,Schumacher,2021-05-02_12:51:03,5.7,1.0,0.0,25,0,39
14,Vettel,2021-05-02_12:51:03,15.1,1.0,0.0,12,0,69
15,Williams,2021-05-02_12:51:03,6.3,1.0,0.0,4,0,30
16,Alonso,2021-05-02_12:51:03,15.0,1.0,0.0,11,0,78
17,Ferrari,2021-05-02_12:51:03,19.0,1.0,0.1,12,6,0
18,Latifi,2021-05-02_12:51:03,6.4,1.0,-0.1,4,0,0
19,Alpine,2021-05-02_12:51:03,15.0,1.0,0.0,4,58,0
20,Russell,2021-05-02_12:51:03,6.3,1.0,0.1,44,0,0
21,Ricciardo,2021-05-02_12:51:03,16.4,1.0,-0.1,30,0,6
22,Leclerc,2021-05-02_12:51:03,17.8,1.0,0.0,37,71,0
23,Tsunoda,2021-05-02_12:51:03,9.2,1.0,-0.1,31,0,15
24,Stroll,2021-05-02_12:51:03,13.6,1.0,0.0,9,12,0
25,Giovinazzi,2021-05-02_12:51:03,7.8,1.0,0.0,7,0,84
26,Sainz,2021-05-02_12:51:03,14.4,1.0,0.1,27,6,0
27,Perez,2021-05-02_12:51:03,18.3,1.0,0.0,31,0,41
28,Gasly,2021-05-02_12:51:03,11.7,1.0,0.0,43,41,0
29,Aston Martin,2021-05-02_12:51:03,16.6,1.0,0.0,5,0,12
