,name,request_time,price,chance_of_playing,weekly_price_change,current_selection_percentage,probability_price_up_percentage,probability_price_down_percentage
0,AlphaTauri,2021-06-05_02:41:02,12.6,1.0,-0.2,5,0,55
1,Perez,2021-06-05_02:41:02,18.0,1.0,-0.2,29,11,0
2,Alpine,2021-06-05_02:41:02,15.2,1.0,0.0,4,0,90
3,Williams,2021-06-05_02:41:02,6.3,1.0,0.0,4,0,36
4,Norris,2021-06-05_02:41:02,13.9,1.0,0.0,63,64,0
5,Sainz,2021-06-05_02:41:02,14.7,1.0,0.2,31,66,0
6,Alfa Romeo,2021-06-05_02:41:02,9.2,1.0,0.3,4,0,11
7,Mazepin,2021-06-05_02:41:02,5.3,1.0,0.0,5,0,17
8,Raikkonen,2021-06-05_02:41:02,9.4,1.0,0.1,14,12,0
9,Hamilton,2021-06-05_02:41:02,33.2,1.0,-0.1,26,0,13
10,Gasly,2021-06-05_02:41:02,11.5,1.0,-0.2,40,76,0
11,Vettel,2021-06-05_02:41:02,14.9,1.0,-0.1,12,7,0
12,Tsunoda,2021-06-05_02:41:02,8.4,1.0,-0.2,22,0,5
13,Verstappen,2021-06-05_02:41:02,25.5,1.0,0.1,58,21,0
14,Red Bull,2021-06-05_02:41:02,26.0,1.0,-0.1,31,6,0
15,Mercedes,2021-06-05_02:41:02,37.4,1.0,-0.1,10,0,42
16,Aston Martin,2021-06-05_02:41:02,16.4,1.0,-0.1,5,1,0
17,Haas,2021-06-05_02:41:02,6.1,1.0,0.0,4,0,22
18,Latifi,2021-06-05_02:41:02,6.4,1.0,0.0,4,0,29
19,Russell,2021-06-05_02:41:02,6.2,1.0,-0.1,42,0,7
20,Alonso,2021-06-05_02:41:02,14.8,1.0,-0.2,9,0,91
21,McLaren,2021-06-05_02:41:02,18.6,1.0,-0.1,27,0,4
22,Giovinazzi,2021-06-05_02:41:02,8.0,1.0,0.2,9,38,0
23,Ricciardo,2021-06-05_02:41:02,16.1,1.0,-0.1,27,0,64
24,Schumacher,2021-06-05_02:41:02,5.8,1.0,-0.1,26,0,32
25,Leclerc,2021-06-05_02:41:02,18.3,1.0,0.3,42,45,0
26,Ocon,2021-06-05_02:41:02,10.5,1.0,0.2,23,0,60
27,Bottas,2021-06-05_02:41:02,23.1,1.0,-0.1,10,0,44
28,Ferrari,2021-06-05_02:41:02,19.7,1.0,0.2,15,20,0
29,Stroll,2021-06-05_02:41:02,13.4,1.0,-0.1,8,0,60
