,name,request_time,price,chance_of_playing,weekly_price_change,current_selection_percentage,probability_price_up_percentage,probability_price_down_percentage
0,Mercedes,2021-04-14_15:10:03,37.8,1.0,-0.2,11,0,3
1,Haas,2021-04-14_15:10:03,6.1,1.0,0.0,4,0,23
2,Williams,2021-04-14_15:10:03,6.3,1.0,0.0,4,0,37
3,Mazepin,2021-04-14_15:10:03,5.4,1.0,-0.0999999999999996,5,0,70
4,Tsunoda,2021-04-14_15:10:03,9.3,1.0,0.5,33,65,0
5,Stroll,2021-04-14_15:10:03,13.7,1.0,-0.2,10,0,20
6,Bottas,2021-04-14_15:10:03,23.5,1.0,-0.100000000000001,12,0,68
7,Alfa Romeo,2021-04-14_15:10:03,8.9,1.0,0.0,4,2,0
8,McLaren,2021-04-14_15:10:03,18.9,1.0,0.0,29,0,68
9,Alpine,2021-04-14_15:10:03,15.2,1.0,-0.2,4,0,85
10,Raikkonen,2021-04-14_15:10:03,9.5,1.0,-0.1,14,0,58
11,Aston Martin,2021-04-14_15:10:03,17.0,1.0,-0.6,6,0,22
12,Latifi,2021-04-14_15:10:03,6.5,1.0,0.0,4,0,58
13,Vettel,2021-04-14_15:10:03,15.6,1.0,-0.6,16,0,69
14,Hamilton,2021-04-14_15:10:03,33.4,1.0,-0.1,28,0,15
15,Perez,2021-04-14_15:10:03,18.4,1.0,0.0,33,19,0
16,Sainz,2021-04-14_15:10:03,14.3,1.0,-0.1,26,0,21
17,Leclerc,2021-04-14_15:10:03,17.3,1.0,0.5,31,24,0
18,Ferrari,2021-04-14_15:10:03,18.5,1.0,0.4,9,54,0
19,Alonso,2021-04-14_15:10:03,15.3,1.0,-0.3,12,0,75
20,Schumacher,2021-04-14_15:10:03,5.8,1.0,0.0,26,0,55
21,Red Bull,2021-04-14_15:10:03,26.0,1.0,0.100000000000001,31,52,0
22,Verstappen,2021-04-14_15:10:03,25.1,1.0,0.3,53,19,0
23,Ricciardo,2021-04-14_15:10:03,16.9,1.0,-0.4,35,0,16
24,AlphaTauri,2021-04-14_15:10:03,13.1,1.0,0.4,7,55,0
25,Norris,2021-04-14_15:10:03,13.4,1.0,0.3,55,20,0
26,Russell,2021-04-14_15:10:03,6.2,1.0,0.0,42,6,0
27,Giovinazzi,2021-04-14_15:10:03,7.9,1.0,0.0,8,0,81
28,Ocon,2021-04-14_15:10:03,9.8,1.0,-0.3,15,0,61
29,Gasly,2021-04-14_15:10:03,11.7,1.0,0.0,42,0,1
