,name,request_time,price,chance_of_playing,weekly_price_change,current_selection_percentage,probability_price_up_percentage,probability_price_down_percentage
0,Gasly,2021-08-01_00:21:02,11.9,1.0,0.0,45,0,27
1,Vettel,2021-08-01_00:21:02,15.2,1.0,0.0,13,0,60
2,Tsunoda,2021-08-01_00:21:02,8.5,1.0,0.0,22,0,92
3,Ocon,2021-08-01_00:21:02,10.0,1.0,-0.1,19,26,0
4,Bottas,2021-08-01_00:21:02,23.1,1.0,0.1,10,0,0
5,Williams,2021-08-01_00:21:02,6.3,1.0,0.0,4,0,36
6,Norris,2021-08-01_00:21:02,14.2,1.0,0.1,66,0,3
7,Ferrari,2021-08-01_00:21:02,18.8,1.0,0.1,11,9,0
8,Red Bull,2021-08-01_00:21:02,26.6,1.0,-0.1,35,0,49
9,Stroll,2021-08-01_00:21:02,13.3,1.0,0.0,8,0,1
10,Raikkonen,2021-08-01_00:21:02,9.3,1.0,0.0,13,0,65
11,Mazepin,2021-08-01_00:21:02,5.3,1.0,0.0,5,4,0
12,Mercedes,2021-08-01_00:21:02,37.1,1.0,-0.1,8,0,0
13,Aston Martin,2021-08-01_00:21:02,16.4,1.0,0.0,5,45,0
14,AlphaTauri,2021-08-01_00:21:02,12.7,1.0,0.0,5,0,57
15,Haas,2021-08-01_00:21:02,6.1,1.0,0.0,4,0,25
16,Perez,2021-08-01_00:21:02,18.6,1.0,-0.2,34,0,18
17,Alpine,2021-08-01_00:21:02,15.1,1.0,0.0,4,0,69
18,Hamilton,2021-08-01_00:21:02,33.0,1.0,0.0,24,0,21
19,McLaren,2021-08-01_00:21:02,18.6,1.0,0.0,28,95,0
20,Ricciardo,2021-08-01_00:21:02,15.8,1.0,0.0,25,0,66
21,Schumacher,2021-08-01_00:21:02,5.8,1.0,0.0,27,1,0
22,Leclerc,2021-08-01_00:21:02,17.6,1.0,0.1,36,87,0
23,Giovinazzi,2021-08-01_00:21:02,8.1,1.0,0.1,9,0,72
24,Sainz,2021-08-01_00:21:02,14.4,1.0,0.0,28,96,0
25,Alfa Romeo,2021-08-01_00:21:02,9.2,1.0,0.0,4,0,86
26,Latifi,2021-08-01_00:21:02,6.4,1.0,0.0,4,0,57
27,Russell,2021-08-01_00:21:02,6.2,1.0,0.0,42,3,0
28,Alonso,2021-08-01_00:21:02,14.9,1.0,0.1,11,12,0
29,Verstappen,2021-08-01_00:21:02,25.7,1.0,0.0,60,36,0
