,name,request_time,price,chance_of_playing,weekly_price_change,current_selection_percentage,probability_price_up_percentage,probability_price_down_percentage
0,AlphaTauri,2021-05-27_12:21:03,12.6,1.0,-0.2,5,0,40
1,Perez,2021-05-27_12:21:03,18.0,1.0,-0.2,29,0,63
2,Alpine,2021-05-27_12:21:03,15.2,1.0,0.0,4,0,66
3,Gasly,2021-05-27_12:21:03,11.5,1.0,-0.2,40,31,0
4,Mazepin,2021-05-27_12:21:03,5.3,1.0,0.0,5,0,15
5,Hamilton,2021-05-27_12:21:03,33.3,1.0,0.0,27,0,55
6,Raikkonen,2021-05-27_12:21:03,9.4,1.0,0.1,14,37,0
7,Vettel,2021-05-27_12:21:03,14.9,1.0,-0.1,12,0,6
8,Tsunoda,2021-05-27_12:21:03,8.5,1.0,-0.1,22,0,54
9,Verstappen,2021-05-27_12:21:03,25.4,1.0,0.1,57,79,0
10,Red Bull,2021-05-27_12:21:03,26.0,1.0,-0.1,31,0,50
11,Stroll,2021-05-27_12:21:03,13.4,1.0,-0.1,8,0,46
12,Williams,2021-05-27_12:21:03,6.3,1.0,0.0,4,0,34
13,Giovinazzi,2021-05-27_12:21:03,7.9,1.0,0.1,9,59,0
14,Sainz,2021-05-27_12:21:03,14.6,1.0,0.1,30,96,0
15,Alfa Romeo,2021-05-27_12:21:03,9.2,1.0,0.3,4,0,5
16,Mercedes,2021-05-27_12:21:03,37.4,1.0,-0.1,10,0,1
17,Haas,2021-05-27_12:21:03,6.1,1.0,0.0,4,0,18
18,Aston Martin,2021-05-27_12:21:03,16.4,1.0,-0.1,5,0,0
19,Latifi,2021-05-27_12:21:03,6.4,1.0,0.0,4,0,25
20,Russell,2021-05-27_12:21:03,6.2,1.0,-0.1,42,2,0
21,Alonso,2021-05-27_12:21:03,14.8,1.0,-0.2,9,0,69
22,McLaren,2021-05-27_12:21:03,18.7,1.0,-0.2,28,0,75
23,Ferrari,2021-05-27_12:21:03,19.6,1.0,0.1,15,90,0
24,Norris,2021-05-27_12:21:03,13.9,1.0,0.0,63,44,0
25,Ricciardo,2021-05-27_12:21:03,16.2,1.0,0.0,28,0,93
26,Ocon,2021-05-27_12:21:03,10.5,1.0,0.2,23,0,34
27,Leclerc,2021-05-27_12:21:03,18.3,1.0,0.3,42,68,0
28,Schumacher,2021-05-27_12:21:03,5.8,1.0,-0.1,27,0,9
29,Bottas,2021-05-27_12:21:03,23.1,1.0,-0.1,10,0,18
