,name,request_time,price,chance_of_playing,weekly_price_change,current_selection_percentage,probability_price_up_percentage,probability_price_down_percentage
0,AlphaTauri,2021-06-28_02:31:02,12.7,1.0,0.1,6,38,0
1,Perez,2021-06-28_02:31:02,18.8,1.0,0.4,36,29,0
2,Alpine,2021-06-28_02:31:02,15.2,1.0,-0.1,4,0,89
3,Tsunoda,2021-06-28_02:31:02,8.4,1.0,0.0,23,97,0
4,Bottas,2021-06-28_02:31:02,23.0,1.0,0.0,10,0,57
5,Ferrari,2021-06-28_02:31:02,18.7,1.0,-0.6,10,0,82
6,Red Bull,2021-06-28_02:31:02,26.5,1.0,0.3,35,64,0
7,Mazepin,2021-06-28_02:31:02,5.3,1.0,0.0,5,0,13
8,Hamilton,2021-06-28_02:31:02,33.1,1.0,0.0,25,0,79
9,Raikkonen,2021-06-28_02:31:02,9.3,1.0,0.0,13,0,71
10,Gasly,2021-06-28_02:31:02,11.9,1.0,0.1,46,43,0
11,Vettel,2021-06-28_02:31:02,15.2,1.0,0.2,14,49,0
12,Mercedes,2021-06-28_02:31:02,37.2,1.0,-0.1,9,0,31
13,Haas,2021-06-28_02:31:02,6.1,1.0,0.0,4,0,26
14,Aston Martin,2021-06-28_02:31:02,16.4,1.0,0.0,5,74,0
15,McLaren,2021-06-28_02:31:02,18.6,1.0,0.0,28,61,0
16,Ricciardo,2021-06-28_02:31:02,15.9,1.0,0.0,26,32,0
17,Leclerc,2021-06-28_02:31:02,17.6,1.0,-0.4,34,0,74
18,Schumacher,2021-06-28_02:31:02,5.8,1.0,0.0,26,0,24
19,Ocon,2021-06-28_02:31:02,10.3,1.0,-0.1,21,0,7
20,Norris,2021-06-28_02:31:02,14.0,1.0,0.1,64,20,0
21,Giovinazzi,2021-06-28_02:31:02,8.0,1.0,0.0,9,46,0
22,Latifi,2021-06-28_02:31:02,6.4,1.0,0.0,4,0,48
23,Russell,2021-06-28_02:31:02,6.2,1.0,0.0,40,0,71
24,Alonso,2021-06-28_02:31:02,14.8,1.0,0.0,10,45,0
25,Verstappen,2021-06-28_02:31:02,25.6,1.0,0.1,60,71,0
26,Stroll,2021-06-28_02:31:02,13.3,1.0,0.0,8,15,0
27,Williams,2021-06-28_02:31:02,6.3,1.0,0.0,4,0,46
28,Sainz,2021-06-28_02:31:02,14.3,1.0,-0.4,26,0,61
29,Alfa Romeo,2021-06-28_02:31:02,9.2,1.0,0.0,4,0,70
