,name,request_time,price,chance_of_playing,weekly_price_change,current_selection_percentage,probability_price_up_percentage,probability_price_down_percentage
0,AlphaTauri,2021-05-03_00:31:03,13.0,1.0,-0.1,6,0,47
1,Perez,2021-05-03_00:31:03,18.3,1.0,0.0,31,0,37
2,Alpine,2021-05-03_00:31:03,15.1,1.0,0.1,4,22,0
3,Hamilton,2021-05-03_00:31:03,33.3,1.0,-0.1,27,0,3
4,Raikkonen,2021-05-03_00:31:03,9.4,1.0,0.0,14,0,41
5,Gasly,2021-05-03_00:31:03,11.7,1.0,0.0,42,22,0
6,Red Bull,2021-05-03_00:31:03,26.1,1.0,0.0,31,0,17
7,Stroll,2021-05-03_00:31:03,13.6,1.0,0.0,9,0,5
8,Mazepin,2021-05-03_00:31:03,5.3,1.0,0.0,5,0,38
9,Vettel,2021-05-03_00:31:03,15.1,1.0,0.0,12,0,84
10,Tsunoda,2021-05-03_00:31:03,9.2,1.0,-0.1,31,0,63
11,Russell,2021-05-03_00:31:03,6.3,1.0,0.1,44,0,8
12,Alonso,2021-05-03_00:31:03,15.0,1.0,0.0,10,0,87
13,Verstappen,2021-05-03_00:31:03,25.3,1.0,0.0,56,54,0
14,McLaren,2021-05-03_00:31:03,18.8,1.0,0.0,29,58,0
15,Ricciardo,2021-05-03_00:31:03,16.4,1.0,-0.1,30,0,31
16,Ocon,2021-05-03_00:31:03,9.9,1.0,0.1,17,97,0
17,Leclerc,2021-05-03_00:31:03,17.8,1.0,0.0,38,83,0
18,Schumacher,2021-05-03_00:31:03,5.7,1.0,0.0,25,0,15
19,Bottas,2021-05-03_00:31:03,23.3,1.0,0.0,11,0,57
20,Ferrari,2021-05-03_00:31:03,19.0,1.0,0.1,12,0,35
21,Mercedes,2021-05-03_00:31:03,37.6,1.0,0.0,10,0,52
22,Haas,2021-05-03_00:31:03,6.1,1.0,0.0,4,0,29
23,Aston Martin,2021-05-03_00:31:03,16.6,1.0,0.0,5,0,29
24,Latifi,2021-05-03_00:31:03,6.4,1.0,-0.1,4,0,3
25,Williams,2021-05-03_00:31:03,6.3,1.0,0.0,4,0,34
26,Giovinazzi,2021-05-03_00:31:03,7.8,1.0,0.0,7,0,74
27,Norris,2021-05-03_00:31:03,13.7,1.0,0.0,60,46,0
28,Sainz,2021-05-03_00:31:03,14.4,1.0,0.1,27,0,16
29,Alfa Romeo,2021-05-03_00:31:03,8.9,1.0,0.0,4,31,0
