,name,request_time,price,chance_of_playing,weekly_price_change,current_selection_percentage,probability_price_up_percentage,probability_price_down_percentage
0,Stroll,2021-05-10_04:11:03,13.5,1.0,0.0,8,0,48
1,Raikkonen,2021-05-10_04:11:03,9.3,1.0,0.0,13,0,48
2,Perez,2021-05-10_04:11:03,18.2,1.0,0.0,30,0,85
3,Alpine,2021-05-10_04:11:03,15.3,1.0,0.1,4,0,2
4,AlphaTauri,2021-05-10_04:11:03,12.8,1.0,0.0,6,0,41
5,Red Bull,2021-05-10_04:11:03,26.1,1.0,0.0,32,0,11
6,Gasly,2021-05-10_04:11:03,11.6,1.0,-0.1,40,0,30
7,Hamilton,2021-05-10_04:11:03,33.3,1.0,0.0,28,25,0
8,Vettel,2021-05-10_04:11:03,15.0,1.0,0.0,12,0,79
9,Ferrari,2021-05-10_04:11:03,18.7,1.0,0.0,11,0,7
10,Bottas,2021-05-10_04:11:03,23.3,1.0,0.0,11,0,99
11,Mazepin,2021-05-10_04:11:03,5.3,1.0,0.0,5,0,48
12,Alonso,2021-05-10_04:11:03,15.0,1.0,0.0,10,0,90
13,Verstappen,2021-05-10_04:11:03,25.3,1.0,0.0,56,82,0
14,Leclerc,2021-05-10_04:11:03,18.0,1.0,0.0,40,85,0
15,Schumacher,2021-05-10_04:11:03,5.8,1.0,0.0,28,69,0
16,Russell,2021-05-10_04:11:03,6.3,1.0,0.0,42,0,95
17,Tsunoda,2021-05-10_04:11:03,8.9,1.0,0.0,26,0,98
18,Ocon,2021-05-10_04:11:03,10.4,1.0,0.1,23,62,0
19,McLaren,2021-05-10_04:11:03,18.9,1.0,0.0,30,10,0
20,Ricciardo,2021-05-10_04:11:03,16.2,1.0,0.0,29,8,0
21,Latifi,2021-05-10_04:11:03,6.4,1.0,0.0,4,0,21
22,Aston Martin,2021-05-10_04:11:03,16.5,1.0,0.0,5,0,36
23,Williams,2021-05-10_04:11:03,6.3,1.0,0.0,4,0,40
24,Haas,2021-05-10_04:11:03,6.1,1.0,0.0,4,0,20
25,Mercedes,2021-05-10_04:11:03,37.6,1.0,0.0,10,0,69
26,Giovinazzi,2021-05-10_04:11:03,7.8,1.0,0.0,7,0,41
27,Norris,2021-05-10_04:11:03,13.9,1.0,0.0,63,9,0
28,Alfa Romeo,2021-05-10_04:11:03,8.9,1.0,0.0,4,51,0
29,Sainz,2021-05-10_04:11:03,14.3,1.0,0.0,26,0,12
