,name,request_time,price,chance_of_playing,weekly_price_change,current_selection_percentage,probability_price_up_percentage,probability_price_down_percentage
0,AlphaTauri,2021-05-09_18:51:03,12.8,1.0,0.0,6,0,33
1,Perez,2021-05-09_18:51:03,18.2,1.0,0.0,30,0,69
2,Alpine,2021-05-09_18:51:03,15.3,1.0,0.1,4,1,0
3,Hamilton,2021-05-09_18:51:03,33.3,1.0,0.0,28,25,0
4,Raikkonen,2021-05-09_18:51:03,9.3,1.0,0.0,13,0,51
5,Red Bull,2021-05-09_18:51:03,26.1,1.0,0.0,31,0,17
6,Stroll,2021-05-09_18:51:03,13.5,1.0,0.0,8,0,39
7,Gasly,2021-05-09_18:51:03,11.6,1.0,-0.1,40,0,17
8,Vettel,2021-05-09_18:51:03,15.0,1.0,0.0,12,0,71
9,Tsunoda,2021-05-09_18:51:03,8.9,1.0,0.0,27,0,76
10,Russell,2021-05-09_18:51:03,6.3,1.0,0.0,42,0,94
11,Alonso,2021-05-09_18:51:03,15.0,1.0,0.0,11,0,78
12,Verstappen,2021-05-09_18:51:03,25.3,1.0,0.0,56,78,0
13,McLaren,2021-05-09_18:51:03,18.9,1.0,0.0,30,15,0
14,Ricciardo,2021-05-09_18:51:03,16.2,1.0,0.0,29,0,0
15,Leclerc,2021-05-09_18:51:03,18.0,1.0,0.0,39,64,0
16,Ocon,2021-05-09_18:51:03,10.4,1.0,0.1,23,35,0
17,Bottas,2021-05-09_18:51:03,23.3,1.0,0.0,11,0,92
18,Ferrari,2021-05-09_18:51:03,18.7,1.0,0.0,11,0,18
19,Mazepin,2021-05-09_18:51:03,5.3,1.0,0.0,5,0,48
20,Mercedes,2021-05-09_18:51:03,37.6,1.0,0.0,10,0,68
21,Aston Martin,2021-05-09_18:51:03,16.5,1.0,0.0,5,0,30
22,Haas,2021-05-09_18:51:03,6.1,1.0,0.0,4,0,22
23,Latifi,2021-05-09_18:51:03,6.4,1.0,0.0,4,0,21
24,Schumacher,2021-05-09_18:51:03,5.8,1.0,0.0,28,56,0
25,Williams,2021-05-09_18:51:03,6.3,1.0,0.0,4,0,42
26,Giovinazzi,2021-05-09_18:51:03,7.8,1.0,0.0,7,0,41
27,Norris,2021-05-09_18:51:03,13.9,1.0,0.0,63,9,0
28,Sainz,2021-05-09_18:51:03,14.3,1.0,0.0,26,0,6
29,Alfa Romeo,2021-05-09_18:51:03,8.9,1.0,0.0,4,44,0
