,name,request_time,price,chance_of_playing,weekly_price_change,current_selection_percentage,probability_price_up_percentage,probability_price_down_percentage
0,AlphaTauri,2021-05-09_16:51:02,12.8,1.0,0.0,6,0,28
1,Perez,2021-05-09_16:51:02,18.2,1.0,0.0,30,0,61
2,Alpine,2021-05-09_16:51:02,15.3,1.0,0.1,4,3,0
3,Hamilton,2021-05-09_16:51:02,33.3,1.0,0.0,28,23,0
4,Raikkonen,2021-05-09_16:51:02,9.3,1.0,0.0,13,0,51
5,Red Bull,2021-05-09_16:51:02,26.1,1.0,0.0,31,0,18
6,Stroll,2021-05-09_16:51:02,13.5,1.0,0.0,8,0,36
7,Gasly,2021-05-09_16:51:02,11.6,1.0,-0.1,40,0,11
8,Vettel,2021-05-09_16:51:02,15.0,1.0,0.0,12,0,68
9,Tsunoda,2021-05-09_16:51:02,8.9,1.0,0.0,27,0,66
10,Russell,2021-05-09_16:51:02,6.3,1.0,0.0,42,0,93
11,Alonso,2021-05-09_16:51:02,15.0,1.0,0.0,11,0,71
12,Verstappen,2021-05-09_16:51:02,25.3,1.0,0.0,56,76,0
13,McLaren,2021-05-09_16:51:02,18.9,1.0,0.0,30,17,0
14,Ricciardo,2021-05-09_16:51:02,16.2,1.0,0.0,29,0,4
15,Ocon,2021-05-09_16:51:02,10.4,1.0,0.1,23,17,0
16,Leclerc,2021-05-09_16:51:02,18.0,1.0,0.0,39,50,0
17,Bottas,2021-05-09_16:51:02,23.3,1.0,0.0,11,0,89
18,Ferrari,2021-05-09_16:51:02,18.7,1.0,0.0,11,0,25
19,Mazepin,2021-05-09_16:51:02,5.3,1.0,0.0,5,0,49
20,Mercedes,2021-05-09_16:51:02,37.6,1.0,0.0,10,0,65
21,Aston Martin,2021-05-09_16:51:02,16.5,1.0,0.0,5,0,29
22,Haas,2021-05-09_16:51:02,6.1,1.0,0.0,4,0,24
23,Latifi,2021-05-09_16:51:02,6.4,1.0,0.0,4,0,21
24,Schumacher,2021-05-09_16:51:02,5.8,1.0,0.0,27,49,0
25,Williams,2021-05-09_16:51:02,6.3,1.0,0.0,4,0,42
26,Giovinazzi,2021-05-09_16:51:02,7.8,1.0,0.0,7,0,40
27,Norris,2021-05-09_16:51:02,13.9,1.0,0.0,63,10,0
28,Sainz,2021-05-09_16:51:02,14.3,1.0,0.0,26,0,4
29,Alfa Romeo,2021-05-09_16:51:02,8.9,1.0,0.0,4,42,0
