,name,request_time,price,chance_of_playing,weekly_price_change,current_selection_percentage,probability_price_up_percentage,probability_price_down_percentage
0,Mercedes,2021-04-06_13:30:03,37.9,1.0,-0.1,12,0,35
1,McLaren,2021-04-06_13:30:03,18.9,1.0,0.0,30,14,0
2,Red Bull,2021-04-06_13:30:03,26.0,1.0,0.100000000000001,31,33,0
3,Schumacher,2021-04-06_13:30:03,5.8,1.0,0.0,27,0,17
4,Ricciardo,2021-04-06_13:30:03,17.0,1.0,-0.3,36,0,8
5,Hamilton,2021-04-06_13:30:03,33.5,1.0,0.0,29,0,74
6,Ocon,2021-04-06_13:30:03,9.9,1.0,-0.199999999999999,15,0,87
7,Williams,2021-04-06_13:30:03,6.3,1.0,0.0,1,0,25
8,Raikkonen,2021-04-06_13:30:03,9.5,1.0,-0.1,15,0,20
9,Alonso,2021-04-06_13:30:03,15.4,1.0,-0.199999999999999,13,0,80
10,Giovinazzi,2021-04-06_13:30:03,7.9,1.0,0.0,8,0,50
11,Alfa Romeo,2021-04-06_13:30:03,8.9,1.0,0.0,1,0,0
12,Stroll,2021-04-06_13:30:03,13.8,1.0,-0.0999999999999996,10,0,57
13,Sainz,2021-04-06_13:30:03,14.4,1.0,0.0,26,0,79
14,Alpine,2021-04-06_13:30:03,15.2,1.0,-0.2,3,0,26
15,Norris,2021-04-06_13:30:03,13.3,1.0,0.2,54,44,0
16,Verstappen,2021-04-06_13:30:03,25.0,1.0,0.2,52,45,0
17,Haas,2021-04-06_13:30:03,6.1,1.0,0.0,1,0,18
18,Ferrari,2021-04-06_13:30:03,18.3,1.0,0.2,9,54,0
19,Leclerc,2021-04-06_13:30:03,17.2,1.0,0.4,30,16,0
20,AlphaTauri,2021-04-06_13:30:03,12.9,1.0,0.200000000000001,6,89,0
21,Perez,2021-04-06_13:30:03,18.3,1.0,-0.0999999999999979,32,21,0
22,Latifi,2021-04-06_13:30:03,6.5,1.0,0.0,4,0,44
23,Russell,2021-04-06_13:30:03,6.2,1.0,0.0,42,0,4
24,Aston Martin,2021-04-06_13:30:03,17.2,1.0,-0.4,7,0,91
25,Tsunoda,2021-04-06_13:30:03,9.2,1.0,0.4,30,3,0
26,Bottas,2021-04-06_13:30:03,23.5,1.0,-0.100000000000001,12,0,23
27,Mazepin,2021-04-06_13:30:03,5.4,1.0,-0.0999999999999996,5,0,42
28,Vettel,2021-04-06_13:30:03,15.7,1.0,-0.5,17,0,25
29,Gasly,2021-04-06_13:30:03,11.8,1.0,0.1,43,0,11
