,name,request_time,price,chance_of_playing,weekly_price_change,current_selection_percentage,probability_price_up_percentage,probability_price_down_percentage
0,Perez,2021-05-11_03:51:03,18.1,1.0,-0.1,30,0,11
1,Alpine,2021-05-11_03:51:03,15.3,1.0,0.1,4,0,9
2,Raikkonen,2021-05-11_03:51:03,9.3,1.0,0.0,13,0,47
3,Hamilton,2021-05-11_03:51:03,33.3,1.0,0.0,28,25,0
4,Tsunoda,2021-05-11_03:51:03,8.8,1.0,-0.1,26,0,35
5,Russell,2021-05-11_03:51:03,6.2,1.0,-0.1,42,0,0
6,Alonso,2021-05-11_03:51:03,14.9,1.0,-0.1,10,0,7
7,Verstappen,2021-05-11_03:51:03,25.3,1.0,0.0,56,89,0
8,McLaren,2021-05-11_03:51:03,18.9,1.0,0.0,30,1,0
9,Ricciardo,2021-05-11_03:51:03,16.2,1.0,0.0,29,18,0
10,Leclerc,2021-05-11_03:51:03,18.1,1.0,0.1,40,22,0
11,Ocon,2021-05-11_03:51:03,10.5,1.0,0.2,24,15,0
12,AlphaTauri,2021-05-11_03:51:03,12.8,1.0,0.0,6,0,60
13,Mazepin,2021-05-11_03:51:03,5.3,1.0,0.0,5,0,48
14,Gasly,2021-05-11_03:51:03,11.6,1.0,-0.1,40,0,55
15,Vettel,2021-05-11_03:51:03,15.0,1.0,0.0,12,0,91
16,Giovinazzi,2021-05-11_03:51:03,7.8,1.0,0.0,7,0,43
17,Mercedes,2021-05-11_03:51:03,37.6,1.0,0.0,10,0,73
18,Haas,2021-05-11_03:51:03,6.1,1.0,0.0,4,0,18
19,Aston Martin,2021-05-11_03:51:03,16.5,1.0,0.0,5,0,48
20,Latifi,2021-05-11_03:51:03,6.4,1.0,0.0,4,0,22
21,Schumacher,2021-05-11_03:51:03,5.8,1.0,0.0,28,95,0
22,Red Bull,2021-05-11_03:51:03,26.1,1.0,0.0,32,0,0
23,Stroll,2021-05-11_03:51:03,13.5,1.0,0.0,8,0,61
24,Williams,2021-05-11_03:51:03,6.3,1.0,0.0,4,0,39
25,Bottas,2021-05-11_03:51:03,23.2,1.0,-0.1,11,0,8
26,Ferrari,2021-05-11_03:51:03,18.7,1.0,0.0,11,11,0
27,Norris,2021-05-11_03:51:03,13.9,1.0,0.0,63,11,0
28,Sainz,2021-05-11_03:51:03,14.3,1.0,0.0,26,0,27
29,Alfa Romeo,2021-05-11_03:51:03,8.9,1.0,0.0,4,64,0
