,name,request_time,price,chance_of_playing,weekly_price_change,current_selection_percentage,probability_price_up_percentage,probability_price_down_percentage
0,AlphaTauri,2021-06-26_04:31:03,12.6,1.0,0.0,5,15,0
1,Perez,2021-06-26_04:31:03,18.7,1.0,0.3,35,3,0
2,Alpine,2021-06-26_04:31:03,15.3,1.0,0.1,4,0,46
3,Tsunoda,2021-06-26_04:31:03,8.4,1.0,0.0,22,0,21
4,Bottas,2021-06-26_04:31:03,23.0,1.0,-0.1,10,19,0
5,Ferrari,2021-06-26_04:31:03,18.9,1.0,-0.4,11,0,44
6,Red Bull,2021-06-26_04:31:03,26.4,1.0,0.2,34,59,0
7,Mazepin,2021-06-26_04:31:03,5.3,1.0,0.0,5,0,14
8,Raikkonen,2021-06-26_04:31:03,9.3,1.0,-0.1,13,0,43
9,Hamilton,2021-06-26_04:31:03,33.1,1.0,-0.1,25,0,65
10,Gasly,2021-06-26_04:31:03,11.8,1.0,0.2,44,56,0
11,Vettel,2021-06-26_04:31:03,15.1,1.0,0.1,13,93,0
12,Mercedes,2021-06-26_04:31:03,37.3,1.0,-0.1,9,0,97
13,Aston Martin,2021-06-26_04:31:03,16.4,1.0,0.0,5,63,0
14,Haas,2021-06-26_04:31:03,6.1,1.0,0.0,4,0,26
15,McLaren,2021-06-26_04:31:03,18.6,1.0,0.0,28,29,0
16,Ricciardo,2021-06-26_04:31:03,15.9,1.0,-0.2,26,11,0
17,Leclerc,2021-06-26_04:31:03,17.7,1.0,-0.3,36,0,39
18,Ocon,2021-06-26_04:31:03,10.4,1.0,-0.1,23,25,0
19,Schumacher,2021-06-26_04:31:03,5.8,1.0,0.0,26,0,18
20,Norris,2021-06-26_04:31:03,14.0,1.0,0.1,64,9,0
21,Giovinazzi,2021-06-26_04:31:03,8.0,1.0,0.0,9,73,0
22,Latifi,2021-06-26_04:31:03,6.4,1.0,0.0,4,0,41
23,Russell,2021-06-26_04:31:03,6.2,1.0,0.0,40,0,84
24,Alonso,2021-06-26_04:31:03,14.8,1.0,0.0,10,49,0
25,Verstappen,2021-06-26_04:31:03,25.6,1.0,0.1,59,29,0
26,Stroll,2021-06-26_04:31:03,13.3,1.0,-0.1,7,0,19
27,Williams,2021-06-26_04:31:03,6.3,1.0,0.0,4,0,45
28,Sainz,2021-06-26_04:31:03,14.5,1.0,-0.2,28,0,29
29,Alfa Romeo,2021-06-26_04:31:03,9.2,1.0,0.0,4,0,60
