,name,request_time,price,chance_of_playing,weekly_price_change,current_selection_percentage,probability_price_up_percentage,probability_price_down_percentage
0,AlphaTauri,2021-07-02_07:11:03,12.7,1.0,0.1,6,41,0
1,Perez,2021-07-02_07:11:03,18.8,1.0,0.4,37,63,0
2,Alpine,2021-07-02_07:11:03,15.1,1.0,-0.1,4,0,6
3,Vettel,2021-07-02_07:11:03,15.2,1.0,0.2,14,28,0
4,Tsunoda,2021-07-02_07:11:03,8.5,1.0,0.1,23,16,0
5,Bottas,2021-07-02_07:11:03,23.0,1.0,0.0,10,0,64
6,Ferrari,2021-07-02_07:11:03,18.7,1.0,-0.6,10,0,90
7,Red Bull,2021-07-02_07:11:03,26.6,1.0,0.1,35,11,0
8,Stroll,2021-07-02_07:11:03,13.3,1.0,0.0,8,22,0
9,Williams,2021-07-02_07:11:03,6.3,1.0,0.0,4,0,47
10,Mazepin,2021-07-02_07:11:03,5.3,1.0,0.0,5,0,11
11,Hamilton,2021-07-02_07:11:03,33.0,1.0,-0.1,24,0,4
12,Raikkonen,2021-07-02_07:11:03,9.3,1.0,0.0,13,0,66
13,Gasly,2021-07-02_07:11:03,11.9,1.0,0.1,46,49,0
14,Sainz,2021-07-02_07:11:03,14.3,1.0,-0.4,26,0,59
15,Alfa Romeo,2021-07-02_07:11:03,9.2,1.0,0.0,4,0,72
16,Mercedes,2021-07-02_07:11:03,37.2,1.0,-0.1,9,0,47
17,Haas,2021-07-02_07:11:03,6.1,1.0,0.0,4,0,26
18,Aston Martin,2021-07-02_07:11:03,16.4,1.0,0.0,5,65,0
19,McLaren,2021-07-02_07:11:03,18.6,1.0,0.0,28,36,0
20,Ricciardo,2021-07-02_07:11:03,15.9,1.0,0.0,26,0,14
21,Leclerc,2021-07-02_07:11:03,17.6,1.0,-0.4,34,0,90
22,Schumacher,2021-07-02_07:11:03,5.8,1.0,0.0,26,0,17
23,Ocon,2021-07-02_07:11:03,10.3,1.0,-0.1,21,0,50
24,Norris,2021-07-02_07:11:03,14.0,1.0,0.1,64,38,0
25,Giovinazzi,2021-07-02_07:11:03,8.0,1.0,0.0,9,37,0
26,Latifi,2021-07-02_07:11:03,6.4,1.0,0.0,4,0,49
27,Russell,2021-07-02_07:11:03,6.2,1.0,0.0,40,0,69
28,Alonso,2021-07-02_07:11:03,14.8,1.0,0.0,10,49,0
29,Verstappen,2021-07-02_07:11:03,25.6,1.0,0.1,60,94,0
