,name,request_time,price,chance_of_playing,weekly_price_change,current_selection_percentage,probability_price_up_percentage,probability_price_down_percentage
0,Mercedes,2021-03-31_22:50:02,37.9,1.0,-0.1,12,0,10
1,McLaren,2021-03-31_22:50:02,18.9,1.0,0.0,30,7,0
2,Red Bull,2021-03-31_22:50:02,26.0,1.0,0.100000000000001,31,48,0
3,Alpine,2021-03-31_22:50:02,15.3,1.0,-0.0999999999999996,3,0,85
4,Raikkonen,2021-03-31_22:50:02,9.6,1.0,0.0,15,0,77
5,Mazepin,2021-03-31_22:50:02,5.4,1.0,-0.0999999999999996,5,0,19
6,Tsunoda,2021-03-31_22:50:02,9.1,1.0,0.3,29,8,0
7,Latifi,2021-03-31_22:50:02,6.5,1.0,0.0,4,0,39
8,Alfa Romeo,2021-03-31_22:50:02,8.9,1.0,0.0,1,0,0
9,Stroll,2021-03-31_22:50:02,13.8,1.0,-0.0999999999999996,10,0,28
10,Leclerc,2021-03-31_22:50:02,17.1,1.0,0.300000000000001,30,58,0
11,Bottas,2021-03-31_22:50:02,23.5,1.0,-0.100000000000001,12,0,12
12,Norris,2021-03-31_22:50:02,13.2,1.0,0.0999999999999996,53,84,0
13,Ricciardo,2021-03-31_22:50:02,17.1,1.0,-0.199999999999999,37,0,44
14,Ocon,2021-03-31_22:50:02,9.9,1.0,-0.199999999999999,15,0,37
15,Alonso,2021-03-31_22:50:02,15.4,1.0,-0.199999999999999,13,0,25
16,Sainz,2021-03-31_22:50:02,14.4,1.0,0.0,27,0,56
17,Giovinazzi,2021-03-31_22:50:02,7.9,1.0,0.0,8,0,40
18,Gasly,2021-03-31_22:50:02,11.7,1.0,0.0,43,98,0
19,Verstappen,2021-03-31_22:50:02,25.0,1.0,0.2,52,17,0
20,Williams,2021-03-31_22:50:02,6.3,1.0,0.0,1,0,20
21,Russell,2021-03-31_22:50:02,6.2,1.0,0.0,42,0,7
22,Aston Martin,2021-03-31_22:50:02,17.2,1.0,-0.4,7,0,5
23,Haas,2021-03-31_22:50:02,6.1,1.0,0.0,1,0,14
24,Hamilton,2021-03-31_22:50:02,33.5,1.0,0.0,29,0,65
25,Schumacher,2021-03-31_22:50:02,5.8,1.0,0.0,27,0,8
26,Ferrari,2021-03-31_22:50:02,18.2,1.0,0.0999999999999979,8,62,0
27,AlphaTauri,2021-03-31_22:50:02,12.9,1.0,0.200000000000001,6,25,0
28,Perez,2021-03-31_22:50:02,18.3,1.0,-0.0999999999999979,32,0,3
29,Vettel,2021-03-31_22:50:02,15.8,1.0,-0.399999999999999,17,0,35
