,name,request_time,price,chance_of_playing,weekly_price_change,current_selection_percentage,probability_price_up_percentage,probability_price_down_percentage
0,Gasly,2021-08-01_20:01:02,11.9,1.0,0.0,45,0,27
1,Vettel,2021-08-01_20:01:02,15.2,1.0,0.0,13,0,56
2,Tsunoda,2021-08-01_20:01:02,8.5,1.0,0.0,22,0,96
3,Ocon,2021-08-01_20:01:02,10.0,1.0,-0.1,19,46,0
4,Bottas,2021-08-01_20:01:02,23.1,1.0,0.1,10,0,19
5,Ferrari,2021-08-01_20:01:02,18.8,1.0,0.1,11,7,0
6,Red Bull,2021-08-01_20:01:02,26.6,1.0,-0.1,35,0,55
7,Stroll,2021-08-01_20:01:02,13.3,1.0,0.0,8,0,3
8,Williams,2021-08-01_20:01:02,6.3,1.0,0.0,4,0,37
9,Norris,2021-08-01_20:01:02,14.2,1.0,0.1,66,0,5
10,Hamilton,2021-08-01_20:01:02,33.0,1.0,0.0,24,0,21
11,Mazepin,2021-08-01_20:01:02,5.3,1.0,0.0,5,4,0
12,Mercedes,2021-08-01_20:01:02,37.1,1.0,-0.1,8,0,0
13,AlphaTauri,2021-08-01_20:01:02,12.7,1.0,0.0,5,0,58
14,Aston Martin,2021-08-01_20:01:02,16.4,1.0,0.0,5,45,0
15,Haas,2021-08-01_20:01:02,6.1,1.0,0.0,4,0,26
16,Perez,2021-08-01_20:01:02,18.6,1.0,-0.2,34,0,24
17,Alpine,2021-08-01_20:01:02,15.1,1.0,0.0,4,0,68
18,Raikkonen,2021-08-01_20:01:02,9.3,1.0,0.0,13,0,66
19,Schumacher,2021-08-01_20:01:02,5.8,1.0,0.0,27,0,0
20,Giovinazzi,2021-08-01_20:01:02,8.1,1.0,0.1,9,0,77
21,Sainz,2021-08-01_20:01:02,14.5,1.0,0.1,28,3,0
22,Alfa Romeo,2021-08-01_20:01:02,9.2,1.0,0.0,4,0,88
23,McLaren,2021-08-01_20:01:02,18.7,1.0,0.1,28,1,0
24,Ricciardo,2021-08-01_20:01:02,15.8,1.0,0.0,25,0,71
25,Leclerc,2021-08-01_20:01:02,17.6,1.0,0.1,36,88,0
26,Latifi,2021-08-01_20:01:02,6.4,1.0,0.0,4,0,56
27,Russell,2021-08-01_20:01:02,6.2,1.0,0.0,42,3,0
28,Alonso,2021-08-01_20:01:02,14.9,1.0,0.1,11,17,0
29,Verstappen,2021-08-01_20:01:02,25.7,1.0,0.0,60,37,0
