,name,request_time,price,chance_of_playing,weekly_price_change,current_selection_percentage,probability_price_up_percentage,probability_price_down_percentage
0,Mercedes,2021-04-03_16:40:02,37.9,1.0,-0.1,12,0,23
1,McLaren,2021-04-03_16:40:02,18.9,1.0,0.0,30,32,0
2,Red Bull,2021-04-03_16:40:02,26.0,1.0,0.100000000000001,31,45,0
3,Schumacher,2021-04-03_16:40:02,5.8,1.0,0.0,27,0,12
4,Ricciardo,2021-04-03_16:40:02,17.1,1.0,-0.199999999999999,37,0,81
5,Ocon,2021-04-03_16:40:02,9.9,1.0,-0.199999999999999,15,0,66
6,Williams,2021-04-03_16:40:02,6.3,1.0,0.0,1,0,23
7,Raikkonen,2021-04-03_16:40:02,9.5,1.0,-0.1,15,0,2
8,Alonso,2021-04-03_16:40:02,15.4,1.0,-0.199999999999999,13,0,56
9,Giovinazzi,2021-04-03_16:40:02,7.9,1.0,0.0,8,0,46
10,Alfa Romeo,2021-04-03_16:40:02,8.9,1.0,0.0,1,0,0
11,Stroll,2021-04-03_16:40:02,13.8,1.0,-0.0999999999999996,10,0,45
12,Sainz,2021-04-03_16:40:02,14.4,1.0,0.0,26,0,69
13,Alpine,2021-04-03_16:40:02,15.2,1.0,-0.2,3,0,10
14,Norris,2021-04-03_16:40:02,13.3,1.0,0.2,54,20,0
15,Verstappen,2021-04-03_16:40:02,25.0,1.0,0.2,52,32,0
16,Haas,2021-04-03_16:40:02,6.1,1.0,0.0,1,0,16
17,Hamilton,2021-04-03_16:40:02,33.5,1.0,0.0,29,0,69
18,Ferrari,2021-04-03_16:40:02,18.2,1.0,0.0999999999999979,8,81,0
19,AlphaTauri,2021-04-03_16:40:02,12.9,1.0,0.200000000000001,6,40,0
20,Perez,2021-04-03_16:40:02,18.3,1.0,-0.0999999999999979,32,13,0
21,Latifi,2021-04-03_16:40:02,6.5,1.0,0.0,4,0,42
22,Russell,2021-04-03_16:40:02,6.2,1.0,0.0,42,0,6
23,Aston Martin,2021-04-03_16:40:02,17.2,1.0,-0.4,7,0,57
24,Leclerc,2021-04-03_16:40:02,17.1,1.0,0.300000000000001,30,90,0
25,Vettel,2021-04-03_16:40:02,15.8,1.0,-0.399999999999999,17,0,89
26,Bottas,2021-04-03_16:40:02,23.5,1.0,-0.100000000000001,12,0,18
27,Mazepin,2021-04-03_16:40:02,5.4,1.0,-0.0999999999999996,5,0,34
28,Tsunoda,2021-04-03_16:40:02,9.1,1.0,0.3,30,61,0
29,Gasly,2021-04-03_16:40:02,11.8,1.0,0.1,43,0,2
