,name,request_time,price,chance_of_playing,weekly_price_change,current_selection_percentage,probability_price_up_percentage,probability_price_down_percentage
0,AlphaTauri,2021-07-06_15:41:03,12.7,1.0,0.0,6,32,0
1,Norris,2021-07-06_15:41:03,14.1,1.0,0.1,65,2,0
2,Sainz,2021-07-06_15:41:03,14.3,1.0,0.0,27,39,0
3,Alfa Romeo,2021-07-06_15:41:03,9.2,1.0,0.0,4,0,74
4,Perez,2021-07-06_15:41:03,18.8,1.0,0.1,37,57,0
5,Alpine,2021-07-06_15:41:03,15.1,1.0,-0.1,4,0,59
6,Vettel,2021-07-06_15:41:03,15.2,1.0,0.0,13,0,6
7,Ocon,2021-07-06_15:41:03,10.1,1.0,-0.1,19,0,28
8,Red Bull,2021-07-06_15:41:03,26.7,1.0,0.1,36,2,0
9,Williams,2021-07-06_15:41:03,6.3,1.0,0.0,4,0,45
10,Giovinazzi,2021-07-06_15:41:03,8.0,1.0,0.0,9,66,0
11,Mazepin,2021-07-06_15:41:03,5.3,1.0,0.0,5,0,10
12,Raikkonen,2021-07-06_15:41:03,9.3,1.0,0.0,13,0,55
13,Hamilton,2021-07-06_15:41:03,33.0,1.0,-0.1,24,0,44
14,Gasly,2021-07-06_15:41:03,11.9,1.0,0.0,46,64,0
15,Tsunoda,2021-07-06_15:41:03,8.5,1.0,0.1,23,28,0
16,Bottas,2021-07-06_15:41:03,23.0,1.0,0.0,10,0,45
17,Ferrari,2021-07-06_15:41:03,18.7,1.0,0.0,11,0,40
18,Stroll,2021-07-06_15:41:03,13.3,1.0,0.0,8,39,0
19,Mercedes,2021-07-06_15:41:03,37.2,1.0,0.0,9,0,63
20,Aston Martin,2021-07-06_15:41:03,16.4,1.0,0.0,5,71,0
21,Haas,2021-07-06_15:41:03,6.1,1.0,0.0,4,0,27
22,McLaren,2021-07-06_15:41:03,18.6,1.0,0.0,27,0,41
23,Ricciardo,2021-07-06_15:41:03,15.8,1.0,-0.1,25,0,29
24,Schumacher,2021-07-06_15:41:03,5.8,1.0,0.0,27,0,0
25,Leclerc,2021-07-06_15:41:03,17.5,1.0,-0.1,34,0,9
26,Latifi,2021-07-06_15:41:03,6.4,1.0,0.0,4,0,54
27,Russell,2021-07-06_15:41:03,6.2,1.0,0.0,41,0,49
28,Alonso,2021-07-06_15:41:03,14.8,1.0,0.0,10,21,0
29,Verstappen,2021-07-06_15:41:03,25.7,1.0,0.1,60,44,0
