,name,request_time,price,chance_of_playing,weekly_price_change,current_selection_percentage,probability_price_up_percentage,probability_price_down_percentage
0,AlphaTauri,2021-05-10_16:01:03,12.8,1.0,0.0,6,0,52
1,Perez,2021-05-10_16:01:03,18.1,1.0,-0.1,30,0,3
2,Alpine,2021-05-10_16:01:03,15.3,1.0,0.1,4,0,7
3,Raikkonen,2021-05-10_16:01:03,9.3,1.0,0.0,13,0,47
4,Hamilton,2021-05-10_16:01:03,33.3,1.0,0.0,28,25,0
5,Tsunoda,2021-05-10_16:01:03,8.8,1.0,-0.1,26,0,22
6,Russell,2021-05-10_16:01:03,6.3,1.0,0.0,42,0,96
7,Alonso,2021-05-10_16:01:03,14.9,1.0,-0.1,10,0,0
8,Verstappen,2021-05-10_16:01:03,25.3,1.0,0.0,56,85,0
9,McLaren,2021-05-10_16:01:03,18.9,1.0,0.0,30,4,0
10,Ricciardo,2021-05-10_16:01:03,16.2,1.0,0.0,29,14,0
11,Ocon,2021-05-10_16:01:03,10.4,1.0,0.1,23,96,0
12,Leclerc,2021-05-10_16:01:03,18.1,1.0,0.1,40,10,0
13,Mazepin,2021-05-10_16:01:03,5.3,1.0,0.0,5,0,47
14,Gasly,2021-05-10_16:01:03,11.6,1.0,-0.1,40,0,45
15,Vettel,2021-05-10_16:01:03,15.0,1.0,0.0,12,0,87
16,Mercedes,2021-05-10_16:01:03,37.6,1.0,0.0,10,0,71
17,Haas,2021-05-10_16:01:03,6.1,1.0,0.0,4,0,19
18,Aston Martin,2021-05-10_16:01:03,16.5,1.0,0.0,5,0,43
19,Latifi,2021-05-10_16:01:03,6.4,1.0,0.0,4,0,22
20,Schumacher,2021-05-10_16:01:03,5.8,1.0,0.0,28,84,0
21,Red Bull,2021-05-10_16:01:03,26.1,1.0,0.0,32,0,2
22,Stroll,2021-05-10_16:01:03,13.5,1.0,0.0,8,0,56
23,Williams,2021-05-10_16:01:03,6.3,1.0,0.0,4,0,39
24,Giovinazzi,2021-05-10_16:01:03,7.8,1.0,0.0,7,0,43
25,Bottas,2021-05-10_16:01:03,23.2,1.0,-0.1,11,0,4
26,Ferrari,2021-05-10_16:01:03,18.7,1.0,0.0,11,3,0
27,Norris,2021-05-10_16:01:03,13.9,1.0,0.0,63,10,0
28,Sainz,2021-05-10_16:01:03,14.3,1.0,0.0,26,0,21
29,Alfa Romeo,2021-05-10_16:01:03,8.9,1.0,0.0,4,58,0
