,name,request_time,price,chance_of_playing,weekly_price_change,current_selection_percentage,probability_price_up_percentage,probability_price_down_percentage
0,AlphaTauri,2021-05-21_07:51:02,12.7,1.0,-0.1,5,0,15
1,Perez,2021-05-21_07:51:02,18.1,1.0,-0.1,29,0,81
2,Alpine,2021-05-21_07:51:02,15.3,1.0,0.1,4,0,44
3,Gasly,2021-05-21_07:51:02,11.5,1.0,-0.2,39,2,0
4,Mazepin,2021-05-21_07:51:02,5.3,1.0,0.0,5,0,48
5,Raikkonen,2021-05-21_07:51:02,9.3,1.0,0.0,13,0,29
6,Hamilton,2021-05-21_07:51:02,33.3,1.0,0.0,28,24,0
7,Vettel,2021-05-21_07:51:02,14.9,1.0,-0.1,11,0,25
8,Tsunoda,2021-05-21_07:51:02,8.7,1.0,-0.2,24,0,80
9,Verstappen,2021-05-21_07:51:02,25.4,1.0,0.1,57,5,0
10,Mercedes,2021-05-21_07:51:02,37.6,1.0,0.0,10,0,99
11,Aston Martin,2021-05-21_07:51:02,16.5,1.0,0.0,5,0,85
12,Haas,2021-05-21_07:51:02,6.1,1.0,0.0,4,0,14
13,Latifi,2021-05-21_07:51:02,6.4,1.0,0.0,4,0,25
14,Russell,2021-05-21_07:51:02,6.2,1.0,-0.1,42,0,4
15,Alonso,2021-05-21_07:51:02,14.9,1.0,-0.1,10,0,66
16,McLaren,2021-05-21_07:51:02,18.9,1.0,0.0,29,0,70
17,Ricciardo,2021-05-21_07:51:02,16.2,1.0,0.0,29,59,0
18,Leclerc,2021-05-21_07:51:02,18.2,1.0,0.2,41,15,0
19,Ocon,2021-05-21_07:51:02,10.6,1.0,0.3,25,30,0
20,Schumacher,2021-05-21_07:51:02,5.9,1.0,0.1,29,36,0
21,Bottas,2021-05-21_07:51:02,23.2,1.0,-0.1,11,0,42
22,Ferrari,2021-05-21_07:51:02,18.9,1.0,0.2,11,2,0
23,Red Bull,2021-05-21_07:51:02,26.1,1.0,0.0,31,0,36
24,Stroll,2021-05-21_07:51:02,13.4,1.0,-0.1,8,0,5
25,Williams,2021-05-21_07:51:02,6.3,1.0,0.0,4,0,34
26,Norris,2021-05-21_07:51:02,13.9,1.0,0.0,63,14,0
27,Giovinazzi,2021-05-21_07:51:02,7.8,1.0,0.0,7,0,35
28,Sainz,2021-05-21_07:51:02,14.3,1.0,0.0,26,8,0
29,Alfa Romeo,2021-05-21_07:51:02,9.1,1.0,0.2,4,41,0
