,name,request_time,price,chance_of_playing,weekly_price_change,current_selection_percentage,probability_price_up_percentage,probability_price_down_percentage
0,Stroll,2021-07-13_10:31:03,13.3,1.0,0.0,8,33,0
1,Williams,2021-07-13_10:31:03,6.3,1.0,0.0,4,0,46
2,Norris,2021-07-13_10:31:03,14.1,1.0,0.1,65,19,0
3,Gasly,2021-07-13_10:31:03,11.9,1.0,0.0,46,69,0
4,Vettel,2021-07-13_10:31:03,15.2,1.0,0.0,13,0,16
5,Tsunoda,2021-07-13_10:31:03,8.5,1.0,0.1,23,24,0
6,Ocon,2021-07-13_10:31:03,10.1,1.0,-0.1,19,0,57
7,Bottas,2021-07-13_10:31:03,23.0,1.0,0.0,10,0,44
8,Ferrari,2021-07-13_10:31:03,18.7,1.0,0.0,11,0,56
9,Red Bull,2021-07-13_10:31:03,26.7,1.0,0.1,36,19,0
10,Hamilton,2021-07-13_10:31:03,33.0,1.0,-0.1,24,0,56
11,Mazepin,2021-07-13_10:31:03,5.3,1.0,0.0,5,0,10
12,Mercedes,2021-07-13_10:31:03,37.2,1.0,0.0,9,0,77
13,Haas,2021-07-13_10:31:03,6.1,1.0,0.0,4,0,27
14,Aston Martin,2021-07-13_10:31:03,16.4,1.0,0.0,5,71,0
15,AlphaTauri,2021-07-13_10:31:03,12.7,1.0,0.0,6,31,0
16,Perez,2021-07-13_10:31:03,18.8,1.0,0.1,37,61,0
17,Alpine,2021-07-13_10:31:03,15.1,1.0,-0.1,4,0,67
18,Raikkonen,2021-07-13_10:31:03,9.3,1.0,0.0,13,0,58
19,Sainz,2021-07-13_10:31:03,14.3,1.0,0.0,27,57,0
20,Alfa Romeo,2021-07-13_10:31:03,9.2,1.0,0.0,4,0,77
21,McLaren,2021-07-13_10:31:03,18.6,1.0,0.0,27,0,40
22,Ricciardo,2021-07-13_10:31:03,15.8,1.0,-0.1,25,0,47
23,Leclerc,2021-07-13_10:31:03,17.5,1.0,-0.1,34,0,28
24,Schumacher,2021-07-13_10:31:03,5.8,1.0,0.0,27,3,0
25,Giovinazzi,2021-07-13_10:31:03,8.0,1.0,0.0,9,77,0
26,Latifi,2021-07-13_10:31:03,6.4,1.0,0.0,4,0,56
27,Russell,2021-07-13_10:31:03,6.2,1.0,0.0,41,0,45
28,Alonso,2021-07-13_10:31:03,14.8,1.0,0.0,10,30,0
29,Verstappen,2021-07-13_10:31:03,25.7,1.0,0.1,61,58,0
