,name,request_time,price,chance_of_playing,weekly_price_change,current_selection_percentage,probability_price_up_percentage,probability_price_down_percentage
0,Norris,2021-08-30_00:11:03,14.2,1.0,0.0,66,14,0
1,Gasly,2021-08-30_00:11:03,11.9,1.0,0.0,45,0,3
2,Vettel,2021-08-30_00:11:03,15.2,1.0,0.0,14,21,0
3,Tsunoda,2021-08-30_00:11:03,8.4,1.0,-0.1,21,0,46
4,Ocon,2021-08-30_00:11:03,10.2,1.0,0.2,20,8,0
5,Bottas,2021-08-30_00:11:03,23.0,1.0,0.0,10,0,37
6,Williams,2021-08-30_00:11:03,6.3,1.0,0.0,4,0,22
7,Ferrari,2021-08-30_00:11:03,18.8,1.0,0.1,11,0,62
8,Red Bull,2021-08-30_00:11:03,26.6,1.0,0.1,35,4,0
9,Stroll,2021-08-30_00:11:03,13.3,1.0,0.0,7,0,7
10,Mazepin,2021-08-30_00:11:03,5.3,1.0,0.0,5,0,10
11,Mercedes,2021-08-30_00:11:03,37.1,1.0,0.0,8,0,11
12,AlphaTauri,2021-08-30_00:11:03,12.7,1.0,0.0,5,0,83
13,Haas,2021-08-30_00:11:03,6.1,1.0,0.0,4,0,26
14,Aston Martin,2021-08-30_00:11:03,16.5,1.0,0.1,5,0,49
15,Perez,2021-08-30_00:11:03,18.5,1.0,-0.2,34,47,0
16,Alpine,2021-08-30_00:11:03,15.1,1.0,0.0,4,54,0
17,Raikkonen,2021-08-30_00:11:03,9.2,1.0,-0.1,12,0,4
18,Hamilton,2021-08-30_00:11:03,33.0,1.0,0.0,24,0,11
19,McLaren,2021-08-30_00:11:03,18.7,1.0,0.1,28,0,51
20,Ricciardo,2021-08-30_00:11:03,15.7,1.0,-0.1,24,0,39
21,Schumacher,2021-08-30_00:11:03,5.8,1.0,0.0,26,0,23
22,Leclerc,2021-08-30_00:11:03,17.6,1.0,0.0,35,0,40
23,Giovinazzi,2021-08-30_00:11:03,8.0,1.0,-0.1,9,0,44
24,Sainz,2021-08-30_00:11:03,14.5,1.0,0.1,29,54,0
25,Alfa Romeo,2021-08-30_00:11:03,9.2,1.0,0.0,4,0,98
26,Latifi,2021-08-30_00:11:03,6.4,1.0,0.0,4,0,48
27,Russell,2021-08-30_00:11:03,6.2,1.0,0.0,42,19,0
28,Alonso,2021-08-30_00:11:03,15.0,1.0,0.1,11,54,0
29,Verstappen,2021-08-30_00:11:03,25.7,1.0,0.0,61,54,0
