,name,request_time,price,chance_of_playing,weekly_price_change,current_selection_percentage,probability_price_up_percentage,probability_price_down_percentage
0,AlphaTauri,2021-06-25_00:21:03,12.6,1.0,0.0,5,4,0
1,Perez,2021-06-25_00:21:03,18.6,1.0,0.2,35,47,0
2,Alpine,2021-06-25_00:21:03,15.3,1.0,0.1,4,0,9
3,Williams,2021-06-25_00:21:03,6.3,1.0,0.0,4,0,45
4,Norris,2021-06-25_00:21:03,13.9,1.0,0.0,64,95,0
5,Sainz,2021-06-25_00:21:03,14.6,1.0,-0.1,29,0,50
6,Mazepin,2021-06-25_00:21:03,5.3,1.0,0.0,5,0,15
7,Raikkonen,2021-06-25_00:21:03,9.3,1.0,-0.1,13,0,32
8,Hamilton,2021-06-25_00:21:03,33.1,1.0,-0.1,25,0,51
9,Gasly,2021-06-25_00:21:03,11.8,1.0,0.2,44,27,0
10,Vettel,2021-06-25_00:21:03,15.1,1.0,0.1,13,49,0
11,Tsunoda,2021-06-25_00:21:03,8.4,1.0,0.0,22,0,20
12,Verstappen,2021-06-25_00:21:03,25.6,1.0,0.1,59,9,0
13,Alfa Romeo,2021-06-25_00:21:03,9.2,1.0,0.0,4,0,55
14,Red Bull,2021-06-25_00:21:03,26.4,1.0,0.2,34,17,0
15,Mercedes,2021-06-25_00:21:03,37.3,1.0,-0.1,9,0,76
16,Aston Martin,2021-06-25_00:21:03,16.4,1.0,0.0,5,56,0
17,Haas,2021-06-25_00:21:03,6.1,1.0,0.0,4,0,25
18,Latifi,2021-06-25_00:21:03,6.4,1.0,0.0,4,0,40
19,Russell,2021-06-25_00:21:03,6.2,1.0,0.0,40,0,85
20,Alonso,2021-06-25_00:21:03,14.8,1.0,0.0,10,48,0
21,McLaren,2021-06-25_00:21:03,18.6,1.0,0.0,27,0,9
22,Giovinazzi,2021-06-25_00:21:03,8.0,1.0,0.0,9,71,0
23,Ricciardo,2021-06-25_00:21:03,15.9,1.0,-0.2,26,0,28
24,Schumacher,2021-06-25_00:21:03,5.8,1.0,0.0,26,0,16
25,Leclerc,2021-06-25_00:21:03,17.8,1.0,-0.2,36,0,48
26,Ocon,2021-06-25_00:21:03,10.4,1.0,-0.1,23,36,0
27,Bottas,2021-06-25_00:21:03,23.0,1.0,-0.1,10,53,0
28,Ferrari,2021-06-25_00:21:03,19.0,1.0,-0.3,12,0,33
29,Stroll,2021-06-25_00:21:03,13.3,1.0,-0.1,7,0,23
