,name,request_time,price,chance_of_playing,weekly_price_change,current_selection_percentage,probability_price_up_percentage,probability_price_down_percentage
0,AlphaTauri,2021-06-05_09:21:02,12.6,1.0,-0.2,5,0,56
1,Perez,2021-06-05_09:21:02,18.0,1.0,-0.2,30,39,0
2,Alpine,2021-06-05_09:21:02,15.2,1.0,0.0,4,0,89
3,Williams,2021-06-05_09:21:02,6.3,1.0,0.0,4,0,37
4,Norris,2021-06-05_09:21:02,13.9,1.0,0.0,63,63,0
5,Sainz,2021-06-05_09:21:02,14.7,1.0,0.2,31,78,0
6,Alfa Romeo,2021-06-05_09:21:02,9.2,1.0,0.3,4,0,13
7,Mazepin,2021-06-05_09:21:02,5.3,1.0,0.0,5,0,17
8,Raikkonen,2021-06-05_09:21:02,9.4,1.0,0.1,14,6,0
9,Hamilton,2021-06-05_09:21:02,33.2,1.0,-0.1,26,0,26
10,Gasly,2021-06-05_09:21:02,11.5,1.0,-0.2,40,86,0
11,Vettel,2021-06-05_09:21:02,14.9,1.0,-0.1,12,8,0
12,Tsunoda,2021-06-05_09:21:02,8.4,1.0,-0.2,22,0,10
13,Verstappen,2021-06-05_09:21:02,25.5,1.0,0.1,58,30,0
14,Red Bull,2021-06-05_09:21:02,26.0,1.0,-0.1,31,22,0
15,Mercedes,2021-06-05_09:21:02,37.4,1.0,-0.1,10,0,52
16,Aston Martin,2021-06-05_09:21:02,16.4,1.0,-0.1,5,1,0
17,Haas,2021-06-05_09:21:02,6.1,1.0,0.0,4,0,22
18,Latifi,2021-06-05_09:21:02,6.4,1.0,0.0,4,0,29
19,Russell,2021-06-05_09:21:02,6.2,1.0,-0.1,42,0,10
20,Alonso,2021-06-05_09:21:02,14.8,1.0,-0.2,9,0,93
21,McLaren,2021-06-05_09:21:02,18.6,1.0,-0.1,27,0,10
22,Giovinazzi,2021-06-05_09:21:02,8.0,1.0,0.2,9,50,0
23,Ricciardo,2021-06-05_09:21:02,16.1,1.0,-0.1,27,0,71
24,Schumacher,2021-06-05_09:21:02,5.8,1.0,-0.1,26,0,36
25,Leclerc,2021-06-05_09:21:02,18.3,1.0,0.3,42,34,0
26,Ocon,2021-06-05_09:21:02,10.5,1.0,0.2,23,0,64
27,Bottas,2021-06-05_09:21:02,23.1,1.0,-0.1,10,0,53
28,Ferrari,2021-06-05_09:21:02,19.7,1.0,0.2,15,19,0
29,Stroll,2021-06-05_09:21:02,13.4,1.0,-0.1,8,0,63
