,name,request_time,price,chance_of_playing,weekly_price_change,current_selection_percentage,probability_price_up_percentage,probability_price_down_percentage
0,AlphaTauri,2021-06-05_08:21:03,12.6,1.0,-0.2,5,0,57
1,Perez,2021-06-05_08:21:03,18.0,1.0,-0.2,29,34,0
2,Alpine,2021-06-05_08:21:03,15.2,1.0,0.0,4,0,92
3,Hamilton,2021-06-05_08:21:03,33.2,1.0,-0.1,26,0,23
4,Raikkonen,2021-06-05_08:21:03,9.4,1.0,0.1,14,7,0
5,Gasly,2021-06-05_08:21:03,11.5,1.0,-0.2,40,86,0
6,Red Bull,2021-06-05_08:21:03,26.0,1.0,-0.1,31,19,0
7,Stroll,2021-06-05_08:21:03,13.4,1.0,-0.1,8,0,62
8,Leclerc,2021-06-05_08:21:03,18.3,1.0,0.3,42,36,0
9,Bottas,2021-06-05_08:21:03,23.1,1.0,-0.1,10,0,52
10,Ferrari,2021-06-05_08:21:03,19.7,1.0,0.2,15,19,0
11,Mazepin,2021-06-05_08:21:03,5.3,1.0,0.0,5,0,17
12,Vettel,2021-06-05_08:21:03,14.9,1.0,-0.1,12,7,0
13,Tsunoda,2021-06-05_08:21:03,8.4,1.0,-0.2,22,0,9
14,Russell,2021-06-05_08:21:03,6.2,1.0,-0.1,42,0,10
15,Alonso,2021-06-05_08:21:03,14.8,1.0,-0.2,9,0,91
16,Verstappen,2021-06-05_08:21:03,25.5,1.0,0.1,58,28,0
17,McLaren,2021-06-05_08:21:03,18.6,1.0,-0.1,27,0,9
18,Ricciardo,2021-06-05_08:21:03,16.1,1.0,-0.1,27,0,71
19,Ocon,2021-06-05_08:21:03,10.5,1.0,0.2,23,0,65
20,Schumacher,2021-06-05_08:21:03,5.8,1.0,-0.1,26,0,35
21,Haas,2021-06-05_08:21:03,6.1,1.0,0.0,4,0,22
22,Latifi,2021-06-05_08:21:03,6.4,1.0,0.0,4,0,29
23,Williams,2021-06-05_08:21:03,6.3,1.0,0.0,4,0,36
24,Giovinazzi,2021-06-05_08:21:03,8.0,1.0,0.2,9,47,0
25,Mercedes,2021-06-05_08:21:03,37.4,1.0,-0.1,10,0,50
26,Aston Martin,2021-06-05_08:21:03,16.4,1.0,-0.1,5,1,0
27,Norris,2021-06-05_08:21:03,13.9,1.0,0.0,63,64,0
28,Sainz,2021-06-05_08:21:03,14.7,1.0,0.2,31,76,0
29,Alfa Romeo,2021-06-05_08:21:03,9.2,1.0,0.3,4,0,13
