,name,request_time,price,chance_of_playing,weekly_price_change,current_selection_percentage,probability_price_up_percentage,probability_price_down_percentage
0,Alpine,2021-05-26_05:01:03,15.2,1.0,0.0,4,0,59
1,Gasly,2021-05-26_05:01:03,11.5,1.0,-0.2,40,25,0
2,Verstappen,2021-05-26_05:01:03,25.4,1.0,0.1,57,70,0
3,Giovinazzi,2021-05-26_05:01:03,7.9,1.0,0.1,9,42,0
4,Sainz,2021-05-26_05:01:03,14.6,1.0,0.1,30,75,0
5,Alfa Romeo,2021-05-26_05:01:03,9.2,1.0,0.3,4,0,4
6,AlphaTauri,2021-05-26_05:01:03,12.6,1.0,-0.2,5,0,33
7,Perez,2021-05-26_05:01:03,18.0,1.0,-0.2,29,0,60
8,Mazepin,2021-05-26_05:01:03,5.3,1.0,0.0,5,0,14
9,Raikkonen,2021-05-26_05:01:03,9.4,1.0,0.1,14,38,0
10,Hamilton,2021-05-26_05:01:03,33.3,1.0,0.0,27,0,49
11,Vettel,2021-05-26_05:01:03,14.9,1.0,-0.1,12,0,12
12,Tsunoda,2021-05-26_05:01:03,8.5,1.0,-0.1,23,0,38
13,Red Bull,2021-05-26_05:01:03,26.0,1.0,-0.1,31,0,58
14,Stroll,2021-05-26_05:01:03,13.4,1.0,-0.1,8,0,42
15,Williams,2021-05-26_05:01:03,6.3,1.0,0.0,4,0,34
16,Norris,2021-05-26_05:01:03,13.9,1.0,0.0,63,33,0
17,Alonso,2021-05-26_05:01:03,14.8,1.0,-0.2,10,0,60
18,McLaren,2021-05-26_05:01:03,18.7,1.0,-0.2,28,0,69
19,Mercedes,2021-05-26_05:01:03,37.5,1.0,-0.1,10,0,91
20,Aston Martin,2021-05-26_05:01:03,16.4,1.0,-0.1,5,0,0
21,Haas,2021-05-26_05:01:03,6.1,1.0,0.0,4,0,18
22,Latifi,2021-05-26_05:01:03,6.4,1.0,0.0,4,0,24
23,Russell,2021-05-26_05:01:03,6.2,1.0,-0.1,42,1,0
24,Ricciardo,2021-05-26_05:01:03,16.2,1.0,0.0,28,0,66
25,Ocon,2021-05-26_05:01:03,10.5,1.0,0.2,23,0,34
26,Schumacher,2021-05-26_05:01:03,5.8,1.0,-0.1,27,0,3
27,Leclerc,2021-05-26_05:01:03,18.3,1.0,0.3,42,67,0
28,Bottas,2021-05-26_05:01:03,23.1,1.0,-0.1,10,0,14
29,Ferrari,2021-05-26_05:01:03,19.6,1.0,0.1,15,77,0
