,name,request_time,price,chance_of_playing,weekly_price_change,current_selection_percentage,probability_price_up_percentage,probability_price_down_percentage
0,Alpine,2021-06-20_08:21:02,15.3,1.0,0.1,4,41,0
1,Bottas,2021-06-20_08:21:02,23.0,1.0,-0.1,10,84,0
2,Ferrari,2021-06-20_08:21:02,19.2,1.0,-0.5,13,0,39
3,Stroll,2021-06-20_08:21:02,13.3,1.0,-0.1,7,0,17
4,Williams,2021-06-20_08:21:02,6.3,1.0,0.0,4,0,45
5,Norris,2021-06-20_08:21:02,13.9,1.0,0.0,63,53,0
6,AlphaTauri,2021-06-20_08:21:02,12.6,1.0,0.0,5,7,0
7,Perez,2021-06-20_08:21:02,18.4,1.0,0.2,33,83,0
8,Mazepin,2021-06-20_08:21:02,5.3,1.0,0.0,5,0,22
9,Raikkonen,2021-06-20_08:21:02,9.3,1.0,-0.1,13,0,24
10,Hamilton,2021-06-20_08:21:02,33.1,1.0,-0.1,25,0,12
11,Gasly,2021-06-20_08:21:02,11.8,1.0,0.2,43,0,26
12,Vettel,2021-06-20_08:21:02,15.0,1.0,0.1,13,75,0
13,Tsunoda,2021-06-20_08:21:02,8.4,1.0,0.0,22,9,0
14,Red Bull,2021-06-20_08:21:02,26.3,1.0,0.2,33,14,0
15,Sainz,2021-06-20_08:21:02,14.7,1.0,0.0,30,0,27
16,Alfa Romeo,2021-06-20_08:21:02,9.2,1.0,0.0,4,0,44
17,Giovinazzi,2021-06-20_08:21:02,8.0,1.0,0.0,9,60,0
18,Mercedes,2021-06-20_08:21:02,37.3,1.0,-0.1,9,0,36
19,Aston Martin,2021-06-20_08:21:02,16.4,1.0,0.0,5,39,0
20,Haas,2021-06-20_08:21:02,6.1,1.0,0.0,4,0,23
21,Latifi,2021-06-20_08:21:02,6.4,1.0,0.0,4,0,36
22,Russell,2021-06-20_08:21:02,6.2,1.0,0.0,40,0,92
23,Alonso,2021-06-20_08:21:02,14.8,1.0,0.0,10,51,0
24,Verstappen,2021-06-20_08:21:02,25.5,1.0,0.0,58,67,0
25,McLaren,2021-06-20_08:21:02,18.6,1.0,0.0,27,0,57
26,Ricciardo,2021-06-20_08:21:02,15.9,1.0,-0.2,26,0,44
27,Leclerc,2021-06-20_08:21:02,18.0,1.0,-0.3,38,0,59
28,Ocon,2021-06-20_08:21:02,10.4,1.0,-0.1,23,81,0
29,Schumacher,2021-06-20_08:21:02,5.8,1.0,0.0,26,0,16
