,name,request_time,price,chance_of_playing,weekly_price_change,current_selection_percentage,probability_price_up_percentage,probability_price_down_percentage
0,AlphaTauri,2021-06-14_23:21:02,12.6,1.0,0.0,5,8,0
1,Perez,2021-06-14_23:21:02,18.3,1.0,0.1,32,81,0
2,Alpine,2021-06-14_23:21:02,15.1,1.0,-0.1,4,0,26
3,Williams,2021-06-14_23:21:02,6.3,1.0,0.0,4,0,45
4,Norris,2021-06-14_23:21:02,13.9,1.0,0.0,63,56,0
5,Mazepin,2021-06-14_23:21:02,5.3,1.0,0.0,5,0,24
6,Raikkonen,2021-06-14_23:21:02,9.3,1.0,-0.1,13,0,12
7,Hamilton,2021-06-14_23:21:02,33.1,1.0,-0.1,25,0,14
8,Gasly,2021-06-14_23:21:02,11.7,1.0,0.2,43,76,0
9,Vettel,2021-06-14_23:21:02,15.0,1.0,0.1,12,47,0
10,Tsunoda,2021-06-14_23:21:02,8.4,1.0,-0.2,22,17,0
11,Red Bull,2021-06-14_23:21:02,26.2,1.0,0.1,32,16,0
12,Sainz,2021-06-14_23:21:02,14.7,1.0,0.2,31,71,0
13,Alfa Romeo,2021-06-14_23:21:02,9.2,1.0,0.0,4,0,37
14,Mercedes,2021-06-14_23:21:02,37.3,1.0,-0.2,9,0,49
15,Haas,2021-06-14_23:21:02,6.1,1.0,0.0,4,0,26
16,Aston Martin,2021-06-14_23:21:02,16.4,1.0,0.0,5,31,0
17,Latifi,2021-06-14_23:21:02,6.4,1.0,0.0,4,0,32
18,Russell,2021-06-14_23:21:02,6.2,1.0,0.0,40,0,74
19,Alonso,2021-06-14_23:21:02,14.7,1.0,-0.1,9,0,4
20,Verstappen,2021-06-14_23:21:02,25.5,1.0,0.1,58,55,0
21,McLaren,2021-06-14_23:21:02,18.6,1.0,-0.1,27,0,66
22,Giovinazzi,2021-06-14_23:21:02,8.0,1.0,0.2,9,76,0
23,Ricciardo,2021-06-14_23:21:02,16.0,1.0,-0.2,26,0,91
24,Ocon,2021-06-14_23:21:02,10.4,1.0,-0.1,22,0,66
25,Schumacher,2021-06-14_23:21:02,5.8,1.0,-0.1,26,0,36
26,Leclerc,2021-06-14_23:21:02,18.2,1.0,-0.1,41,0,5
27,Bottas,2021-06-14_23:21:02,23.0,1.0,-0.2,10,0,65
28,Ferrari,2021-06-14_23:21:02,19.6,1.0,-0.1,14,0,39
29,Stroll,2021-06-14_23:21:02,13.4,1.0,0.0,8,0,97
