,name,request_time,price,chance_of_playing,weekly_price_change,current_selection_percentage,probability_price_up_percentage,probability_price_down_percentage
0,AlphaTauri,2021-06-28_05:01:02,12.7,1.0,0.1,6,38,0
1,Perez,2021-06-28_05:01:02,18.8,1.0,0.4,36,30,0
2,Alpine,2021-06-28_05:01:02,15.2,1.0,-0.1,4,0,90
3,Williams,2021-06-28_05:01:02,6.3,1.0,0.0,4,0,45
4,Norris,2021-06-28_05:01:02,14.0,1.0,0.1,64,20,0
5,Bottas,2021-06-28_05:01:02,23.0,1.0,0.0,10,0,59
6,Ferrari,2021-06-28_05:01:02,18.7,1.0,-0.6,10,0,83
7,Stroll,2021-06-28_05:01:02,13.3,1.0,0.0,8,15,0
8,Mazepin,2021-06-28_05:01:02,5.3,1.0,0.0,5,0,13
9,Hamilton,2021-06-28_05:01:02,33.1,1.0,0.0,25,0,79
10,Raikkonen,2021-06-28_05:01:02,9.3,1.0,0.0,13,0,72
11,Gasly,2021-06-28_05:01:02,11.9,1.0,0.1,46,44,0
12,Vettel,2021-06-28_05:01:02,15.2,1.0,0.2,14,47,0
13,Tsunoda,2021-06-28_05:01:02,8.4,1.0,0.0,23,99,0
14,Red Bull,2021-06-28_05:01:02,26.5,1.0,0.3,35,65,0
15,Sainz,2021-06-28_05:01:02,14.3,1.0,-0.4,26,0,60
16,Alfa Romeo,2021-06-28_05:01:02,9.2,1.0,0.0,4,0,68
17,Mercedes,2021-06-28_05:01:02,37.2,1.0,-0.1,9,0,32
18,Aston Martin,2021-06-28_05:01:02,16.4,1.0,0.0,5,73,0
19,Haas,2021-06-28_05:01:02,6.1,1.0,0.0,4,0,27
20,Latifi,2021-06-28_05:01:02,6.4,1.0,0.0,4,0,47
21,Russell,2021-06-28_05:01:02,6.2,1.0,0.0,40,0,70
22,Alonso,2021-06-28_05:01:02,14.8,1.0,0.0,10,44,0
23,Verstappen,2021-06-28_05:01:02,25.6,1.0,0.1,60,72,0
24,McLaren,2021-06-28_05:01:02,18.6,1.0,0.0,28,62,0
25,Giovinazzi,2021-06-28_05:01:02,8.0,1.0,0.0,9,45,0
26,Ricciardo,2021-06-28_05:01:02,15.9,1.0,0.0,26,30,0
27,Leclerc,2021-06-28_05:01:02,17.6,1.0,-0.4,34,0,72
28,Schumacher,2021-06-28_05:01:02,5.8,1.0,0.0,26,0,24
29,Ocon,2021-06-28_05:01:02,10.3,1.0,-0.1,21,0,8
