,name,request_time,price,chance_of_playing,weekly_price_change,current_selection_percentage,probability_price_up_percentage,probability_price_down_percentage
0,AlphaTauri,2021-05-25_12:31:02,12.6,1.0,-0.2,5,0,31
1,Perez,2021-05-25_12:31:02,18.0,1.0,-0.2,29,0,61
2,Alpine,2021-05-25_12:31:02,15.2,1.0,0.0,4,0,58
3,Gasly,2021-05-25_12:31:02,11.5,1.0,-0.2,40,21,0
4,Verstappen,2021-05-25_12:31:02,25.4,1.0,0.1,57,67,0
5,Giovinazzi,2021-05-25_12:31:02,7.9,1.0,0.1,9,35,0
6,Sainz,2021-05-25_12:31:02,14.6,1.0,0.1,30,67,0
7,Alfa Romeo,2021-05-25_12:31:02,9.2,1.0,0.3,4,0,4
8,Mazepin,2021-05-25_12:31:02,5.3,1.0,0.0,5,0,14
9,Raikkonen,2021-05-25_12:31:02,9.4,1.0,0.1,14,38,0
10,Hamilton,2021-05-25_12:31:02,33.3,1.0,0.0,27,0,47
11,Vettel,2021-05-25_12:31:02,14.9,1.0,-0.1,12,0,15
12,Tsunoda,2021-05-25_12:31:02,8.5,1.0,-0.1,23,0,31
13,Red Bull,2021-05-25_12:31:02,26.0,1.0,-0.1,31,0,60
14,Stroll,2021-05-25_12:31:02,13.4,1.0,-0.1,8,0,41
15,Williams,2021-05-25_12:31:02,6.3,1.0,0.0,4,0,34
16,Norris,2021-05-25_12:31:02,13.9,1.0,0.0,63,29,0
17,Mercedes,2021-05-25_12:31:02,37.5,1.0,-0.1,10,0,87
18,Aston Martin,2021-05-25_12:31:02,16.4,1.0,-0.1,5,0,0
19,Haas,2021-05-25_12:31:02,6.1,1.0,0.0,4,0,17
20,Latifi,2021-05-25_12:31:02,6.4,1.0,0.0,4,0,23
21,Russell,2021-05-25_12:31:02,6.2,1.0,-0.1,42,2,0
22,Alonso,2021-05-25_12:31:02,14.8,1.0,-0.2,10,0,56
23,McLaren,2021-05-25_12:31:02,18.7,1.0,-0.2,28,0,66
24,Ricciardo,2021-05-25_12:31:02,16.2,1.0,0.0,28,0,55
25,Schumacher,2021-05-25_12:31:02,5.8,1.0,-0.1,27,0,1
26,Leclerc,2021-05-25_12:31:02,18.3,1.0,0.3,42,69,0
27,Ocon,2021-05-25_12:31:02,10.5,1.0,0.2,23,0,34
28,Bottas,2021-05-25_12:31:02,23.1,1.0,-0.1,10,0,12
29,Ferrari,2021-05-25_12:31:02,19.6,1.0,0.1,15,66,0
