,name,request_time,price,chance_of_playing,weekly_price_change,current_selection_percentage,probability_price_up_percentage,probability_price_down_percentage
0,Gasly,2021-09-04_18:21:02,11.9,1.0,0.0,45,0,33
1,Vettel,2021-09-04_18:21:02,15.3,1.0,0.1,14,18,0
2,Tsunoda,2021-09-04_18:21:02,8.4,1.0,0.0,21,0,88
3,Ocon,2021-09-04_18:21:02,10.2,1.0,0.1,21,48,0
4,Williams,2021-09-04_18:21:02,6.3,1.0,0.0,4,0,2
5,Norris,2021-09-04_18:21:02,14.2,1.0,0.0,66,17,0
6,Bottas,2021-09-04_18:21:02,23.0,1.0,0.0,10,0,54
7,Ferrari,2021-09-04_18:21:02,18.8,1.0,0.0,11,0,9
8,Red Bull,2021-09-04_18:21:02,26.6,1.0,0.1,35,25,0
9,Stroll,2021-09-04_18:21:02,13.3,1.0,0.0,7,0,26
10,Mazepin,2021-09-04_18:21:02,5.3,1.0,0.0,5,0,16
11,Mercedes,2021-09-04_18:21:02,37.1,1.0,0.0,8,0,24
12,Aston Martin,2021-09-04_18:21:02,16.5,1.0,0.0,5,0,56
13,AlphaTauri,2021-09-04_18:21:02,12.6,1.0,-0.1,5,0,11
14,Haas,2021-09-04_18:21:02,6.1,1.0,0.0,4,0,27
15,Perez,2021-09-04_18:21:02,18.5,1.0,0.0,33,0,56
16,Alpine,2021-09-04_18:21:02,15.1,1.0,0.0,4,78,0
17,Hamilton,2021-09-04_18:21:02,33.0,1.0,0.0,24,0,41
18,Raikkonen,2021-09-04_18:21:02,9.2,1.0,0.0,12,0,50
19,McLaren,2021-09-04_18:21:02,18.7,1.0,0.0,28,0,92
20,Ricciardo,2021-09-04_18:21:02,15.7,1.0,0.0,24,0,54
21,Leclerc,2021-09-04_18:21:02,17.7,1.0,0.1,36,3,0
22,Schumacher,2021-09-04_18:21:02,5.8,1.0,0.0,26,0,59
23,Giovinazzi,2021-09-04_18:21:02,8.0,1.0,0.0,9,0,54
24,Sainz,2021-09-04_18:21:02,14.5,1.0,0.0,28,0,50
25,Alfa Romeo,2021-09-04_18:21:02,9.1,1.0,-0.1,4,0,5
26,Latifi,2021-09-04_18:21:02,6.4,1.0,0.0,4,0,41
27,Russell,2021-09-04_18:21:02,6.2,1.0,0.0,43,69,0
28,Alonso,2021-09-04_18:21:02,15.1,1.0,0.1,12,35,0
29,Verstappen,2021-09-04_18:21:02,25.7,1.0,0.0,61,82,0
