,name,request_time,price,chance_of_playing,weekly_price_change,current_selection_percentage,probability_price_up_percentage,probability_price_down_percentage
0,Ferrari,2021-08-05_07:21:02,18.8,1.0,0.1,11,16,0
1,Williams,2021-08-05_07:21:02,6.3,1.0,0.0,4,0,34
2,McLaren,2021-08-05_07:21:02,18.7,1.0,0.1,28,2,0
3,Mercedes,2021-08-05_07:21:02,37.1,1.0,-0.1,8,0,2
4,Red Bull,2021-08-05_07:21:02,26.6,1.0,-0.1,35,0,67
5,Alpine,2021-08-05_07:21:02,15.1,1.0,0.0,4,0,61
6,AlphaTauri,2021-08-05_07:21:02,12.7,1.0,0.0,5,0,62
7,Alfa Romeo,2021-08-05_07:21:02,9.2,1.0,0.0,4,0,89
8,Aston Martin,2021-08-05_07:21:02,16.4,1.0,0.0,5,59,0
9,Haas,2021-08-05_07:21:02,6.1,1.0,0.0,4,0,26
10,Hamilton,2021-08-05_07:21:02,33.0,1.0,0.0,24,0,17
11,Bottas,2021-08-05_07:21:02,23.1,1.0,0.1,10,0,42
12,Verstappen,2021-08-05_07:21:02,25.7,1.0,0.0,60,34,0
13,Perez,2021-08-05_07:21:02,18.6,1.0,-0.2,34,0,46
14,Norris,2021-08-05_07:21:02,14.2,1.0,0.1,66,0,2
15,Ricciardo,2021-08-05_07:21:02,15.8,1.0,0.0,25,0,85
16,Stroll,2021-08-05_07:21:02,13.3,1.0,0.0,7,0,10
17,Vettel,2021-08-05_07:21:02,15.2,1.0,0.0,13,0,51
18,Ocon,2021-08-05_07:21:02,10.0,1.0,-0.1,19,80,0
19,Alonso,2021-08-05_07:21:02,14.9,1.0,0.1,11,39,0
20,Leclerc,2021-08-05_07:21:02,17.7,1.0,0.1,36,0,1
21,Sainz,2021-08-05_07:21:02,14.5,1.0,0.1,29,21,0
22,Gasly,2021-08-05_07:21:02,11.9,1.0,0.0,45,0,28
23,Tsunoda,2021-08-05_07:21:02,8.4,1.0,-0.1,22,0,3
24,Raikkonen,2021-08-05_07:21:02,9.3,1.0,0.0,13,0,74
25,Giovinazzi,2021-08-05_07:21:02,8.1,1.0,0.1,9,0,94
26,Schumacher,2021-08-05_07:21:02,5.8,1.0,0.0,27,0,5
27,Mazepin,2021-08-05_07:21:02,5.3,1.0,0.0,5,2,0
28,Russell,2021-08-05_07:21:02,6.2,1.0,0.0,42,7,0
29,Latifi,2021-08-05_07:21:02,6.4,1.0,0.0,4,0,57
