,name,request_time,price,chance_of_playing,weekly_price_change,current_selection_percentage,probability_price_up_percentage,probability_price_down_percentage
0,AlphaTauri,2021-04-17_03:11:03,13.2,1.0,0.5,8,26,0
1,Bottas,2021-04-17_03:11:03,23.5,1.0,-0.100000000000001,12,0,29
2,Williams,2021-04-17_03:11:03,6.3,1.0,0.0,4,0,37
3,Ocon,2021-04-17_03:11:03,9.7,1.0,-0.4,14,0,41
4,Hamilton,2021-04-17_03:11:03,33.4,1.0,-0.1,28,0,40
5,Mercedes,2021-04-17_03:11:03,37.8,1.0,-0.2,11,0,34
6,McLaren,2021-04-17_03:11:03,18.8,1.0,-0.1,28,0,72
7,Red Bull,2021-04-17_03:11:03,26.0,1.0,0.100000000000001,31,67,0
8,Verstappen,2021-04-17_03:11:03,25.1,1.0,0.3,54,49,0
9,Alonso,2021-04-17_03:11:03,15.2,1.0,-0.4,12,0,55
10,Mazepin,2021-04-17_03:11:03,5.4,1.0,-0.0999999999999996,5,0,96
11,Haas,2021-04-17_03:11:03,6.1,1.0,0.0,4,0,26
12,Raikkonen,2021-04-17_03:11:03,9.5,1.0,-0.1,14,0,68
13,Schumacher,2021-04-17_03:11:03,5.8,1.0,0.0,25,0,88
14,Latifi,2021-04-17_03:11:03,6.5,1.0,0.0,4,0,55
15,Norris,2021-04-17_03:11:03,13.4,1.0,0.3,56,41,0
16,Vettel,2021-04-17_03:11:03,15.5,1.0,-0.7,15,0,78
17,Alfa Romeo,2021-04-17_03:11:03,8.9,1.0,0.0,4,3,0
18,Alpine,2021-04-17_03:11:03,15.1,1.0,-0.3,4,0,39
19,Ferrari,2021-04-17_03:11:03,18.6,1.0,0.5,10,31,0
20,Russell,2021-04-17_03:11:03,6.2,1.0,0.0,42,28,0
21,Stroll,2021-04-17_03:11:03,13.7,1.0,-0.2,9,0,82
22,Giovinazzi,2021-04-17_03:11:03,7.9,1.0,0.0,8,0,88
23,Ricciardo,2021-04-17_03:11:03,16.8,1.0,-0.5,34,0,35
24,Leclerc,2021-04-17_03:11:03,17.4,1.0,0.6,32,14,0
25,Tsunoda,2021-04-17_03:11:03,9.4,1.0,0.6,35,8,0
26,Aston Martin,2021-04-17_03:11:03,16.9,1.0,-0.7,6,0,30
27,Sainz,2021-04-17_03:11:03,14.3,1.0,-0.1,26,0,22
28,Perez,2021-04-17_03:11:03,18.4,1.0,0.0,33,34,0
29,Gasly,2021-04-17_03:11:03,11.7,1.0,0.0,42,3,0
