,name,request_time,price,chance_of_playing,weekly_price_change,current_selection_percentage,probability_price_up_percentage,probability_price_down_percentage
0,AlphaTauri,2021-04-20_01:51:03,13.2,1.0,0.0,7,0,30
1,Raikkonen,2021-04-20_01:51:03,9.4,1.0,0.0,14,0,15
2,Hamilton,2021-04-20_01:51:03,33.4,1.0,0.0,28,0,65
3,Mazepin,2021-04-20_01:51:03,5.3,1.0,0.0,5,0,22
4,Mercedes,2021-04-20_01:51:03,37.7,1.0,-0.1,11,0,21
5,Haas,2021-04-20_01:51:03,6.1,1.0,0.0,4,0,27
6,Vettel,2021-04-20_01:51:03,15.3,1.0,-0.1,14,0,68
7,Alonso,2021-04-20_01:51:03,15.1,1.0,-0.1,11,0,81
8,Verstappen,2021-04-20_01:51:03,25.2,1.0,0.1,54,38,0
9,McLaren,2021-04-20_01:51:03,18.7,1.0,0.0,28,12,0
10,Ocon,2021-04-20_01:51:03,9.7,1.0,0.0,13,0,95
11,Schumacher,2021-04-20_01:51:03,5.7,1.0,0.0,25,0,16
12,Bottas,2021-04-20_01:51:03,23.4,1.0,-0.1,12,0,9
13,Red Bull,2021-04-20_01:51:03,26.1,1.0,0.1,32,7,0
14,Williams,2021-04-20_01:51:03,6.3,1.0,0.0,4,0,35
15,Norris,2021-04-20_01:51:03,13.6,1.0,0.2,58,99,0
16,Alfa Romeo,2021-04-20_01:51:03,8.9,1.0,0.0,4,10,0
17,Alpine,2021-04-20_01:51:03,15.0,1.0,-0.1,4,0,3
18,Latifi,2021-04-20_01:51:03,6.5,1.0,0.0,4,0,62
19,Russell,2021-04-20_01:51:03,6.2,1.0,0.0,44,72,0
20,Ferrari,2021-04-20_01:51:03,18.8,1.0,0.1,11,25,0
21,Tsunoda,2021-04-20_01:51:03,9.4,1.0,0.0,34,0,6
22,Ricciardo,2021-04-20_01:51:03,16.6,1.0,-0.1,32,0,30
23,Leclerc,2021-04-20_01:51:03,17.6,1.0,0.2,35,29,0
24,Stroll,2021-04-20_01:51:03,13.6,1.0,0.0,9,0,7
25,Giovinazzi,2021-04-20_01:51:03,7.8,1.0,0.0,7,0,31
26,Aston Martin,2021-04-20_01:51:03,16.8,1.0,-0.1,6,0,61
27,Perez,2021-04-20_01:51:03,18.4,1.0,0.0,32,0,68
28,Gasly,2021-04-20_01:51:03,11.7,1.0,0.0,43,73,0
29,Sainz,2021-04-20_01:51:03,14.3,1.0,0.0,26,0,9
