,name,request_time,price,chance_of_playing,weekly_price_change,current_selection_percentage,probability_price_up_percentage,probability_price_down_percentage
0,AlphaTauri,2021-05-04_05:11:02,13.0,1.0,-0.1,6,0,81
1,Perez,2021-05-04_05:11:02,18.3,1.0,0.0,31,0,38
2,Alpine,2021-05-04_05:11:02,15.2,1.0,0.2,4,4,0
3,Hamilton,2021-05-04_05:11:02,33.3,1.0,-0.1,27,0,2
4,Raikkonen,2021-05-04_05:11:02,9.4,1.0,0.0,13,0,69
5,Gasly,2021-05-04_05:11:02,11.7,1.0,0.0,42,3,0
6,Red Bull,2021-05-04_05:11:02,26.1,1.0,0.0,31,0,11
7,Stroll,2021-05-04_05:11:02,13.6,1.0,0.0,9,0,29
8,Mazepin,2021-05-04_05:11:02,5.3,1.0,0.0,5,0,40
9,Vettel,2021-05-04_05:11:02,15.0,1.0,-0.1,12,0,7
10,Tsunoda,2021-05-04_05:11:02,9.1,1.0,-0.2,30,0,29
11,Russell,2021-05-04_05:11:02,6.3,1.0,0.1,44,0,20
12,Alonso,2021-05-04_05:11:02,15.0,1.0,0.0,10,0,89
13,Verstappen,2021-05-04_05:11:02,25.3,1.0,0.0,56,60,0
14,McLaren,2021-05-04_05:11:02,18.8,1.0,0.0,30,92,0
15,Ricciardo,2021-05-04_05:11:02,16.4,1.0,-0.1,30,0,65
16,Ocon,2021-05-04_05:11:02,10.1,1.0,0.3,18,24,0
17,Leclerc,2021-05-04_05:11:02,17.9,1.0,0.1,38,5,0
18,Schumacher,2021-05-04_05:11:02,5.7,1.0,0.0,25,11,0
19,Bottas,2021-05-04_05:11:02,23.3,1.0,0.0,11,0,64
20,Ferrari,2021-05-04_05:11:02,18.9,1.0,0.0,11,0,31
21,Mercedes,2021-05-04_05:11:02,37.6,1.0,0.0,10,0,56
22,Haas,2021-05-04_05:11:02,6.1,1.0,0.0,4,0,27
23,Aston Martin,2021-05-04_05:11:02,16.6,1.0,0.0,5,0,53
24,Latifi,2021-05-04_05:11:02,6.4,1.0,-0.1,4,0,7
25,Williams,2021-05-04_05:11:02,6.3,1.0,0.0,4,0,37
26,Giovinazzi,2021-05-04_05:11:02,7.8,1.0,0.0,7,0,65
27,Norris,2021-05-04_05:11:02,13.7,1.0,0.0,61,76,0
28,Sainz,2021-05-04_05:11:02,14.4,1.0,0.1,27,0,43
29,Alfa Romeo,2021-05-04_05:11:02,8.9,1.0,0.0,4,31,0
