,name,request_time,price,chance_of_playing,weekly_price_change,current_selection_percentage,probability_price_up_percentage,probability_price_down_percentage
0,AlphaTauri,2021-05-06_05:31:02,12.9,1.0,-0.2,6,0,30
1,Perez,2021-05-06_05:31:02,18.3,1.0,0.0,31,0,47
2,Alpine,2021-05-06_05:31:02,15.2,1.0,0.2,4,47,0
3,Raikkonen,2021-05-06_05:31:02,9.3,1.0,-0.1,13,0,9
4,Hamilton,2021-05-06_05:31:02,33.3,1.0,-0.1,27,0,0
5,Gasly,2021-05-06_05:31:02,11.7,1.0,0.0,42,0,20
6,Red Bull,2021-05-06_05:31:02,26.1,1.0,0.0,32,0,6
7,Stroll,2021-05-06_05:31:02,13.6,1.0,0.0,9,0,54
8,Mazepin,2021-05-06_05:31:02,5.3,1.0,0.0,5,0,43
9,Vettel,2021-05-06_05:31:02,15.0,1.0,-0.1,12,0,32
10,Tsunoda,2021-05-06_05:31:02,9.0,1.0,-0.3,29,0,14
11,Russell,2021-05-06_05:31:02,6.3,1.0,0.1,43,0,27
12,Alonso,2021-05-06_05:31:02,15.0,1.0,0.0,10,0,88
13,Verstappen,2021-05-06_05:31:02,25.3,1.0,0.0,56,68,0
14,McLaren,2021-05-06_05:31:02,18.9,1.0,0.1,30,17,0
15,Ricciardo,2021-05-06_05:31:02,16.3,1.0,-0.2,30,0,0
16,Ocon,2021-05-06_05:31:02,10.2,1.0,0.4,20,7,0
17,Schumacher,2021-05-06_05:31:02,5.7,1.0,0.0,26,32,0
18,Leclerc,2021-05-06_05:31:02,17.9,1.0,0.1,38,21,0
19,Bottas,2021-05-06_05:31:02,23.3,1.0,0.0,11,0,71
20,Ferrari,2021-05-06_05:31:02,18.8,1.0,-0.1,11,0,78
21,Aston Martin,2021-05-06_05:31:02,16.6,1.0,0.0,5,0,78
22,Latifi,2021-05-06_05:31:02,6.4,1.0,-0.1,4,0,10
23,Williams,2021-05-06_05:31:02,6.3,1.0,0.0,4,0,39
24,Giovinazzi,2021-05-06_05:31:02,7.8,1.0,0.0,7,0,62
25,Mercedes,2021-05-06_05:31:02,37.6,1.0,0.0,10,0,61
26,Haas,2021-05-06_05:31:02,6.1,1.0,0.0,4,0,27
27,Norris,2021-05-06_05:31:02,13.8,1.0,0.1,61,22,0
28,Sainz,2021-05-06_05:31:02,14.4,1.0,0.1,27,0,64
29,Alfa Romeo,2021-05-06_05:31:02,8.9,1.0,0.0,4,34,0
