,name,request_time,price,chance_of_playing,weekly_price_change,current_selection_percentage,probability_price_up_percentage,probability_price_down_percentage
0,Mazepin,2021-04-22_18:31:03,5.3,1.0,0.0,5,0,25
1,Mercedes,2021-04-22_18:31:03,37.7,1.0,-0.1,11,0,47
2,Aston Martin,2021-04-22_18:31:03,16.8,1.0,-0.1,5,0,98
3,Haas,2021-04-22_18:31:03,6.1,1.0,0.0,4,0,27
4,AlphaTauri,2021-04-22_18:31:03,13.2,1.0,0.0,7,0,45
5,Perez,2021-04-22_18:31:03,18.4,1.0,0.0,32,0,98
6,Alpine,2021-04-22_18:31:03,15.0,1.0,-0.1,4,0,18
7,Hamilton,2021-04-22_18:31:03,33.4,1.0,0.0,28,0,70
8,Raikkonen,2021-04-22_18:31:03,9.4,1.0,0.0,14,0,15
9,Gasly,2021-04-22_18:31:03,11.7,1.0,0.0,43,82,0
10,Vettel,2021-04-22_18:31:03,15.2,1.0,-0.2,13,0,19
11,Tsunoda,2021-04-22_18:31:03,9.4,1.0,0.0,34,0,24
12,Latifi,2021-04-22_18:31:03,6.5,1.0,0.0,4,0,68
13,Russell,2021-04-22_18:31:03,6.2,1.0,0.0,44,77,0
14,Alonso,2021-04-22_18:31:03,15.0,1.0,-0.2,11,0,20
15,Verstappen,2021-04-22_18:31:03,25.2,1.0,0.1,55,64,0
16,McLaren,2021-04-22_18:31:03,18.7,1.0,0.0,28,45,0
17,Ricciardo,2021-04-22_18:31:03,16.6,1.0,-0.1,32,0,66
18,Leclerc,2021-04-22_18:31:03,17.6,1.0,0.2,36,88,0
19,Ocon,2021-04-22_18:31:03,9.6,1.0,-0.1,13,0,0
20,Schumacher,2021-04-22_18:31:03,5.7,1.0,0.0,25,0,20
21,Bottas,2021-04-22_18:31:03,23.4,1.0,-0.1,12,0,43
22,Ferrari,2021-04-22_18:31:03,18.8,1.0,0.1,11,43,0
23,Red Bull,2021-04-22_18:31:03,26.1,1.0,0.1,32,7,0
24,Stroll,2021-04-22_18:31:03,13.6,1.0,0.0,9,0,0
25,Williams,2021-04-22_18:31:03,6.3,1.0,0.0,4,0,34
26,Norris,2021-04-22_18:31:03,13.6,1.0,0.2,59,43,0
27,Giovinazzi,2021-04-22_18:31:03,7.8,1.0,0.0,7,0,37
28,Sainz,2021-04-22_18:31:03,14.3,1.0,0.0,26,0,0
29,Alfa Romeo,2021-04-22_18:31:03,8.9,1.0,0.0,4,12,0
