,name,request_time,price,chance_of_playing,weekly_price_change,current_selection_percentage,probability_price_up_percentage,probability_price_down_percentage
0,Mercedes,2021-04-11_11:00:03,37.9,1.0,-0.1,12,0,66
1,McLaren,2021-04-11_11:00:03,18.9,1.0,0.0,29,0,38
2,Red Bull,2021-04-11_11:00:03,26.0,1.0,0.100000000000001,31,44,0
3,Alfa Romeo,2021-04-11_11:00:03,8.9,1.0,0.0,1,1,0
4,Stroll,2021-04-11_11:00:03,13.8,1.0,-0.0999999999999996,10,0,87
5,Bottas,2021-04-11_11:00:03,23.5,1.0,-0.100000000000001,12,0,41
6,Vettel,2021-04-11_11:00:03,15.7,1.0,-0.5,16,0,90
7,Mazepin,2021-04-11_11:00:03,5.4,1.0,-0.0999999999999996,5,0,59
8,Tsunoda,2021-04-11_11:00:03,9.2,1.0,0.4,32,96,0
9,Haas,2021-04-11_11:00:03,6.1,1.0,0.0,1,0,20
10,Aston Martin,2021-04-11_11:00:03,17.1,1.0,-0.5,7,0,54
11,Williams,2021-04-11_11:00:03,6.3,1.0,0.0,1,0,31
12,Raikkonen,2021-04-11_11:00:03,9.5,1.0,-0.1,15,0,34
13,Schumacher,2021-04-11_11:00:03,5.8,1.0,0.0,26,0,35
14,Verstappen,2021-04-11_11:00:03,25.0,1.0,0.2,53,81,0
15,Perez,2021-04-11_11:00:03,18.3,1.0,-0.0999999999999979,32,42,0
16,Latifi,2021-04-11_11:00:03,6.5,1.0,0.0,4,0,53
17,Russell,2021-04-11_11:00:03,6.2,1.0,0.0,42,3,0
18,Alpine,2021-04-11_11:00:03,15.2,1.0,-0.2,3,0,54
19,Ferrari,2021-04-11_11:00:03,18.4,1.0,0.3,9,59,0
20,Leclerc,2021-04-11_11:00:03,17.2,1.0,0.4,30,75,0
21,Alonso,2021-04-11_11:00:03,15.3,1.0,-0.3,13,0,24
22,Norris,2021-04-11_11:00:03,13.3,1.0,0.2,55,82,0
23,AlphaTauri,2021-04-11_11:00:03,13.0,1.0,0.3,7,87,0
24,Giovinazzi,2021-04-11_11:00:03,7.9,1.0,0.0,8,0,64
25,Ricciardo,2021-04-11_11:00:03,17.0,1.0,-0.3,36,0,56
26,Hamilton,2021-04-11_11:00:03,33.5,1.0,0.0,28,0,93
27,Ocon,2021-04-11_11:00:03,9.8,1.0,-0.3,15,0,24
28,Sainz,2021-04-11_11:00:03,14.3,1.0,-0.1,26,0,2
29,Gasly,2021-04-11_11:00:03,11.8,1.0,0.1,42,0,58
