,name,request_time,price,chance_of_playing,weekly_price_change,current_selection_percentage,probability_price_up_percentage,probability_price_down_percentage
0,Alpine,2021-04-15_18:21:02,15.1,1.0,-0.3,4,0,10
1,Haas,2021-04-15_18:21:02,6.1,1.0,0.0,4,0,25
2,Mercedes,2021-04-15_18:21:02,37.8,1.0,-0.2,11,0,17
3,Williams,2021-04-15_18:21:02,6.3,1.0,0.0,4,0,38
4,Hamilton,2021-04-15_18:21:02,33.4,1.0,-0.1,28,0,28
5,Alfa Romeo,2021-04-15_18:21:02,8.9,1.0,0.0,4,4,0
6,Perez,2021-04-15_18:21:02,18.4,1.0,0.0,33,37,0
7,Leclerc,2021-04-15_18:21:02,17.3,1.0,0.5,31,49,0
8,Vettel,2021-04-15_18:21:02,15.5,1.0,-0.7,15,0,15
9,Mazepin,2021-04-15_18:21:02,5.4,1.0,-0.0999999999999996,5,0,77
10,Sainz,2021-04-15_18:21:02,14.3,1.0,-0.1,26,0,30
11,Stroll,2021-04-15_18:21:02,13.7,1.0,-0.2,10,0,41
12,Tsunoda,2021-04-15_18:21:02,9.3,1.0,0.5,34,76,0
13,Raikkonen,2021-04-15_18:21:02,9.5,1.0,-0.1,14,0,72
14,Latifi,2021-04-15_18:21:02,6.5,1.0,0.0,4,0,64
15,Bottas,2021-04-15_18:21:02,23.5,1.0,-0.100000000000001,12,0,86
16,Red Bull,2021-04-15_18:21:02,26.0,1.0,0.100000000000001,31,61,0
17,AlphaTauri,2021-04-15_18:21:02,13.1,1.0,0.4,7,72,0
18,Ferrari,2021-04-15_18:21:02,18.5,1.0,0.4,9,76,0
19,McLaren,2021-04-15_18:21:02,18.9,1.0,0.0,29,0,87
20,Aston Martin,2021-04-15_18:21:02,17.0,1.0,-0.6,6,0,62
21,Alonso,2021-04-15_18:21:02,15.2,1.0,-0.4,12,0,11
22,Giovinazzi,2021-04-15_18:21:02,7.9,1.0,0.0,8,0,88
23,Verstappen,2021-04-15_18:21:02,25.1,1.0,0.3,53,39,0
24,Schumacher,2021-04-15_18:21:02,5.8,1.0,0.0,26,0,69
25,Ricciardo,2021-04-15_18:21:02,16.9,1.0,-0.4,35,0,47
26,Russell,2021-04-15_18:21:02,6.2,1.0,0.0,42,11,0
27,Norris,2021-04-15_18:21:02,13.4,1.0,0.3,56,36,0
28,Ocon,2021-04-15_18:21:02,9.8,1.0,-0.3,14,0,88
29,Gasly,2021-04-15_18:21:02,11.7,1.0,0.0,42,0,9
