,name,request_time,price,chance_of_playing,weekly_price_change,current_selection_percentage,probability_price_up_percentage,probability_price_down_percentage
0,Perez,2021-05-10_03:11:03,18.2,1.0,0.0,30,0,84
1,Alpine,2021-05-10_03:11:03,15.3,1.0,0.1,4,0,2
2,Hamilton,2021-05-10_03:11:03,33.3,1.0,0.0,28,25,0
3,Raikkonen,2021-05-10_03:11:03,9.3,1.0,0.0,13,0,49
4,Tsunoda,2021-05-10_03:11:03,8.9,1.0,0.0,26,0,97
5,Russell,2021-05-10_03:11:03,6.3,1.0,0.0,42,0,97
6,Alonso,2021-05-10_03:11:03,15.0,1.0,0.0,10,0,89
7,Verstappen,2021-05-10_03:11:03,25.3,1.0,0.0,56,81,0
8,McLaren,2021-05-10_03:11:03,18.9,1.0,0.0,30,10,0
9,Ricciardo,2021-05-10_03:11:03,16.2,1.0,0.0,29,7,0
10,Leclerc,2021-05-10_03:11:03,18.0,1.0,0.0,40,87,0
11,Ocon,2021-05-10_03:11:03,10.4,1.0,0.1,23,61,0
12,AlphaTauri,2021-05-10_03:11:03,12.8,1.0,0.0,6,0,41
13,Mazepin,2021-05-10_03:11:03,5.3,1.0,0.0,5,0,48
14,Gasly,2021-05-10_03:11:03,11.6,1.0,-0.1,40,0,30
15,Vettel,2021-05-10_03:11:03,15.0,1.0,0.0,12,0,79
16,Giovinazzi,2021-05-10_03:11:03,7.8,1.0,0.0,7,0,42
17,Mercedes,2021-05-10_03:11:03,37.6,1.0,0.0,10,0,69
18,Aston Martin,2021-05-10_03:11:03,16.5,1.0,0.0,5,0,35
19,Haas,2021-05-10_03:11:03,6.1,1.0,0.0,4,0,20
20,Latifi,2021-05-10_03:11:03,6.4,1.0,0.0,4,0,21
21,Schumacher,2021-05-10_03:11:03,5.8,1.0,0.0,28,70,0
22,Red Bull,2021-05-10_03:11:03,26.1,1.0,0.0,31,0,11
23,Stroll,2021-05-10_03:11:03,13.5,1.0,0.0,8,0,47
24,Williams,2021-05-10_03:11:03,6.3,1.0,0.0,4,0,41
25,Bottas,2021-05-10_03:11:03,23.3,1.0,0.0,11,0,99
26,Ferrari,2021-05-10_03:11:03,18.7,1.0,0.0,11,0,8
27,Norris,2021-05-10_03:11:03,13.9,1.0,0.0,63,9,0
28,Sainz,2021-05-10_03:11:03,14.3,1.0,0.0,26,0,12
29,Alfa Romeo,2021-05-10_03:11:03,8.9,1.0,0.0,4,51,0
