,name,request_time,price,chance_of_playing,weekly_price_change,current_selection_percentage,probability_price_up_percentage,probability_price_down_percentage
0,AlphaTauri,2021-06-02_12:11:03,12.6,1.0,-0.2,5,0,45
1,Perez,2021-06-02_12:11:03,18.0,1.0,-0.2,29,0,60
2,Alpine,2021-06-02_12:11:03,15.2,1.0,0.0,4,0,75
3,Williams,2021-06-02_12:11:03,6.3,1.0,0.0,4,0,33
4,Norris,2021-06-02_12:11:03,13.9,1.0,0.0,63,59,0
5,Sainz,2021-06-02_12:11:03,14.7,1.0,0.2,30,16,0
6,Alfa Romeo,2021-06-02_12:11:03,9.2,1.0,0.3,4,0,6
7,Mazepin,2021-06-02_12:11:03,5.3,1.0,0.0,5,0,15
8,Raikkonen,2021-06-02_12:11:03,9.4,1.0,0.1,14,34,0
9,Hamilton,2021-06-02_12:11:03,33.3,1.0,0.0,27,0,64
10,Gasly,2021-06-02_12:11:03,11.5,1.0,-0.2,40,41,0
11,Vettel,2021-06-02_12:11:03,14.9,1.0,-0.1,12,0,0
12,Tsunoda,2021-06-02_12:11:03,8.5,1.0,-0.1,22,0,74
13,Verstappen,2021-06-02_12:11:03,25.4,1.0,0.1,57,87,0
14,Red Bull,2021-06-02_12:11:03,26.0,1.0,-0.1,31,0,41
15,Mercedes,2021-06-02_12:11:03,37.4,1.0,-0.1,10,0,9
16,Aston Martin,2021-06-02_12:11:03,16.4,1.0,-0.1,5,0,0
17,Haas,2021-06-02_12:11:03,6.1,1.0,0.0,4,0,18
18,Latifi,2021-06-02_12:11:03,6.4,1.0,0.0,4,0,26
19,Russell,2021-06-02_12:11:03,6.2,1.0,-0.1,42,1,0
20,Alonso,2021-06-02_12:11:03,14.8,1.0,-0.2,9,0,83
21,McLaren,2021-06-02_12:11:03,18.7,1.0,-0.2,28,0,78
22,Giovinazzi,2021-06-02_12:11:03,7.9,1.0,0.1,9,87,0
23,Ricciardo,2021-06-02_12:11:03,16.1,1.0,-0.1,28,0,25
24,Schumacher,2021-06-02_12:11:03,5.8,1.0,-0.1,26,0,15
25,Leclerc,2021-06-02_12:11:03,18.3,1.0,0.3,42,68,0
26,Ocon,2021-06-02_12:11:03,10.5,1.0,0.2,23,0,35
27,Bottas,2021-06-02_12:11:03,23.1,1.0,-0.1,10,0,21
28,Ferrari,2021-06-02_12:11:03,19.7,1.0,0.2,15,4,0
29,Stroll,2021-06-02_12:11:03,13.4,1.0,-0.1,8,0,52
