,name,request_time,price,chance_of_playing,weekly_price_change,current_selection_percentage,probability_price_up_percentage,probability_price_down_percentage
0,AlphaTauri,2021-06-29_20:41:02,12.7,1.0,0.1,6,38,0
1,Perez,2021-06-29_20:41:02,18.8,1.0,0.4,37,46,0
2,Alpine,2021-06-29_20:41:02,15.2,1.0,-0.1,4,0,96
3,Williams,2021-06-29_20:41:02,6.3,1.0,0.0,4,0,45
4,Norris,2021-06-29_20:41:02,14.0,1.0,0.1,64,29,0
5,Bottas,2021-06-29_20:41:02,23.0,1.0,0.0,10,0,61
6,Ferrari,2021-06-29_20:41:02,18.7,1.0,-0.6,10,0,84
7,Stroll,2021-06-29_20:41:02,13.3,1.0,0.0,8,19,0
8,Mazepin,2021-06-29_20:41:02,5.3,1.0,0.0,5,0,12
9,Hamilton,2021-06-29_20:41:02,33.1,1.0,0.0,25,0,91
10,Raikkonen,2021-06-29_20:41:02,9.3,1.0,0.0,13,0,67
11,Gasly,2021-06-29_20:41:02,11.9,1.0,0.1,46,45,0
12,Vettel,2021-06-29_20:41:02,15.2,1.0,0.2,14,36,0
13,Tsunoda,2021-06-29_20:41:02,8.5,1.0,0.1,23,8,0
14,Red Bull,2021-06-29_20:41:02,26.5,1.0,0.3,35,92,0
15,Sainz,2021-06-29_20:41:02,14.3,1.0,-0.4,26,0,58
16,Alfa Romeo,2021-06-29_20:41:02,9.2,1.0,0.0,4,0,71
17,Mercedes,2021-06-29_20:41:02,37.2,1.0,-0.1,9,0,39
18,Aston Martin,2021-06-29_20:41:02,16.4,1.0,0.0,5,67,0
19,Haas,2021-06-29_20:41:02,6.1,1.0,0.0,4,0,26
20,Latifi,2021-06-29_20:41:02,6.4,1.0,0.0,4,0,47
21,Russell,2021-06-29_20:41:02,6.2,1.0,0.0,40,0,68
22,Alonso,2021-06-29_20:41:02,14.8,1.0,0.0,10,47,0
23,Verstappen,2021-06-29_20:41:02,25.6,1.0,0.1,60,82,0
24,McLaren,2021-06-29_20:41:02,18.6,1.0,0.0,28,44,0
25,Giovinazzi,2021-06-29_20:41:02,8.0,1.0,0.0,9,40,0
26,Ricciardo,2021-06-29_20:41:02,15.9,1.0,0.0,26,7,0
27,Leclerc,2021-06-29_20:41:02,17.6,1.0,-0.4,34,0,83
28,Schumacher,2021-06-29_20:41:02,5.8,1.0,0.0,26,0,20
29,Ocon,2021-06-29_20:41:02,10.3,1.0,-0.1,21,0,29
