,name,request_time,price,chance_of_playing,weekly_price_change,current_selection_percentage,probability_price_up_percentage,probability_price_down_percentage
0,AlphaTauri,2021-06-12_05:41:03,12.6,1.0,0.0,5,5,0
1,Perez,2021-06-12_05:41:03,18.3,1.0,0.1,32,73,0
2,Alpine,2021-06-12_05:41:03,15.1,1.0,-0.1,4,0,23
3,Williams,2021-06-12_05:41:03,6.3,1.0,0.0,4,0,45
4,Norris,2021-06-12_05:41:03,13.9,1.0,0.0,63,53,0
5,Mazepin,2021-06-12_05:41:03,5.3,1.0,0.0,5,0,24
6,Hamilton,2021-06-12_05:41:03,33.1,1.0,-0.1,25,0,11
7,Raikkonen,2021-06-12_05:41:03,9.3,1.0,-0.1,13,0,11
8,Gasly,2021-06-12_05:41:03,11.7,1.0,0.2,43,69,0
9,Vettel,2021-06-12_05:41:03,15.0,1.0,0.1,12,36,0
10,Tsunoda,2021-06-12_05:41:03,8.4,1.0,-0.2,22,16,0
11,Red Bull,2021-06-12_05:41:03,26.2,1.0,0.1,32,11,0
12,Sainz,2021-06-12_05:41:03,14.7,1.0,0.2,31,70,0
13,Alfa Romeo,2021-06-12_05:41:03,9.2,1.0,0.0,4,0,38
14,Mercedes,2021-06-12_05:41:03,37.3,1.0,-0.2,9,0,44
15,Aston Martin,2021-06-12_05:41:03,16.4,1.0,0.0,5,28,0
16,Haas,2021-06-12_05:41:03,6.1,1.0,0.0,4,0,26
17,Latifi,2021-06-12_05:41:03,6.4,1.0,0.0,4,0,31
18,Russell,2021-06-12_05:41:03,6.2,1.0,0.0,40,0,71
19,Alonso,2021-06-12_05:41:03,14.7,1.0,-0.1,9,0,1
20,Verstappen,2021-06-12_05:41:03,25.5,1.0,0.1,58,53,0
21,McLaren,2021-06-12_05:41:03,18.6,1.0,-0.1,27,0,62
22,Giovinazzi,2021-06-12_05:41:03,8.0,1.0,0.2,9,74,0
23,Ricciardo,2021-06-12_05:41:03,16.0,1.0,-0.2,26,0,80
24,Leclerc,2021-06-12_05:41:03,18.2,1.0,-0.1,41,0,2
25,Schumacher,2021-06-12_05:41:03,5.8,1.0,-0.1,26,0,35
26,Ocon,2021-06-12_05:41:03,10.4,1.0,-0.1,22,0,58
27,Bottas,2021-06-12_05:41:03,23.0,1.0,-0.2,10,0,60
28,Ferrari,2021-06-12_05:41:03,19.6,1.0,-0.1,14,0,38
29,Stroll,2021-06-12_05:41:03,13.4,1.0,0.0,8,0,95
