,name,request_time,price,chance_of_playing,weekly_price_change,current_selection_percentage,probability_price_up_percentage,probability_price_down_percentage
0,AlphaTauri,2021-07-05_21:51:02,12.7,1.0,0.0,6,32,0
1,Perez,2021-07-05_21:51:02,18.8,1.0,0.1,37,59,0
2,Alpine,2021-07-05_21:51:02,15.1,1.0,-0.1,4,0,57
3,Tsunoda,2021-07-05_21:51:02,8.5,1.0,0.1,23,29,0
4,Bottas,2021-07-05_21:51:02,23.0,1.0,0.0,10,0,46
5,Ferrari,2021-07-05_21:51:02,18.7,1.0,0.0,11,0,38
6,Red Bull,2021-07-05_21:51:02,26.6,1.0,0.1,36,99,0
7,Mazepin,2021-07-05_21:51:02,5.3,1.0,0.0,5,0,10
8,Raikkonen,2021-07-05_21:51:02,9.3,1.0,0.0,13,0,56
9,Hamilton,2021-07-05_21:51:02,33.0,1.0,-0.1,24,0,42
10,Gasly,2021-07-05_21:51:02,11.9,1.0,0.0,46,65,0
11,Vettel,2021-07-05_21:51:02,15.2,1.0,0.0,13,0,4
12,Mercedes,2021-07-05_21:51:02,37.2,1.0,0.0,9,0,62
13,Aston Martin,2021-07-05_21:51:02,16.4,1.0,0.0,5,69,0
14,Haas,2021-07-05_21:51:02,6.1,1.0,0.0,4,0,26
15,McLaren,2021-07-05_21:51:02,18.6,1.0,0.0,27,0,43
16,Ricciardo,2021-07-05_21:51:02,15.8,1.0,-0.1,25,0,27
17,Ocon,2021-07-05_21:51:02,10.1,1.0,-0.1,19,0,23
18,Schumacher,2021-07-05_21:51:02,5.8,1.0,0.0,27,0,0
19,Leclerc,2021-07-05_21:51:02,17.5,1.0,-0.1,34,0,6
20,Norris,2021-07-05_21:51:02,14.0,1.0,0.0,65,98,0
21,Giovinazzi,2021-07-05_21:51:02,8.0,1.0,0.0,9,65,0
22,Latifi,2021-07-05_21:51:02,6.4,1.0,0.0,4,0,55
23,Russell,2021-07-05_21:51:02,6.2,1.0,0.0,41,0,49
24,Alonso,2021-07-05_21:51:02,14.8,1.0,0.0,10,20,0
25,Verstappen,2021-07-05_21:51:02,25.7,1.0,0.1,60,41,0
26,Stroll,2021-07-05_21:51:02,13.3,1.0,0.0,8,39,0
27,Williams,2021-07-05_21:51:02,6.3,1.0,0.0,4,0,46
28,Sainz,2021-07-05_21:51:02,14.3,1.0,0.0,27,35,0
29,Alfa Romeo,2021-07-05_21:51:02,9.2,1.0,0.0,4,0,74
