,name,request_time,price,chance_of_playing,weekly_price_change,current_selection_percentage,probability_price_up_percentage,probability_price_down_percentage
0,Ferrari,2021-08-07_03:21:03,18.8,1.0,0.1,11,18,0
1,Williams,2021-08-07_03:21:03,6.3,1.0,0.0,4,0,34
2,McLaren,2021-08-07_03:21:03,18.7,1.0,0.1,28,0,11
3,Mercedes,2021-08-07_03:21:03,37.1,1.0,-0.1,8,0,3
4,Red Bull,2021-08-07_03:21:03,26.6,1.0,-0.1,35,0,73
5,Alpine,2021-08-07_03:21:03,15.1,1.0,0.0,4,0,59
6,AlphaTauri,2021-08-07_03:21:03,12.7,1.0,0.0,5,0,63
7,Alfa Romeo,2021-08-07_03:21:03,9.2,1.0,0.0,4,0,90
8,Aston Martin,2021-08-07_03:21:03,16.5,1.0,0.1,5,0,0
9,Haas,2021-08-07_03:21:03,6.1,1.0,0.0,4,0,27
10,Hamilton,2021-08-07_03:21:03,33.0,1.0,0.0,24,0,15
11,Bottas,2021-08-07_03:21:03,23.1,1.0,0.1,10,0,45
12,Verstappen,2021-08-07_03:21:03,25.7,1.0,0.0,60,36,0
13,Perez,2021-08-07_03:21:03,18.6,1.0,-0.2,34,0,51
14,Norris,2021-08-07_03:21:03,14.2,1.0,0.1,66,0,2
15,Ricciardo,2021-08-07_03:21:03,15.8,1.0,0.0,25,0,89
16,Stroll,2021-08-07_03:21:03,13.3,1.0,0.0,7,0,11
17,Vettel,2021-08-07_03:21:03,15.2,1.0,0.0,13,0,49
18,Ocon,2021-08-07_03:21:03,10.0,1.0,-0.1,19,88,0
19,Alonso,2021-08-07_03:21:03,14.9,1.0,0.1,11,46,0
20,Leclerc,2021-08-07_03:21:03,17.7,1.0,0.1,36,0,3
21,Sainz,2021-08-07_03:21:03,14.5,1.0,0.1,29,25,0
22,Gasly,2021-08-07_03:21:03,11.9,1.0,0.0,45,0,28
23,Tsunoda,2021-08-07_03:21:03,8.4,1.0,-0.1,22,0,5
24,Raikkonen,2021-08-07_03:21:03,9.3,1.0,0.0,12,0,75
25,Giovinazzi,2021-08-07_03:21:03,8.1,1.0,0.1,9,0,96
26,Schumacher,2021-08-07_03:21:03,5.8,1.0,0.0,27,0,6
27,Mazepin,2021-08-07_03:21:03,5.3,1.0,0.0,5,1,0
28,Russell,2021-08-07_03:21:03,6.2,1.0,0.0,42,8,0
29,Latifi,2021-08-07_03:21:03,6.4,1.0,0.0,4,0,56
