,name,request_time,price,chance_of_playing,weekly_price_change,current_selection_percentage,probability_price_up_percentage,probability_price_down_percentage
0,AlphaTauri,2021-05-29_12:51:02,12.6,1.0,-0.2,5,0,44
1,Perez,2021-05-29_12:51:02,18.0,1.0,-0.2,29,0,63
2,Alpine,2021-05-29_12:51:02,15.2,1.0,0.0,4,0,71
3,Williams,2021-05-29_12:51:02,6.3,1.0,0.0,4,0,34
4,Norris,2021-05-29_12:51:02,13.9,1.0,0.0,63,50,0
5,Sainz,2021-05-29_12:51:02,14.7,1.0,0.2,30,7,0
6,Alfa Romeo,2021-05-29_12:51:02,9.2,1.0,0.3,4,0,5
7,Mazepin,2021-05-29_12:51:02,5.3,1.0,0.0,5,0,15
8,Raikkonen,2021-05-29_12:51:02,9.4,1.0,0.1,14,36,0
9,Hamilton,2021-05-29_12:51:02,33.3,1.0,0.0,27,0,59
10,Gasly,2021-05-29_12:51:02,11.5,1.0,-0.2,40,35,0
11,Vettel,2021-05-29_12:51:02,14.9,1.0,-0.1,12,0,3
12,Tsunoda,2021-05-29_12:51:02,8.5,1.0,-0.1,22,0,63
13,Verstappen,2021-05-29_12:51:02,25.4,1.0,0.1,57,83,0
14,Red Bull,2021-05-29_12:51:02,26.0,1.0,-0.1,31,0,47
15,Mercedes,2021-05-29_12:51:02,37.4,1.0,-0.1,10,0,5
16,Aston Martin,2021-05-29_12:51:02,16.4,1.0,-0.1,5,0,0
17,Haas,2021-05-29_12:51:02,6.1,1.0,0.0,4,0,19
18,Latifi,2021-05-29_12:51:02,6.4,1.0,0.0,4,0,25
19,Russell,2021-05-29_12:51:02,6.2,1.0,-0.1,42,2,0
20,Alonso,2021-05-29_12:51:02,14.8,1.0,-0.2,9,0,75
21,McLaren,2021-05-29_12:51:02,18.7,1.0,-0.2,28,0,78
22,Giovinazzi,2021-05-29_12:51:02,7.9,1.0,0.1,9,71,0
23,Ricciardo,2021-05-29_12:51:02,16.1,1.0,-0.1,28,0,8
24,Schumacher,2021-05-29_12:51:02,5.8,1.0,-0.1,27,0,11
25,Leclerc,2021-05-29_12:51:02,18.3,1.0,0.3,42,68,0
26,Ocon,2021-05-29_12:51:02,10.5,1.0,0.2,23,0,34
27,Bottas,2021-05-29_12:51:02,23.1,1.0,-0.1,10,0,20
28,Ferrari,2021-05-29_12:51:02,19.7,1.0,0.2,15,1,0
29,Stroll,2021-05-29_12:51:02,13.4,1.0,-0.1,8,0,48
