,name,request_time,price,chance_of_playing,weekly_price_change,current_selection_percentage,probability_price_up_percentage,probability_price_down_percentage
0,Norris,2021-07-07_10:31:02,14.1,1.0,0.1,65,7,0
1,Sainz,2021-07-07_10:31:02,14.3,1.0,0.0,27,45,0
2,Alfa Romeo,2021-07-07_10:31:02,9.2,1.0,0.0,4,0,74
3,AlphaTauri,2021-07-07_10:31:02,12.7,1.0,0.0,6,32,0
4,Perez,2021-07-07_10:31:02,18.8,1.0,0.1,37,58,0
5,Alpine,2021-07-07_10:31:02,15.1,1.0,-0.1,4,0,61
6,Vettel,2021-07-07_10:31:02,15.2,1.0,0.0,13,0,9
7,Ocon,2021-07-07_10:31:02,10.1,1.0,-0.1,19,0,37
8,Red Bull,2021-07-07_10:31:02,26.7,1.0,0.1,36,8,0
9,Williams,2021-07-07_10:31:02,6.3,1.0,0.0,4,0,45
10,Giovinazzi,2021-07-07_10:31:02,8.0,1.0,0.0,9,71,0
11,Mazepin,2021-07-07_10:31:02,5.3,1.0,0.0,5,0,10
12,Raikkonen,2021-07-07_10:31:02,9.3,1.0,0.0,13,0,57
13,Hamilton,2021-07-07_10:31:02,33.0,1.0,-0.1,24,0,47
14,Gasly,2021-07-07_10:31:02,11.9,1.0,0.0,46,66,0
15,Tsunoda,2021-07-07_10:31:02,8.5,1.0,0.1,23,28,0
16,Bottas,2021-07-07_10:31:02,23.0,1.0,0.0,10,0,44
17,Ferrari,2021-07-07_10:31:02,18.7,1.0,0.0,11,0,44
18,Stroll,2021-07-07_10:31:02,13.3,1.0,0.0,8,37,0
19,Mercedes,2021-07-07_10:31:02,37.2,1.0,0.0,9,0,67
20,Aston Martin,2021-07-07_10:31:02,16.4,1.0,0.0,5,71,0
21,Haas,2021-07-07_10:31:02,6.1,1.0,0.0,4,0,27
22,McLaren,2021-07-07_10:31:02,18.6,1.0,0.0,27,0,42
23,Ricciardo,2021-07-07_10:31:02,15.8,1.0,-0.1,25,0,34
24,Schumacher,2021-07-07_10:31:02,5.8,1.0,0.0,27,1,0
25,Leclerc,2021-07-07_10:31:02,17.5,1.0,-0.1,34,0,15
26,Latifi,2021-07-07_10:31:02,6.4,1.0,0.0,4,0,54
27,Russell,2021-07-07_10:31:02,6.2,1.0,0.0,41,0,48
28,Alonso,2021-07-07_10:31:02,14.8,1.0,0.0,10,23,0
29,Verstappen,2021-07-07_10:31:02,25.7,1.0,0.1,61,48,0
