,name,request_time,price,chance_of_playing,weekly_price_change,current_selection_percentage,probability_price_up_percentage,probability_price_down_percentage
0,Stroll,2021-05-10_16:41:03,13.5,1.0,0.0,8,0,57
1,Raikkonen,2021-05-10_16:41:03,9.3,1.0,0.0,13,0,48
2,Perez,2021-05-10_16:41:03,18.1,1.0,-0.1,30,0,3
3,Alpine,2021-05-10_16:41:03,15.3,1.0,0.1,4,0,7
4,AlphaTauri,2021-05-10_16:41:03,12.8,1.0,0.0,6,0,52
5,Red Bull,2021-05-10_16:41:03,26.1,1.0,0.0,32,0,2
6,Gasly,2021-05-10_16:41:03,11.6,1.0,-0.1,40,0,47
7,Hamilton,2021-05-10_16:41:03,33.3,1.0,0.0,28,25,0
8,Vettel,2021-05-10_16:41:03,15.0,1.0,0.0,12,0,87
9,Ferrari,2021-05-10_16:41:03,18.7,1.0,0.0,11,4,0
10,Bottas,2021-05-10_16:41:03,23.2,1.0,-0.1,11,0,5
11,Mazepin,2021-05-10_16:41:03,5.3,1.0,0.0,5,0,47
12,Alonso,2021-05-10_16:41:03,14.9,1.0,-0.1,10,0,0
13,Verstappen,2021-05-10_16:41:03,25.3,1.0,0.0,56,87,0
14,Leclerc,2021-05-10_16:41:03,18.1,1.0,0.1,40,10,0
15,Schumacher,2021-05-10_16:41:03,5.8,1.0,0.0,28,85,0
16,Russell,2021-05-10_16:41:03,6.3,1.0,0.0,42,0,97
17,Tsunoda,2021-05-10_16:41:03,8.8,1.0,-0.1,26,0,23
18,Ocon,2021-05-10_16:41:03,10.4,1.0,0.1,23,99,0
19,McLaren,2021-05-10_16:41:03,18.9,1.0,0.0,30,3,0
20,Ricciardo,2021-05-10_16:41:03,16.2,1.0,0.0,29,14,0
21,Latifi,2021-05-10_16:41:03,6.4,1.0,0.0,4,0,21
22,Aston Martin,2021-05-10_16:41:03,16.5,1.0,0.0,5,0,43
23,Williams,2021-05-10_16:41:03,6.3,1.0,0.0,4,0,39
24,Haas,2021-05-10_16:41:03,6.1,1.0,0.0,4,0,18
25,Mercedes,2021-05-10_16:41:03,37.6,1.0,0.0,10,0,71
26,Giovinazzi,2021-05-10_16:41:03,7.8,1.0,0.0,7,0,42
27,Norris,2021-05-10_16:41:03,13.9,1.0,0.0,63,10,0
28,Alfa Romeo,2021-05-10_16:41:03,8.9,1.0,0.0,4,58,0
29,Sainz,2021-05-10_16:41:03,14.3,1.0,0.0,26,0,21
