,name,request_time,price,chance_of_playing,weekly_price_change,current_selection_percentage,probability_price_up_percentage,probability_price_down_percentage
0,Hamilton,2021-05-07_07:51:03,33.3,1.0,-0.1,27,0,0
1,Raikkonen,2021-05-07_07:51:03,9.3,1.0,-0.1,13,0,17
2,Gasly,2021-05-07_07:51:03,11.7,1.0,0.0,42,0,32
3,Red Bull,2021-05-07_07:51:03,26.1,1.0,0.0,32,0,4
4,Stroll,2021-05-07_07:51:03,13.6,1.0,0.0,9,0,65
5,AlphaTauri,2021-05-07_07:51:03,12.9,1.0,-0.2,6,0,42
6,Perez,2021-05-07_07:51:03,18.3,1.0,0.0,31,0,48
7,Alpine,2021-05-07_07:51:03,15.2,1.0,0.2,4,49,0
8,Mazepin,2021-05-07_07:51:03,5.3,1.0,0.0,5,0,45
9,Vettel,2021-05-07_07:51:03,15.0,1.0,-0.1,12,0,41
10,Tsunoda,2021-05-07_07:51:03,9.0,1.0,-0.3,28,0,32
11,Russell,2021-05-07_07:51:03,6.3,1.0,0.1,43,0,31
12,Alonso,2021-05-07_07:51:03,15.0,1.0,0.0,10,0,88
13,Verstappen,2021-05-07_07:51:03,25.3,1.0,0.0,56,71,0
14,McLaren,2021-05-07_07:51:03,18.9,1.0,0.1,30,29,0
15,Ricciardo,2021-05-07_07:51:03,16.3,1.0,-0.2,29,0,13
16,Leclerc,2021-05-07_07:51:03,17.9,1.0,0.1,38,28,0
17,Schumacher,2021-05-07_07:51:03,5.7,1.0,0.0,26,46,0
18,Ocon,2021-05-07_07:51:03,10.2,1.0,0.4,20,28,0
19,Bottas,2021-05-07_07:51:03,23.3,1.0,0.0,11,0,72
20,Ferrari,2021-05-07_07:51:03,18.8,1.0,-0.1,11,0,94
21,Haas,2021-05-07_07:51:03,6.1,1.0,0.0,4,0,27
22,Latifi,2021-05-07_07:51:03,6.4,1.0,-0.1,4,0,12
23,Williams,2021-05-07_07:51:03,6.3,1.0,0.0,4,0,39
24,Giovinazzi,2021-05-07_07:51:03,7.8,1.0,0.0,7,0,59
25,Mercedes,2021-05-07_07:51:03,37.6,1.0,0.0,10,0,64
26,Aston Martin,2021-05-07_07:51:03,16.6,1.0,0.0,5,0,91
27,Norris,2021-05-07_07:51:03,13.8,1.0,0.1,62,35,0
28,Sainz,2021-05-07_07:51:03,14.4,1.0,0.1,27,0,72
29,Alfa Romeo,2021-05-07_07:51:03,8.9,1.0,0.0,4,35,0
