,name,request_time,price,chance_of_playing,weekly_price_change,current_selection_percentage,probability_price_up_percentage,probability_price_down_percentage
0,AlphaTauri,2021-06-20_16:11:03,12.6,1.0,0.0,5,7,0
1,Perez,2021-06-20_16:11:03,18.4,1.0,0.2,33,85,0
2,Alpine,2021-06-20_16:11:03,15.3,1.0,0.1,4,41,0
3,Williams,2021-06-20_16:11:03,6.3,1.0,0.0,4,0,44
4,Norris,2021-06-20_16:11:03,13.9,1.0,0.0,63,52,0
5,Sainz,2021-06-20_16:11:03,14.7,1.0,0.0,30,0,27
6,Mazepin,2021-06-20_16:11:03,5.3,1.0,0.0,5,0,22
7,Raikkonen,2021-06-20_16:11:03,9.3,1.0,-0.1,13,0,24
8,Hamilton,2021-06-20_16:11:03,33.1,1.0,-0.1,25,0,13
9,Gasly,2021-06-20_16:11:03,11.8,1.0,0.2,43,0,25
10,Vettel,2021-06-20_16:11:03,15.0,1.0,0.1,13,76,0
11,Tsunoda,2021-06-20_16:11:03,8.4,1.0,0.0,22,8,0
12,Verstappen,2021-06-20_16:11:03,25.5,1.0,0.0,58,67,0
13,Alfa Romeo,2021-06-20_16:11:03,9.2,1.0,0.0,4,0,44
14,Red Bull,2021-06-20_16:11:03,26.3,1.0,0.2,33,16,0
15,Mercedes,2021-06-20_16:11:03,37.3,1.0,-0.1,9,0,37
16,Aston Martin,2021-06-20_16:11:03,16.4,1.0,0.0,5,38,0
17,Haas,2021-06-20_16:11:03,6.1,1.0,0.0,4,0,23
18,Latifi,2021-06-20_16:11:03,6.4,1.0,0.0,4,0,35
19,Russell,2021-06-20_16:11:03,6.2,1.0,0.0,40,0,93
20,Alonso,2021-06-20_16:11:03,14.8,1.0,0.0,10,51,0
21,McLaren,2021-06-20_16:11:03,18.6,1.0,0.0,27,0,57
22,Giovinazzi,2021-06-20_16:11:03,8.0,1.0,0.0,9,58,0
23,Ricciardo,2021-06-20_16:11:03,15.9,1.0,-0.2,26,0,44
24,Schumacher,2021-06-20_16:11:03,5.8,1.0,0.0,26,0,16
25,Leclerc,2021-06-20_16:11:03,18.0,1.0,-0.3,38,0,62
26,Ocon,2021-06-20_16:11:03,10.4,1.0,-0.1,23,81,0
27,Bottas,2021-06-20_16:11:03,23.0,1.0,-0.1,10,83,0
28,Ferrari,2021-06-20_16:11:03,19.2,1.0,-0.5,13,0,39
29,Stroll,2021-06-20_16:11:03,13.3,1.0,-0.1,7,0,18
