,name,request_time,price,chance_of_playing,weekly_price_change,current_selection_percentage,probability_price_up_percentage,probability_price_down_percentage
0,Gasly,2021-09-02_04:41:02,11.9,1.0,0.0,45,0,3
1,Vettel,2021-09-02_04:41:02,15.2,1.0,0.0,14,81,0
2,Tsunoda,2021-09-02_04:41:02,8.4,1.0,-0.1,21,0,54
3,Ocon,2021-09-02_04:41:02,10.2,1.0,0.2,20,11,0
4,Williams,2021-09-02_04:41:02,6.3,1.0,0.0,4,0,16
5,Norris,2021-09-02_04:41:02,14.2,1.0,0.0,66,10,0
6,Bottas,2021-09-02_04:41:02,23.0,1.0,0.0,10,0,42
7,Ferrari,2021-09-02_04:41:02,18.8,1.0,0.1,11,0,71
8,Red Bull,2021-09-02_04:41:02,26.6,1.0,0.1,35,11,0
9,Stroll,2021-09-02_04:41:02,13.3,1.0,0.0,7,0,11
10,Hamilton,2021-09-02_04:41:02,33.0,1.0,0.0,24,0,16
11,Mazepin,2021-09-02_04:41:02,5.3,1.0,0.0,5,0,10
12,Mercedes,2021-09-02_04:41:02,37.1,1.0,0.0,8,0,13
13,AlphaTauri,2021-09-02_04:41:02,12.7,1.0,0.0,5,0,86
14,Aston Martin,2021-09-02_04:41:02,16.5,1.0,0.1,5,0,51
15,Haas,2021-09-02_04:41:02,6.1,1.0,0.0,4,0,25
16,Perez,2021-09-02_04:41:02,18.5,1.0,-0.2,34,36,0
17,Alpine,2021-09-02_04:41:02,15.1,1.0,0.0,4,60,0
18,Raikkonen,2021-09-02_04:41:02,9.2,1.0,-0.1,12,0,9
19,Sainz,2021-09-02_04:41:02,14.5,1.0,0.1,29,49,0
20,Alfa Romeo,2021-09-02_04:41:02,9.1,1.0,-0.1,4,0,0
21,McLaren,2021-09-02_04:41:02,18.7,1.0,0.1,28,0,53
22,Ricciardo,2021-09-02_04:41:02,15.7,1.0,-0.1,24,0,44
23,Schumacher,2021-09-02_04:41:02,5.8,1.0,0.0,26,0,30
24,Leclerc,2021-09-02_04:41:02,17.6,1.0,0.0,35,0,53
25,Giovinazzi,2021-09-02_04:41:02,8.0,1.0,-0.1,9,0,53
26,Latifi,2021-09-02_04:41:02,6.4,1.0,0.0,4,0,46
27,Russell,2021-09-02_04:41:02,6.2,1.0,0.0,43,29,0
28,Alonso,2021-09-02_04:41:02,15.0,1.0,0.1,11,52,0
29,Verstappen,2021-09-02_04:41:02,25.7,1.0,0.0,61,57,0
