,name,request_time,price,chance_of_playing,weekly_price_change,current_selection_percentage,probability_price_up_percentage,probability_price_down_percentage
0,Mercedes,2021-04-01_14:10:02,37.9,1.0,-0.1,12,0,14
1,McLaren,2021-04-01_14:10:02,18.9,1.0,0.0,30,9,0
2,Red Bull,2021-04-01_14:10:02,26.0,1.0,0.100000000000001,31,54,0
3,Alpine,2021-04-01_14:10:02,15.3,1.0,-0.0999999999999996,3,0,91
4,Raikkonen,2021-04-01_14:10:02,9.6,1.0,0.0,15,0,80
5,Haas,2021-04-01_14:10:02,6.1,1.0,0.0,1,0,15
6,Hamilton,2021-04-01_14:10:02,33.5,1.0,0.0,29,0,67
7,Schumacher,2021-04-01_14:10:02,5.8,1.0,0.0,27,0,9
8,Ferrari,2021-04-01_14:10:02,18.2,1.0,0.0999999999999979,8,67,0
9,AlphaTauri,2021-04-01_14:10:02,12.9,1.0,0.200000000000001,6,30,0
10,Perez,2021-04-01_14:10:02,18.3,1.0,-0.0999999999999979,32,1,0
11,Vettel,2021-04-01_14:10:02,15.8,1.0,-0.399999999999999,17,0,50
12,Latifi,2021-04-01_14:10:02,6.5,1.0,0.0,4,0,40
13,Alfa Romeo,2021-04-01_14:10:02,8.9,1.0,0.0,1,0,0
14,Stroll,2021-04-01_14:10:02,13.8,1.0,-0.0999999999999996,10,0,33
15,Sainz,2021-04-01_14:10:02,14.4,1.0,0.0,27,0,60
16,Giovinazzi,2021-04-01_14:10:02,7.9,1.0,0.0,8,0,42
17,Russell,2021-04-01_14:10:02,6.2,1.0,0.0,42,0,7
18,Aston Martin,2021-04-01_14:10:02,17.2,1.0,-0.4,7,0,19
19,Leclerc,2021-04-01_14:10:02,17.1,1.0,0.300000000000001,30,66,0
20,Bottas,2021-04-01_14:10:02,23.5,1.0,-0.100000000000001,12,0,14
21,Norris,2021-04-01_14:10:02,13.2,1.0,0.0999999999999996,53,92,0
22,Verstappen,2021-04-01_14:10:02,25.0,1.0,0.2,52,21,0
23,Mazepin,2021-04-01_14:10:02,5.4,1.0,-0.0999999999999996,5,0,23
24,Tsunoda,2021-04-01_14:10:02,9.1,1.0,0.3,30,22,0
25,Gasly,2021-04-01_14:10:02,11.7,1.0,0.0,43,99,0
26,Williams,2021-04-01_14:10:02,6.3,1.0,0.0,1,0,21
27,Ricciardo,2021-04-01_14:10:02,17.1,1.0,-0.199999999999999,37,0,54
28,Ocon,2021-04-01_14:10:02,9.9,1.0,-0.199999999999999,15,0,45
29,Alonso,2021-04-01_14:10:02,15.4,1.0,-0.199999999999999,13,0,34
