,name,request_time,price,chance_of_playing,weekly_price_change,current_selection_percentage,probability_price_up_percentage,probability_price_down_percentage
0,Bottas,2021-04-16_19:01:03,23.5,1.0,-0.100000000000001,12,0,51
1,Williams,2021-04-16_19:01:03,6.3,1.0,0.0,4,0,37
2,Ocon,2021-04-16_19:01:03,9.7,1.0,-0.4,14,0,26
3,Hamilton,2021-04-16_19:01:03,33.4,1.0,-0.1,28,0,41
4,Mercedes,2021-04-16_19:01:03,37.8,1.0,-0.2,11,0,33
5,AlphaTauri,2021-04-16_19:01:03,13.2,1.0,0.5,7,11,0
6,Mazepin,2021-04-16_19:01:03,5.4,1.0,-0.0999999999999996,5,0,91
7,Haas,2021-04-16_19:01:03,6.1,1.0,0.0,4,0,26
8,Raikkonen,2021-04-16_19:01:03,9.5,1.0,-0.1,14,0,62
9,Schumacher,2021-04-16_19:01:03,5.8,1.0,0.0,25,0,81
10,Latifi,2021-04-16_19:01:03,6.5,1.0,0.0,4,0,56
11,Norris,2021-04-16_19:01:03,13.4,1.0,0.3,56,43,0
12,Vettel,2021-04-16_19:01:03,15.5,1.0,-0.7,15,0,59
13,Alfa Romeo,2021-04-16_19:01:03,8.9,1.0,0.0,4,3,0
14,Alpine,2021-04-16_19:01:03,15.1,1.0,-0.3,4,0,31
15,Russell,2021-04-16_19:01:03,6.2,1.0,0.0,42,24,0
16,Giovinazzi,2021-04-16_19:01:03,7.9,1.0,0.0,8,0,89
17,Stroll,2021-04-16_19:01:03,13.7,1.0,-0.2,9,0,70
18,Sainz,2021-04-16_19:01:03,14.3,1.0,-0.1,26,0,34
19,Ricciardo,2021-04-16_19:01:03,16.8,1.0,-0.5,34,0,7
20,Ferrari,2021-04-16_19:01:03,18.6,1.0,0.5,10,18,0
21,Leclerc,2021-04-16_19:01:03,17.4,1.0,0.6,32,1,0
22,Tsunoda,2021-04-16_19:01:03,9.4,1.0,0.6,34,1,0
23,Aston Martin,2021-04-16_19:01:03,16.9,1.0,-0.7,6,0,12
24,Perez,2021-04-16_19:01:03,18.4,1.0,0.0,33,37,0
25,Red Bull,2021-04-16_19:01:03,26.0,1.0,0.100000000000001,31,57,0
26,McLaren,2021-04-16_19:01:03,18.8,1.0,-0.1,29,0,42
27,Verstappen,2021-04-16_19:01:03,25.1,1.0,0.3,54,53,0
28,Alonso,2021-04-16_19:01:03,15.2,1.0,-0.4,12,0,44
29,Gasly,2021-04-16_19:01:03,11.7,1.0,0.0,42,0,8
