,name,request_time,price,chance_of_playing,weekly_price_change,current_selection_percentage,probability_price_up_percentage,probability_price_down_percentage
0,AlphaTauri,2021-06-05_01:41:03,12.6,1.0,-0.2,5,0,55
1,Perez,2021-06-05_01:41:03,18.0,1.0,-0.2,29,9,0
2,Alpine,2021-06-05_01:41:03,15.2,1.0,0.0,4,0,89
3,Williams,2021-06-05_01:41:03,6.3,1.0,0.0,4,0,37
4,Norris,2021-06-05_01:41:03,13.9,1.0,0.0,63,64,0
5,Sainz,2021-06-05_01:41:03,14.7,1.0,0.2,31,67,0
6,Alfa Romeo,2021-06-05_01:41:03,9.2,1.0,0.3,4,0,11
7,Mazepin,2021-06-05_01:41:03,5.3,1.0,0.0,5,0,17
8,Hamilton,2021-06-05_01:41:03,33.2,1.0,-0.1,26,0,12
9,Raikkonen,2021-06-05_01:41:03,9.4,1.0,0.1,14,13,0
10,Gasly,2021-06-05_01:41:03,11.5,1.0,-0.2,40,77,0
11,Vettel,2021-06-05_01:41:03,14.9,1.0,-0.1,12,7,0
12,Tsunoda,2021-06-05_01:41:03,8.4,1.0,-0.2,22,0,4
13,Verstappen,2021-06-05_01:41:03,25.5,1.0,0.1,58,21,0
14,Red Bull,2021-06-05_01:41:03,26.0,1.0,-0.1,31,5,0
15,Mercedes,2021-06-05_01:41:03,37.4,1.0,-0.1,10,0,41
16,Haas,2021-06-05_01:41:03,6.1,1.0,0.0,4,0,22
17,Aston Martin,2021-06-05_01:41:03,16.4,1.0,-0.1,5,1,0
18,Latifi,2021-06-05_01:41:03,6.4,1.0,0.0,4,0,29
19,Russell,2021-06-05_01:41:03,6.2,1.0,-0.1,42,0,7
20,Alonso,2021-06-05_01:41:03,14.8,1.0,-0.2,9,0,93
21,McLaren,2021-06-05_01:41:03,18.6,1.0,-0.1,27,0,3
22,Giovinazzi,2021-06-05_01:41:03,8.0,1.0,0.2,9,37,0
23,Ricciardo,2021-06-05_01:41:03,16.1,1.0,-0.1,27,0,65
24,Ocon,2021-06-05_01:41:03,10.5,1.0,0.2,23,0,59
25,Leclerc,2021-06-05_01:41:03,18.3,1.0,0.3,42,45,0
26,Schumacher,2021-06-05_01:41:03,5.8,1.0,-0.1,26,0,31
27,Bottas,2021-06-05_01:41:03,23.1,1.0,-0.1,10,0,44
28,Ferrari,2021-06-05_01:41:03,19.7,1.0,0.2,15,20,0
29,Stroll,2021-06-05_01:41:03,13.4,1.0,-0.1,8,0,61
