,name,request_time,price,chance_of_playing,weekly_price_change,current_selection_percentage,probability_price_up_percentage,probability_price_down_percentage
0,Stroll,2021-07-07_19:41:02,13.3,1.0,0.0,8,36,0
1,Williams,2021-07-07_19:41:02,6.3,1.0,0.0,4,0,46
2,Norris,2021-07-07_19:41:02,14.1,1.0,0.1,65,8,0
3,Gasly,2021-07-07_19:41:02,11.9,1.0,0.0,46,66,0
4,Vettel,2021-07-07_19:41:02,15.2,1.0,0.0,13,0,10
5,Tsunoda,2021-07-07_19:41:02,8.5,1.0,0.1,23,27,0
6,Ocon,2021-07-07_19:41:02,10.1,1.0,-0.1,19,0,40
7,Bottas,2021-07-07_19:41:02,23.0,1.0,0.0,10,0,43
8,Ferrari,2021-07-07_19:41:02,18.7,1.0,0.0,11,0,46
9,Red Bull,2021-07-07_19:41:02,26.7,1.0,0.1,36,10,0
10,Hamilton,2021-07-07_19:41:02,33.0,1.0,-0.1,24,0,48
11,Mazepin,2021-07-07_19:41:02,5.3,1.0,0.0,5,0,10
12,Mercedes,2021-07-07_19:41:02,37.2,1.0,0.0,9,0,68
13,AlphaTauri,2021-07-07_19:41:02,12.7,1.0,0.0,6,32,0
14,Aston Martin,2021-07-07_19:41:02,16.4,1.0,0.0,5,70,0
15,Haas,2021-07-07_19:41:02,6.1,1.0,0.0,4,0,26
16,Perez,2021-07-07_19:41:02,18.8,1.0,0.1,37,58,0
17,Alpine,2021-07-07_19:41:02,15.1,1.0,-0.1,4,0,62
18,Raikkonen,2021-07-07_19:41:02,9.3,1.0,0.0,13,0,57
19,McLaren,2021-07-07_19:41:02,18.6,1.0,0.0,27,0,42
20,Ricciardo,2021-07-07_19:41:02,15.8,1.0,-0.1,25,0,37
21,Schumacher,2021-07-07_19:41:02,5.8,1.0,0.0,27,1,0
22,Leclerc,2021-07-07_19:41:02,17.5,1.0,-0.1,34,0,17
23,Giovinazzi,2021-07-07_19:41:02,8.0,1.0,0.0,9,71,0
24,Sainz,2021-07-07_19:41:02,14.3,1.0,0.0,27,47,0
25,Alfa Romeo,2021-07-07_19:41:02,9.2,1.0,0.0,4,0,76
26,Latifi,2021-07-07_19:41:02,6.4,1.0,0.0,4,0,55
27,Russell,2021-07-07_19:41:02,6.2,1.0,0.0,41,0,47
28,Alonso,2021-07-07_19:41:02,14.8,1.0,0.0,10,24,0
29,Verstappen,2021-07-07_19:41:02,25.7,1.0,0.1,61,50,0
