,name,request_time,price,chance_of_playing,weekly_price_change,current_selection_percentage,probability_price_up_percentage,probability_price_down_percentage
0,Gasly,2021-08-18_00:21:03,11.9,1.0,0.0,45,0,28
1,Vettel,2021-08-18_00:21:03,15.2,1.0,0.0,13,0,42
2,Tsunoda,2021-08-18_00:21:03,8.4,1.0,-0.1,22,0,12
3,Ocon,2021-08-18_00:21:03,10.1,1.0,0.1,20,2,0
4,Williams,2021-08-18_00:21:03,6.3,1.0,0.0,4,0,30
5,Norris,2021-08-18_00:21:03,14.2,1.0,0.1,66,0,0
6,Bottas,2021-08-18_00:21:03,23.1,1.0,0.1,10,0,52
7,Ferrari,2021-08-18_00:21:03,18.8,1.0,0.1,11,45,0
8,Red Bull,2021-08-18_00:21:03,26.6,1.0,-0.1,35,0,80
9,Stroll,2021-08-18_00:21:03,13.3,1.0,0.0,7,0,15
10,Hamilton,2021-08-18_00:21:03,33.0,1.0,0.0,24,0,13
11,Mazepin,2021-08-18_00:21:03,5.3,1.0,0.0,5,2,0
12,Mercedes,2021-08-18_00:21:03,37.1,1.0,-0.1,8,0,3
13,Aston Martin,2021-08-18_00:21:03,16.5,1.0,0.1,5,0,16
14,Haas,2021-08-18_00:21:03,6.1,1.0,0.0,4,0,26
15,AlphaTauri,2021-08-18_00:21:03,12.7,1.0,0.0,5,0,64
16,Perez,2021-08-18_00:21:03,18.6,1.0,-0.2,34,0,67
17,Alpine,2021-08-18_00:21:03,15.1,1.0,0.0,4,0,52
18,Raikkonen,2021-08-18_00:21:03,9.3,1.0,0.0,12,0,79
19,Sainz,2021-08-18_00:21:03,14.5,1.0,0.1,29,40,0
20,Alfa Romeo,2021-08-18_00:21:03,9.2,1.0,0.0,4,0,92
21,McLaren,2021-08-18_00:21:03,18.7,1.0,0.1,28,0,12
22,Ricciardo,2021-08-18_00:21:03,15.7,1.0,-0.1,25,0,3
23,Schumacher,2021-08-18_00:21:03,5.8,1.0,0.0,27,0,11
24,Leclerc,2021-08-18_00:21:03,17.7,1.0,0.1,36,0,8
25,Giovinazzi,2021-08-18_00:21:03,8.0,1.0,-0.1,9,0,5
26,Latifi,2021-08-18_00:21:03,6.4,1.0,0.0,4,0,52
27,Russell,2021-08-18_00:21:03,6.2,1.0,0.0,42,10,0
28,Alonso,2021-08-18_00:21:03,14.9,1.0,0.1,11,76,0
29,Verstappen,2021-08-18_00:21:03,25.7,1.0,0.0,60,34,0
