,name,request_time,price,chance_of_playing,weekly_price_change,current_selection_percentage,probability_price_up_percentage,probability_price_down_percentage
0,AlphaTauri,2021-05-15_02:11:03,12.8,1.0,0.0,6,0,78
1,Perez,2021-05-15_02:11:03,18.1,1.0,-0.1,30,0,36
2,Alpine,2021-05-15_02:11:03,15.3,1.0,0.1,4,0,14
3,Gasly,2021-05-15_02:11:03,11.6,1.0,-0.1,40,0,80
4,Vettel,2021-05-15_02:11:03,14.9,1.0,-0.1,12,0,9
5,Tsunoda,2021-05-15_02:11:03,8.8,1.0,-0.1,26,0,78
6,Verstappen,2021-05-15_02:11:03,25.3,1.0,0.0,56,97,0
7,Mazepin,2021-05-15_02:11:03,5.3,1.0,0.0,5,0,49
8,Hamilton,2021-05-15_02:11:03,33.3,1.0,0.0,28,27,0
9,Raikkonen,2021-05-15_02:11:03,9.3,1.0,0.0,13,0,44
10,Mercedes,2021-05-15_02:11:03,37.6,1.0,0.0,10,0,78
11,Aston Martin,2021-05-15_02:11:03,16.5,1.0,0.0,5,0,64
12,Haas,2021-05-15_02:11:03,6.1,1.0,0.0,4,0,17
13,Latifi,2021-05-15_02:11:03,6.4,1.0,0.0,4,0,23
14,Russell,2021-05-15_02:11:03,6.2,1.0,-0.1,42,0,1
15,Alonso,2021-05-15_02:11:03,14.9,1.0,-0.1,10,0,26
16,McLaren,2021-05-15_02:11:03,18.9,1.0,0.0,30,0,10
17,Ricciardo,2021-05-15_02:11:03,16.2,1.0,0.0,29,34,0
18,Leclerc,2021-05-15_02:11:03,18.1,1.0,0.1,40,55,0
19,Schumacher,2021-05-15_02:11:03,5.9,1.0,0.1,29,17,0
20,Ocon,2021-05-15_02:11:03,10.5,1.0,0.2,24,68,0
21,Bottas,2021-05-15_02:11:03,23.2,1.0,-0.1,11,0,18
22,Ferrari,2021-05-15_02:11:03,18.7,1.0,0.0,11,37,0
23,Red Bull,2021-05-15_02:11:03,26.1,1.0,0.0,32,5,0
24,Stroll,2021-05-15_02:11:03,13.5,1.0,0.0,8,0,78
25,Williams,2021-05-15_02:11:03,6.3,1.0,0.0,4,0,37
26,Norris,2021-05-15_02:11:03,13.9,1.0,0.0,63,15,0
27,Giovinazzi,2021-05-15_02:11:03,7.8,1.0,0.0,7,0,44
28,Sainz,2021-05-15_02:11:03,14.3,1.0,0.0,26,0,42
29,Alfa Romeo,2021-05-15_02:11:03,9.0,1.0,0.1,4,0,0
