,name,request_time,price,chance_of_playing,weekly_price_change,current_selection_percentage,probability_price_up_percentage,probability_price_down_percentage
0,AlphaTauri,2021-07-06_09:01:02,12.7,1.0,0.0,6,32,0
1,Perez,2021-07-06_09:01:02,18.8,1.0,0.1,37,59,0
2,Alpine,2021-07-06_09:01:02,15.1,1.0,-0.1,4,0,59
3,Vettel,2021-07-06_09:01:02,15.2,1.0,0.0,13,0,5
4,Ocon,2021-07-06_09:01:02,10.1,1.0,-0.1,19,0,26
5,Red Bull,2021-07-06_09:01:02,26.7,1.0,0.1,36,1,0
6,Stroll,2021-07-06_09:01:02,13.3,1.0,0.0,8,40,0
7,Williams,2021-07-06_09:01:02,6.3,1.0,0.0,4,0,45
8,Norris,2021-07-06_09:01:02,14.1,1.0,0.1,65,1,0
9,Sainz,2021-07-06_09:01:02,14.3,1.0,0.0,27,38,0
10,Alfa Romeo,2021-07-06_09:01:02,9.2,1.0,0.0,4,0,74
11,Mazepin,2021-07-06_09:01:02,5.3,1.0,0.0,5,0,9
12,Hamilton,2021-07-06_09:01:02,33.0,1.0,-0.1,24,0,42
13,Raikkonen,2021-07-06_09:01:02,9.3,1.0,0.0,13,0,55
14,Gasly,2021-07-06_09:01:02,11.9,1.0,0.0,46,63,0
15,Tsunoda,2021-07-06_09:01:02,8.5,1.0,0.1,23,29,0
16,Bottas,2021-07-06_09:01:02,23.0,1.0,0.0,10,0,45
17,Ferrari,2021-07-06_09:01:02,18.7,1.0,0.0,11,0,38
18,Giovinazzi,2021-07-06_09:01:02,8.0,1.0,0.0,9,66,0
19,Mercedes,2021-07-06_09:01:02,37.2,1.0,0.0,9,0,63
20,Aston Martin,2021-07-06_09:01:02,16.4,1.0,0.0,5,69,0
21,Haas,2021-07-06_09:01:02,6.1,1.0,0.0,4,0,27
22,McLaren,2021-07-06_09:01:02,18.6,1.0,0.0,27,0,42
23,Ricciardo,2021-07-06_09:01:02,15.8,1.0,-0.1,25,0,28
24,Schumacher,2021-07-06_09:01:02,5.8,1.0,0.0,27,0,0
25,Leclerc,2021-07-06_09:01:02,17.5,1.0,-0.1,34,0,8
26,Latifi,2021-07-06_09:01:02,6.4,1.0,0.0,4,0,53
27,Russell,2021-07-06_09:01:02,6.2,1.0,0.0,41,0,49
28,Alonso,2021-07-06_09:01:02,14.8,1.0,0.0,10,20,0
29,Verstappen,2021-07-06_09:01:02,25.7,1.0,0.1,60,42,0
