,name,request_time,price,chance_of_playing,weekly_price_change,current_selection_percentage,probability_price_up_percentage,probability_price_down_percentage
0,Gasly,2021-08-01_15:31:03,11.9,1.0,0.0,45,0,26
1,Vettel,2021-08-01_15:31:03,15.2,1.0,0.0,13,0,61
2,Tsunoda,2021-08-01_15:31:03,8.5,1.0,0.0,22,0,92
3,Ocon,2021-08-01_15:31:03,10.0,1.0,-0.1,19,26,0
4,Bottas,2021-08-01_15:31:03,23.1,1.0,0.1,10,0,1
5,Williams,2021-08-01_15:31:03,6.3,1.0,0.0,4,0,35
6,Norris,2021-08-01_15:31:03,14.2,1.0,0.1,66,0,4
7,Ferrari,2021-08-01_15:31:03,18.8,1.0,0.1,11,8,0
8,Red Bull,2021-08-01_15:31:03,26.6,1.0,-0.1,35,0,51
9,Stroll,2021-08-01_15:31:03,13.3,1.0,0.0,8,0,1
10,Raikkonen,2021-08-01_15:31:03,9.3,1.0,0.0,13,0,65
11,Mazepin,2021-08-01_15:31:03,5.3,1.0,0.0,5,4,0
12,Mercedes,2021-08-01_15:31:03,37.1,1.0,-0.1,8,0,0
13,Aston Martin,2021-08-01_15:31:03,16.4,1.0,0.0,5,44,0
14,AlphaTauri,2021-08-01_15:31:03,12.7,1.0,0.0,5,0,58
15,Haas,2021-08-01_15:31:03,6.1,1.0,0.0,4,0,26
16,Perez,2021-08-01_15:31:03,18.6,1.0,-0.2,34,0,19
17,Alpine,2021-08-01_15:31:03,15.1,1.0,0.0,4,0,68
18,Hamilton,2021-08-01_15:31:03,33.0,1.0,0.0,24,0,22
19,McLaren,2021-08-01_15:31:03,18.6,1.0,0.0,28,98,0
20,Ricciardo,2021-08-01_15:31:03,15.8,1.0,0.0,25,0,66
21,Schumacher,2021-08-01_15:31:03,5.8,1.0,0.0,27,1,0
22,Leclerc,2021-08-01_15:31:03,17.6,1.0,0.1,36,86,0
23,Giovinazzi,2021-08-01_15:31:03,8.1,1.0,0.1,9,0,73
24,Sainz,2021-08-01_15:31:03,14.4,1.0,0.0,28,96,0
25,Alfa Romeo,2021-08-01_15:31:03,9.2,1.0,0.0,4,0,84
26,Latifi,2021-08-01_15:31:03,6.4,1.0,0.0,4,0,57
27,Russell,2021-08-01_15:31:03,6.2,1.0,0.0,42,3,0
28,Alonso,2021-08-01_15:31:03,14.9,1.0,0.1,11,13,0
29,Verstappen,2021-08-01_15:31:03,25.7,1.0,0.0,60,37,0
