,name,request_time,price,chance_of_playing,weekly_price_change,current_selection_percentage,probability_price_up_percentage,probability_price_down_percentage
0,Gasly,2021-08-01_23:41:02,11.9,1.0,0.0,45,0,28
1,Vettel,2021-08-01_23:41:02,15.2,1.0,0.0,13,0,54
2,Tsunoda,2021-08-01_23:41:02,8.5,1.0,0.0,22,0,95
3,Ocon,2021-08-01_23:41:02,10.0,1.0,-0.1,19,53,0
4,Bottas,2021-08-01_23:41:02,23.1,1.0,0.1,10,0,24
5,Ferrari,2021-08-01_23:41:02,18.8,1.0,0.1,11,8,0
6,Red Bull,2021-08-01_23:41:02,26.6,1.0,-0.1,35,0,57
7,Stroll,2021-08-01_23:41:02,13.3,1.0,0.0,8,0,4
8,Williams,2021-08-01_23:41:02,6.3,1.0,0.0,4,0,36
9,Norris,2021-08-01_23:41:02,14.2,1.0,0.1,66,0,5
10,Raikkonen,2021-08-01_23:41:02,9.3,1.0,0.0,13,0,68
11,Mazepin,2021-08-01_23:41:02,5.3,1.0,0.0,5,4,0
12,Mercedes,2021-08-01_23:41:02,37.1,1.0,-0.1,8,0,0
13,Haas,2021-08-01_23:41:02,6.1,1.0,0.0,4,0,27
14,Aston Martin,2021-08-01_23:41:02,16.4,1.0,0.0,5,47,0
15,AlphaTauri,2021-08-01_23:41:02,12.7,1.0,0.0,5,0,59
16,Perez,2021-08-01_23:41:02,18.6,1.0,-0.2,34,0,27
17,Alpine,2021-08-01_23:41:02,15.1,1.0,0.0,4,0,67
18,Hamilton,2021-08-01_23:41:02,33.0,1.0,0.0,24,0,20
19,McLaren,2021-08-01_23:41:02,18.7,1.0,0.1,28,0,0
20,Ricciardo,2021-08-01_23:41:02,15.8,1.0,0.0,25,0,75
21,Leclerc,2021-08-01_23:41:02,17.6,1.0,0.1,36,90,0
22,Schumacher,2021-08-01_23:41:02,5.8,1.0,0.0,27,0,0
23,Giovinazzi,2021-08-01_23:41:02,8.1,1.0,0.1,9,0,80
24,Sainz,2021-08-01_23:41:02,14.5,1.0,0.1,28,5,0
25,Alfa Romeo,2021-08-01_23:41:02,9.2,1.0,0.0,4,0,87
26,Latifi,2021-08-01_23:41:02,6.4,1.0,0.0,4,0,58
27,Russell,2021-08-01_23:41:02,6.2,1.0,0.0,42,4,0
28,Alonso,2021-08-01_23:41:02,14.9,1.0,0.1,11,19,0
29,Verstappen,2021-08-01_23:41:02,25.7,1.0,0.0,60,35,0
