,name,request_time,price,chance_of_playing,weekly_price_change,current_selection_percentage,probability_price_up_percentage,probability_price_down_percentage
0,Alpine,2021-06-20_21:21:03,15.3,1.0,0.1,4,28,0
1,Bottas,2021-06-20_21:21:03,23.0,1.0,-0.1,10,77,0
2,Ferrari,2021-06-20_21:21:03,19.2,1.0,-0.5,12,0,90
3,Stroll,2021-06-20_21:21:03,13.3,1.0,-0.1,7,0,17
4,Williams,2021-06-20_21:21:03,6.3,1.0,0.0,4,0,44
5,Norris,2021-06-20_21:21:03,13.9,1.0,0.0,63,61,0
6,AlphaTauri,2021-06-20_21:21:03,12.6,1.0,0.0,5,7,0
7,Perez,2021-06-20_21:21:03,18.5,1.0,0.1,34,23,0
8,Alfa Romeo,2021-06-20_21:21:03,9.2,1.0,0.0,4,0,46
9,Mazepin,2021-06-20_21:21:03,5.3,1.0,0.0,5,0,20
10,Hamilton,2021-06-20_21:21:03,33.1,1.0,-0.1,25,0,20
11,Raikkonen,2021-06-20_21:21:03,9.3,1.0,-0.1,13,0,26
12,Gasly,2021-06-20_21:21:03,11.8,1.0,0.2,43,0,14
13,Vettel,2021-06-20_21:21:03,15.1,1.0,0.1,13,3,0
14,Tsunoda,2021-06-20_21:21:03,8.4,1.0,0.0,22,5,0
15,Red Bull,2021-06-20_21:21:03,26.3,1.0,0.2,33,38,0
16,Sainz,2021-06-20_21:21:03,14.7,1.0,0.0,29,0,61
17,Giovinazzi,2021-06-20_21:21:03,8.0,1.0,0.0,9,60,0
18,Mercedes,2021-06-20_21:21:03,37.3,1.0,-0.1,9,0,43
19,Haas,2021-06-20_21:21:03,6.1,1.0,0.0,4,0,23
20,Aston Martin,2021-06-20_21:21:03,16.4,1.0,0.0,5,42,0
21,Latifi,2021-06-20_21:21:03,6.4,1.0,0.0,4,0,36
22,Russell,2021-06-20_21:21:03,6.2,1.0,0.0,40,0,90
23,Alonso,2021-06-20_21:21:03,14.8,1.0,0.0,10,48,0
24,Verstappen,2021-06-20_21:21:03,25.5,1.0,0.0,58,74,0
25,McLaren,2021-06-20_21:21:03,18.6,1.0,0.0,27,0,43
26,Ricciardo,2021-06-20_21:21:03,15.9,1.0,-0.2,26,0,36
27,Schumacher,2021-06-20_21:21:03,5.8,1.0,0.0,26,0,16
28,Ocon,2021-06-20_21:21:03,10.4,1.0,-0.1,23,67,0
29,Leclerc,2021-06-20_21:21:03,17.9,1.0,-0.1,38,0,8
