,name,request_time,price,chance_of_playing,weekly_price_change,current_selection_percentage,probability_price_up_percentage,probability_price_down_percentage
0,Stroll,2021-07-10_04:11:03,13.3,1.0,0.0,8,35,0
1,Williams,2021-07-10_04:11:03,6.3,1.0,0.0,4,0,46
2,Norris,2021-07-10_04:11:03,14.1,1.0,0.1,65,14,0
3,Gasly,2021-07-10_04:11:03,11.9,1.0,0.0,46,68,0
4,Vettel,2021-07-10_04:11:03,15.2,1.0,0.0,13,0,13
5,Tsunoda,2021-07-10_04:11:03,8.5,1.0,0.1,23,25,0
6,Ocon,2021-07-10_04:11:03,10.1,1.0,-0.1,19,0,49
7,Bottas,2021-07-10_04:11:03,23.0,1.0,0.0,10,0,44
8,Ferrari,2021-07-10_04:11:03,18.7,1.0,0.0,11,0,51
9,Red Bull,2021-07-10_04:11:03,26.7,1.0,0.1,36,15,0
10,Hamilton,2021-07-10_04:11:03,33.0,1.0,-0.1,24,0,53
11,Mazepin,2021-07-10_04:11:03,5.3,1.0,0.0,5,0,10
12,Mercedes,2021-07-10_04:11:03,37.2,1.0,0.0,9,0,74
13,AlphaTauri,2021-07-10_04:11:03,12.7,1.0,0.0,6,31,0
14,Aston Martin,2021-07-10_04:11:03,16.4,1.0,0.0,5,71,0
15,Haas,2021-07-10_04:11:03,6.1,1.0,0.0,4,0,27
16,Perez,2021-07-10_04:11:03,18.8,1.0,0.1,37,60,0
17,Alpine,2021-07-10_04:11:03,15.1,1.0,-0.1,4,0,65
18,Raikkonen,2021-07-10_04:11:03,9.3,1.0,0.0,13,0,57
19,McLaren,2021-07-10_04:11:03,18.6,1.0,0.0,27,0,40
20,Ricciardo,2021-07-10_04:11:03,15.8,1.0,-0.1,25,0,42
21,Schumacher,2021-07-10_04:11:03,5.8,1.0,0.0,27,2,0
22,Leclerc,2021-07-10_04:11:03,17.5,1.0,-0.1,34,0,23
23,Giovinazzi,2021-07-10_04:11:03,8.0,1.0,0.0,9,74,0
24,Sainz,2021-07-10_04:11:03,14.3,1.0,0.0,27,53,0
25,Alfa Romeo,2021-07-10_04:11:03,9.2,1.0,0.0,4,0,77
26,Latifi,2021-07-10_04:11:03,6.4,1.0,0.0,4,0,55
27,Russell,2021-07-10_04:11:03,6.2,1.0,0.0,41,0,46
28,Alonso,2021-07-10_04:11:03,14.8,1.0,0.0,10,27,0
29,Verstappen,2021-07-10_04:11:03,25.7,1.0,0.1,61,53,0
