,name,request_time,price,chance_of_playing,weekly_price_change,current_selection_percentage,probability_price_up_percentage,probability_price_down_percentage
0,Mercedes,2021-04-02_17:20:02,37.9,1.0,-0.1,12,0,20
1,McLaren,2021-04-02_17:20:02,18.9,1.0,0.0,30,12,0
2,Red Bull,2021-04-02_17:20:02,26.0,1.0,0.100000000000001,31,61,0
3,Giovinazzi,2021-04-02_17:20:02,7.9,1.0,0.0,8,0,46
4,Stroll,2021-04-02_17:20:02,13.8,1.0,-0.0999999999999996,10,0,41
5,Sainz,2021-04-02_17:20:02,14.4,1.0,0.0,27,0,66
6,Alpine,2021-04-02_17:20:02,15.2,1.0,-0.2,3,0,3
7,Norris,2021-04-02_17:20:02,13.3,1.0,0.2,54,6,0
8,Verstappen,2021-04-02_17:20:02,25.0,1.0,0.2,52,29,0
9,Raikkonen,2021-04-02_17:20:02,9.6,1.0,0.0,15,0,86
10,Haas,2021-04-02_17:20:02,6.1,1.0,0.0,1,0,16
11,Hamilton,2021-04-02_17:20:02,33.5,1.0,0.0,29,0,68
12,Schumacher,2021-04-02_17:20:02,5.8,1.0,0.0,27,0,12
13,Ferrari,2021-04-02_17:20:02,18.2,1.0,0.0999999999999979,8,76,0
14,AlphaTauri,2021-04-02_17:20:02,12.9,1.0,0.200000000000001,6,37,0
15,Perez,2021-04-02_17:20:02,18.3,1.0,-0.0999999999999979,32,9,0
16,Vettel,2021-04-02_17:20:02,15.8,1.0,-0.399999999999999,17,0,75
17,Latifi,2021-04-02_17:20:02,6.5,1.0,0.0,4,0,41
18,Alfa Romeo,2021-04-02_17:20:02,8.9,1.0,0.0,1,0,0
19,Russell,2021-04-02_17:20:02,6.2,1.0,0.0,42,0,6
20,Aston Martin,2021-04-02_17:20:02,17.2,1.0,-0.4,7,0,42
21,Leclerc,2021-04-02_17:20:02,17.1,1.0,0.300000000000001,30,81,0
22,Bottas,2021-04-02_17:20:02,23.5,1.0,-0.100000000000001,12,0,17
23,Mazepin,2021-04-02_17:20:02,5.4,1.0,-0.0999999999999996,5,0,30
24,Tsunoda,2021-04-02_17:20:02,9.1,1.0,0.3,30,46,0
25,Williams,2021-04-02_17:20:02,6.3,1.0,0.0,1,0,22
26,Ricciardo,2021-04-02_17:20:02,17.1,1.0,-0.199999999999999,37,0,71
27,Ocon,2021-04-02_17:20:02,9.9,1.0,-0.199999999999999,15,0,58
28,Alonso,2021-04-02_17:20:02,15.4,1.0,-0.199999999999999,13,0,48
29,Gasly,2021-04-02_17:20:02,11.8,1.0,0.1,43,0,1
