,name,request_time,price,chance_of_playing,weekly_price_change,current_selection_percentage,probability_price_up_percentage,probability_price_down_percentage
0,AlphaTauri,2021-05-03_17:41:03,13.0,1.0,-0.1,6,0,68
1,Ocon,2021-05-03_17:41:03,10.0,1.0,0.2,18,83,0
2,Raikkonen,2021-05-03_17:41:03,9.4,1.0,0.0,13,0,60
3,Hamilton,2021-05-03_17:41:03,33.3,1.0,-0.1,27,0,2
4,Mercedes,2021-05-03_17:41:03,37.6,1.0,0.0,10,0,53
5,Red Bull,2021-05-03_17:41:03,26.1,1.0,0.0,31,0,13
6,Verstappen,2021-05-03_17:41:03,25.3,1.0,0.0,56,59,0
7,Bottas,2021-05-03_17:41:03,23.3,1.0,0.0,11,0,61
8,McLaren,2021-05-03_17:41:03,18.8,1.0,0.0,29,79,0
9,Norris,2021-05-03_17:41:03,13.7,1.0,0.0,61,64,0
10,Alfa Romeo,2021-05-03_17:41:03,8.9,1.0,0.0,4,32,0
11,Mazepin,2021-05-03_17:41:03,5.3,1.0,0.0,5,0,40
12,Haas,2021-05-03_17:41:03,6.1,1.0,0.0,4,0,28
13,Schumacher,2021-05-03_17:41:03,5.7,1.0,0.0,25,2,0
14,Vettel,2021-05-03_17:41:03,15.0,1.0,-0.1,12,0,98
15,Williams,2021-05-03_17:41:03,6.3,1.0,0.0,4,0,36
16,Alonso,2021-05-03_17:41:03,15.0,1.0,0.0,10,0,88
17,Ferrari,2021-05-03_17:41:03,19.0,1.0,0.1,12,0,61
18,Latifi,2021-05-03_17:41:03,6.4,1.0,-0.1,4,0,5
19,Alpine,2021-05-03_17:41:03,15.1,1.0,0.1,4,46,0
20,Russell,2021-05-03_17:41:03,6.3,1.0,0.1,44,0,16
21,Ricciardo,2021-05-03_17:41:03,16.4,1.0,-0.1,30,0,54
22,Leclerc,2021-05-03_17:41:03,17.8,1.0,0.0,38,96,0
23,Tsunoda,2021-05-03_17:41:03,9.2,1.0,-0.1,30,0,96
24,Stroll,2021-05-03_17:41:03,13.6,1.0,0.0,9,0,21
25,Giovinazzi,2021-05-03_17:41:03,7.8,1.0,0.0,7,0,68
26,Sainz,2021-05-03_17:41:03,14.4,1.0,0.1,27,0,34
27,Perez,2021-05-03_17:41:03,18.3,1.0,0.0,31,0,37
28,Gasly,2021-05-03_17:41:03,11.7,1.0,0.0,42,10,0
29,Aston Martin,2021-05-03_17:41:03,16.6,1.0,0.0,5,0,44
