,name,request_time,price,chance_of_playing,weekly_price_change,current_selection_percentage,probability_price_up_percentage,probability_price_down_percentage
0,Gasly,2021-07-18_14:41:02,11.9,1.0,0.0,46,34,0
1,Vettel,2021-07-18_14:41:02,15.2,1.0,0.0,13,0,4
2,Tsunoda,2021-07-18_14:41:02,8.5,1.0,0.0,23,0,18
3,Ocon,2021-07-18_14:41:02,10.1,1.0,-0.1,19,0,86
4,Bottas,2021-07-18_14:41:02,23.0,1.0,0.0,10,0,38
5,Ferrari,2021-07-18_14:41:02,18.7,1.0,0.0,10,0,81
6,Red Bull,2021-07-18_14:41:02,26.7,1.0,0.1,36,34,0
7,Stroll,2021-07-18_14:41:02,13.3,1.0,0.0,8,6,0
8,Williams,2021-07-18_14:41:02,6.3,1.0,0.0,4,0,43
9,Norris,2021-07-18_14:41:02,14.1,1.0,0.1,66,78,0
10,Hamilton,2021-07-18_14:41:02,33.0,1.0,0.0,24,0,61
11,Mazepin,2021-07-18_14:41:02,5.3,1.0,0.0,5,0,10
12,Mercedes,2021-07-18_14:41:02,37.1,1.0,-0.1,8,0,0
13,Aston Martin,2021-07-18_14:41:02,16.4,1.0,0.0,5,58,0
14,AlphaTauri,2021-07-18_14:41:02,12.7,1.0,0.0,6,0,2
15,Haas,2021-07-18_14:41:02,6.1,1.0,0.0,4,0,26
16,Perez,2021-07-18_14:41:02,18.8,1.0,0.0,36,0,2
17,Alpine,2021-07-18_14:41:02,15.1,1.0,0.0,4,0,79
18,Raikkonen,2021-07-18_14:41:02,9.3,1.0,0.0,13,0,66
19,McLaren,2021-07-18_14:41:02,18.6,1.0,0.0,28,0,0
20,Ricciardo,2021-07-18_14:41:02,15.8,1.0,0.0,25,0,51
21,Leclerc,2021-07-18_14:41:02,17.5,1.0,-0.1,34,0,2
22,Schumacher,2021-07-18_14:41:02,5.8,1.0,0.0,27,32,0
23,Giovinazzi,2021-07-18_14:41:02,8.0,1.0,0.0,9,72,0
24,Sainz,2021-07-18_14:41:02,14.4,1.0,0.1,28,1,0
25,Alfa Romeo,2021-07-18_14:41:02,9.2,1.0,0.0,4,0,78
26,Latifi,2021-07-18_14:41:02,6.4,1.0,0.0,4,0,60
27,Russell,2021-07-18_14:41:02,6.2,1.0,0.0,41,0,40
28,Alonso,2021-07-18_14:41:02,14.8,1.0,0.0,10,42,0
29,Verstappen,2021-07-18_14:41:02,25.7,1.0,0.0,61,76,0
