,name,request_time,price,chance_of_playing,weekly_price_change,current_selection_percentage,probability_price_up_percentage,probability_price_down_percentage
0,Mercedes,2021-04-10_21:10:02,37.9,1.0,-0.1,12,0,60
1,McLaren,2021-04-10_21:10:02,18.9,1.0,0.0,29,0,34
2,Red Bull,2021-04-10_21:10:02,26.0,1.0,0.100000000000001,31,42,0
3,Alfa Romeo,2021-04-10_21:10:02,8.9,1.0,0.0,1,1,0
4,Stroll,2021-04-10_21:10:02,13.8,1.0,-0.0999999999999996,10,0,82
5,Bottas,2021-04-10_21:10:02,23.5,1.0,-0.100000000000001,12,0,38
6,Vettel,2021-04-10_21:10:02,15.7,1.0,-0.5,16,0,81
7,Mazepin,2021-04-10_21:10:02,5.4,1.0,-0.0999999999999996,5,0,57
8,Tsunoda,2021-04-10_21:10:02,9.2,1.0,0.4,31,81,0
9,Haas,2021-04-10_21:10:02,6.1,1.0,0.0,1,0,19
10,Aston Martin,2021-04-10_21:10:02,17.1,1.0,-0.5,7,0,45
11,Williams,2021-04-10_21:10:02,6.3,1.0,0.0,1,0,30
12,Raikkonen,2021-04-10_21:10:02,9.5,1.0,-0.1,15,0,33
13,Schumacher,2021-04-10_21:10:02,5.8,1.0,0.0,26,0,29
14,Verstappen,2021-04-10_21:10:02,25.0,1.0,0.2,52,75,0
15,Perez,2021-04-10_21:10:02,18.3,1.0,-0.0999999999999979,32,26,0
16,Latifi,2021-04-10_21:10:02,6.5,1.0,0.0,4,0,51
17,Russell,2021-04-10_21:10:02,6.2,1.0,0.0,42,5,0
18,Alpine,2021-04-10_21:10:02,15.2,1.0,-0.2,3,0,51
19,Ferrari,2021-04-10_21:10:02,18.4,1.0,0.3,9,50,0
20,Leclerc,2021-04-10_21:10:02,17.2,1.0,0.4,30,65,0
21,Alonso,2021-04-10_21:10:02,15.3,1.0,-0.3,13,0,18
22,Norris,2021-04-10_21:10:02,13.3,1.0,0.2,55,77,0
23,AlphaTauri,2021-04-10_21:10:02,13.0,1.0,0.3,7,74,0
24,Giovinazzi,2021-04-10_21:10:02,7.9,1.0,0.0,8,0,62
25,Ricciardo,2021-04-10_21:10:02,17.0,1.0,-0.3,36,0,49
26,Hamilton,2021-04-10_21:10:02,33.5,1.0,0.0,28,0,90
27,Ocon,2021-04-10_21:10:02,9.8,1.0,-0.3,15,0,19
28,Sainz,2021-04-10_21:10:02,14.3,1.0,-0.1,26,0,0
29,Gasly,2021-04-10_21:10:02,11.8,1.0,0.1,43,0,50
