,name,request_time,price,chance_of_playing,weekly_price_change,current_selection_percentage,probability_price_up_percentage,probability_price_down_percentage
0,Mercedes,2021-04-07_13:00:03,37.9,1.0,-0.1,12,0,42
1,McLaren,2021-04-07_13:00:03,18.9,1.0,0.0,30,0,12
2,Red Bull,2021-04-07_13:00:03,26.0,1.0,0.100000000000001,31,33,0
3,Haas,2021-04-07_13:00:03,6.1,1.0,0.0,1,0,19
4,Perez,2021-04-07_13:00:03,18.3,1.0,-0.0999999999999979,32,22,0
5,Latifi,2021-04-07_13:00:03,6.5,1.0,0.0,4,0,47
6,Russell,2021-04-07_13:00:03,6.2,1.0,0.0,42,0,1
7,AlphaTauri,2021-04-07_13:00:03,13.0,1.0,0.3,6,15,0
8,Aston Martin,2021-04-07_13:00:03,17.1,1.0,-0.5,7,0,5
9,Leclerc,2021-04-07_13:00:03,17.2,1.0,0.4,30,29,0
10,Ferrari,2021-04-07_13:00:03,18.4,1.0,0.3,9,12,0
11,Alonso,2021-04-07_13:00:03,15.4,1.0,-0.199999999999999,13,0,90
12,Giovinazzi,2021-04-07_13:00:03,7.9,1.0,0.0,8,0,54
13,Alfa Romeo,2021-04-07_13:00:03,8.9,1.0,0.0,1,0,0
14,Stroll,2021-04-07_13:00:03,13.8,1.0,-0.0999999999999996,10,0,63
15,Sainz,2021-04-07_13:00:03,14.4,1.0,0.0,26,0,85
16,Alpine,2021-04-07_13:00:03,15.2,1.0,-0.2,3,0,32
17,Norris,2021-04-07_13:00:03,13.3,1.0,0.2,54,52,0
18,Ricciardo,2021-04-07_13:00:03,17.0,1.0,-0.3,36,0,18
19,Hamilton,2021-04-07_13:00:03,33.5,1.0,0.0,28,0,79
20,Ocon,2021-04-07_13:00:03,9.9,1.0,-0.199999999999999,15,0,96
21,Williams,2021-04-07_13:00:03,6.3,1.0,0.0,1,0,26
22,Raikkonen,2021-04-07_13:00:03,9.5,1.0,-0.1,15,0,23
23,Schumacher,2021-04-07_13:00:03,5.8,1.0,0.0,27,0,20
24,Verstappen,2021-04-07_13:00:03,25.0,1.0,0.2,52,54,0
25,Bottas,2021-04-07_13:00:03,23.5,1.0,-0.100000000000001,12,0,26
26,Vettel,2021-04-07_13:00:03,15.7,1.0,-0.5,17,0,37
27,Mazepin,2021-04-07_13:00:03,5.4,1.0,-0.0999999999999996,5,0,46
28,Tsunoda,2021-04-07_13:00:03,9.2,1.0,0.4,31,27,0
29,Gasly,2021-04-07_13:00:03,11.8,1.0,0.1,43,0,25
