,name,request_time,price,chance_of_playing,weekly_price_change,current_selection_percentage,probability_price_up_percentage,probability_price_down_percentage
0,AlphaTauri,2021-06-25_23:01:02,12.6,1.0,0.0,5,14,0
1,Perez,2021-06-25_23:01:02,18.6,1.0,0.2,35,93,0
2,Alpine,2021-06-25_23:01:02,15.3,1.0,0.1,4,0,36
3,Williams,2021-06-25_23:01:02,6.3,1.0,0.0,4,0,44
4,Norris,2021-06-25_23:01:02,14.0,1.0,0.1,64,7,0
5,Sainz,2021-06-25_23:01:02,14.5,1.0,-0.2,28,0,13
6,Mazepin,2021-06-25_23:01:02,5.3,1.0,0.0,5,0,14
7,Raikkonen,2021-06-25_23:01:02,9.3,1.0,-0.1,13,0,40
8,Hamilton,2021-06-25_23:01:02,33.1,1.0,-0.1,25,0,63
9,Gasly,2021-06-25_23:01:02,11.8,1.0,0.2,44,49,0
10,Vettel,2021-06-25_23:01:02,15.1,1.0,0.1,13,82,0
11,Tsunoda,2021-06-25_23:01:02,8.4,1.0,0.0,22,0,21
12,Verstappen,2021-06-25_23:01:02,25.6,1.0,0.1,59,25,0
13,Alfa Romeo,2021-06-25_23:01:02,9.2,1.0,0.0,4,0,59
14,Red Bull,2021-06-25_23:01:02,26.4,1.0,0.2,34,50,0
15,Mercedes,2021-06-25_23:01:02,37.3,1.0,-0.1,9,0,92
16,Aston Martin,2021-06-25_23:01:02,16.4,1.0,0.0,5,61,0
17,Haas,2021-06-25_23:01:02,6.1,1.0,0.0,4,0,25
18,Latifi,2021-06-25_23:01:02,6.4,1.0,0.0,4,0,40
19,Russell,2021-06-25_23:01:02,6.2,1.0,0.0,40,0,84
20,Alonso,2021-06-25_23:01:02,14.8,1.0,0.0,10,49,0
21,McLaren,2021-06-25_23:01:02,18.6,1.0,0.0,28,18,0
22,Giovinazzi,2021-06-25_23:01:02,8.0,1.0,0.0,9,74,0
23,Ricciardo,2021-06-25_23:01:02,15.9,1.0,-0.2,26,0,1
24,Schumacher,2021-06-25_23:01:02,5.8,1.0,0.0,26,0,17
25,Leclerc,2021-06-25_23:01:02,17.7,1.0,-0.3,36,0,19
26,Ocon,2021-06-25_23:01:02,10.4,1.0,-0.1,23,27,0
27,Bottas,2021-06-25_23:01:02,23.0,1.0,-0.1,10,29,0
28,Ferrari,2021-06-25_23:01:02,18.9,1.0,-0.4,11,0,18
29,Stroll,2021-06-25_23:01:02,13.3,1.0,-0.1,7,0,20
