,name,request_time,price,chance_of_playing,weekly_price_change,current_selection_percentage,probability_price_up_percentage,probability_price_down_percentage
0,AlphaTauri,2021-07-03_23:21:02,12.7,1.0,0.0,6,39,0
1,Perez,2021-07-03_23:21:02,18.8,1.0,0.1,37,61,0
2,Alpine,2021-07-03_23:21:02,15.1,1.0,-0.1,4,0,51
3,Tsunoda,2021-07-03_23:21:02,8.5,1.0,0.1,23,34,0
4,Bottas,2021-07-03_23:21:02,23.0,1.0,0.0,10,0,48
5,Ferrari,2021-07-03_23:21:02,18.7,1.0,0.0,11,0,16
6,Red Bull,2021-07-03_23:21:02,26.6,1.0,0.1,36,68,0
7,Mazepin,2021-07-03_23:21:02,5.3,1.0,0.0,5,0,9
8,Raikkonen,2021-07-03_23:21:02,9.3,1.0,0.0,13,0,54
9,Hamilton,2021-07-03_23:21:02,33.0,1.0,-0.1,24,0,27
10,Gasly,2021-07-03_23:21:02,11.9,1.0,0.0,46,58,0
11,Vettel,2021-07-03_23:21:02,15.2,1.0,0.0,13,5,0
12,Mercedes,2021-07-03_23:21:02,37.2,1.0,0.0,9,0,50
13,Aston Martin,2021-07-03_23:21:02,16.4,1.0,0.0,5,77,0
14,Haas,2021-07-03_23:21:02,6.1,1.0,0.0,4,0,25
15,McLaren,2021-07-03_23:21:02,18.6,1.0,0.0,27,0,48
16,Ricciardo,2021-07-03_23:21:02,15.8,1.0,-0.1,25,0,18
17,Ocon,2021-07-03_23:21:02,10.2,1.0,-0.2,20,0,83
18,Schumacher,2021-07-03_23:21:02,5.8,1.0,0.0,27,0,5
19,Leclerc,2021-07-03_23:21:02,17.6,1.0,0.0,34,0,84
20,Norris,2021-07-03_23:21:02,14.0,1.0,0.0,65,67,0
21,Giovinazzi,2021-07-03_23:21:02,8.0,1.0,0.0,9,58,0
22,Latifi,2021-07-03_23:21:02,6.4,1.0,0.0,4,0,53
23,Russell,2021-07-03_23:21:02,6.2,1.0,0.0,41,0,54
24,Alonso,2021-07-03_23:21:02,14.8,1.0,0.0,10,14,0
25,Verstappen,2021-07-03_23:21:02,25.7,1.0,0.1,60,22,0
26,Stroll,2021-07-03_23:21:02,13.3,1.0,0.0,8,45,0
27,Williams,2021-07-03_23:21:02,6.3,1.0,0.0,4,0,46
28,Sainz,2021-07-03_23:21:02,14.3,1.0,0.0,27,11,0
29,Alfa Romeo,2021-07-03_23:21:02,9.2,1.0,0.0,4,0,70
