,name,request_time,price,chance_of_playing,weekly_price_change,current_selection_percentage,probability_price_up_percentage,probability_price_down_percentage
0,Gasly,2021-08-08_11:31:02,11.9,1.0,0.0,45,0,28
1,Vettel,2021-08-08_11:31:02,15.2,1.0,0.0,13,0,49
2,Tsunoda,2021-08-08_11:31:02,8.4,1.0,-0.1,22,0,5
3,Ocon,2021-08-08_11:31:02,10.0,1.0,-0.1,19,91,0
4,Williams,2021-08-08_11:31:02,6.3,1.0,0.0,4,0,33
5,Norris,2021-08-08_11:31:02,14.2,1.0,0.1,66,0,1
6,Bottas,2021-08-08_11:31:02,23.1,1.0,0.1,10,0,46
7,Ferrari,2021-08-08_11:31:02,18.8,1.0,0.1,11,21,0
8,Red Bull,2021-08-08_11:31:02,26.6,1.0,-0.1,35,0,72
9,Stroll,2021-08-08_11:31:02,13.3,1.0,0.0,7,0,12
10,Hamilton,2021-08-08_11:31:02,33.0,1.0,0.0,24,0,16
11,Mazepin,2021-08-08_11:31:02,5.3,1.0,0.0,5,1,0
12,Mercedes,2021-08-08_11:31:02,37.1,1.0,-0.1,8,0,3
13,Aston Martin,2021-08-08_11:31:02,16.5,1.0,0.1,5,0,1
14,Haas,2021-08-08_11:31:02,6.1,1.0,0.0,4,0,26
15,AlphaTauri,2021-08-08_11:31:02,12.7,1.0,0.0,5,0,63
16,Perez,2021-08-08_11:31:02,18.6,1.0,-0.2,34,0,53
17,Alpine,2021-08-08_11:31:02,15.1,1.0,0.0,4,0,58
18,Raikkonen,2021-08-08_11:31:02,9.3,1.0,0.0,12,0,76
19,Sainz,2021-08-08_11:31:02,14.5,1.0,0.1,29,27,0
20,Alfa Romeo,2021-08-08_11:31:02,9.2,1.0,0.0,4,0,91
21,McLaren,2021-08-08_11:31:02,18.7,1.0,0.1,28,0,11
22,Ricciardo,2021-08-08_11:31:02,15.8,1.0,0.0,25,0,92
23,Schumacher,2021-08-08_11:31:02,5.8,1.0,0.0,27,0,7
24,Leclerc,2021-08-08_11:31:02,17.7,1.0,0.1,36,0,4
25,Giovinazzi,2021-08-08_11:31:02,8.0,1.0,-0.1,9,0,0
26,Latifi,2021-08-08_11:31:02,6.4,1.0,0.0,4,0,56
27,Russell,2021-08-08_11:31:02,6.2,1.0,0.0,42,9,0
28,Alonso,2021-08-08_11:31:02,14.9,1.0,0.1,11,48,0
29,Verstappen,2021-08-08_11:31:02,25.7,1.0,0.0,60,35,0
