,name,request_time,price,chance_of_playing,weekly_price_change,current_selection_percentage,probability_price_up_percentage,probability_price_down_percentage
0,AlphaTauri,2021-06-25_04:21:03,12.6,1.0,0.0,5,4,0
1,Perez,2021-06-25_04:21:03,18.6,1.0,0.2,35,51,0
2,Alpine,2021-06-25_04:21:03,15.3,1.0,0.1,4,0,10
3,Tsunoda,2021-06-25_04:21:03,8.4,1.0,0.0,22,0,21
4,Bottas,2021-06-25_04:21:03,23.0,1.0,-0.1,10,51,0
5,Ferrari,2021-06-25_04:21:03,19.0,1.0,-0.3,12,0,37
6,Red Bull,2021-06-25_04:21:03,26.4,1.0,0.2,34,19,0
7,Mazepin,2021-06-25_04:21:03,5.3,1.0,0.0,5,0,15
8,Hamilton,2021-06-25_04:21:03,33.1,1.0,-0.1,25,0,53
9,Raikkonen,2021-06-25_04:21:03,9.3,1.0,-0.1,13,0,32
10,Gasly,2021-06-25_04:21:03,11.8,1.0,0.2,44,28,0
11,Vettel,2021-06-25_04:21:03,15.1,1.0,0.1,13,52,0
12,Mercedes,2021-06-25_04:21:03,37.3,1.0,-0.1,9,0,79
13,Haas,2021-06-25_04:21:03,6.1,1.0,0.0,4,0,25
14,Aston Martin,2021-06-25_04:21:03,16.4,1.0,0.0,5,56,0
15,McLaren,2021-06-25_04:21:03,18.6,1.0,0.0,27,0,7
16,Ricciardo,2021-06-25_04:21:03,15.9,1.0,-0.2,26,0,27
17,Schumacher,2021-06-25_04:21:03,5.8,1.0,0.0,26,0,16
18,Ocon,2021-06-25_04:21:03,10.4,1.0,-0.1,23,35,0
19,Leclerc,2021-06-25_04:21:03,17.8,1.0,-0.2,36,0,52
20,Norris,2021-06-25_04:21:03,13.9,1.0,0.0,64,94,0
21,Giovinazzi,2021-06-25_04:21:03,8.0,1.0,0.0,9,73,0
22,Latifi,2021-06-25_04:21:03,6.4,1.0,0.0,4,0,39
23,Russell,2021-06-25_04:21:03,6.2,1.0,0.0,40,0,85
24,Alonso,2021-06-25_04:21:03,14.8,1.0,0.0,10,48,0
25,Verstappen,2021-06-25_04:21:03,25.6,1.0,0.1,59,10,0
26,Stroll,2021-06-25_04:21:03,13.3,1.0,-0.1,7,0,23
27,Williams,2021-06-25_04:21:03,6.3,1.0,0.0,4,0,44
28,Sainz,2021-06-25_04:21:03,14.6,1.0,-0.1,29,0,53
29,Alfa Romeo,2021-06-25_04:21:03,9.2,1.0,0.0,4,0,54
