,name,request_time,price,chance_of_playing,weekly_price_change,current_selection_percentage,probability_price_up_percentage,probability_price_down_percentage
0,Gasly,2021-08-01_22:11:02,11.9,1.0,0.0,45,0,27
1,Vettel,2021-08-01_22:11:02,15.2,1.0,0.0,13,0,54
2,Tsunoda,2021-08-01_22:11:02,8.5,1.0,0.0,22,0,93
3,Ocon,2021-08-01_22:11:02,10.0,1.0,-0.1,19,50,0
4,Bottas,2021-08-01_22:11:02,23.1,1.0,0.1,10,0,22
5,Ferrari,2021-08-01_22:11:02,18.8,1.0,0.1,11,8,0
6,Red Bull,2021-08-01_22:11:02,26.6,1.0,-0.1,35,0,56
7,Stroll,2021-08-01_22:11:02,13.3,1.0,0.0,8,0,3
8,Williams,2021-08-01_22:11:02,6.3,1.0,0.0,4,0,36
9,Norris,2021-08-01_22:11:02,14.2,1.0,0.1,66,0,5
10,Mazepin,2021-08-01_22:11:02,5.3,1.0,0.0,5,4,0
11,Mercedes,2021-08-01_22:11:02,37.1,1.0,-0.1,8,0,0
12,Haas,2021-08-01_22:11:02,6.1,1.0,0.0,4,0,26
13,Aston Martin,2021-08-01_22:11:02,16.4,1.0,0.0,5,46,0
14,AlphaTauri,2021-08-01_22:11:02,12.7,1.0,0.0,5,0,58
15,Perez,2021-08-01_22:11:02,18.6,1.0,-0.2,34,0,25
16,Alpine,2021-08-01_22:11:02,15.1,1.0,0.0,4,0,67
17,Hamilton,2021-08-01_22:11:02,33.0,1.0,0.0,24,0,21
18,Raikkonen,2021-08-01_22:11:02,9.3,1.0,0.0,13,0,66
19,McLaren,2021-08-01_22:11:02,18.7,1.0,0.1,28,1,0
20,Ricciardo,2021-08-01_22:11:02,15.8,1.0,0.0,25,0,72
21,Leclerc,2021-08-01_22:11:02,17.6,1.0,0.1,36,89,0
22,Schumacher,2021-08-01_22:11:02,5.8,1.0,0.0,27,0,0
23,Giovinazzi,2021-08-01_22:11:02,8.1,1.0,0.1,9,0,77
24,Sainz,2021-08-01_22:11:02,14.5,1.0,0.1,28,4,0
25,Alfa Romeo,2021-08-01_22:11:02,9.2,1.0,0.0,4,0,89
26,Latifi,2021-08-01_22:11:02,6.4,1.0,0.0,4,0,58
27,Russell,2021-08-01_22:11:02,6.2,1.0,0.0,42,4,0
28,Alonso,2021-08-01_22:11:02,14.9,1.0,0.1,11,18,0
29,Verstappen,2021-08-01_22:11:02,25.7,1.0,0.0,60,36,0
