,name,request_time,price,chance_of_playing,weekly_price_change,current_selection_percentage,probability_price_up_percentage,probability_price_down_percentage
0,Red Bull,2021-04-26_14:11:02,26.1,1.0,0.1,32,2,0
1,Stroll,2021-04-26_14:11:02,13.6,1.0,0.0,9,7,0
2,Williams,2021-04-26_14:11:02,6.3,1.0,0.0,4,0,33
3,AlphaTauri,2021-04-26_14:11:02,13.2,1.0,0.0,7,0,58
4,Perez,2021-04-26_14:11:02,18.3,1.0,-0.1,32,0,17
5,Alpine,2021-04-26_14:11:02,15.0,1.0,-0.1,4,0,26
6,Hamilton,2021-04-26_14:11:02,33.4,1.0,0.0,27,0,76
7,Raikkonen,2021-04-26_14:11:02,9.4,1.0,0.0,14,0,15
8,Gasly,2021-04-26_14:11:02,11.7,1.0,0.0,43,84,0
9,Vettel,2021-04-26_14:11:02,15.2,1.0,-0.2,13,0,55
10,Mazepin,2021-04-26_14:11:02,5.3,1.0,0.0,5,0,28
11,Tsunoda,2021-04-26_14:11:02,9.4,1.0,0.0,34,0,38
12,Latifi,2021-04-26_14:11:02,6.5,1.0,0.0,4,0,69
13,Russell,2021-04-26_14:11:02,6.2,1.0,0.0,44,78,0
14,Alonso,2021-04-26_14:11:02,15.0,1.0,-0.2,11,0,47
15,Verstappen,2021-04-26_14:11:02,25.2,1.0,0.1,55,82,0
16,McLaren,2021-04-26_14:11:02,18.7,1.0,0.0,29,76,0
17,Ricciardo,2021-04-26_14:11:02,16.6,1.0,-0.1,31,0,92
18,Ocon,2021-04-26_14:11:02,9.6,1.0,-0.1,13,1,0
19,Schumacher,2021-04-26_14:11:02,5.7,1.0,0.0,25,0,24
20,Leclerc,2021-04-26_14:11:02,17.7,1.0,0.3,36,28,0
21,Bottas,2021-04-26_14:11:02,23.4,1.0,-0.1,12,0,66
22,Ferrari,2021-04-26_14:11:02,18.8,1.0,0.1,11,50,0
23,Mercedes,2021-04-26_14:11:02,37.7,1.0,-0.1,11,0,65
24,Aston Martin,2021-04-26_14:11:02,16.7,1.0,-0.2,5,0,24
25,Haas,2021-04-26_14:11:02,6.1,1.0,0.0,4,0,28
26,Norris,2021-04-26_14:11:02,13.6,1.0,0.2,59,72,0
27,Giovinazzi,2021-04-26_14:11:02,7.8,1.0,0.0,7,0,42
28,Sainz,2021-04-26_14:11:02,14.3,1.0,0.0,26,11,0
29,Alfa Romeo,2021-04-26_14:11:02,8.9,1.0,0.0,4,15,0
