,name,request_time,price,chance_of_playing,weekly_price_change,current_selection_percentage,probability_price_up_percentage,probability_price_down_percentage
0,Ferrari,2021-07-03_09:11:03,18.7,1.0,-0.6,10,0,79
1,Red Bull,2021-07-03_09:11:03,26.6,1.0,0.1,36,31,0
2,Stroll,2021-07-03_09:11:03,13.3,1.0,0.0,8,36,0
3,Williams,2021-07-03_09:11:03,6.3,1.0,0.0,4,0,46
4,AlphaTauri,2021-07-03_09:11:03,12.7,1.0,0.1,6,48,0
5,Perez,2021-07-03_09:11:03,18.8,1.0,0.4,37,74,0
6,Alpine,2021-07-03_09:11:03,15.1,1.0,-0.1,4,0,23
7,Vettel,2021-07-03_09:11:03,15.2,1.0,0.2,14,23,0
8,Tsunoda,2021-07-03_09:11:03,8.5,1.0,0.1,23,35,0
9,Bottas,2021-07-03_09:11:03,23.0,1.0,0.0,10,0,61
10,Mazepin,2021-07-03_09:11:03,5.3,1.0,0.0,5,0,10
11,Hamilton,2021-07-03_09:11:03,33.0,1.0,-0.1,24,0,12
12,Raikkonen,2021-07-03_09:11:03,9.3,1.0,0.0,13,0,62
13,Gasly,2021-07-03_09:11:03,11.9,1.0,0.1,46,51,0
14,Sainz,2021-07-03_09:11:03,14.3,1.0,-0.4,26,0,46
15,Alfa Romeo,2021-07-03_09:11:03,9.2,1.0,0.0,4,0,74
16,Mercedes,2021-07-03_09:11:03,37.2,1.0,-0.1,9,0,51
17,Haas,2021-07-03_09:11:03,6.1,1.0,0.0,4,0,26
18,Aston Martin,2021-07-03_09:11:03,16.4,1.0,0.0,5,69,0
19,McLaren,2021-07-03_09:11:03,18.6,1.0,0.0,28,12,0
20,Ricciardo,2021-07-03_09:11:03,15.9,1.0,0.0,26,0,55
21,Leclerc,2021-07-03_09:11:03,17.6,1.0,-0.4,34,0,92
22,Schumacher,2021-07-03_09:11:03,5.8,1.0,0.0,27,0,12
23,Ocon,2021-07-03_09:11:03,10.3,1.0,-0.1,21,0,97
24,Norris,2021-07-03_09:11:03,14.0,1.0,0.1,65,52,0
25,Giovinazzi,2021-07-03_09:11:03,8.0,1.0,0.0,9,27,0
26,Latifi,2021-07-03_09:11:03,6.4,1.0,0.0,4,0,50
27,Russell,2021-07-03_09:11:03,6.2,1.0,0.0,41,0,66
28,Alonso,2021-07-03_09:11:03,14.8,1.0,0.0,10,42,0
29,Verstappen,2021-07-03_09:11:03,25.7,1.0,0.1,60,5,0
