,name,request_time,price,chance_of_playing,weekly_price_change,current_selection_percentage,probability_price_up_percentage,probability_price_down_percentage
0,AlphaTauri,2021-05-02_09:51:03,13.0,1.0,-0.1,7,0,17
1,Perez,2021-05-02_09:51:03,18.3,1.0,0.0,31,0,41
2,Alpine,2021-05-02_09:51:03,15.0,1.0,0.0,4,58,0
3,Hamilton,2021-05-02_09:51:03,33.3,1.0,-0.1,27,0,3
4,Raikkonen,2021-05-02_09:51:03,9.4,1.0,0.0,14,0,14
5,Gasly,2021-05-02_09:51:03,11.7,1.0,0.0,43,40,0
6,Red Bull,2021-05-02_09:51:03,26.1,1.0,0.0,31,0,20
7,Stroll,2021-05-02_09:51:03,13.6,1.0,0.0,9,12,0
8,Mazepin,2021-05-02_09:51:03,5.3,1.0,0.0,5,0,37
9,Vettel,2021-05-02_09:51:03,15.1,1.0,0.0,12,0,67
10,Tsunoda,2021-05-02_09:51:03,9.2,1.0,-0.1,31,0,14
11,Russell,2021-05-02_09:51:03,6.3,1.0,0.1,44,0,0
12,Alonso,2021-05-02_09:51:03,15.0,1.0,0.0,11,0,77
13,Verstappen,2021-05-02_09:51:03,25.3,1.0,0.0,56,46,0
14,McLaren,2021-05-02_09:51:03,18.8,1.0,0.0,29,43,0
15,Ricciardo,2021-05-02_09:51:03,16.4,1.0,-0.1,30,0,5
16,Ocon,2021-05-02_09:51:03,9.8,1.0,0.0,16,71,0
17,Leclerc,2021-05-02_09:51:03,17.8,1.0,0.0,37,70,0
18,Schumacher,2021-05-02_09:51:03,5.7,1.0,0.0,25,0,39
19,Bottas,2021-05-02_09:51:03,23.3,1.0,0.0,11,0,56
20,Ferrari,2021-05-02_09:51:03,19.0,1.0,0.1,12,6,0
21,Mercedes,2021-05-02_09:51:03,37.6,1.0,0.0,10,0,47
22,Aston Martin,2021-05-02_09:51:03,16.6,1.0,0.0,5,0,11
23,Haas,2021-05-02_09:51:03,6.1,1.0,0.0,4,0,31
24,Latifi,2021-05-02_09:51:03,6.4,1.0,-0.1,4,0,0
25,Williams,2021-05-02_09:51:03,6.3,1.0,0.0,4,0,30
26,Giovinazzi,2021-05-02_09:51:03,7.8,1.0,0.0,7,0,84
27,Alfa Romeo,2021-05-02_09:51:03,8.9,1.0,0.0,4,31,0
28,Norris,2021-05-02_09:51:03,13.7,1.0,0.0,60,21,0
29,Sainz,2021-05-02_09:51:03,14.4,1.0,0.1,27,5,0
