,name,request_time,price,chance_of_playing,weekly_price_change,current_selection_percentage,probability_price_up_percentage,probability_price_down_percentage
0,AlphaTauri,2021-06-22_17:31:02,12.6,1.0,0.0,5,5,0
1,Perez,2021-06-22_17:31:02,18.6,1.0,0.2,34,5,0
2,Alpine,2021-06-22_17:31:02,15.3,1.0,0.1,4,4,0
3,Williams,2021-06-22_17:31:02,6.3,1.0,0.0,4,0,43
4,Norris,2021-06-22_17:31:02,13.9,1.0,0.0,64,81,0
5,Sainz,2021-06-22_17:31:02,14.6,1.0,-0.1,29,0,22
6,Mazepin,2021-06-22_17:31:02,5.3,1.0,0.0,5,0,16
7,Raikkonen,2021-06-22_17:31:02,9.3,1.0,-0.1,13,0,30
8,Hamilton,2021-06-22_17:31:02,33.1,1.0,-0.1,25,0,39
9,Gasly,2021-06-22_17:31:02,11.8,1.0,0.2,44,11,0
10,Vettel,2021-06-22_17:31:02,15.1,1.0,0.1,13,29,0
11,Tsunoda,2021-06-22_17:31:02,8.4,1.0,0.0,22,0,8
12,Verstappen,2021-06-22_17:31:02,25.5,1.0,0.0,59,95,0
13,Alfa Romeo,2021-06-22_17:31:02,9.2,1.0,0.0,4,0,51
14,Red Bull,2021-06-22_17:31:02,26.3,1.0,0.2,34,89,0
15,Mercedes,2021-06-22_17:31:02,37.3,1.0,-0.1,9,0,62
16,Aston Martin,2021-06-22_17:31:02,16.4,1.0,0.0,5,49,0
17,Haas,2021-06-22_17:31:02,6.1,1.0,0.0,4,0,24
18,Latifi,2021-06-22_17:31:02,6.4,1.0,0.0,4,0,38
19,Russell,2021-06-22_17:31:02,6.2,1.0,0.0,40,0,87
20,Alonso,2021-06-22_17:31:02,14.8,1.0,0.0,10,49,0
21,McLaren,2021-06-22_17:31:02,18.6,1.0,0.0,27,0,23
22,Giovinazzi,2021-06-22_17:31:02,8.0,1.0,0.0,9,65,0
23,Ricciardo,2021-06-22_17:31:02,15.9,1.0,-0.2,26,0,30
24,Schumacher,2021-06-22_17:31:02,5.8,1.0,0.0,26,0,15
25,Leclerc,2021-06-22_17:31:02,17.9,1.0,-0.1,37,0,98
26,Ocon,2021-06-22_17:31:02,10.4,1.0,-0.1,23,47,0
27,Bottas,2021-06-22_17:31:02,23.0,1.0,-0.1,10,62,0
28,Ferrari,2021-06-22_17:31:02,19.1,1.0,-0.2,12,0,80
29,Stroll,2021-06-22_17:31:02,13.3,1.0,-0.1,7,0,20
