,name,request_time,price,chance_of_playing,weekly_price_change,current_selection_percentage,probability_price_up_percentage,probability_price_down_percentage
0,Gasly,2021-09-02_08:51:03,11.9,1.0,0.0,45,0,3
1,Vettel,2021-09-02_08:51:03,15.2,1.0,0.0,14,88,0
2,Tsunoda,2021-09-02_08:51:03,8.4,1.0,-0.1,21,0,55
3,Ocon,2021-09-02_08:51:03,10.2,1.0,0.2,20,11,0
4,Williams,2021-09-02_08:51:03,6.3,1.0,0.0,4,0,16
5,Norris,2021-09-02_08:51:03,14.2,1.0,0.0,66,9,0
6,Bottas,2021-09-02_08:51:03,23.0,1.0,0.0,10,0,42
7,Ferrari,2021-09-02_08:51:03,18.8,1.0,0.1,11,0,74
8,Red Bull,2021-09-02_08:51:03,26.6,1.0,0.1,35,11,0
9,Stroll,2021-09-02_08:51:03,13.3,1.0,0.0,7,0,11
10,Mazepin,2021-09-02_08:51:03,5.3,1.0,0.0,5,0,10
11,Mercedes,2021-09-02_08:51:03,37.1,1.0,0.0,8,0,13
12,Haas,2021-09-02_08:51:03,6.1,1.0,0.0,4,0,25
13,Aston Martin,2021-09-02_08:51:03,16.5,1.0,0.1,5,0,50
14,AlphaTauri,2021-09-02_08:51:03,12.7,1.0,0.0,5,0,87
15,Perez,2021-09-02_08:51:03,18.5,1.0,-0.2,34,35,0
16,Alpine,2021-09-02_08:51:03,15.1,1.0,0.0,4,59,0
17,Raikkonen,2021-09-02_08:51:03,9.2,1.0,-0.1,12,0,9
18,Hamilton,2021-09-02_08:51:03,33.0,1.0,0.0,24,0,16
19,McLaren,2021-09-02_08:51:03,18.7,1.0,0.1,28,0,53
20,Ricciardo,2021-09-02_08:51:03,15.7,1.0,-0.1,24,0,44
21,Leclerc,2021-09-02_08:51:03,17.6,1.0,0.0,35,0,52
22,Schumacher,2021-09-02_08:51:03,5.8,1.0,0.0,26,0,30
23,Giovinazzi,2021-09-02_08:51:03,8.0,1.0,-0.1,9,0,52
24,Sainz,2021-09-02_08:51:03,14.5,1.0,0.1,29,47,0
25,Alfa Romeo,2021-09-02_08:51:03,9.1,1.0,-0.1,4,0,0
26,Latifi,2021-09-02_08:51:03,6.4,1.0,0.0,4,0,46
27,Russell,2021-09-02_08:51:03,6.2,1.0,0.0,43,29,0
28,Alonso,2021-09-02_08:51:03,15.0,1.0,0.1,11,52,0
29,Verstappen,2021-09-02_08:51:03,25.7,1.0,0.0,61,57,0
