,name,request_time,price,chance_of_playing,weekly_price_change,current_selection_percentage,probability_price_up_percentage,probability_price_down_percentage
0,Perez,2021-05-11_23:31:03,18.1,1.0,-0.1,30,0,19
1,Alpine,2021-05-11_23:31:03,15.3,1.0,0.1,4,0,10
2,Hamilton,2021-05-11_23:31:03,33.3,1.0,0.0,28,25,0
3,Raikkonen,2021-05-11_23:31:03,9.3,1.0,0.0,13,0,46
4,Tsunoda,2021-05-11_23:31:03,8.8,1.0,-0.1,26,0,50
5,Russell,2021-05-11_23:31:03,6.2,1.0,-0.1,42,0,0
6,Alonso,2021-05-11_23:31:03,14.9,1.0,-0.1,10,0,13
7,Verstappen,2021-05-11_23:31:03,25.3,1.0,0.0,56,92,0
8,McLaren,2021-05-11_23:31:03,18.9,1.0,0.0,30,0,2
9,Ricciardo,2021-05-11_23:31:03,16.2,1.0,0.0,29,23,0
10,Ocon,2021-05-11_23:31:03,10.5,1.0,0.2,24,33,0
11,Leclerc,2021-05-11_23:31:03,18.1,1.0,0.1,40,34,0
12,AlphaTauri,2021-05-11_23:31:03,12.8,1.0,0.0,6,0,65
13,Mazepin,2021-05-11_23:31:03,5.3,1.0,0.0,5,0,48
14,Gasly,2021-05-11_23:31:03,11.6,1.0,-0.1,40,0,64
15,Vettel,2021-05-11_23:31:03,15.0,1.0,0.0,12,0,96
16,Giovinazzi,2021-05-11_23:31:03,7.8,1.0,0.0,7,0,44
17,Mercedes,2021-05-11_23:31:03,37.6,1.0,0.0,10,0,75
18,Aston Martin,2021-05-11_23:31:03,16.5,1.0,0.0,5,0,52
19,Haas,2021-05-11_23:31:03,6.1,1.0,0.0,4,0,17
20,Latifi,2021-05-11_23:31:03,6.4,1.0,0.0,4,0,22
21,Schumacher,2021-05-11_23:31:03,5.9,1.0,0.1,28,3,0
22,Red Bull,2021-05-11_23:31:03,26.1,1.0,0.0,32,3,0
23,Stroll,2021-05-11_23:31:03,13.5,1.0,0.0,8,0,67
24,Williams,2021-05-11_23:31:03,6.3,1.0,0.0,4,0,38
25,Bottas,2021-05-11_23:31:03,23.2,1.0,-0.1,11,0,11
26,Ferrari,2021-05-11_23:31:03,18.7,1.0,0.0,11,18,0
27,Norris,2021-05-11_23:31:03,13.9,1.0,0.0,63,12,0
28,Sainz,2021-05-11_23:31:03,14.3,1.0,0.0,26,0,32
29,Alfa Romeo,2021-05-11_23:31:03,8.9,1.0,0.0,4,71,0
