,name,request_time,price,chance_of_playing,weekly_price_change,current_selection_percentage,probability_price_up_percentage,probability_price_down_percentage
0,AlphaTauri,2021-07-03_03:41:02,12.7,1.0,0.1,6,47,0
1,Perez,2021-07-03_03:41:02,18.8,1.0,0.4,37,71,0
2,Alpine,2021-07-03_03:41:02,15.1,1.0,-0.1,4,0,19
3,Vettel,2021-07-03_03:41:02,15.2,1.0,0.2,14,24,0
4,Tsunoda,2021-07-03_03:41:02,8.5,1.0,0.1,23,31,0
5,Bottas,2021-07-03_03:41:02,23.0,1.0,0.0,10,0,62
6,Ferrari,2021-07-03_03:41:02,18.7,1.0,-0.6,10,0,83
7,Red Bull,2021-07-03_03:41:02,26.6,1.0,0.1,35,28,0
8,Stroll,2021-07-03_03:41:02,13.3,1.0,0.0,8,32,0
9,Williams,2021-07-03_03:41:02,6.3,1.0,0.0,4,0,46
10,Mazepin,2021-07-03_03:41:02,5.3,1.0,0.0,5,0,11
11,Raikkonen,2021-07-03_03:41:02,9.3,1.0,0.0,13,0,63
12,Hamilton,2021-07-03_03:41:02,33.0,1.0,-0.1,24,0,11
13,Gasly,2021-07-03_03:41:02,11.9,1.0,0.1,46,52,0
14,Sainz,2021-07-03_03:41:02,14.3,1.0,-0.4,26,0,50
15,Alfa Romeo,2021-07-03_03:41:02,9.2,1.0,0.0,4,0,73
16,Mercedes,2021-07-03_03:41:02,37.2,1.0,-0.1,9,0,52
17,Aston Martin,2021-07-03_03:41:02,16.4,1.0,0.0,5,66,0
18,Haas,2021-07-03_03:41:02,6.1,1.0,0.0,4,0,26
19,McLaren,2021-07-03_03:41:02,18.6,1.0,0.0,28,18,0
20,Ricciardo,2021-07-03_03:41:02,15.9,1.0,0.0,26,0,47
21,Ocon,2021-07-03_03:41:02,10.3,1.0,-0.1,21,0,86
22,Schumacher,2021-07-03_03:41:02,5.8,1.0,0.0,27,0,14
23,Leclerc,2021-07-03_03:41:02,17.6,1.0,-0.4,34,0,90
24,Norris,2021-07-03_03:41:02,14.0,1.0,0.1,65,48,0
25,Giovinazzi,2021-07-03_03:41:02,8.0,1.0,0.0,9,29,0
26,Latifi,2021-07-03_03:41:02,6.4,1.0,0.0,4,0,50
27,Russell,2021-07-03_03:41:02,6.2,1.0,0.0,41,0,65
28,Alonso,2021-07-03_03:41:02,14.8,1.0,0.0,10,44,0
29,Verstappen,2021-07-03_03:41:02,25.7,1.0,0.1,60,4,0
