,name,request_time,price,chance_of_playing,weekly_price_change,current_selection_percentage,probability_price_up_percentage,probability_price_down_percentage
0,AlphaTauri,2021-05-01_05:41:03,13.1,1.0,-0.1,7,0,3
1,Perez,2021-05-01_05:41:03,18.3,1.0,-0.1,31,0,50
2,Alpine,2021-05-01_05:41:03,15.0,1.0,-0.1,4,0,25
3,Hamilton,2021-05-01_05:41:03,33.4,1.0,0.0,27,0,85
4,Raikkonen,2021-05-01_05:41:03,9.4,1.0,0.0,14,0,17
5,Gasly,2021-05-01_05:41:03,11.7,1.0,0.0,43,84,0
6,Vettel,2021-05-01_05:41:03,15.1,1.0,-0.3,13,0,27
7,Red Bull,2021-05-01_05:41:03,26.1,1.0,0.1,31,0,17
8,Stroll,2021-05-01_05:41:03,13.6,1.0,0.0,9,23,0
9,Mazepin,2021-05-01_05:41:03,5.3,1.0,0.0,5,0,33
10,Tsunoda,2021-05-01_05:41:03,9.3,1.0,-0.1,33,0,8
11,Latifi,2021-05-01_05:41:03,6.5,1.0,0.0,4,0,80
12,Russell,2021-05-01_05:41:03,6.2,1.0,0.0,44,86,0
13,Alonso,2021-05-01_05:41:03,15.0,1.0,-0.2,10,0,92
14,Verstappen,2021-05-01_05:41:03,25.3,1.0,0.2,55,22,0
15,McLaren,2021-05-01_05:41:03,18.8,1.0,0.1,29,47,0
16,Ricciardo,2021-05-01_05:41:03,16.5,1.0,-0.2,31,0,45
17,Leclerc,2021-05-01_05:41:03,17.8,1.0,0.4,37,14,0
18,Ocon,2021-05-01_05:41:03,9.6,1.0,-0.1,14,47,0
19,Schumacher,2021-05-01_05:41:03,5.7,1.0,0.0,25,0,33
20,Bottas,2021-05-01_05:41:03,23.3,1.0,-0.2,11,0,17
21,Ferrari,2021-05-01_05:41:03,18.8,1.0,0.1,11,77,0
22,Mercedes,2021-05-01_05:41:03,37.6,1.0,-0.2,10,0,13
23,Aston Martin,2021-05-01_05:41:03,16.7,1.0,-0.2,5,0,77
24,Haas,2021-05-01_05:41:03,6.1,1.0,0.0,4,0,28
25,Williams,2021-05-01_05:41:03,6.3,1.0,0.0,4,0,29
26,Norris,2021-05-01_05:41:03,13.7,1.0,0.3,60,26,0
27,Giovinazzi,2021-05-01_05:41:03,7.8,1.0,0.0,7,0,58
28,Sainz,2021-05-01_05:41:03,14.3,1.0,0.0,27,49,0
29,Alfa Romeo,2021-05-01_05:41:03,8.9,1.0,0.0,4,25,0
