,name,request_time,price,chance_of_playing,weekly_price_change,current_selection_percentage,probability_price_up_percentage,probability_price_down_percentage
0,Ferrari,2021-06-27_11:01:03,18.7,1.0,-0.6,10,0,85
1,Red Bull,2021-06-27_11:01:03,26.5,1.0,0.3,35,39,0
2,AlphaTauri,2021-06-27_11:01:03,12.7,1.0,0.1,6,36,0
3,Perez,2021-06-27_11:01:03,18.8,1.0,0.4,36,12,0
4,Alpine,2021-06-27_11:01:03,15.2,1.0,-0.1,4,0,83
5,Tsunoda,2021-06-27_11:01:03,8.4,1.0,0.0,23,69,0
6,Bottas,2021-06-27_11:01:03,23.0,1.0,0.0,10,0,55
7,Mazepin,2021-06-27_11:01:03,5.3,1.0,0.0,5,0,13
8,Raikkonen,2021-06-27_11:01:03,9.3,1.0,0.0,12,0,76
9,Hamilton,2021-06-27_11:01:03,33.1,1.0,0.0,25,0,68
10,Gasly,2021-06-27_11:01:03,11.9,1.0,0.1,46,46,0
11,Vettel,2021-06-27_11:01:03,15.2,1.0,0.2,14,64,0
12,Mercedes,2021-06-27_11:01:03,37.2,1.0,-0.1,9,0,26
13,Aston Martin,2021-06-27_11:01:03,16.4,1.0,0.0,5,77,0
14,Haas,2021-06-27_11:01:03,6.1,1.0,0.0,4,0,27
15,Norris,2021-06-27_11:01:03,14.0,1.0,0.1,64,12,0
16,Giovinazzi,2021-06-27_11:01:03,8.0,1.0,0.0,9,53,0
17,McLaren,2021-06-27_11:01:03,18.6,1.0,0.0,28,82,0
18,Ricciardo,2021-06-27_11:01:03,15.9,1.0,0.0,27,57,0
19,Leclerc,2021-06-27_11:01:03,17.6,1.0,-0.4,34,0,64
20,Ocon,2021-06-27_11:01:03,10.4,1.0,0.0,22,0,79
21,Schumacher,2021-06-27_11:01:03,5.8,1.0,0.0,26,0,29
22,Latifi,2021-06-27_11:01:03,6.4,1.0,0.0,4,0,46
23,Russell,2021-06-27_11:01:03,6.2,1.0,0.0,40,0,70
24,Alonso,2021-06-27_11:01:03,14.8,1.0,0.0,10,45,0
25,Verstappen,2021-06-27_11:01:03,25.6,1.0,0.1,60,61,0
26,Stroll,2021-06-27_11:01:03,13.3,1.0,0.0,8,10,0
27,Williams,2021-06-27_11:01:03,6.3,1.0,0.0,4,0,45
28,Sainz,2021-06-27_11:01:03,14.3,1.0,-0.4,26,0,67
29,Alfa Romeo,2021-06-27_11:01:03,9.2,1.0,0.0,4,0,67
