,name,request_time,price,chance_of_playing,weekly_price_change,current_selection_percentage,probability_price_up_percentage,probability_price_down_percentage
0,Gasly,2021-08-05_17:01:03,11.9,1.0,0.0,45,0,28
1,Vettel,2021-08-05_17:01:03,15.2,1.0,0.0,13,0,50
2,Tsunoda,2021-08-05_17:01:03,8.4,1.0,-0.1,22,0,3
3,Ocon,2021-08-05_17:01:03,10.0,1.0,-0.1,19,79,0
4,Williams,2021-08-05_17:01:03,6.3,1.0,0.0,4,0,34
5,Norris,2021-08-05_17:01:03,14.2,1.0,0.1,66,0,2
6,Bottas,2021-08-05_17:01:03,23.1,1.0,0.1,10,0,43
7,Ferrari,2021-08-05_17:01:03,18.8,1.0,0.1,11,16,0
8,Red Bull,2021-08-05_17:01:03,26.6,1.0,-0.1,35,0,69
9,Stroll,2021-08-05_17:01:03,13.3,1.0,0.0,7,0,10
10,Raikkonen,2021-08-05_17:01:03,9.3,1.0,0.0,13,0,74
11,Mazepin,2021-08-05_17:01:03,5.3,1.0,0.0,5,2,0
12,Mercedes,2021-08-05_17:01:03,37.1,1.0,-0.1,8,0,2
13,AlphaTauri,2021-08-05_17:01:03,12.7,1.0,0.0,5,0,61
14,Aston Martin,2021-08-05_17:01:03,16.4,1.0,0.0,5,59,0
15,Haas,2021-08-05_17:01:03,6.1,1.0,0.0,4,0,27
16,Perez,2021-08-05_17:01:03,18.6,1.0,-0.2,34,0,48
17,Alpine,2021-08-05_17:01:03,15.1,1.0,0.0,4,0,60
18,Hamilton,2021-08-05_17:01:03,33.0,1.0,0.0,24,0,16
19,McLaren,2021-08-05_17:01:03,18.7,1.0,0.1,28,2,0
20,Ricciardo,2021-08-05_17:01:03,15.8,1.0,0.0,25,0,87
21,Leclerc,2021-08-05_17:01:03,17.7,1.0,0.1,36,0,2
22,Schumacher,2021-08-05_17:01:03,5.8,1.0,0.0,27,0,5
23,Giovinazzi,2021-08-05_17:01:03,8.1,1.0,0.1,9,0,95
24,Sainz,2021-08-05_17:01:03,14.5,1.0,0.1,29,22,0
25,Alfa Romeo,2021-08-05_17:01:03,9.2,1.0,0.0,4,0,91
26,Latifi,2021-08-05_17:01:03,6.4,1.0,0.0,4,0,56
27,Russell,2021-08-05_17:01:03,6.2,1.0,0.0,42,8,0
28,Alonso,2021-08-05_17:01:03,14.9,1.0,0.1,11,41,0
29,Verstappen,2021-08-05_17:01:03,25.7,1.0,0.0,60,34,0
