,name,request_time,price,chance_of_playing,weekly_price_change,current_selection_percentage,probability_price_up_percentage,probability_price_down_percentage
0,Gasly,2021-07-23_08:51:03,11.9,1.0,0.0,45,19,0
1,Vettel,2021-07-23_08:51:03,15.2,1.0,0.0,13,0,18
2,Tsunoda,2021-07-23_08:51:03,8.5,1.0,0.0,23,0,33
3,Ocon,2021-07-23_08:51:03,10.0,1.0,-0.1,19,0,1
4,Bottas,2021-07-23_08:51:03,23.0,1.0,0.0,10,0,34
5,Williams,2021-07-23_08:51:03,6.3,1.0,0.0,4,0,41
6,Norris,2021-07-23_08:51:03,14.1,1.0,0.1,66,89,0
7,Ferrari,2021-07-23_08:51:03,18.7,1.0,0.0,10,0,69
8,Red Bull,2021-07-23_08:51:03,26.7,1.0,0.1,36,10,0
9,Stroll,2021-07-23_08:51:03,13.3,1.0,0.0,8,3,0
10,Raikkonen,2021-07-23_08:51:03,9.3,1.0,0.0,13,0,68
11,Mazepin,2021-07-23_08:51:03,5.3,1.0,0.0,5,0,10
12,Mercedes,2021-07-23_08:51:03,37.1,1.0,-0.1,8,0,6
13,AlphaTauri,2021-07-23_08:51:03,12.7,1.0,0.0,6,0,14
14,Haas,2021-07-23_08:51:03,6.1,1.0,0.0,4,0,26
15,Aston Martin,2021-07-23_08:51:03,16.4,1.0,0.0,5,61,0
16,Perez,2021-07-23_08:51:03,18.8,1.0,0.0,36,0,50
17,Alpine,2021-07-23_08:51:03,15.1,1.0,0.0,4,0,81
18,Hamilton,2021-07-23_08:51:03,33.0,1.0,0.0,24,0,59
19,McLaren,2021-07-23_08:51:03,18.6,1.0,0.0,28,26,0
20,Ricciardo,2021-07-23_08:51:03,15.8,1.0,0.0,25,0,52
21,Leclerc,2021-07-23_08:51:03,17.5,1.0,-0.1,35,54,0
22,Schumacher,2021-07-23_08:51:03,5.8,1.0,0.0,27,32,0
23,Giovinazzi,2021-07-23_08:51:03,8.0,1.0,0.0,10,86,0
24,Sainz,2021-07-23_08:51:03,14.4,1.0,0.1,28,1,0
25,Alfa Romeo,2021-07-23_08:51:03,9.2,1.0,0.0,4,0,79
26,Latifi,2021-07-23_08:51:03,6.4,1.0,0.0,4,0,59
27,Russell,2021-07-23_08:51:03,6.2,1.0,0.0,41,0,34
28,Alonso,2021-07-23_08:51:03,14.8,1.0,0.0,10,70,0
29,Verstappen,2021-07-23_08:51:03,25.7,1.0,0.0,61,77,0
