,name,request_time,price,chance_of_playing,weekly_price_change,current_selection_percentage,probability_price_up_percentage,probability_price_down_percentage
0,Alpine,2021-05-24_06:11:02,15.2,1.0,0.0,4,0,47
1,Gasly,2021-05-24_06:11:02,11.5,1.0,-0.2,39,6,0
2,Verstappen,2021-05-24_06:11:02,25.4,1.0,0.1,57,58,0
3,Giovinazzi,2021-05-24_06:11:02,7.9,1.0,0.1,8,10,0
4,Sainz,2021-05-24_06:11:02,14.6,1.0,0.1,29,39,0
5,Alfa Romeo,2021-05-24_06:11:02,9.2,1.0,0.3,4,0,3
6,AlphaTauri,2021-05-24_06:11:02,12.6,1.0,-0.2,5,0,25
7,Perez,2021-05-24_06:11:02,18.0,1.0,-0.2,29,0,64
8,Mazepin,2021-05-24_06:11:02,5.3,1.0,0.0,5,0,14
9,Hamilton,2021-05-24_06:11:02,33.3,1.0,0.0,27,0,36
10,Raikkonen,2021-05-24_06:11:02,9.4,1.0,0.1,14,40,0
11,Vettel,2021-05-24_06:11:02,14.9,1.0,-0.1,11,0,22
12,Tsunoda,2021-05-24_06:11:02,8.5,1.0,-0.1,23,0,12
13,Red Bull,2021-05-24_06:11:02,26.0,1.0,-0.1,30,0,70
14,Stroll,2021-05-24_06:11:02,13.4,1.0,-0.1,8,0,35
15,Williams,2021-05-24_06:11:02,6.3,1.0,0.0,4,0,33
16,Norris,2021-05-24_06:11:02,13.9,1.0,0.0,63,14,0
17,Alonso,2021-05-24_06:11:02,14.8,1.0,-0.2,10,0,44
18,McLaren,2021-05-24_06:11:02,18.7,1.0,-0.2,28,0,54
19,Mercedes,2021-05-24_06:11:02,37.5,1.0,-0.1,10,0,77
20,Haas,2021-05-24_06:11:02,6.1,1.0,0.0,4,0,16
21,Aston Martin,2021-05-24_06:11:02,16.4,1.0,-0.1,5,0,1
22,Latifi,2021-05-24_06:11:02,6.4,1.0,0.0,4,0,22
23,Russell,2021-05-24_06:11:02,6.2,1.0,-0.1,42,2,0
24,Ricciardo,2021-05-24_06:11:02,16.2,1.0,0.0,28,0,19
25,Leclerc,2021-05-24_06:11:02,18.3,1.0,0.3,42,67,0
26,Schumacher,2021-05-24_06:11:02,5.9,1.0,0.1,27,0,87
27,Ocon,2021-05-24_06:11:02,10.5,1.0,0.2,23,0,30
28,Bottas,2021-05-24_06:11:02,23.1,1.0,-0.1,10,0,6
29,Ferrari,2021-05-24_06:11:02,19.6,1.0,0.1,15,44,0
