,name,request_time,price,chance_of_playing,weekly_price_change,current_selection_percentage,probability_price_up_percentage,probability_price_down_percentage
0,AlphaTauri,2021-06-14_07:31:03,12.6,1.0,0.0,5,7,0
1,Perez,2021-06-14_07:31:03,18.3,1.0,0.1,32,78,0
2,Alpine,2021-06-14_07:31:03,15.1,1.0,-0.1,4,0,25
3,Gasly,2021-06-14_07:31:03,11.7,1.0,0.2,43,73,0
4,Verstappen,2021-06-14_07:31:03,25.5,1.0,0.1,58,56,0
5,Giovinazzi,2021-06-14_07:31:03,8.0,1.0,0.2,9,76,0
6,Sainz,2021-06-14_07:31:03,14.7,1.0,0.2,31,73,0
7,Alfa Romeo,2021-06-14_07:31:03,9.2,1.0,0.0,4,0,38
8,Norris,2021-06-14_07:31:03,13.9,1.0,0.0,63,55,0
9,Mazepin,2021-06-14_07:31:03,5.3,1.0,0.0,5,0,24
10,Raikkonen,2021-06-14_07:31:03,9.3,1.0,-0.1,13,0,11
11,Hamilton,2021-06-14_07:31:03,33.1,1.0,-0.1,25,0,13
12,Vettel,2021-06-14_07:31:03,15.0,1.0,0.1,12,44,0
13,Tsunoda,2021-06-14_07:31:03,8.4,1.0,-0.2,22,16,0
14,Red Bull,2021-06-14_07:31:03,26.2,1.0,0.1,32,14,0
15,Stroll,2021-06-14_07:31:03,13.4,1.0,0.0,8,0,93
16,Williams,2021-06-14_07:31:03,6.3,1.0,0.0,4,0,46
17,Mercedes,2021-06-14_07:31:03,37.3,1.0,-0.2,9,0,47
18,Aston Martin,2021-06-14_07:31:03,16.4,1.0,0.0,5,30,0
19,Haas,2021-06-14_07:31:03,6.1,1.0,0.0,4,0,26
20,Latifi,2021-06-14_07:31:03,6.4,1.0,0.0,4,0,32
21,Russell,2021-06-14_07:31:03,6.2,1.0,0.0,40,0,72
22,Alonso,2021-06-14_07:31:03,14.7,1.0,-0.1,9,0,4
23,McLaren,2021-06-14_07:31:03,18.6,1.0,-0.1,27,0,66
24,Ricciardo,2021-06-14_07:31:03,16.0,1.0,-0.2,26,0,89
25,Ocon,2021-06-14_07:31:03,10.4,1.0,-0.1,22,0,64
26,Schumacher,2021-06-14_07:31:03,5.8,1.0,-0.1,26,0,35
27,Leclerc,2021-06-14_07:31:03,18.2,1.0,-0.1,41,0,4
28,Bottas,2021-06-14_07:31:03,23.0,1.0,-0.2,10,0,63
29,Ferrari,2021-06-14_07:31:03,19.6,1.0,-0.1,14,0,37
