,name,request_time,price,chance_of_playing,weekly_price_change,current_selection_percentage,probability_price_up_percentage,probability_price_down_percentage
0,AlphaTauri,2021-05-08_18:11:03,12.8,1.0,0.0,6,0,23
1,Perez,2021-05-08_18:11:03,18.2,1.0,0.0,30,0,51
2,Alpine,2021-05-08_18:11:03,15.3,1.0,0.1,4,1,0
3,Hamilton,2021-05-08_18:11:03,33.3,1.0,0.0,28,23,0
4,Raikkonen,2021-05-08_18:11:03,9.3,1.0,0.0,13,0,50
5,Red Bull,2021-05-08_18:11:03,26.1,1.0,0.0,31,0,18
6,Stroll,2021-05-08_18:11:03,13.5,1.0,0.0,8,0,33
7,Gasly,2021-05-08_18:11:03,11.6,1.0,-0.1,41,0,3
8,Vettel,2021-05-08_18:11:03,15.0,1.0,0.0,12,0,64
9,Tsunoda,2021-05-08_18:11:03,8.9,1.0,0.0,27,0,55
10,Russell,2021-05-08_18:11:03,6.3,1.0,0.0,42,0,92
11,Alonso,2021-05-08_18:11:03,15.0,1.0,0.0,11,0,69
12,Verstappen,2021-05-08_18:11:03,25.3,1.0,0.0,56,75,0
13,McLaren,2021-05-08_18:11:03,18.9,1.0,0.0,30,17,0
14,Ricciardo,2021-05-08_18:11:03,16.2,1.0,0.0,29,0,4
15,Leclerc,2021-05-08_18:11:03,18.0,1.0,0.0,39,42,0
16,Mazepin,2021-05-08_18:11:03,5.3,1.0,0.0,5,0,48
17,Ocon,2021-05-08_18:11:03,10.4,1.0,0.1,22,3,0
18,Bottas,2021-05-08_18:11:03,23.3,1.0,0.0,11,0,84
19,Ferrari,2021-05-08_18:11:03,18.7,1.0,0.0,11,0,32
20,Williams,2021-05-08_18:11:03,6.3,1.0,0.0,4,0,42
21,Giovinazzi,2021-05-08_18:11:03,7.8,1.0,0.0,7,0,40
22,Mercedes,2021-05-08_18:11:03,37.6,1.0,0.0,10,0,65
23,Aston Martin,2021-05-08_18:11:03,16.5,1.0,0.0,5,0,24
24,Haas,2021-05-08_18:11:03,6.1,1.0,0.0,4,0,24
25,Latifi,2021-05-08_18:11:03,6.4,1.0,0.0,4,0,21
26,Schumacher,2021-05-08_18:11:03,5.8,1.0,0.0,27,45,0
27,Norris,2021-05-08_18:11:03,13.9,1.0,0.0,63,9,0
28,Sainz,2021-05-08_18:11:03,14.3,1.0,0.0,26,0,3
29,Alfa Romeo,2021-05-08_18:11:03,8.9,1.0,0.0,4,39,0
