,name,request_time,price,chance_of_playing,weekly_price_change,current_selection_percentage,probability_price_up_percentage,probability_price_down_percentage
0,Ocon,2021-08-03_16:21:02,10.0,1.0,-0.1,19,71,0
1,Williams,2021-08-03_16:21:02,6.3,1.0,0.0,4,0,35
2,Norris,2021-08-03_16:21:02,14.2,1.0,0.1,66,0,3
3,Gasly,2021-08-03_16:21:02,11.9,1.0,0.0,45,0,28
4,Vettel,2021-08-03_16:21:02,15.2,1.0,0.0,13,0,52
5,Tsunoda,2021-08-03_16:21:02,8.4,1.0,-0.1,22,0,1
6,Bottas,2021-08-03_16:21:02,23.1,1.0,0.1,10,0,37
7,Ferrari,2021-08-03_16:21:02,18.8,1.0,0.1,11,13,0
8,Red Bull,2021-08-03_16:21:02,26.6,1.0,-0.1,35,0,64
9,Stroll,2021-08-03_16:21:02,13.3,1.0,0.0,7,0,7
10,Raikkonen,2021-08-03_16:21:02,9.3,1.0,0.0,13,0,71
11,Mazepin,2021-08-03_16:21:02,5.3,1.0,0.0,5,2,0
12,Mercedes,2021-08-03_16:21:02,37.1,1.0,-0.1,8,0,1
13,AlphaTauri,2021-08-03_16:21:02,12.7,1.0,0.0,5,0,59
14,Aston Martin,2021-08-03_16:21:02,16.4,1.0,0.0,5,53,0
15,Haas,2021-08-03_16:21:02,6.1,1.0,0.0,4,0,27
16,Perez,2021-08-03_16:21:02,18.6,1.0,-0.2,34,0,41
17,Alpine,2021-08-03_16:21:02,15.1,1.0,0.0,4,0,63
18,Hamilton,2021-08-03_16:21:02,33.0,1.0,0.0,24,0,18
19,Sainz,2021-08-03_16:21:02,14.5,1.0,0.1,28,15,0
20,Alfa Romeo,2021-08-03_16:21:02,9.2,1.0,0.0,4,0,89
21,McLaren,2021-08-03_16:21:02,18.7,1.0,0.1,28,2,0
22,Ricciardo,2021-08-03_16:21:02,15.8,1.0,0.0,25,0,79
23,Leclerc,2021-08-03_16:21:02,17.7,1.0,0.1,36,0,0
24,Schumacher,2021-08-03_16:21:02,5.8,1.0,0.0,27,0,3
25,Giovinazzi,2021-08-03_16:21:02,8.1,1.0,0.1,9,0,89
26,Latifi,2021-08-03_16:21:02,6.4,1.0,0.0,4,0,57
27,Russell,2021-08-03_16:21:02,6.2,1.0,0.0,42,6,0
28,Alonso,2021-08-03_16:21:02,14.9,1.0,0.1,11,30,0
29,Verstappen,2021-08-03_16:21:02,25.7,1.0,0.0,60,35,0
