,name,request_time,price,chance_of_playing,weekly_price_change,current_selection_percentage,probability_price_up_percentage,probability_price_down_percentage
0,Mazepin,2021-04-13_13:00:03,5.4,1.0,-0.0999999999999996,5,0,69
1,Stroll,2021-04-13_13:00:03,13.7,1.0,-0.2,10,0,10
2,Alfa Romeo,2021-04-13_13:00:03,8.9,1.0,0.0,4,2,0
3,Mercedes,2021-04-13_13:00:03,37.9,1.0,-0.1,12,0,92
4,McLaren,2021-04-13_13:00:03,18.9,1.0,0.0,29,0,56
5,Red Bull,2021-04-13_13:00:03,26.0,1.0,0.100000000000001,31,48,0
6,Bottas,2021-04-13_13:00:03,23.5,1.0,-0.100000000000001,12,0,59
7,Tsunoda,2021-04-13_13:00:03,9.3,1.0,0.5,32,51,0
8,Vettel,2021-04-13_13:00:03,15.6,1.0,-0.6,16,0,41
9,Verstappen,2021-04-13_13:00:03,25.1,1.0,0.3,53,8,0
10,Hamilton,2021-04-13_13:00:03,33.4,1.0,-0.1,28,0,10
11,Perez,2021-04-13_13:00:03,18.4,1.0,0.0,33,9,0
12,Haas,2021-04-13_13:00:03,6.1,1.0,0.0,4,0,21
13,Williams,2021-04-13_13:00:03,6.3,1.0,0.0,4,0,35
14,Raikkonen,2021-04-13_13:00:03,9.5,1.0,-0.1,14,0,51
15,Schumacher,2021-04-13_13:00:03,5.8,1.0,0.0,26,0,51
16,Aston Martin,2021-04-13_13:00:03,17.0,1.0,-0.6,6,0,5
17,Latifi,2021-04-13_13:00:03,6.5,1.0,0.0,4,0,56
18,Sainz,2021-04-13_13:00:03,14.3,1.0,-0.1,26,0,12
19,Leclerc,2021-04-13_13:00:03,17.3,1.0,0.5,31,6,0
20,Alpine,2021-04-13_13:00:03,15.2,1.0,-0.2,4,0,73
21,Alonso,2021-04-13_13:00:03,15.3,1.0,-0.3,12,0,57
22,Russell,2021-04-13_13:00:03,6.2,1.0,0.0,42,3,0
23,Ferrari,2021-04-13_13:00:03,18.5,1.0,0.4,9,31,0
24,Norris,2021-04-13_13:00:03,13.4,1.0,0.3,55,9,0
25,AlphaTauri,2021-04-13_13:00:03,13.1,1.0,0.4,7,32,0
26,Giovinazzi,2021-04-13_13:00:03,7.9,1.0,0.0,8,0,74
27,Ricciardo,2021-04-13_13:00:03,17.0,1.0,-0.3,36,0,96
28,Ocon,2021-04-13_13:00:03,9.8,1.0,-0.3,15,0,47
29,Gasly,2021-04-13_13:00:03,11.8,1.0,0.1,42,0,88
