,name,request_time,price,chance_of_playing,weekly_price_change,current_selection_percentage,probability_price_up_percentage,probability_price_down_percentage
0,Mercedes,2021-04-16_04:41:03,37.8,1.0,-0.2,11,0,23
1,Hamilton,2021-04-16_04:41:03,33.4,1.0,-0.1,28,0,32
2,Alpine,2021-04-16_04:41:03,15.1,1.0,-0.3,4,0,14
3,Williams,2021-04-16_04:41:03,6.3,1.0,0.0,4,0,39
4,Bottas,2021-04-16_04:41:03,23.5,1.0,-0.100000000000001,12,0,83
5,Raikkonen,2021-04-16_04:41:03,9.5,1.0,-0.1,14,0,74
6,Schumacher,2021-04-16_04:41:03,5.8,1.0,0.0,26,0,73
7,Ferrari,2021-04-16_04:41:03,18.5,1.0,0.4,9,70,0
8,Latifi,2021-04-16_04:41:03,6.5,1.0,0.0,4,0,62
9,Haas,2021-04-16_04:41:03,6.1,1.0,0.0,4,0,25
10,Ocon,2021-04-16_04:41:03,9.7,1.0,-0.4,14,0,0
11,Sainz,2021-04-16_04:41:03,14.3,1.0,-0.1,26,0,36
12,Norris,2021-04-16_04:41:03,13.4,1.0,0.3,56,42,0
13,Vettel,2021-04-16_04:41:03,15.5,1.0,-0.7,15,0,26
14,Alfa Romeo,2021-04-16_04:41:03,8.9,1.0,0.0,4,3,0
15,Mazepin,2021-04-16_04:41:03,5.4,1.0,-0.0999999999999996,5,0,77
16,AlphaTauri,2021-04-16_04:41:03,13.1,1.0,0.4,7,81,0
17,Tsunoda,2021-04-16_04:41:03,9.3,1.0,0.5,34,79,0
18,Perez,2021-04-16_04:41:03,18.4,1.0,0.0,33,45,0
19,Giovinazzi,2021-04-16_04:41:03,7.9,1.0,0.0,8,0,92
20,Ricciardo,2021-04-16_04:41:03,16.9,1.0,-0.4,35,0,61
21,Stroll,2021-04-16_04:41:03,13.7,1.0,-0.2,9,0,50
22,Red Bull,2021-04-16_04:41:03,26.0,1.0,0.100000000000001,31,55,0
23,Leclerc,2021-04-16_04:41:03,17.3,1.0,0.5,31,57,0
24,Verstappen,2021-04-16_04:41:03,25.1,1.0,0.3,53,45,0
25,McLaren,2021-04-16_04:41:03,18.9,1.0,0.0,29,0,97
26,Aston Martin,2021-04-16_04:41:03,17.0,1.0,-0.6,6,0,75
27,Alonso,2021-04-16_04:41:03,15.2,1.0,-0.4,12,0,19
28,Russell,2021-04-16_04:41:03,6.2,1.0,0.0,42,11,0
29,Gasly,2021-04-16_04:41:03,11.7,1.0,0.0,42,0,14
