,name,request_time,price,chance_of_playing,weekly_price_change,current_selection_percentage,probability_price_up_percentage,probability_price_down_percentage
0,AlphaTauri,2021-05-23_06:41:03,12.6,1.0,-0.2,5,0,20
1,Perez,2021-05-23_06:41:03,18.0,1.0,-0.2,29,0,67
2,Alpine,2021-05-23_06:41:03,15.2,1.0,0.0,4,0,39
3,Gasly,2021-05-23_06:41:03,11.5,1.0,-0.2,39,0,10
4,Verstappen,2021-05-23_06:41:03,25.4,1.0,0.1,57,43,0
5,Giovinazzi,2021-05-23_06:41:03,7.8,1.0,0.0,8,70,0
6,Sainz,2021-05-23_06:41:03,14.6,1.0,0.1,29,6,0
7,Alfa Romeo,2021-05-23_06:41:03,9.2,1.0,0.3,4,0,2
8,Mazepin,2021-05-23_06:41:03,5.3,1.0,0.0,5,0,15
9,Raikkonen,2021-05-23_06:41:03,9.4,1.0,0.1,14,41,0
10,Hamilton,2021-05-23_06:41:03,33.3,1.0,0.0,27,0,23
11,Vettel,2021-05-23_06:41:03,14.9,1.0,-0.1,11,0,28
12,Tsunoda,2021-05-23_06:41:03,8.6,1.0,-0.3,23,0,91
13,Red Bull,2021-05-23_06:41:03,26.0,1.0,-0.1,30,0,83
14,Stroll,2021-05-23_06:41:03,13.4,1.0,-0.1,8,0,32
15,Williams,2021-05-23_06:41:03,6.3,1.0,0.0,4,0,31
16,Norris,2021-05-23_06:41:03,13.9,1.0,0.0,63,0,0
17,Mercedes,2021-05-23_06:41:03,37.5,1.0,-0.1,10,0,66
18,Haas,2021-05-23_06:41:03,6.1,1.0,0.0,4,0,14
19,Aston Martin,2021-05-23_06:41:03,16.4,1.0,-0.1,5,0,2
20,Latifi,2021-05-23_06:41:03,6.4,1.0,0.0,4,0,21
21,Russell,2021-05-23_06:41:03,6.2,1.0,-0.1,42,4,0
22,Alonso,2021-05-23_06:41:03,14.8,1.0,-0.2,10,0,31
23,McLaren,2021-05-23_06:41:03,18.7,1.0,-0.2,28,0,43
24,Ricciardo,2021-05-23_06:41:03,16.2,1.0,0.0,29,22,0
25,Schumacher,2021-05-23_06:41:03,5.9,1.0,0.1,27,0,72
26,Leclerc,2021-05-23_06:41:03,18.3,1.0,0.3,42,72,0
27,Ocon,2021-05-23_06:41:03,10.5,1.0,0.2,23,0,24
28,Bottas,2021-05-23_06:41:03,23.1,1.0,-0.1,10,0,0
29,Ferrari,2021-05-23_06:41:03,19.6,1.0,0.1,14,18,0
