,name,request_time,price,chance_of_playing,weekly_price_change,current_selection_percentage,probability_price_up_percentage,probability_price_down_percentage
0,AlphaTauri,2021-05-02_16:21:02,13.0,1.0,-0.1,7,0,18
1,Perez,2021-05-02_16:21:02,18.3,1.0,0.0,31,0,42
2,Alpine,2021-05-02_16:21:02,15.0,1.0,0.0,4,59,0
3,Hamilton,2021-05-02_16:21:02,33.3,1.0,-0.1,27,0,3
4,Raikkonen,2021-05-02_16:21:02,9.4,1.0,0.0,14,0,15
5,Gasly,2021-05-02_16:21:02,11.7,1.0,0.0,43,40,0
6,Red Bull,2021-05-02_16:21:02,26.1,1.0,0.0,31,0,20
7,Stroll,2021-05-02_16:21:02,13.6,1.0,0.0,9,11,0
8,Mazepin,2021-05-02_16:21:02,5.3,1.0,0.0,5,0,37
9,Vettel,2021-05-02_16:21:02,15.1,1.0,0.0,12,0,68
10,Tsunoda,2021-05-02_16:21:02,9.2,1.0,-0.1,31,0,17
11,Russell,2021-05-02_16:21:02,6.3,1.0,0.1,44,1,0
12,Alonso,2021-05-02_16:21:02,15.0,1.0,0.0,10,0,78
13,Verstappen,2021-05-02_16:21:02,25.3,1.0,0.0,56,48,0
14,McLaren,2021-05-02_16:21:02,18.8,1.0,0.0,29,41,0
15,Ricciardo,2021-05-02_16:21:02,16.4,1.0,-0.1,30,0,9
16,Ocon,2021-05-02_16:21:02,9.8,1.0,0.0,16,76,0
17,Leclerc,2021-05-02_16:21:02,17.8,1.0,0.0,37,70,0
18,Schumacher,2021-05-02_16:21:02,5.7,1.0,0.0,25,0,39
19,Bottas,2021-05-02_16:21:02,23.3,1.0,0.0,11,0,55
20,Ferrari,2021-05-02_16:21:02,19.0,1.0,0.1,12,8,0
21,Mercedes,2021-05-02_16:21:02,37.6,1.0,0.0,10,0,49
22,Haas,2021-05-02_16:21:02,6.1,1.0,0.0,4,0,32
23,Aston Martin,2021-05-02_16:21:02,16.6,1.0,0.0,5,0,13
24,Latifi,2021-05-02_16:21:02,6.4,1.0,-0.1,4,0,0
25,Williams,2021-05-02_16:21:02,6.3,1.0,0.0,4,0,30
26,Giovinazzi,2021-05-02_16:21:02,7.8,1.0,0.0,7,0,85
27,Norris,2021-05-02_16:21:02,13.7,1.0,0.0,60,23,0
28,Sainz,2021-05-02_16:21:02,14.4,1.0,0.1,27,7,0
29,Alfa Romeo,2021-05-02_16:21:02,8.9,1.0,0.0,4,31,0
