,name,request_time,price,chance_of_playing,weekly_price_change,current_selection_percentage,probability_price_up_percentage,probability_price_down_percentage
0,AlphaTauri,2021-06-13_05:11:03,12.6,1.0,0.0,5,6,0
1,Perez,2021-06-13_05:11:03,18.3,1.0,0.1,32,75,0
2,Alpine,2021-06-13_05:11:03,15.1,1.0,-0.1,4,0,24
3,Gasly,2021-06-13_05:11:03,11.7,1.0,0.2,43,70,0
4,Verstappen,2021-06-13_05:11:03,25.5,1.0,0.1,58,55,0
5,Giovinazzi,2021-06-13_05:11:03,8.0,1.0,0.2,9,75,0
6,Sainz,2021-06-13_05:11:03,14.7,1.0,0.2,31,73,0
7,Alfa Romeo,2021-06-13_05:11:03,9.2,1.0,0.0,4,0,38
8,Norris,2021-06-13_05:11:03,13.9,1.0,0.0,63,55,0
9,Mazepin,2021-06-13_05:11:03,5.3,1.0,0.0,5,0,24
10,Raikkonen,2021-06-13_05:11:03,9.3,1.0,-0.1,13,0,12
11,Hamilton,2021-06-13_05:11:03,33.1,1.0,-0.1,25,0,12
12,Vettel,2021-06-13_05:11:03,15.0,1.0,0.1,12,40,0
13,Tsunoda,2021-06-13_05:11:03,8.4,1.0,-0.2,22,16,0
14,Red Bull,2021-06-13_05:11:03,26.2,1.0,0.1,32,13,0
15,Stroll,2021-06-13_05:11:03,13.4,1.0,0.0,8,0,93
16,Williams,2021-06-13_05:11:03,6.3,1.0,0.0,4,0,46
17,Mercedes,2021-06-13_05:11:03,37.3,1.0,-0.2,9,0,45
18,Aston Martin,2021-06-13_05:11:03,16.4,1.0,0.0,5,29,0
19,Haas,2021-06-13_05:11:03,6.1,1.0,0.0,4,0,26
20,Latifi,2021-06-13_05:11:03,6.4,1.0,0.0,4,0,32
21,Russell,2021-06-13_05:11:03,6.2,1.0,0.0,40,0,72
22,Alonso,2021-06-13_05:11:03,14.7,1.0,-0.1,9,0,2
23,McLaren,2021-06-13_05:11:03,18.6,1.0,-0.1,27,0,64
24,Ricciardo,2021-06-13_05:11:03,16.0,1.0,-0.2,26,0,84
25,Ocon,2021-06-13_05:11:03,10.4,1.0,-0.1,22,0,62
26,Schumacher,2021-06-13_05:11:03,5.8,1.0,-0.1,26,0,36
27,Leclerc,2021-06-13_05:11:03,18.2,1.0,-0.1,41,0,3
28,Bottas,2021-06-13_05:11:03,23.0,1.0,-0.2,10,0,61
29,Ferrari,2021-06-13_05:11:03,19.6,1.0,-0.1,14,0,38
