,name,request_time,price,chance_of_playing,weekly_price_change,current_selection_percentage,probability_price_up_percentage,probability_price_down_percentage
0,AlphaTauri,2021-06-22_18:11:03,12.6,1.0,0.0,5,5,0
1,Perez,2021-06-22_18:11:03,18.6,1.0,0.2,34,6,0
2,Alpine,2021-06-22_18:11:03,15.3,1.0,0.1,4,4,0
3,Tsunoda,2021-06-22_18:11:03,8.4,1.0,0.0,22,0,8
4,Bottas,2021-06-22_18:11:03,23.0,1.0,-0.1,10,62,0
5,Ferrari,2021-06-22_18:11:03,19.1,1.0,-0.2,12,0,83
6,Red Bull,2021-06-22_18:11:03,26.3,1.0,0.2,34,92,0
7,Mazepin,2021-06-22_18:11:03,5.3,1.0,0.0,5,0,16
8,Raikkonen,2021-06-22_18:11:03,9.3,1.0,-0.1,13,0,31
9,Hamilton,2021-06-22_18:11:03,33.1,1.0,-0.1,25,0,40
10,Gasly,2021-06-22_18:11:03,11.8,1.0,0.2,44,12,0
11,Vettel,2021-06-22_18:11:03,15.1,1.0,0.1,13,30,0
12,Mercedes,2021-06-22_18:11:03,37.3,1.0,-0.1,9,0,62
13,Aston Martin,2021-06-22_18:11:03,16.4,1.0,0.0,5,49,0
14,Haas,2021-06-22_18:11:03,6.1,1.0,0.0,4,0,24
15,McLaren,2021-06-22_18:11:03,18.6,1.0,0.0,27,0,23
16,Ricciardo,2021-06-22_18:11:03,15.9,1.0,-0.2,26,0,30
17,Leclerc,2021-06-22_18:11:03,17.8,1.0,-0.2,37,0,0
18,Ocon,2021-06-22_18:11:03,10.4,1.0,-0.1,23,46,0
19,Schumacher,2021-06-22_18:11:03,5.8,1.0,0.0,26,0,15
20,Norris,2021-06-22_18:11:03,13.9,1.0,0.0,64,83,0
21,Giovinazzi,2021-06-22_18:11:03,8.0,1.0,0.0,9,65,0
22,Latifi,2021-06-22_18:11:03,6.4,1.0,0.0,4,0,37
23,Russell,2021-06-22_18:11:03,6.2,1.0,0.0,40,0,85
24,Alonso,2021-06-22_18:11:03,14.8,1.0,0.0,10,47,0
25,Verstappen,2021-06-22_18:11:03,25.5,1.0,0.0,59,95,0
26,Stroll,2021-06-22_18:11:03,13.3,1.0,-0.1,7,0,20
27,Williams,2021-06-22_18:11:03,6.3,1.0,0.0,4,0,44
28,Sainz,2021-06-22_18:11:03,14.6,1.0,-0.1,29,0,23
29,Alfa Romeo,2021-06-22_18:11:03,9.2,1.0,0.0,4,0,52
