,name,request_time,price,chance_of_playing,weekly_price_change,current_selection_percentage,probability_price_up_percentage,probability_price_down_percentage
0,Gasly,2021-08-02_19:01:03,11.9,1.0,0.0,45,0,28
1,Vettel,2021-08-02_19:01:03,15.2,1.0,0.0,13,0,52
2,Tsunoda,2021-08-02_19:01:03,8.5,1.0,0.0,22,0,97
3,Ocon,2021-08-02_19:01:03,10.0,1.0,-0.1,19,62,0
4,Bottas,2021-08-02_19:01:03,23.1,1.0,0.1,10,0,33
5,Ferrari,2021-08-02_19:01:03,18.8,1.0,0.1,11,11,0
6,Red Bull,2021-08-02_19:01:03,26.6,1.0,-0.1,35,0,60
7,Stroll,2021-08-02_19:01:03,13.3,1.0,0.0,7,0,6
8,Williams,2021-08-02_19:01:03,6.3,1.0,0.0,4,0,35
9,Norris,2021-08-02_19:01:03,14.2,1.0,0.1,66,0,4
10,Mazepin,2021-08-02_19:01:03,5.3,1.0,0.0,5,3,0
11,Mercedes,2021-08-02_19:01:03,37.1,1.0,-0.1,8,0,1
12,Haas,2021-08-02_19:01:03,6.1,1.0,0.0,4,0,26
13,Aston Martin,2021-08-02_19:01:03,16.4,1.0,0.0,5,50,0
14,AlphaTauri,2021-08-02_19:01:03,12.7,1.0,0.0,5,0,60
15,Perez,2021-08-02_19:01:03,18.6,1.0,-0.2,34,0,36
16,Alpine,2021-08-02_19:01:03,15.1,1.0,0.0,4,0,64
17,Hamilton,2021-08-02_19:01:03,33.0,1.0,0.0,24,0,19
18,Raikkonen,2021-08-02_19:01:03,9.3,1.0,0.0,13,0,71
19,McLaren,2021-08-02_19:01:03,18.7,1.0,0.1,28,2,0
20,Ricciardo,2021-08-02_19:01:03,15.8,1.0,0.0,25,0,79
21,Leclerc,2021-08-02_19:01:03,17.6,1.0,0.1,36,95,0
22,Schumacher,2021-08-02_19:01:03,5.8,1.0,0.0,27,0,1
23,Giovinazzi,2021-08-02_19:01:03,8.1,1.0,0.1,9,0,86
24,Sainz,2021-08-02_19:01:03,14.5,1.0,0.1,28,11,0
25,Alfa Romeo,2021-08-02_19:01:03,9.2,1.0,0.0,4,0,88
26,Latifi,2021-08-02_19:01:03,6.4,1.0,0.0,4,0,57
27,Russell,2021-08-02_19:01:03,6.2,1.0,0.0,42,5,0
28,Alonso,2021-08-02_19:01:03,14.9,1.0,0.1,11,25,0
29,Verstappen,2021-08-02_19:01:03,25.7,1.0,0.0,60,36,0
