,name,request_time,price,chance_of_playing,weekly_price_change,current_selection_percentage,probability_price_up_percentage,probability_price_down_percentage
0,Ferrari,2021-08-23_19:31:03,18.8,1.0,0.1,11,57,0
1,Williams,2021-08-23_19:31:03,6.3,1.0,0.0,4,0,29
2,McLaren,2021-08-23_19:31:03,18.7,1.0,0.1,28,0,14
3,Mercedes,2021-08-23_19:31:03,37.1,1.0,-0.1,8,0,3
4,Red Bull,2021-08-23_19:31:03,26.6,1.0,-0.1,35,0,89
5,Alpine,2021-08-23_19:31:03,15.1,1.0,0.0,4,0,51
6,AlphaTauri,2021-08-23_19:31:03,12.7,1.0,0.0,5,0,66
7,Alfa Romeo,2021-08-23_19:31:03,9.2,1.0,0.0,4,0,91
8,Aston Martin,2021-08-23_19:31:03,16.5,1.0,0.1,5,0,20
9,Haas,2021-08-23_19:31:03,6.1,1.0,0.0,4,0,25
10,Hamilton,2021-08-23_19:31:03,33.0,1.0,0.0,24,0,12
11,Bottas,2021-08-23_19:31:03,23.1,1.0,0.1,10,0,52
12,Verstappen,2021-08-23_19:31:03,25.7,1.0,0.0,60,34,0
13,Perez,2021-08-23_19:31:03,18.6,1.0,-0.2,34,0,73
14,Norris,2021-08-23_19:31:03,14.2,1.0,0.1,66,0,1
15,Ricciardo,2021-08-23_19:31:03,15.7,1.0,-0.1,25,0,6
16,Stroll,2021-08-23_19:31:03,13.3,1.0,0.0,7,0,15
17,Vettel,2021-08-23_19:31:03,15.2,1.0,0.0,13,0,37
18,Ocon,2021-08-23_19:31:03,10.1,1.0,0.1,20,4,0
19,Alonso,2021-08-23_19:31:03,14.9,1.0,0.1,11,86,0
20,Leclerc,2021-08-23_19:31:03,17.7,1.0,0.1,36,0,9
21,Sainz,2021-08-23_19:31:03,14.5,1.0,0.1,29,47,0
22,Gasly,2021-08-23_19:31:03,11.9,1.0,0.0,45,0,28
23,Tsunoda,2021-08-23_19:31:03,8.4,1.0,-0.1,22,0,16
24,Raikkonen,2021-08-23_19:31:03,9.3,1.0,0.0,12,0,78
25,Giovinazzi,2021-08-23_19:31:03,8.0,1.0,-0.1,9,0,6
26,Schumacher,2021-08-23_19:31:03,5.8,1.0,0.0,27,0,13
27,Mazepin,2021-08-23_19:31:03,5.3,1.0,0.0,5,2,0
28,Russell,2021-08-23_19:31:03,6.2,1.0,0.0,42,11,0
29,Latifi,2021-08-23_19:31:03,6.4,1.0,0.0,4,0,50
