,name,request_time,price,chance_of_playing,weekly_price_change,current_selection_percentage,probability_price_up_percentage,probability_price_down_percentage
0,Mercedes,2021-04-02_08:50:03,37.9,1.0,-0.1,12,0,18
1,McLaren,2021-04-02_08:50:03,18.9,1.0,0.0,30,11,0
2,Red Bull,2021-04-02_08:50:03,26.0,1.0,0.100000000000001,31,59,0
3,Giovinazzi,2021-04-02_08:50:03,7.9,1.0,0.0,8,0,45
4,Sainz,2021-04-02_08:50:03,14.4,1.0,0.0,27,0,64
5,Alpine,2021-04-02_08:50:03,15.2,1.0,-0.2,3,0,0
6,Norris,2021-04-02_08:50:03,13.3,1.0,0.2,54,2,0
7,Verstappen,2021-04-02_08:50:03,25.0,1.0,0.2,52,26,0
8,Raikkonen,2021-04-02_08:50:03,9.6,1.0,0.0,15,0,84
9,Haas,2021-04-02_08:50:03,6.1,1.0,0.0,1,0,16
10,Hamilton,2021-04-02_08:50:03,33.5,1.0,0.0,29,0,68
11,Schumacher,2021-04-02_08:50:03,5.8,1.0,0.0,27,0,11
12,Ferrari,2021-04-02_08:50:03,18.2,1.0,0.0999999999999979,8,74,0
13,AlphaTauri,2021-04-02_08:50:03,12.9,1.0,0.200000000000001,6,34,0
14,Perez,2021-04-02_08:50:03,18.3,1.0,-0.0999999999999979,32,6,0
15,Vettel,2021-04-02_08:50:03,15.8,1.0,-0.399999999999999,17,0,67
16,Latifi,2021-04-02_08:50:03,6.5,1.0,0.0,4,0,41
17,Alfa Romeo,2021-04-02_08:50:03,8.9,1.0,0.0,1,0,0
18,Stroll,2021-04-02_08:50:03,13.8,1.0,-0.0999999999999996,10,0,38
19,Russell,2021-04-02_08:50:03,6.2,1.0,0.0,42,0,7
20,Aston Martin,2021-04-02_08:50:03,17.2,1.0,-0.4,7,0,34
21,Leclerc,2021-04-02_08:50:03,17.1,1.0,0.300000000000001,30,76,0
22,Bottas,2021-04-02_08:50:03,23.5,1.0,-0.100000000000001,12,0,16
23,Mazepin,2021-04-02_08:50:03,5.4,1.0,-0.0999999999999996,5,0,28
24,Tsunoda,2021-04-02_08:50:03,9.1,1.0,0.3,30,39,0
25,Williams,2021-04-02_08:50:03,6.3,1.0,0.0,1,0,22
26,Ricciardo,2021-04-02_08:50:03,17.1,1.0,-0.199999999999999,37,0,66
27,Ocon,2021-04-02_08:50:03,9.9,1.0,-0.199999999999999,15,0,54
28,Alonso,2021-04-02_08:50:03,15.4,1.0,-0.199999999999999,13,0,43
29,Gasly,2021-04-02_08:50:03,11.8,1.0,0.1,43,0,1
