,name,request_time,price,chance_of_playing,weekly_price_change,current_selection_percentage,probability_price_up_percentage,probability_price_down_percentage
0,AlphaTauri,2021-04-30_07:41:03,13.2,1.0,0.0,7,0,74
1,Perez,2021-04-30_07:41:03,18.3,1.0,-0.1,31,0,34
2,Alpine,2021-04-30_07:41:03,15.0,1.0,-0.1,4,0,38
3,Raikkonen,2021-04-30_07:41:03,9.4,1.0,0.0,14,0,14
4,Hamilton,2021-04-30_07:41:03,33.4,1.0,0.0,27,0,80
5,Gasly,2021-04-30_07:41:03,11.7,1.0,0.0,44,88,0
6,Vettel,2021-04-30_07:41:03,15.2,1.0,-0.2,13,0,93
7,Red Bull,2021-04-30_07:41:03,26.1,1.0,0.1,31,0,11
8,Stroll,2021-04-30_07:41:03,13.6,1.0,0.0,9,15,0
9,Mazepin,2021-04-30_07:41:03,5.3,1.0,0.0,5,0,30
10,Tsunoda,2021-04-30_07:41:03,9.4,1.0,0.0,33,0,61
11,Latifi,2021-04-30_07:41:03,6.5,1.0,0.0,4,0,76
12,Russell,2021-04-30_07:41:03,6.2,1.0,0.0,44,77,0
13,Alonso,2021-04-30_07:41:03,15.0,1.0,-0.2,10,0,79
14,Verstappen,2021-04-30_07:41:03,25.3,1.0,0.2,55,3,0
15,McLaren,2021-04-30_07:41:03,18.8,1.0,0.1,29,25,0
16,Ricciardo,2021-04-30_07:41:03,16.5,1.0,-0.2,31,0,19
17,Leclerc,2021-04-30_07:41:03,17.7,1.0,0.3,36,74,0
18,Schumacher,2021-04-30_07:41:03,5.7,1.0,0.0,25,0,28
19,Ocon,2021-04-30_07:41:03,9.6,1.0,-0.1,13,7,0
20,Bottas,2021-04-30_07:41:03,23.4,1.0,-0.1,11,0,97
21,Ferrari,2021-04-30_07:41:03,18.8,1.0,0.1,11,51,0
22,Mercedes,2021-04-30_07:41:03,37.7,1.0,-0.1,11,0,90
23,Haas,2021-04-30_07:41:03,6.1,1.0,0.0,4,0,27
24,Aston Martin,2021-04-30_07:41:03,16.7,1.0,-0.2,5,0,53
25,Williams,2021-04-30_07:41:03,6.3,1.0,0.0,4,0,32
26,Norris,2021-04-30_07:41:03,13.7,1.0,0.3,60,6,0
27,Giovinazzi,2021-04-30_07:41:03,7.8,1.0,0.0,7,0,48
28,Sainz,2021-04-30_07:41:03,14.3,1.0,0.0,27,26,0
29,Alfa Romeo,2021-04-30_07:41:03,8.9,1.0,0.0,4,20,0
