,name,request_time,price,chance_of_playing,weekly_price_change,current_selection_percentage,probability_price_up_percentage,probability_price_down_percentage
0,Ferrari,2021-07-01_21:01:03,18.7,1.0,-0.6,10,0,90
1,Red Bull,2021-07-01_21:01:03,26.6,1.0,0.1,35,8,0
2,Stroll,2021-07-01_21:01:03,13.3,1.0,0.0,8,21,0
3,Williams,2021-07-01_21:01:03,6.3,1.0,0.0,4,0,46
4,AlphaTauri,2021-07-01_21:01:03,12.7,1.0,0.1,6,42,0
5,Perez,2021-07-01_21:01:03,18.8,1.0,0.4,37,60,0
6,Alpine,2021-07-01_21:01:03,15.1,1.0,-0.1,4,0,4
7,Vettel,2021-07-01_21:01:03,15.2,1.0,0.2,14,30,0
8,Tsunoda,2021-07-01_21:01:03,8.5,1.0,0.1,23,14,0
9,Bottas,2021-07-01_21:01:03,23.0,1.0,0.0,10,0,65
10,Mazepin,2021-07-01_21:01:03,5.3,1.0,0.0,5,0,11
11,Raikkonen,2021-07-01_21:01:03,9.3,1.0,0.0,13,0,66
12,Hamilton,2021-07-01_21:01:03,33.0,1.0,-0.1,25,0,1
13,Gasly,2021-07-01_21:01:03,11.9,1.0,0.1,46,47,0
14,Sainz,2021-07-01_21:01:03,14.3,1.0,-0.4,26,0,58
15,Alfa Romeo,2021-07-01_21:01:03,9.2,1.0,0.0,4,0,73
16,Mercedes,2021-07-01_21:01:03,37.2,1.0,-0.1,9,0,45
17,Aston Martin,2021-07-01_21:01:03,16.4,1.0,0.0,5,66,0
18,Haas,2021-07-01_21:01:03,6.1,1.0,0.0,4,0,26
19,Norris,2021-07-01_21:01:03,14.0,1.0,0.1,64,36,0
20,Giovinazzi,2021-07-01_21:01:03,8.0,1.0,0.0,9,38,0
21,McLaren,2021-07-01_21:01:03,18.6,1.0,0.0,28,37,0
22,Ricciardo,2021-07-01_21:01:03,15.9,1.0,0.0,26,0,9
23,Ocon,2021-07-01_21:01:03,10.3,1.0,-0.1,21,0,45
24,Schumacher,2021-07-01_21:01:03,5.8,1.0,0.0,26,0,18
25,Leclerc,2021-07-01_21:01:03,17.6,1.0,-0.4,34,0,88
26,Latifi,2021-07-01_21:01:03,6.4,1.0,0.0,4,0,49
27,Russell,2021-07-01_21:01:03,6.2,1.0,0.0,40,0,70
28,Alonso,2021-07-01_21:01:03,14.8,1.0,0.0,10,48,0
29,Verstappen,2021-07-01_21:01:03,25.6,1.0,0.1,60,92,0
