,name,request_time,price,chance_of_playing,weekly_price_change,current_selection_percentage,probability_price_up_percentage,probability_price_down_percentage
0,AlphaTauri,2021-05-04_00:01:03,13.0,1.0,-0.1,6,0,77
1,Perez,2021-05-04_00:01:03,18.3,1.0,0.0,31,0,38
2,Raikkonen,2021-05-04_00:01:03,9.4,1.0,0.0,13,0,65
3,Hamilton,2021-05-04_00:01:03,33.3,1.0,-0.1,27,0,2
4,Gasly,2021-05-04_00:01:03,11.7,1.0,0.0,42,4,0
5,Red Bull,2021-05-04_00:01:03,26.1,1.0,0.0,31,0,12
6,Stroll,2021-05-04_00:01:03,13.6,1.0,0.0,9,0,27
7,Alpine,2021-05-04_00:01:03,15.2,1.0,0.2,4,69,0
8,Bottas,2021-05-04_00:01:03,23.3,1.0,0.0,11,0,62
9,Mazepin,2021-05-04_00:01:03,5.3,1.0,0.0,5,0,40
10,Vettel,2021-05-04_00:01:03,15.0,1.0,-0.1,12,0,5
11,Tsunoda,2021-05-04_00:01:03,9.1,1.0,-0.2,30,0,12
12,Russell,2021-05-04_00:01:03,6.3,1.0,0.1,44,0,18
13,Alonso,2021-05-04_00:01:03,15.0,1.0,0.0,10,0,89
14,Verstappen,2021-05-04_00:01:03,25.3,1.0,0.0,56,59,0
15,McLaren,2021-05-04_00:01:03,18.8,1.0,0.0,30,90,0
16,Ricciardo,2021-05-04_00:01:03,16.4,1.0,-0.1,30,0,63
17,Ocon,2021-05-04_00:01:03,10.1,1.0,0.3,18,18,0
18,Schumacher,2021-05-04_00:01:03,5.7,1.0,0.0,25,8,0
19,Leclerc,2021-05-04_00:01:03,17.9,1.0,0.1,38,3,0
20,Ferrari,2021-05-04_00:01:03,18.9,1.0,0.0,11,0,84
21,Mercedes,2021-05-04_00:01:03,37.6,1.0,0.0,10,0,55
22,Aston Martin,2021-05-04_00:01:03,16.6,1.0,0.0,5,0,52
23,Haas,2021-05-04_00:01:03,6.1,1.0,0.0,4,0,28
24,Latifi,2021-05-04_00:01:03,6.4,1.0,-0.1,4,0,6
25,Williams,2021-05-04_00:01:03,6.3,1.0,0.0,4,0,36
26,Giovinazzi,2021-05-04_00:01:03,7.8,1.0,0.0,7,0,66
27,Norris,2021-05-04_00:01:03,13.7,1.0,0.0,61,71,0
28,Sainz,2021-05-04_00:01:03,14.4,1.0,0.1,27,0,41
29,Alfa Romeo,2021-05-04_00:01:03,8.9,1.0,0.0,4,32,0
