,name,request_time,price,chance_of_playing,weekly_price_change,current_selection_percentage,probability_price_up_percentage,probability_price_down_percentage
0,Red Bull,2021-04-24_09:21:02,26.1,1.0,0.1,32,4,0
1,Stroll,2021-04-24_09:21:02,13.6,1.0,0.0,9,3,0
2,Williams,2021-04-24_09:21:02,6.3,1.0,0.0,4,0,33
3,AlphaTauri,2021-04-24_09:21:02,13.2,1.0,0.0,7,0,52
4,Perez,2021-04-24_09:21:02,18.3,1.0,-0.1,32,0,9
5,Alpine,2021-04-24_09:21:02,15.0,1.0,-0.1,4,0,22
6,Hamilton,2021-04-24_09:21:02,33.4,1.0,0.0,27,0,74
7,Raikkonen,2021-04-24_09:21:02,9.4,1.0,0.0,14,0,15
8,Gasly,2021-04-24_09:21:02,11.7,1.0,0.0,43,83,0
9,Vettel,2021-04-24_09:21:02,15.2,1.0,-0.2,13,0,38
10,Mazepin,2021-04-24_09:21:02,5.3,1.0,0.0,5,0,26
11,Tsunoda,2021-04-24_09:21:02,9.4,1.0,0.0,34,0,32
12,Latifi,2021-04-24_09:21:02,6.5,1.0,0.0,4,0,68
13,Russell,2021-04-24_09:21:02,6.2,1.0,0.0,44,77,0
14,Alonso,2021-04-24_09:21:02,15.0,1.0,-0.2,11,0,34
15,Verstappen,2021-04-24_09:21:02,25.2,1.0,0.1,55,73,0
16,McLaren,2021-04-24_09:21:02,18.7,1.0,0.0,29,59,0
17,Ricciardo,2021-04-24_09:21:02,16.6,1.0,-0.1,32,0,79
18,Ocon,2021-04-24_09:21:02,9.6,1.0,-0.1,13,0,0
19,Schumacher,2021-04-24_09:21:02,5.7,1.0,0.0,25,0,23
20,Leclerc,2021-04-24_09:21:02,17.7,1.0,0.3,36,11,0
21,Bottas,2021-04-24_09:21:02,23.4,1.0,-0.1,12,0,56
22,Ferrari,2021-04-24_09:21:02,18.8,1.0,0.1,11,49,0
23,Mercedes,2021-04-24_09:21:02,37.7,1.0,-0.1,11,0,57
24,Aston Martin,2021-04-24_09:21:02,16.7,1.0,-0.2,5,0,12
25,Haas,2021-04-24_09:21:02,6.1,1.0,0.0,4,0,27
26,Norris,2021-04-24_09:21:02,13.6,1.0,0.2,59,60,0
27,Giovinazzi,2021-04-24_09:21:02,7.8,1.0,0.0,7,0,39
28,Sainz,2021-04-24_09:21:02,14.3,1.0,0.0,26,5,0
29,Alfa Romeo,2021-04-24_09:21:02,8.9,1.0,0.0,4,13,0
