,name,request_time,price,chance_of_playing,weekly_price_change,current_selection_percentage,probability_price_up_percentage,probability_price_down_percentage
0,Stroll,2021-07-08_16:31:02,13.3,1.0,0.0,8,36,0
1,Williams,2021-07-08_16:31:02,6.3,1.0,0.0,4,0,46
2,Norris,2021-07-08_16:31:02,14.1,1.0,0.1,65,10,0
3,Gasly,2021-07-08_16:31:02,11.9,1.0,0.0,46,68,0
4,Vettel,2021-07-08_16:31:02,15.2,1.0,0.0,13,0,12
5,Tsunoda,2021-07-08_16:31:02,8.5,1.0,0.1,23,25,0
6,Ocon,2021-07-08_16:31:02,10.1,1.0,-0.1,19,0,44
7,Bottas,2021-07-08_16:31:02,23.0,1.0,0.0,10,0,44
8,Ferrari,2021-07-08_16:31:02,18.7,1.0,0.0,11,0,49
9,Red Bull,2021-07-08_16:31:02,26.7,1.0,0.1,36,11,0
10,Hamilton,2021-07-08_16:31:02,33.0,1.0,-0.1,24,0,49
11,Mazepin,2021-07-08_16:31:02,5.3,1.0,0.0,5,0,10
12,Mercedes,2021-07-08_16:31:02,37.2,1.0,0.0,9,0,70
13,Haas,2021-07-08_16:31:02,6.1,1.0,0.0,4,0,27
14,Aston Martin,2021-07-08_16:31:02,16.4,1.0,0.0,5,71,0
15,AlphaTauri,2021-07-08_16:31:02,12.7,1.0,0.0,6,31,0
16,Perez,2021-07-08_16:31:02,18.8,1.0,0.1,37,58,0
17,Alpine,2021-07-08_16:31:02,15.1,1.0,-0.1,4,0,63
18,Raikkonen,2021-07-08_16:31:02,9.3,1.0,0.0,13,0,57
19,Sainz,2021-07-08_16:31:02,14.3,1.0,0.0,27,49,0
20,Alfa Romeo,2021-07-08_16:31:02,9.2,1.0,0.0,4,0,75
21,McLaren,2021-07-08_16:31:02,18.6,1.0,0.0,27,0,40
22,Ricciardo,2021-07-08_16:31:02,15.8,1.0,-0.1,25,0,38
23,Leclerc,2021-07-08_16:31:02,17.5,1.0,-0.1,34,0,19
24,Schumacher,2021-07-08_16:31:02,5.8,1.0,0.0,27,2,0
25,Giovinazzi,2021-07-08_16:31:02,8.0,1.0,0.0,9,72,0
26,Latifi,2021-07-08_16:31:02,6.4,1.0,0.0,4,0,56
27,Russell,2021-07-08_16:31:02,6.2,1.0,0.0,41,0,47
28,Alonso,2021-07-08_16:31:02,14.8,1.0,0.0,10,26,0
29,Verstappen,2021-07-08_16:31:02,25.7,1.0,0.1,61,52,0
