,name,request_time,price,chance_of_playing,weekly_price_change,current_selection_percentage,probability_price_up_percentage,probability_price_down_percentage
0,Gasly,2021-07-27_08:21:03,11.9,1.0,0.0,45,15,0
1,Vettel,2021-07-27_08:21:03,15.2,1.0,0.0,13,0,20
2,Tsunoda,2021-07-27_08:21:03,8.5,1.0,0.0,23,0,38
3,Ocon,2021-07-27_08:21:03,10.0,1.0,-0.1,19,0,5
4,Bottas,2021-07-27_08:21:03,23.0,1.0,0.0,10,0,34
5,Williams,2021-07-27_08:21:03,6.3,1.0,0.0,4,0,41
6,Norris,2021-07-27_08:21:03,14.1,1.0,0.1,66,93,0
7,Ferrari,2021-07-27_08:21:03,18.7,1.0,0.0,10,0,68
8,Red Bull,2021-07-27_08:21:03,26.7,1.0,0.1,36,3,0
9,Stroll,2021-07-27_08:21:03,13.3,1.0,0.0,8,2,0
10,Hamilton,2021-07-27_08:21:03,33.0,1.0,0.0,24,0,60
11,Mazepin,2021-07-27_08:21:03,5.3,1.0,0.0,5,0,10
12,Mercedes,2021-07-27_08:21:03,37.1,1.0,-0.1,8,0,10
13,Aston Martin,2021-07-27_08:21:03,16.4,1.0,0.0,5,64,0
14,Haas,2021-07-27_08:21:03,6.1,1.0,0.0,4,0,25
15,AlphaTauri,2021-07-27_08:21:03,12.7,1.0,0.0,6,0,17
16,Perez,2021-07-27_08:21:03,18.8,1.0,0.0,36,0,65
17,Alpine,2021-07-27_08:21:03,15.1,1.0,0.0,4,0,85
18,Raikkonen,2021-07-27_08:21:03,9.3,1.0,0.0,13,0,69
19,McLaren,2021-07-27_08:21:03,18.6,1.0,0.0,28,34,0
20,Ricciardo,2021-07-27_08:21:03,15.8,1.0,0.0,25,0,54
21,Schumacher,2021-07-27_08:21:03,5.8,1.0,0.0,27,32,0
22,Leclerc,2021-07-27_08:21:03,17.5,1.0,-0.1,35,66,0
23,Giovinazzi,2021-07-27_08:21:03,8.1,1.0,0.1,10,0,4
24,Sainz,2021-07-27_08:21:03,14.4,1.0,0.1,28,1,0
25,Alfa Romeo,2021-07-27_08:21:03,9.2,1.0,0.0,4,0,81
26,Latifi,2021-07-27_08:21:03,6.4,1.0,0.0,4,0,62
27,Russell,2021-07-27_08:21:03,6.2,1.0,0.0,41,0,32
28,Alonso,2021-07-27_08:21:03,14.8,1.0,0.0,10,83,0
29,Verstappen,2021-07-27_08:21:03,25.7,1.0,0.0,61,78,0
