,name,request_time,price,chance_of_playing,weekly_price_change,current_selection_percentage,probability_price_up_percentage,probability_price_down_percentage
0,Alpine,2021-04-15_00:51:02,15.1,1.0,-0.3,4,0,0
1,Haas,2021-04-15_00:51:02,6.1,1.0,0.0,4,0,23
2,Mercedes,2021-04-15_00:51:02,37.8,1.0,-0.2,11,0,11
3,Williams,2021-04-15_00:51:02,6.3,1.0,0.0,4,0,35
4,Hamilton,2021-04-15_00:51:02,33.4,1.0,-0.1,28,0,22
5,Latifi,2021-04-15_00:51:02,6.5,1.0,0.0,4,0,61
6,Tsunoda,2021-04-15_00:51:02,9.3,1.0,0.5,33,70,0
7,Perez,2021-04-15_00:51:02,18.4,1.0,0.0,33,29,0
8,Alfa Romeo,2021-04-15_00:51:02,8.9,1.0,0.0,4,3,0
9,Leclerc,2021-04-15_00:51:02,17.3,1.0,0.5,31,37,0
10,Vettel,2021-04-15_00:51:02,15.5,1.0,-0.7,16,0,1
11,Mazepin,2021-04-15_00:51:02,5.4,1.0,-0.0999999999999996,5,0,72
12,Sainz,2021-04-15_00:51:02,14.3,1.0,-0.1,26,0,25
13,Raikkonen,2021-04-15_00:51:02,9.5,1.0,-0.1,14,0,66
14,Stroll,2021-04-15_00:51:02,13.7,1.0,-0.2,10,0,32
15,Bottas,2021-04-15_00:51:02,23.5,1.0,-0.100000000000001,12,0,76
16,AlphaTauri,2021-04-15_00:51:02,13.1,1.0,0.4,7,66,0
17,McLaren,2021-04-15_00:51:02,18.9,1.0,0.0,29,0,79
18,Aston Martin,2021-04-15_00:51:02,17.0,1.0,-0.6,6,0,43
19,Alonso,2021-04-15_00:51:02,15.3,1.0,-0.3,12,0,97
20,Ferrari,2021-04-15_00:51:02,18.5,1.0,0.4,9,62,0
21,Red Bull,2021-04-15_00:51:02,26.0,1.0,0.100000000000001,31,55,0
22,Verstappen,2021-04-15_00:51:02,25.1,1.0,0.3,53,29,0
23,Schumacher,2021-04-15_00:51:02,5.8,1.0,0.0,26,0,62
24,Ricciardo,2021-04-15_00:51:02,16.9,1.0,-0.4,35,0,31
25,Russell,2021-04-15_00:51:02,6.2,1.0,0.0,42,8,0
26,Ocon,2021-04-15_00:51:02,9.8,1.0,-0.3,14,0,77
27,Giovinazzi,2021-04-15_00:51:02,7.9,1.0,0.0,8,0,86
28,Norris,2021-04-15_00:51:02,13.4,1.0,0.3,56,29,0
29,Gasly,2021-04-15_00:51:02,11.7,1.0,0.0,42,0,5
