,name,request_time,price,chance_of_playing,weekly_price_change,current_selection_percentage,probability_price_up_percentage,probability_price_down_percentage
0,Mercedes,2021-03-31_20:50:02,37.9,1.0,-0.1,12,0,9
1,McLaren,2021-03-31_20:50:02,18.9,1.0,0.0,30,6,0
2,Red Bull,2021-03-31_20:50:02,26.0,1.0,0.100000000000001,31,46,0
3,Alpine,2021-03-31_20:50:02,15.3,1.0,-0.0999999999999996,3,0,82
4,Raikkonen,2021-03-31_20:50:02,9.6,1.0,0.0,15,0,74
5,Mazepin,2021-03-31_20:50:02,5.4,1.0,-0.0999999999999996,5,0,18
6,Tsunoda,2021-03-31_20:50:02,9.1,1.0,0.3,29,4,0
7,Russell,2021-03-31_20:50:02,6.2,1.0,0.0,42,0,7
8,Aston Martin,2021-03-31_20:50:02,17.2,1.0,-0.4,7,0,1
9,Latifi,2021-03-31_20:50:02,6.5,1.0,0.0,4,0,38
10,Alfa Romeo,2021-03-31_20:50:02,8.9,1.0,0.0,1,0,0
11,Stroll,2021-03-31_20:50:02,13.8,1.0,-0.0999999999999996,10,0,26
12,Leclerc,2021-03-31_20:50:02,17.1,1.0,0.300000000000001,29,54,0
13,Gasly,2021-03-31_20:50:02,11.7,1.0,0.0,43,96,0
14,Verstappen,2021-03-31_20:50:02,25.0,1.0,0.2,52,16,0
15,Williams,2021-03-31_20:50:02,6.3,1.0,0.0,1,0,19
16,Haas,2021-03-31_20:50:02,6.1,1.0,0.0,1,0,14
17,Hamilton,2021-03-31_20:50:02,33.5,1.0,0.0,29,0,64
18,Bottas,2021-03-31_20:50:02,23.5,1.0,-0.100000000000001,12,0,11
19,Norris,2021-03-31_20:50:02,13.2,1.0,0.0999999999999996,53,80,0
20,Ricciardo,2021-03-31_20:50:02,17.1,1.0,-0.199999999999999,37,0,41
21,Ocon,2021-03-31_20:50:02,9.9,1.0,-0.199999999999999,15,0,34
22,Schumacher,2021-03-31_20:50:02,5.8,1.0,0.0,27,0,7
23,Ferrari,2021-03-31_20:50:02,18.2,1.0,0.0999999999999979,8,60,0
24,AlphaTauri,2021-03-31_20:50:02,12.9,1.0,0.200000000000001,6,23,0
25,Perez,2021-03-31_20:50:02,18.3,1.0,-0.0999999999999979,32,0,3
26,Vettel,2021-03-31_20:50:02,15.8,1.0,-0.399999999999999,17,0,31
27,Alonso,2021-03-31_20:50:02,15.4,1.0,-0.199999999999999,13,0,23
28,Sainz,2021-03-31_20:50:02,14.4,1.0,0.0,27,0,55
29,Giovinazzi,2021-03-31_20:50:02,7.9,1.0,0.0,8,0,38
