,name,request_time,price,chance_of_playing,weekly_price_change,current_selection_percentage,probability_price_up_percentage,probability_price_down_percentage
0,Alpine,2021-04-15_23:01:02,15.1,1.0,-0.3,4,0,13
1,Haas,2021-04-15_23:01:02,6.1,1.0,0.0,4,0,25
2,Mercedes,2021-04-15_23:01:02,37.8,1.0,-0.2,11,0,21
3,Williams,2021-04-15_23:01:02,6.3,1.0,0.0,4,0,39
4,Hamilton,2021-04-15_23:01:02,33.4,1.0,-0.1,28,0,31
5,Ocon,2021-04-15_23:01:02,9.8,1.0,-0.3,14,0,94
6,Norris,2021-04-15_23:01:02,13.4,1.0,0.3,56,39,0
7,Tsunoda,2021-04-15_23:01:02,9.3,1.0,0.5,34,77,0
8,AlphaTauri,2021-04-15_23:01:02,13.1,1.0,0.4,7,78,0
9,Ferrari,2021-04-15_23:01:02,18.5,1.0,0.4,9,73,0
10,Alfa Romeo,2021-04-15_23:01:02,8.9,1.0,0.0,4,3,0
11,Vettel,2021-04-15_23:01:02,15.5,1.0,-0.7,15,0,22
12,Mazepin,2021-04-15_23:01:02,5.4,1.0,-0.0999999999999996,5,0,80
13,Sainz,2021-04-15_23:01:02,14.3,1.0,-0.1,26,0,35
14,Perez,2021-04-15_23:01:02,18.4,1.0,0.0,33,40,0
15,Leclerc,2021-04-15_23:01:02,17.3,1.0,0.5,31,54,0
16,Latifi,2021-04-15_23:01:02,6.5,1.0,0.0,4,0,62
17,Bottas,2021-04-15_23:01:02,23.5,1.0,-0.100000000000001,12,0,85
18,Stroll,2021-04-15_23:01:02,13.7,1.0,-0.2,9,0,47
19,Raikkonen,2021-04-15_23:01:02,9.5,1.0,-0.1,14,0,73
20,Red Bull,2021-04-15_23:01:02,26.0,1.0,0.100000000000001,31,57,0
21,McLaren,2021-04-15_23:01:02,18.9,1.0,0.0,29,0,94
22,Aston Martin,2021-04-15_23:01:02,17.0,1.0,-0.6,6,0,69
23,Alonso,2021-04-15_23:01:02,15.2,1.0,-0.4,12,0,16
24,Verstappen,2021-04-15_23:01:02,25.1,1.0,0.3,53,45,0
25,Russell,2021-04-15_23:01:02,6.2,1.0,0.0,42,12,0
26,Giovinazzi,2021-04-15_23:01:02,7.9,1.0,0.0,8,0,89
27,Schumacher,2021-04-15_23:01:02,5.8,1.0,0.0,26,0,72
28,Ricciardo,2021-04-15_23:01:02,16.9,1.0,-0.4,35,0,55
29,Gasly,2021-04-15_23:01:02,11.7,1.0,0.0,42,0,13
