,name,request_time,price,chance_of_playing,weekly_price_change,current_selection_percentage,probability_price_up_percentage,probability_price_down_percentage
0,Gasly,2021-09-05_09:11:02,11.9,1.0,0.0,45,0,32
1,Vettel,2021-09-05_09:11:02,15.3,1.0,0.1,14,18,0
2,Tsunoda,2021-09-05_09:11:02,8.4,1.0,0.0,21,0,90
3,Ocon,2021-09-05_09:11:02,10.2,1.0,0.1,21,50,0
4,Williams,2021-09-05_09:11:02,6.3,1.0,0.0,4,0,1
5,Norris,2021-09-05_09:11:02,14.2,1.0,0.0,66,16,0
6,Bottas,2021-09-05_09:11:02,23.0,1.0,0.0,10,0,53
7,Ferrari,2021-09-05_09:11:02,18.8,1.0,0.0,11,0,7
8,Red Bull,2021-09-05_09:11:02,26.6,1.0,0.1,35,25,0
9,Stroll,2021-09-05_09:11:02,13.3,1.0,0.0,7,0,26
10,Mazepin,2021-09-05_09:11:02,5.3,1.0,0.0,5,0,16
11,Mercedes,2021-09-05_09:11:02,37.1,1.0,0.0,8,0,24
12,Haas,2021-09-05_09:11:02,6.1,1.0,0.0,4,0,26
13,AlphaTauri,2021-09-05_09:11:02,12.6,1.0,-0.1,5,0,11
14,Aston Martin,2021-09-05_09:11:02,16.5,1.0,0.0,5,0,56
15,Perez,2021-09-05_09:11:02,18.5,1.0,0.0,33,0,59
16,Alpine,2021-09-05_09:11:02,15.1,1.0,0.0,4,78,0
17,Raikkonen,2021-09-05_09:11:02,9.2,1.0,0.0,12,0,50
18,Hamilton,2021-09-05_09:11:02,33.0,1.0,0.0,24,0,41
19,McLaren,2021-09-05_09:11:02,18.7,1.0,0.0,28,0,90
20,Ricciardo,2021-09-05_09:11:02,15.7,1.0,0.0,24,0,54
21,Schumacher,2021-09-05_09:11:02,5.8,1.0,0.0,26,0,61
22,Leclerc,2021-09-05_09:11:02,17.7,1.0,0.1,36,4,0
23,Giovinazzi,2021-09-05_09:11:02,8.0,1.0,0.0,9,0,53
24,Sainz,2021-09-05_09:11:02,14.5,1.0,0.0,28,0,51
25,Alfa Romeo,2021-09-05_09:11:02,9.1,1.0,-0.1,4,0,5
26,Latifi,2021-09-05_09:11:02,6.4,1.0,0.0,4,0,41
27,Russell,2021-09-05_09:11:02,6.2,1.0,0.0,43,69,0
28,Alonso,2021-09-05_09:11:02,15.1,1.0,0.1,12,35,0
29,Verstappen,2021-09-05_09:11:02,25.7,1.0,0.0,61,85,0
