,name,request_time,price,chance_of_playing,weekly_price_change,current_selection_percentage,probability_price_up_percentage,probability_price_down_percentage
0,Ferrari,2021-08-28_09:41:03,18.9,1.0,0.2,12,0,7
1,Williams,2021-08-28_09:41:03,6.3,1.0,0.0,4,0,26
2,McLaren,2021-08-28_09:41:03,18.7,1.0,0.1,28,0,29
3,Mercedes,2021-08-28_09:41:03,37.1,1.0,-0.1,8,0,0
4,Red Bull,2021-08-28_09:41:03,26.5,1.0,-0.1,35,7,0
5,Alpine,2021-08-28_09:41:03,15.1,1.0,0.0,4,0,17
6,AlphaTauri,2021-08-28_09:41:03,12.7,1.0,0.0,5,0,72
7,Alfa Romeo,2021-08-28_09:41:03,9.2,1.0,0.0,4,0,94
8,Aston Martin,2021-08-28_09:41:03,16.5,1.0,0.1,5,0,54
9,Haas,2021-08-28_09:41:03,6.1,1.0,0.0,4,0,24
10,Hamilton,2021-08-28_09:41:03,33.0,1.0,0.0,24,0,4
11,Bottas,2021-08-28_09:41:03,23.1,1.0,0.1,10,0,72
12,Verstappen,2021-08-28_09:41:03,25.7,1.0,0.0,60,31,0
13,Perez,2021-08-28_09:41:03,18.5,1.0,-0.2,33,0,4
14,Norris,2021-08-28_09:41:03,14.2,1.0,0.1,66,0,1
15,Ricciardo,2021-08-28_09:41:03,15.7,1.0,-0.1,24,0,22
16,Stroll,2021-08-28_09:41:03,13.3,1.0,0.0,7,0,20
17,Vettel,2021-08-28_09:41:03,15.2,1.0,0.0,13,0,26
18,Ocon,2021-08-28_09:41:03,10.1,1.0,0.1,20,30,0
19,Alonso,2021-08-28_09:41:03,15.0,1.0,0.1,11,29,0
20,Leclerc,2021-08-28_09:41:03,17.7,1.0,0.1,36,0,32
21,Sainz,2021-08-28_09:41:03,14.5,1.0,0.1,29,93,0
22,Gasly,2021-08-28_09:41:03,11.9,1.0,0.0,45,0,20
23,Tsunoda,2021-08-28_09:41:03,8.4,1.0,-0.1,22,0,27
24,Raikkonen,2021-08-28_09:41:03,9.3,1.0,0.0,12,0,86
25,Giovinazzi,2021-08-28_09:41:03,8.0,1.0,-0.1,9,0,19
26,Schumacher,2021-08-28_09:41:03,5.8,1.0,0.0,26,0,18
27,Mazepin,2021-08-28_09:41:03,5.3,1.0,0.0,5,1,0
28,Russell,2021-08-28_09:41:03,6.2,1.0,0.0,42,10,0
29,Latifi,2021-08-28_09:41:03,6.4,1.0,0.0,4,0,48
