,name,request_time,price,chance_of_playing,weekly_price_change,current_selection_percentage,probability_price_up_percentage,probability_price_down_percentage
0,Mercedes,2021-04-14_09:30:02,37.8,1.0,-0.2,12,0,1
1,Haas,2021-04-14_09:30:02,6.1,1.0,0.0,4,0,22
2,Williams,2021-04-14_09:30:02,6.3,1.0,0.0,4,0,36
3,Mazepin,2021-04-14_09:30:02,5.4,1.0,-0.0999999999999996,5,0,68
4,Tsunoda,2021-04-14_09:30:02,9.3,1.0,0.5,33,60,0
5,Stroll,2021-04-14_09:30:02,13.7,1.0,-0.2,10,0,17
6,Alfa Romeo,2021-04-14_09:30:02,8.9,1.0,0.0,4,2,0
7,McLaren,2021-04-14_09:30:02,18.9,1.0,0.0,29,0,66
8,Alpine,2021-04-14_09:30:02,15.2,1.0,-0.2,4,0,83
9,Raikkonen,2021-04-14_09:30:02,9.5,1.0,-0.1,14,0,56
10,Aston Martin,2021-04-14_09:30:02,17.0,1.0,-0.6,6,0,18
11,Latifi,2021-04-14_09:30:02,6.5,1.0,0.0,4,0,58
12,Bottas,2021-04-14_09:30:02,23.5,1.0,-0.100000000000001,12,0,66
13,Vettel,2021-04-14_09:30:02,15.6,1.0,-0.6,16,0,63
14,Hamilton,2021-04-14_09:30:02,33.4,1.0,-0.1,28,0,14
15,Perez,2021-04-14_09:30:02,18.4,1.0,0.0,33,16,0
16,Sainz,2021-04-14_09:30:02,14.3,1.0,-0.1,26,0,19
17,Leclerc,2021-04-14_09:30:02,17.3,1.0,0.5,31,20,0
18,Ferrari,2021-04-14_09:30:02,18.5,1.0,0.4,9,49,0
19,Alonso,2021-04-14_09:30:02,15.3,1.0,-0.3,12,0,72
20,Schumacher,2021-04-14_09:30:02,5.8,1.0,0.0,26,0,54
21,Red Bull,2021-04-14_09:30:02,26.0,1.0,0.100000000000001,31,50,0
22,Verstappen,2021-04-14_09:30:02,25.1,1.0,0.3,53,16,0
23,Ricciardo,2021-04-14_09:30:02,16.9,1.0,-0.4,35,0,12
24,Russell,2021-04-14_09:30:02,6.2,1.0,0.0,42,5,0
25,Norris,2021-04-14_09:30:02,13.4,1.0,0.3,55,18,0
26,Giovinazzi,2021-04-14_09:30:02,7.9,1.0,0.0,8,0,80
27,Ocon,2021-04-14_09:30:02,9.8,1.0,-0.3,15,0,58
28,AlphaTauri,2021-04-14_09:30:02,13.1,1.0,0.4,7,49,0
29,Gasly,2021-04-14_09:30:02,11.7,1.0,0.0,42,0,0
