,name,request_time,price,chance_of_playing,weekly_price_change,current_selection_percentage,probability_price_up_percentage,probability_price_down_percentage
0,Mercedes,2021-04-05_12:40:02,37.9,1.0,-0.1,12,0,31
1,McLaren,2021-04-05_12:40:02,18.9,1.0,0.0,30,23,0
2,Red Bull,2021-04-05_12:40:02,26.0,1.0,0.100000000000001,31,30,0
3,Schumacher,2021-04-05_12:40:02,5.8,1.0,0.0,27,0,16
4,Ricciardo,2021-04-05_12:40:02,17.0,1.0,-0.3,36,0,2
5,Hamilton,2021-04-05_12:40:02,33.5,1.0,0.0,29,0,73
6,Ocon,2021-04-05_12:40:02,9.9,1.0,-0.199999999999999,15,0,81
7,Williams,2021-04-05_12:40:02,6.3,1.0,0.0,1,0,25
8,Raikkonen,2021-04-05_12:40:02,9.5,1.0,-0.1,15,0,18
9,Alonso,2021-04-05_12:40:02,15.4,1.0,-0.199999999999999,13,0,72
10,Giovinazzi,2021-04-05_12:40:02,7.9,1.0,0.0,8,0,49
11,Alfa Romeo,2021-04-05_12:40:02,8.9,1.0,0.0,1,0,0
12,Stroll,2021-04-05_12:40:02,13.8,1.0,-0.0999999999999996,10,0,54
13,Sainz,2021-04-05_12:40:02,14.4,1.0,0.0,26,0,76
14,Alpine,2021-04-05_12:40:02,15.2,1.0,-0.2,3,0,21
15,Norris,2021-04-05_12:40:02,13.3,1.0,0.2,54,39,0
16,Verstappen,2021-04-05_12:40:02,25.0,1.0,0.2,52,42,0
17,Haas,2021-04-05_12:40:02,6.1,1.0,0.0,1,0,17
18,Ferrari,2021-04-05_12:40:02,18.3,1.0,0.2,9,48,0
19,Leclerc,2021-04-05_12:40:02,17.2,1.0,0.4,30,10,0
20,AlphaTauri,2021-04-05_12:40:02,12.9,1.0,0.200000000000001,6,66,0
21,Perez,2021-04-05_12:40:02,18.3,1.0,-0.0999999999999979,32,17,0
22,Latifi,2021-04-05_12:40:02,6.5,1.0,0.0,4,0,44
23,Russell,2021-04-05_12:40:02,6.2,1.0,0.0,42,0,4
24,Aston Martin,2021-04-05_12:40:02,17.2,1.0,-0.4,7,0,80
25,Bottas,2021-04-05_12:40:02,23.5,1.0,-0.100000000000001,12,0,21
26,Mazepin,2021-04-05_12:40:02,5.4,1.0,-0.0999999999999996,5,0,39
27,Tsunoda,2021-04-05_12:40:02,9.1,1.0,0.3,30,87,0
28,Vettel,2021-04-05_12:40:02,15.7,1.0,-0.5,17,0,15
29,Gasly,2021-04-05_12:40:02,11.8,1.0,0.1,43,0,7
