,name,request_time,price,chance_of_playing,weekly_price_change,current_selection_percentage,probability_price_up_percentage,probability_price_down_percentage
0,AlphaTauri,2021-05-24_13:41:02,12.6,1.0,-0.2,5,0,28
1,Perez,2021-05-24_13:41:02,18.0,1.0,-0.2,29,0,62
2,Alpine,2021-05-24_13:41:02,15.2,1.0,0.0,4,0,51
3,Gasly,2021-05-24_13:41:02,11.5,1.0,-0.2,39,12,0
4,Verstappen,2021-05-24_13:41:02,25.4,1.0,0.1,57,61,0
5,Giovinazzi,2021-05-24_13:41:02,7.9,1.0,0.1,8,19,0
6,Sainz,2021-05-24_13:41:02,14.6,1.0,0.1,30,50,0
7,Alfa Romeo,2021-05-24_13:41:02,9.2,1.0,0.3,4,0,3
8,Mazepin,2021-05-24_13:41:02,5.3,1.0,0.0,5,0,14
9,Hamilton,2021-05-24_13:41:02,33.3,1.0,0.0,27,0,40
10,Raikkonen,2021-05-24_13:41:02,9.4,1.0,0.1,14,38,0
11,Vettel,2021-05-24_13:41:02,14.9,1.0,-0.1,11,0,19
12,Tsunoda,2021-05-24_13:41:02,8.5,1.0,-0.1,23,0,18
13,Red Bull,2021-05-24_13:41:02,26.0,1.0,-0.1,30,0,67
14,Stroll,2021-05-24_13:41:02,13.4,1.0,-0.1,8,0,38
15,Williams,2021-05-24_13:41:02,6.3,1.0,0.0,4,0,33
16,Norris,2021-05-24_13:41:02,13.9,1.0,0.0,63,19,0
17,Mercedes,2021-05-24_13:41:02,37.5,1.0,-0.1,10,0,82
18,Haas,2021-05-24_13:41:02,6.1,1.0,0.0,4,0,17
19,Aston Martin,2021-05-24_13:41:02,16.4,1.0,-0.1,5,0,0
20,Latifi,2021-05-24_13:41:02,6.4,1.0,0.0,4,0,22
21,Russell,2021-05-24_13:41:02,6.2,1.0,-0.1,42,2,0
22,Alonso,2021-05-24_13:41:02,14.8,1.0,-0.2,10,0,47
23,McLaren,2021-05-24_13:41:02,18.7,1.0,-0.2,28,0,60
24,Ricciardo,2021-05-24_13:41:02,16.2,1.0,0.0,28,0,32
25,Ocon,2021-05-24_13:41:02,10.5,1.0,0.2,23,0,31
26,Leclerc,2021-05-24_13:41:02,18.3,1.0,0.3,42,68,0
27,Schumacher,2021-05-24_13:41:02,5.9,1.0,0.1,27,0,92
28,Bottas,2021-05-24_13:41:02,23.1,1.0,-0.1,10,0,8
29,Ferrari,2021-05-24_13:41:02,19.6,1.0,0.1,15,52,0
