,name,request_time,price,chance_of_playing,weekly_price_change,current_selection_percentage,probability_price_up_percentage,probability_price_down_percentage
0,AlphaTauri,2021-06-27_07:51:02,12.7,1.0,0.1,6,36,0
1,Perez,2021-06-27_07:51:02,18.8,1.0,0.4,36,12,0
2,Alpine,2021-06-27_07:51:02,15.2,1.0,-0.1,4,0,82
3,Williams,2021-06-27_07:51:02,6.3,1.0,0.0,4,0,46
4,Norris,2021-06-27_07:51:02,14.0,1.0,0.1,64,12,0
5,Bottas,2021-06-27_07:51:02,23.0,1.0,0.0,10,0,56
6,Ferrari,2021-06-27_07:51:02,18.7,1.0,-0.6,10,0,82
7,Stroll,2021-06-27_07:51:02,13.3,1.0,0.0,8,10,0
8,Mazepin,2021-06-27_07:51:02,5.3,1.0,0.0,5,0,14
9,Hamilton,2021-06-27_07:51:02,33.1,1.0,0.0,25,0,67
10,Raikkonen,2021-06-27_07:51:02,9.3,1.0,0.0,13,0,75
11,Gasly,2021-06-27_07:51:02,11.9,1.0,0.1,46,45,0
12,Vettel,2021-06-27_07:51:02,15.2,1.0,0.2,14,63,0
13,Tsunoda,2021-06-27_07:51:02,8.4,1.0,0.0,23,68,0
14,Red Bull,2021-06-27_07:51:02,26.5,1.0,0.3,35,39,0
15,Sainz,2021-06-27_07:51:02,14.3,1.0,-0.4,26,0,67
16,Alfa Romeo,2021-06-27_07:51:02,9.2,1.0,0.0,4,0,66
17,Mercedes,2021-06-27_07:51:02,37.2,1.0,-0.1,9,0,25
18,Aston Martin,2021-06-27_07:51:02,16.4,1.0,0.0,5,78,0
19,Haas,2021-06-27_07:51:02,6.1,1.0,0.0,4,0,27
20,Latifi,2021-06-27_07:51:02,6.4,1.0,0.0,4,0,46
21,Russell,2021-06-27_07:51:02,6.2,1.0,0.0,40,0,69
22,Alonso,2021-06-27_07:51:02,14.8,1.0,0.0,10,44,0
23,Verstappen,2021-06-27_07:51:02,25.6,1.0,0.1,60,61,0
24,McLaren,2021-06-27_07:51:02,18.6,1.0,0.0,28,81,0
25,Giovinazzi,2021-06-27_07:51:02,8.0,1.0,0.0,9,53,0
26,Ricciardo,2021-06-27_07:51:02,15.9,1.0,0.0,27,58,0
27,Leclerc,2021-06-27_07:51:02,17.6,1.0,-0.4,34,0,62
28,Schumacher,2021-06-27_07:51:02,5.8,1.0,0.0,26,0,28
29,Ocon,2021-06-27_07:51:02,10.4,1.0,0.0,22,0,79
