,name,request_time,price,chance_of_playing,weekly_price_change,current_selection_percentage,probability_price_up_percentage,probability_price_down_percentage
0,AlphaTauri,2021-07-04_09:11:02,12.7,1.0,0.0,6,40,0
1,Perez,2021-07-04_09:11:02,18.8,1.0,0.1,37,62,0
2,Alpine,2021-07-04_09:11:02,15.1,1.0,-0.1,4,0,52
3,Vettel,2021-07-04_09:11:02,15.2,1.0,0.0,13,5,0
4,Ferrari,2021-07-04_09:11:02,18.7,1.0,0.0,11,0,17
5,Red Bull,2021-07-04_09:11:02,26.6,1.0,0.1,36,68,0
6,Stroll,2021-07-04_09:11:02,13.3,1.0,0.0,8,46,0
7,Williams,2021-07-04_09:11:02,6.3,1.0,0.0,4,0,45
8,Alfa Romeo,2021-07-04_09:11:02,9.2,1.0,0.0,4,0,71
9,Mazepin,2021-07-04_09:11:02,5.3,1.0,0.0,5,0,9
10,Raikkonen,2021-07-04_09:11:02,9.3,1.0,0.0,13,0,53
11,Hamilton,2021-07-04_09:11:02,33.0,1.0,-0.1,24,0,28
12,Gasly,2021-07-04_09:11:02,11.9,1.0,0.0,46,59,0
13,Tsunoda,2021-07-04_09:11:02,8.5,1.0,0.1,23,35,0
14,Bottas,2021-07-04_09:11:02,23.0,1.0,0.0,10,0,49
15,Giovinazzi,2021-07-04_09:11:02,8.0,1.0,0.0,9,57,0
16,Sainz,2021-07-04_09:11:02,14.3,1.0,0.0,27,11,0
17,Mercedes,2021-07-04_09:11:02,37.2,1.0,0.0,9,0,50
18,Aston Martin,2021-07-04_09:11:02,16.4,1.0,0.0,5,76,0
19,Haas,2021-07-04_09:11:02,6.1,1.0,0.0,4,0,26
20,McLaren,2021-07-04_09:11:02,18.6,1.0,0.0,27,0,48
21,Ricciardo,2021-07-04_09:11:02,15.8,1.0,-0.1,25,0,21
22,Schumacher,2021-07-04_09:11:02,5.8,1.0,0.0,27,0,6
23,Leclerc,2021-07-04_09:11:02,17.6,1.0,0.0,34,0,85
24,Ocon,2021-07-04_09:11:02,10.2,1.0,-0.2,20,0,82
25,Norris,2021-07-04_09:11:02,14.0,1.0,0.0,65,67,0
26,Latifi,2021-07-04_09:11:02,6.4,1.0,0.0,4,0,52
27,Russell,2021-07-04_09:11:02,6.2,1.0,0.0,41,0,53
28,Alonso,2021-07-04_09:11:02,14.8,1.0,0.0,10,15,0
29,Verstappen,2021-07-04_09:11:02,25.7,1.0,0.1,60,23,0
