,name,request_time,price,chance_of_playing,weekly_price_change,current_selection_percentage,probability_price_up_percentage,probability_price_down_percentage
0,Gasly,2021-07-20_05:31:03,11.9,1.0,0.0,46,25,0
1,Vettel,2021-07-20_05:31:03,15.2,1.0,0.0,13,0,13
2,Tsunoda,2021-07-20_05:31:03,8.5,1.0,0.0,23,0,26
3,Ocon,2021-07-20_05:31:03,10.1,1.0,-0.1,19,0,95
4,Bottas,2021-07-20_05:31:03,23.0,1.0,0.0,10,0,36
5,Williams,2021-07-20_05:31:03,6.3,1.0,0.0,4,0,41
6,Norris,2021-07-20_05:31:03,14.1,1.0,0.1,66,83,0
7,Ferrari,2021-07-20_05:31:03,18.7,1.0,0.0,10,0,75
8,Red Bull,2021-07-20_05:31:03,26.7,1.0,0.1,36,19,0
9,Stroll,2021-07-20_05:31:03,13.3,1.0,0.0,8,4,0
10,Raikkonen,2021-07-20_05:31:03,9.3,1.0,0.0,13,0,66
11,Mazepin,2021-07-20_05:31:03,5.3,1.0,0.0,5,0,10
12,Mercedes,2021-07-20_05:31:03,37.1,1.0,-0.1,8,0,2
13,AlphaTauri,2021-07-20_05:31:03,12.7,1.0,0.0,6,0,9
14,Haas,2021-07-20_05:31:03,6.1,1.0,0.0,4,0,26
15,Aston Martin,2021-07-20_05:31:03,16.4,1.0,0.0,5,59,0
16,Perez,2021-07-20_05:31:03,18.8,1.0,0.0,36,0,32
17,Alpine,2021-07-20_05:31:03,15.1,1.0,0.0,4,0,79
18,Hamilton,2021-07-20_05:31:03,33.0,1.0,0.0,24,0,59
19,McLaren,2021-07-20_05:31:03,18.6,1.0,0.0,28,16,0
20,Ricciardo,2021-07-20_05:31:03,15.8,1.0,0.0,25,0,50
21,Leclerc,2021-07-20_05:31:03,17.5,1.0,-0.1,34,33,0
22,Schumacher,2021-07-20_05:31:03,5.8,1.0,0.0,27,33,0
23,Giovinazzi,2021-07-20_05:31:03,8.0,1.0,0.0,9,80,0
24,Sainz,2021-07-20_05:31:03,14.4,1.0,0.1,28,1,0
25,Alfa Romeo,2021-07-20_05:31:03,9.2,1.0,0.0,4,0,80
26,Latifi,2021-07-20_05:31:03,6.4,1.0,0.0,4,0,59
27,Russell,2021-07-20_05:31:03,6.2,1.0,0.0,41,0,36
28,Alonso,2021-07-20_05:31:03,14.8,1.0,0.0,10,58,0
29,Verstappen,2021-07-20_05:31:03,25.7,1.0,0.0,61,75,0
