,name,request_time,price,chance_of_playing,weekly_price_change,current_selection_percentage,probability_price_up_percentage,probability_price_down_percentage
0,Stroll,2021-05-19_08:11:03,13.5,1.0,0.0,8,0,87
1,Raikkonen,2021-05-19_08:11:03,9.3,1.0,0.0,13,0,42
2,Perez,2021-05-19_08:11:03,18.1,1.0,-0.1,30,0,52
3,Alpine,2021-05-19_08:11:03,15.3,1.0,0.1,4,0,15
4,AlphaTauri,2021-05-19_08:11:03,12.8,1.0,0.0,6,0,90
5,Red Bull,2021-05-19_08:11:03,26.1,1.0,0.0,32,11,0
6,Gasly,2021-05-19_08:11:03,11.6,1.0,-0.1,39,0,96
7,Hamilton,2021-05-19_08:11:03,33.3,1.0,0.0,28,27,0
8,Vettel,2021-05-19_08:11:03,14.9,1.0,-0.1,11,0,19
9,Ferrari,2021-05-19_08:11:03,18.7,1.0,0.0,11,65,0
10,Bottas,2021-05-19_08:11:03,23.2,1.0,-0.1,11,0,24
11,Mazepin,2021-05-19_08:11:03,5.3,1.0,0.0,5,0,48
12,Alonso,2021-05-19_08:11:03,14.9,1.0,-0.1,10,0,37
13,Verstappen,2021-05-19_08:11:03,25.4,1.0,0.1,56,0,0
14,Leclerc,2021-05-19_08:11:03,18.1,1.0,0.1,40,74,0
15,Schumacher,2021-05-19_08:11:03,5.9,1.0,0.1,29,29,0
16,Russell,2021-05-19_08:11:03,6.2,1.0,-0.1,42,0,2
17,Tsunoda,2021-05-19_08:11:03,8.7,1.0,-0.2,25,0,3
18,Ocon,2021-05-19_08:11:03,10.6,1.0,0.3,24,2,0
19,McLaren,2021-05-19_08:11:03,18.9,1.0,0.0,30,0,15
20,Ricciardo,2021-05-19_08:11:03,16.2,1.0,0.0,29,53,0
21,Latifi,2021-05-19_08:11:03,6.4,1.0,0.0,4,0,24
22,Aston Martin,2021-05-19_08:11:03,16.5,1.0,0.0,5,0,74
23,Williams,2021-05-19_08:11:03,6.3,1.0,0.0,4,0,36
24,Haas,2021-05-19_08:11:03,6.1,1.0,0.0,4,0,15
25,Mercedes,2021-05-19_08:11:03,37.6,1.0,0.0,10,0,83
26,Giovinazzi,2021-05-19_08:11:03,7.8,1.0,0.0,7,0,45
27,Norris,2021-05-19_08:11:03,13.9,1.0,0.0,63,16,0
28,Alfa Romeo,2021-05-19_08:11:03,9.0,1.0,0.1,4,0,11
29,Sainz,2021-05-19_08:11:03,14.3,1.0,0.0,26,0,50
