,name,request_time,price,chance_of_playing,weekly_price_change,current_selection_percentage,probability_price_up_percentage,probability_price_down_percentage
0,AlphaTauri,2021-06-24_18:41:02,12.6,1.0,0.0,5,4,0
1,Perez,2021-06-24_18:41:02,18.6,1.0,0.2,35,39,0
2,Alpine,2021-06-24_18:41:02,15.3,1.0,0.1,4,0,7
3,Tsunoda,2021-06-24_18:41:02,8.4,1.0,0.0,22,0,18
4,Bottas,2021-06-24_18:41:02,23.0,1.0,-0.1,10,54,0
5,Ferrari,2021-06-24_18:41:02,19.0,1.0,-0.3,12,0,25
6,Red Bull,2021-06-24_18:41:02,26.4,1.0,0.2,34,13,0
7,Mazepin,2021-06-24_18:41:02,5.3,1.0,0.0,5,0,15
8,Hamilton,2021-06-24_18:41:02,33.1,1.0,-0.1,25,0,50
9,Raikkonen,2021-06-24_18:41:02,9.3,1.0,-0.1,13,0,31
10,Gasly,2021-06-24_18:41:02,11.8,1.0,0.2,44,24,0
11,Vettel,2021-06-24_18:41:02,15.1,1.0,0.1,13,46,0
12,Mercedes,2021-06-24_18:41:02,37.3,1.0,-0.1,9,0,74
13,Haas,2021-06-24_18:41:02,6.1,1.0,0.0,4,0,25
14,Aston Martin,2021-06-24_18:41:02,16.4,1.0,0.0,5,55,0
15,McLaren,2021-06-24_18:41:02,18.6,1.0,0.0,27,0,11
16,Ricciardo,2021-06-24_18:41:02,15.9,1.0,-0.2,26,0,28
17,Schumacher,2021-06-24_18:41:02,5.8,1.0,0.0,26,0,16
18,Ocon,2021-06-24_18:41:02,10.4,1.0,-0.1,23,38,0
19,Leclerc,2021-06-24_18:41:02,17.8,1.0,-0.2,36,0,40
20,Norris,2021-06-24_18:41:02,13.9,1.0,0.0,64,93,0
21,Giovinazzi,2021-06-24_18:41:02,8.0,1.0,0.0,9,70,0
22,Alonso,2021-06-24_18:41:02,14.8,1.0,0.0,10,47,0
23,Verstappen,2021-06-24_18:41:02,25.6,1.0,0.1,59,7,0
24,Stroll,2021-06-24_18:41:02,13.3,1.0,-0.1,7,0,22
25,Williams,2021-06-24_18:41:02,6.3,1.0,0.0,4,0,44
26,Sainz,2021-06-24_18:41:02,14.6,1.0,-0.1,29,0,46
27,Alfa Romeo,2021-06-24_18:41:02,9.2,1.0,0.0,4,0,54
28,Latifi,2021-06-24_18:41:02,6.4,1.0,0.0,4,0,40
29,Russell,2021-06-24_18:41:02,6.2,1.0,0.0,40,0,84
