,name,request_time,price,chance_of_playing,weekly_price_change,current_selection_percentage,probability_price_up_percentage,probability_price_down_percentage
0,Gasly,2021-09-04_01:41:03,11.9,1.0,0.0,45,0,11
1,Vettel,2021-09-04_01:41:03,15.3,1.0,0.1,14,9,0
2,Tsunoda,2021-09-04_01:41:03,8.4,1.0,-0.1,21,0,66
3,Ocon,2021-09-04_01:41:03,10.2,1.0,0.2,21,37,0
4,Williams,2021-09-04_01:41:03,6.3,1.0,0.0,4,0,9
5,Norris,2021-09-04_01:41:03,14.2,1.0,0.0,66,4,0
6,Bottas,2021-09-04_01:41:03,23.0,1.0,0.0,10,0,48
7,Ferrari,2021-09-04_01:41:03,18.8,1.0,0.1,11,0,20
8,Red Bull,2021-09-04_01:41:03,26.6,1.0,0.1,35,7,0
9,Stroll,2021-09-04_01:41:03,13.3,1.0,0.0,7,0,18
10,Hamilton,2021-09-04_01:41:03,33.0,1.0,0.0,24,0,20
11,Mazepin,2021-09-04_01:41:03,5.3,1.0,0.0,5,0,12
12,Mercedes,2021-09-04_01:41:03,37.1,1.0,0.0,8,0,17
13,AlphaTauri,2021-09-04_01:41:03,12.7,1.0,0.0,5,0,94
14,Aston Martin,2021-09-04_01:41:03,16.5,1.0,0.1,5,0,56
15,Haas,2021-09-04_01:41:03,6.1,1.0,0.0,4,0,24
16,Perez,2021-09-04_01:41:03,18.5,1.0,-0.2,33,0,1
17,Alpine,2021-09-04_01:41:03,15.1,1.0,0.0,4,61,0
18,Raikkonen,2021-09-04_01:41:03,9.2,1.0,-0.1,12,0,14
19,Sainz,2021-09-04_01:41:03,14.5,1.0,0.1,29,68,0
20,Alfa Romeo,2021-09-04_01:41:03,9.1,1.0,-0.1,4,0,1
21,McLaren,2021-09-04_01:41:03,18.7,1.0,0.1,28,0,71
22,Ricciardo,2021-09-04_01:41:03,15.7,1.0,-0.1,24,0,47
23,Schumacher,2021-09-04_01:41:03,5.8,1.0,0.0,26,0,41
24,Leclerc,2021-09-04_01:41:03,17.6,1.0,0.0,35,0,20
25,Giovinazzi,2021-09-04_01:41:03,8.0,1.0,-0.1,9,0,59
26,Latifi,2021-09-04_01:41:03,6.4,1.0,0.0,4,0,43
27,Russell,2021-09-04_01:41:03,6.2,1.0,0.0,43,39,0
28,Alonso,2021-09-04_01:41:03,15.0,1.0,0.1,11,40,0
29,Verstappen,2021-09-04_01:41:03,25.7,1.0,0.0,61,65,0
