,name,request_time,price,chance_of_playing,weekly_price_change,current_selection_percentage,probability_price_up_percentage,probability_price_down_percentage
0,Mercedes,2021-04-07_19:50:03,37.9,1.0,-0.1,12,0,44
1,McLaren,2021-04-07_19:50:03,18.9,1.0,0.0,30,0,15
2,Red Bull,2021-04-07_19:50:03,26.0,1.0,0.100000000000001,31,33,0
3,Alfa Romeo,2021-04-07_19:50:03,8.9,1.0,0.0,1,0,0
4,Stroll,2021-04-07_19:50:03,13.8,1.0,-0.0999999999999996,10,0,66
5,Sainz,2021-04-07_19:50:03,14.4,1.0,0.0,26,0,87
6,Norris,2021-04-07_19:50:03,13.3,1.0,0.2,54,55,0
7,AlphaTauri,2021-04-07_19:50:03,13.0,1.0,0.3,6,21,0
8,Giovinazzi,2021-04-07_19:50:03,7.9,1.0,0.0,8,0,55
9,Ricciardo,2021-04-07_19:50:03,17.0,1.0,-0.3,36,0,20
10,Hamilton,2021-04-07_19:50:03,33.5,1.0,0.0,28,0,81
11,Ocon,2021-04-07_19:50:03,9.8,1.0,-0.3,15,0,0
12,Haas,2021-04-07_19:50:03,6.1,1.0,0.0,1,0,19
13,Aston Martin,2021-04-07_19:50:03,17.1,1.0,-0.5,7,0,8
14,Williams,2021-04-07_19:50:03,6.3,1.0,0.0,1,0,26
15,Raikkonen,2021-04-07_19:50:03,9.5,1.0,-0.1,15,0,24
16,Schumacher,2021-04-07_19:50:03,5.8,1.0,0.0,26,0,21
17,Verstappen,2021-04-07_19:50:03,25.0,1.0,0.2,52,56,0
18,Perez,2021-04-07_19:50:03,18.3,1.0,-0.0999999999999979,32,22,0
19,Latifi,2021-04-07_19:50:03,6.5,1.0,0.0,4,0,48
20,Russell,2021-04-07_19:50:03,6.2,1.0,0.0,42,0,0
21,Alpine,2021-04-07_19:50:03,15.2,1.0,-0.2,3,0,34
22,Ferrari,2021-04-07_19:50:03,18.4,1.0,0.3,9,15,0
23,Alonso,2021-04-07_19:50:03,15.4,1.0,-0.199999999999999,13,0,94
24,Leclerc,2021-04-07_19:50:03,17.2,1.0,0.4,30,33,0
25,Bottas,2021-04-07_19:50:03,23.5,1.0,-0.100000000000001,12,0,28
26,Vettel,2021-04-07_19:50:03,15.7,1.0,-0.5,16,0,41
27,Mazepin,2021-04-07_19:50:03,5.4,1.0,-0.0999999999999996,5,0,47
28,Tsunoda,2021-04-07_19:50:03,9.2,1.0,0.4,31,31,0
29,Gasly,2021-04-07_19:50:03,11.8,1.0,0.1,43,0,27
