,name,request_time,price,chance_of_playing,weekly_price_change,current_selection_percentage,probability_price_up_percentage,probability_price_down_percentage
0,Mercedes,2021-04-04_01:40:03,37.9,1.0,-0.1,12,0,26
1,McLaren,2021-04-04_01:40:03,18.9,1.0,0.0,30,33,0
2,Red Bull,2021-04-04_01:40:03,26.0,1.0,0.100000000000001,31,49,0
3,Schumacher,2021-04-04_01:40:03,5.8,1.0,0.0,27,0,13
4,Ricciardo,2021-04-04_01:40:03,17.1,1.0,-0.199999999999999,37,0,87
5,Ocon,2021-04-04_01:40:03,9.9,1.0,-0.199999999999999,15,0,71
6,Williams,2021-04-04_01:40:03,6.3,1.0,0.0,1,0,24
7,Raikkonen,2021-04-04_01:40:03,9.5,1.0,-0.1,15,0,3
8,Alonso,2021-04-04_01:40:03,15.4,1.0,-0.199999999999999,13,0,61
9,Giovinazzi,2021-04-04_01:40:03,7.9,1.0,0.0,8,0,48
10,Alfa Romeo,2021-04-04_01:40:03,8.9,1.0,0.0,1,0,0
11,Stroll,2021-04-04_01:40:03,13.8,1.0,-0.0999999999999996,10,0,48
12,Sainz,2021-04-04_01:40:03,14.4,1.0,0.0,26,0,71
13,Alpine,2021-04-04_01:40:03,15.2,1.0,-0.2,3,0,13
14,Norris,2021-04-04_01:40:03,13.3,1.0,0.2,54,24,0
15,Verstappen,2021-04-04_01:40:03,25.0,1.0,0.2,52,35,0
16,Haas,2021-04-04_01:40:03,6.1,1.0,0.0,1,0,17
17,Hamilton,2021-04-04_01:40:03,33.5,1.0,0.0,29,0,70
18,Ferrari,2021-04-04_01:40:03,18.2,1.0,0.0999999999999979,8,85,0
19,AlphaTauri,2021-04-04_01:40:03,12.9,1.0,0.200000000000001,6,43,0
20,Perez,2021-04-04_01:40:03,18.3,1.0,-0.0999999999999979,32,16,0
21,Latifi,2021-04-04_01:40:03,6.5,1.0,0.0,4,0,43
22,Russell,2021-04-04_01:40:03,6.2,1.0,0.0,42,0,6
23,Aston Martin,2021-04-04_01:40:03,17.2,1.0,-0.4,7,0,65
24,Leclerc,2021-04-04_01:40:03,17.1,1.0,0.300000000000001,30,95,0
25,Vettel,2021-04-04_01:40:03,15.8,1.0,-0.399999999999999,17,0,97
26,Bottas,2021-04-04_01:40:03,23.5,1.0,-0.100000000000001,12,0,19
27,Mazepin,2021-04-04_01:40:03,5.4,1.0,-0.0999999999999996,5,0,35
28,Tsunoda,2021-04-04_01:40:03,9.1,1.0,0.3,30,69,0
29,Gasly,2021-04-04_01:40:03,11.8,1.0,0.1,43,0,3
