,name,request_time,price,chance_of_playing,weekly_price_change,current_selection_percentage,probability_price_up_percentage,probability_price_down_percentage
0,Norris,2021-07-21_18:01:02,14.1,1.0,0.1,66,86,0
1,Gasly,2021-07-21_18:01:02,11.9,1.0,0.0,45,22,0
2,Vettel,2021-07-21_18:01:02,15.2,1.0,0.0,13,0,16
3,Tsunoda,2021-07-21_18:01:02,8.5,1.0,0.0,23,0,30
4,Ocon,2021-07-21_18:01:02,10.1,1.0,-0.1,19,0,97
5,Bottas,2021-07-21_18:01:02,23.0,1.0,0.0,10,0,34
6,Williams,2021-07-21_18:01:02,6.3,1.0,0.0,4,0,42
7,Ferrari,2021-07-21_18:01:02,18.7,1.0,0.0,10,0,75
8,Red Bull,2021-07-21_18:01:02,26.7,1.0,0.1,36,15,0
9,Stroll,2021-07-21_18:01:02,13.3,1.0,0.0,8,3,0
10,Hamilton,2021-07-21_18:01:02,33.0,1.0,0.0,24,0,60
11,Mazepin,2021-07-21_18:01:02,5.3,1.0,0.0,5,0,10
12,Mercedes,2021-07-21_18:01:02,37.1,1.0,-0.1,8,0,4
13,Aston Martin,2021-07-21_18:01:02,16.4,1.0,0.0,5,59,0
14,Haas,2021-07-21_18:01:02,6.1,1.0,0.0,4,0,26
15,AlphaTauri,2021-07-21_18:01:02,12.7,1.0,0.0,6,0,11
16,Perez,2021-07-21_18:01:02,18.8,1.0,0.0,36,0,40
17,Alpine,2021-07-21_18:01:02,15.1,1.0,0.0,4,0,82
18,Raikkonen,2021-07-21_18:01:02,9.3,1.0,0.0,13,0,67
19,Sainz,2021-07-21_18:01:02,14.4,1.0,0.1,28,1,0
20,Alfa Romeo,2021-07-21_18:01:02,9.2,1.0,0.0,4,0,78
21,McLaren,2021-07-21_18:01:02,18.6,1.0,0.0,28,20,0
22,Ricciardo,2021-07-21_18:01:02,15.8,1.0,0.0,25,0,50
23,Schumacher,2021-07-21_18:01:02,5.8,1.0,0.0,27,34,0
24,Leclerc,2021-07-21_18:01:02,17.5,1.0,-0.1,35,43,0
25,Giovinazzi,2021-07-21_18:01:02,8.0,1.0,0.0,10,84,0
26,Latifi,2021-07-21_18:01:02,6.4,1.0,0.0,4,0,60
27,Russell,2021-07-21_18:01:02,6.2,1.0,0.0,41,0,35
28,Alonso,2021-07-21_18:01:02,14.8,1.0,0.0,10,64,0
29,Verstappen,2021-07-21_18:01:02,25.7,1.0,0.0,61,77,0
