,name,request_time,price,chance_of_playing,weekly_price_change,current_selection_percentage,probability_price_up_percentage,probability_price_down_percentage
0,AlphaTauri,2021-05-06_08:01:03,12.9,1.0,-0.2,6,0,30
1,Perez,2021-05-06_08:01:03,18.3,1.0,0.0,31,0,48
2,Alpine,2021-05-06_08:01:03,15.2,1.0,0.2,4,47,0
3,Hamilton,2021-05-06_08:01:03,33.3,1.0,-0.1,27,0,0
4,Raikkonen,2021-05-06_08:01:03,9.3,1.0,-0.1,13,0,9
5,Gasly,2021-05-06_08:01:03,11.7,1.0,0.0,42,0,21
6,Red Bull,2021-05-06_08:01:03,26.1,1.0,0.0,32,0,6
7,Stroll,2021-05-06_08:01:03,13.6,1.0,0.0,9,0,53
8,Mazepin,2021-05-06_08:01:03,5.3,1.0,0.0,5,0,43
9,Vettel,2021-05-06_08:01:03,15.0,1.0,-0.1,12,0,31
10,Tsunoda,2021-05-06_08:01:03,9.0,1.0,-0.3,29,0,15
11,Russell,2021-05-06_08:01:03,6.3,1.0,0.1,43,0,26
12,Alonso,2021-05-06_08:01:03,15.0,1.0,0.0,10,0,90
13,Verstappen,2021-05-06_08:01:03,25.3,1.0,0.0,56,69,0
14,McLaren,2021-05-06_08:01:03,18.9,1.0,0.1,30,17,0
15,Ricciardo,2021-05-06_08:01:03,16.3,1.0,-0.2,30,0,1
16,Leclerc,2021-05-06_08:01:03,17.9,1.0,0.1,38,22,0
17,Schumacher,2021-05-06_08:01:03,5.7,1.0,0.0,26,34,0
18,Ocon,2021-05-06_08:01:03,10.2,1.0,0.4,20,8,0
19,Bottas,2021-05-06_08:01:03,23.3,1.0,0.0,11,0,69
20,Ferrari,2021-05-06_08:01:03,18.8,1.0,-0.1,11,0,78
21,Mercedes,2021-05-06_08:01:03,37.6,1.0,0.0,10,0,63
22,Aston Martin,2021-05-06_08:01:03,16.6,1.0,0.0,5,0,81
23,Haas,2021-05-06_08:01:03,6.1,1.0,0.0,4,0,26
24,Latifi,2021-05-06_08:01:03,6.4,1.0,-0.1,4,0,10
25,Williams,2021-05-06_08:01:03,6.3,1.0,0.0,4,0,39
26,Giovinazzi,2021-05-06_08:01:03,7.8,1.0,0.0,7,0,62
27,Norris,2021-05-06_08:01:03,13.8,1.0,0.1,61,22,0
28,Sainz,2021-05-06_08:01:03,14.4,1.0,0.1,27,0,66
29,Alfa Romeo,2021-05-06_08:01:03,8.9,1.0,0.0,4,34,0
