,name,request_time,price,chance_of_playing,weekly_price_change,current_selection_percentage,probability_price_up_percentage,probability_price_down_percentage
0,Raikkonen,2021-05-08_12:31:03,9.3,1.0,-0.1,13,0,58
1,Hamilton,2021-05-08_12:31:03,33.3,1.0,-0.1,27,17,0
2,Gasly,2021-05-08_12:31:03,11.7,1.0,0.0,41,0,76
3,Red Bull,2021-05-08_12:31:03,26.1,1.0,0.0,32,0,5
4,Stroll,2021-05-08_12:31:03,13.5,1.0,-0.1,9,0,7
5,AlphaTauri,2021-05-08_12:31:03,12.9,1.0,-0.2,6,0,88
6,Perez,2021-05-08_12:31:03,18.3,1.0,0.0,31,0,79
7,Alpine,2021-05-08_12:31:03,15.2,1.0,0.2,4,90,0
8,Mazepin,2021-05-08_12:31:03,5.3,1.0,0.0,5,0,47
9,Vettel,2021-05-08_12:31:03,15.0,1.0,-0.1,12,0,54
10,Tsunoda,2021-05-08_12:31:03,8.9,1.0,-0.4,28,0,1
11,Russell,2021-05-08_12:31:03,6.3,1.0,0.1,43,0,70
12,Alonso,2021-05-08_12:31:03,15.0,1.0,0.0,11,0,61
13,Verstappen,2021-05-08_12:31:03,25.3,1.0,0.0,56,71,0
14,McLaren,2021-05-08_12:31:03,18.9,1.0,0.1,30,34,0
15,Ricciardo,2021-05-08_12:31:03,16.3,1.0,-0.2,29,0,73
16,Schumacher,2021-05-08_12:31:03,5.8,1.0,0.1,27,10,0
17,Ocon,2021-05-08_12:31:03,10.3,1.0,0.5,22,25,0
18,Leclerc,2021-05-08_12:31:03,17.9,1.0,0.1,38,75,0
19,Bottas,2021-05-08_12:31:03,23.3,1.0,0.0,11,0,76
20,Ferrari,2021-05-08_12:31:03,18.7,1.0,-0.2,10,0,75
21,Mercedes,2021-05-08_12:31:03,37.6,1.0,0.0,10,0,64
22,Aston Martin,2021-05-08_12:31:03,16.5,1.0,-0.1,5,0,13
23,Haas,2021-05-08_12:31:03,6.1,1.0,0.0,4,0,25
24,Latifi,2021-05-08_12:31:03,6.4,1.0,-0.1,4,0,18
25,Williams,2021-05-08_12:31:03,6.3,1.0,0.0,4,0,42
26,Giovinazzi,2021-05-08_12:31:03,7.8,1.0,0.0,7,0,48
27,Norris,2021-05-08_12:31:03,13.8,1.0,0.1,62,73,0
28,Sainz,2021-05-08_12:31:03,14.3,1.0,0.0,26,0,17
29,Alfa Romeo,2021-05-08_12:31:03,8.9,1.0,0.0,4,35,0
