,name,request_time,price,chance_of_playing,weekly_price_change,current_selection_percentage,probability_price_up_percentage,probability_price_down_percentage
0,AlphaTauri,2021-06-26_03:21:03,12.6,1.0,0.0,5,15,0
1,Perez,2021-06-26_03:21:03,18.7,1.0,0.3,35,1,0
2,Alpine,2021-06-26_03:21:03,15.3,1.0,0.1,4,0,44
3,Williams,2021-06-26_03:21:03,6.3,1.0,0.0,4,0,45
4,Norris,2021-06-26_03:21:03,14.0,1.0,0.1,64,9,0
5,Sainz,2021-06-26_03:21:03,14.5,1.0,-0.2,28,0,27
6,Mazepin,2021-06-26_03:21:03,5.3,1.0,0.0,5,0,14
7,Raikkonen,2021-06-26_03:21:03,9.3,1.0,-0.1,13,0,42
8,Hamilton,2021-06-26_03:21:03,33.1,1.0,-0.1,25,0,65
9,Gasly,2021-06-26_03:21:03,11.8,1.0,0.2,44,54,0
10,Vettel,2021-06-26_03:21:03,15.1,1.0,0.1,13,92,0
11,Tsunoda,2021-06-26_03:21:03,8.4,1.0,0.0,22,0,21
12,Verstappen,2021-06-26_03:21:03,25.6,1.0,0.1,59,28,0
13,Alfa Romeo,2021-06-26_03:21:03,9.2,1.0,0.0,4,0,59
14,Red Bull,2021-06-26_03:21:03,26.4,1.0,0.2,34,56,0
15,Mercedes,2021-06-26_03:21:03,37.3,1.0,-0.1,9,0,96
16,Aston Martin,2021-06-26_03:21:03,16.4,1.0,0.0,5,62,0
17,Haas,2021-06-26_03:21:03,6.1,1.0,0.0,4,0,26
18,Latifi,2021-06-26_03:21:03,6.4,1.0,0.0,4,0,41
19,Russell,2021-06-26_03:21:03,6.2,1.0,0.0,40,0,85
20,Alonso,2021-06-26_03:21:03,14.8,1.0,0.0,10,50,0
21,McLaren,2021-06-26_03:21:03,18.6,1.0,0.0,28,27,0
22,Giovinazzi,2021-06-26_03:21:03,8.0,1.0,0.0,9,73,0
23,Ricciardo,2021-06-26_03:21:03,15.9,1.0,-0.2,26,9,0
24,Schumacher,2021-06-26_03:21:03,5.8,1.0,0.0,26,0,18
25,Leclerc,2021-06-26_03:21:03,17.7,1.0,-0.3,36,0,36
26,Ocon,2021-06-26_03:21:03,10.4,1.0,-0.1,23,26,0
27,Bottas,2021-06-26_03:21:03,23.0,1.0,-0.1,10,20,0
28,Ferrari,2021-06-26_03:21:03,18.9,1.0,-0.4,11,0,40
29,Stroll,2021-06-26_03:21:03,13.3,1.0,-0.1,7,0,19
