,name,request_time,price,chance_of_playing,weekly_price_change,current_selection_percentage,probability_price_up_percentage,probability_price_down_percentage
0,AlphaTauri,2021-06-19_08:41:03,12.6,1.0,0.0,5,20,0
1,Perez,2021-06-19_08:41:03,18.4,1.0,0.2,33,23,0
2,Alpine,2021-06-19_08:41:03,15.1,1.0,-0.1,4,59,0
3,Williams,2021-06-19_08:41:03,6.3,1.0,0.0,4,0,46
4,Norris,2021-06-19_08:41:03,13.9,1.0,0.0,63,54,0
5,Mazepin,2021-06-19_08:41:03,5.3,1.0,0.0,5,0,22
6,Hamilton,2021-06-19_08:41:03,33.1,1.0,-0.1,25,0,8
7,Raikkonen,2021-06-19_08:41:03,9.3,1.0,-0.1,13,0,10
8,Gasly,2021-06-19_08:41:03,11.8,1.0,0.2,44,2,0
9,Vettel,2021-06-19_08:41:03,15.0,1.0,0.1,13,78,0
10,Tsunoda,2021-06-19_08:41:03,8.4,1.0,-0.2,22,21,0
11,Red Bull,2021-06-19_08:41:03,26.2,1.0,0.1,33,43,0
12,Sainz,2021-06-19_08:41:03,14.7,1.0,0.2,30,6,0
13,Alfa Romeo,2021-06-19_08:41:03,9.2,1.0,0.0,4,0,41
14,Giovinazzi,2021-06-19_08:41:03,8.0,1.0,0.2,9,68,0
15,Mercedes,2021-06-19_08:41:03,37.3,1.0,-0.2,9,0,49
16,Aston Martin,2021-06-19_08:41:03,16.4,1.0,0.0,5,42,0
17,Haas,2021-06-19_08:41:03,6.1,1.0,0.0,4,0,25
18,Latifi,2021-06-19_08:41:03,6.4,1.0,0.0,4,0,31
19,Russell,2021-06-19_08:41:03,6.2,1.0,0.0,40,0,86
20,Alonso,2021-06-19_08:41:03,14.7,1.0,-0.1,10,40,0
21,Verstappen,2021-06-19_08:41:03,25.5,1.0,0.1,58,51,0
22,McLaren,2021-06-19_08:41:03,18.6,1.0,-0.1,27,0,70
23,Ricciardo,2021-06-19_08:41:03,15.9,1.0,-0.2,26,0,24
24,Leclerc,2021-06-19_08:41:03,18.2,1.0,-0.1,40,0,62
25,Schumacher,2021-06-19_08:41:03,5.8,1.0,-0.1,26,0,33
26,Ocon,2021-06-19_08:41:03,10.4,1.0,-0.1,22,0,34
27,Bottas,2021-06-19_08:41:03,23.0,1.0,-0.2,10,0,33
28,Ferrari,2021-06-19_08:41:03,19.5,1.0,-0.2,14,0,54
29,Stroll,2021-06-19_08:41:03,13.3,1.0,-0.1,7,0,7
