,name,request_time,price,chance_of_playing,weekly_price_change,current_selection_percentage,probability_price_up_percentage,probability_price_down_percentage
0,AlphaTauri,2021-05-04_17:11:03,12.9,1.0,-0.2,6,0,9
1,Perez,2021-05-04_17:11:03,18.3,1.0,0.0,31,0,46
2,Alpine,2021-05-04_17:11:03,15.2,1.0,0.2,4,23,0
3,Raikkonen,2021-05-04_17:11:03,9.4,1.0,0.0,13,0,89
4,Hamilton,2021-05-04_17:11:03,33.3,1.0,-0.1,27,0,2
5,Gasly,2021-05-04_17:11:03,11.7,1.0,0.0,42,0,2
6,Red Bull,2021-05-04_17:11:03,26.1,1.0,0.0,32,0,10
7,Stroll,2021-05-04_17:11:03,13.6,1.0,0.0,9,0,35
8,Mazepin,2021-05-04_17:11:03,5.3,1.0,0.0,5,0,42
9,Vettel,2021-05-04_17:11:03,15.0,1.0,-0.1,12,0,13
10,Tsunoda,2021-05-04_17:11:03,9.1,1.0,-0.2,29,0,63
11,Russell,2021-05-04_17:11:03,6.3,1.0,0.1,44,0,20
12,Alonso,2021-05-04_17:11:03,15.0,1.0,0.0,10,0,89
13,Verstappen,2021-05-04_17:11:03,25.3,1.0,0.0,56,62,0
14,McLaren,2021-05-04_17:11:03,18.9,1.0,0.1,30,0,1
15,Ricciardo,2021-05-04_17:11:03,16.4,1.0,-0.1,30,0,73
16,Schumacher,2021-05-04_17:11:03,5.7,1.0,0.0,25,12,0
17,Leclerc,2021-05-04_17:11:03,17.9,1.0,0.1,38,9,0
18,Ocon,2021-05-04_17:11:03,10.1,1.0,0.3,19,55,0
19,Bottas,2021-05-04_17:11:03,23.3,1.0,0.0,11,0,65
20,Ferrari,2021-05-04_17:11:03,18.8,1.0,-0.1,11,0,4
21,Mercedes,2021-05-04_17:11:03,37.6,1.0,0.0,10,0,58
22,Haas,2021-05-04_17:11:03,6.1,1.0,0.0,4,0,27
23,Aston Martin,2021-05-04_17:11:03,16.6,1.0,0.0,5,0,59
24,Latifi,2021-05-04_17:11:03,6.4,1.0,-0.1,4,0,8
25,Williams,2021-05-04_17:11:03,6.3,1.0,0.0,4,0,38
26,Giovinazzi,2021-05-04_17:11:03,7.8,1.0,0.0,7,0,65
27,Norris,2021-05-04_17:11:03,13.8,1.0,0.1,61,1,0
28,Sainz,2021-05-04_17:11:03,14.4,1.0,0.1,27,0,49
29,Alfa Romeo,2021-05-04_17:11:03,8.9,1.0,0.0,4,33,0
