,name,request_time,price,chance_of_playing,weekly_price_change,current_selection_percentage,probability_price_up_percentage,probability_price_down_percentage
0,Mercedes,2021-04-02_00:40:02,37.9,1.0,-0.1,12,0,17
1,McLaren,2021-04-02_00:40:02,18.9,1.0,0.0,30,10,0
2,Red Bull,2021-04-02_00:40:02,26.0,1.0,0.100000000000001,31,57,0
3,Alpine,2021-04-02_00:40:02,15.3,1.0,-0.0999999999999996,3,0,97
4,Verstappen,2021-04-02_00:40:02,25.0,1.0,0.2,52,25,0
5,Raikkonen,2021-04-02_00:40:02,9.6,1.0,0.0,15,0,83
6,Haas,2021-04-02_00:40:02,6.1,1.0,0.0,1,0,16
7,Hamilton,2021-04-02_00:40:02,33.5,1.0,0.0,29,0,67
8,Schumacher,2021-04-02_00:40:02,5.8,1.0,0.0,27,0,10
9,Ferrari,2021-04-02_00:40:02,18.2,1.0,0.0999999999999979,8,71,0
10,AlphaTauri,2021-04-02_00:40:02,12.9,1.0,0.200000000000001,6,33,0
11,Perez,2021-04-02_00:40:02,18.3,1.0,-0.0999999999999979,32,5,0
12,Vettel,2021-04-02_00:40:02,15.8,1.0,-0.399999999999999,17,0,62
13,Latifi,2021-04-02_00:40:02,6.5,1.0,0.0,4,0,40
14,Alfa Romeo,2021-04-02_00:40:02,8.9,1.0,0.0,1,0,0
15,Stroll,2021-04-02_00:40:02,13.8,1.0,-0.0999999999999996,10,0,37
16,Sainz,2021-04-02_00:40:02,14.4,1.0,0.0,27,0,63
17,Giovinazzi,2021-04-02_00:40:02,7.9,1.0,0.0,8,0,44
18,Russell,2021-04-02_00:40:02,6.2,1.0,0.0,42,0,7
19,Aston Martin,2021-04-02_00:40:02,17.2,1.0,-0.4,7,0,30
20,Leclerc,2021-04-02_00:40:02,17.1,1.0,0.300000000000001,30,74,0
21,Bottas,2021-04-02_00:40:02,23.5,1.0,-0.100000000000001,12,0,15
22,Norris,2021-04-02_00:40:02,13.3,1.0,0.2,54,0,0
23,Mazepin,2021-04-02_00:40:02,5.4,1.0,-0.0999999999999996,5,0,27
24,Tsunoda,2021-04-02_00:40:02,9.1,1.0,0.3,30,34,0
25,Williams,2021-04-02_00:40:02,6.3,1.0,0.0,1,0,21
26,Ricciardo,2021-04-02_00:40:02,17.1,1.0,-0.199999999999999,37,0,63
27,Ocon,2021-04-02_00:40:02,9.9,1.0,-0.199999999999999,15,0,52
28,Alonso,2021-04-02_00:40:02,15.4,1.0,-0.199999999999999,13,0,41
29,Gasly,2021-04-02_00:40:02,11.8,1.0,0.1,43,0,0
