,name,request_time,price,chance_of_playing,weekly_price_change,current_selection_percentage,probability_price_up_percentage,probability_price_down_percentage
0,Gasly,2021-08-10_11:31:02,11.9,1.0,0.0,45,0,27
1,Vettel,2021-08-10_11:31:02,15.2,1.0,0.0,13,0,46
2,Tsunoda,2021-08-10_11:31:02,8.4,1.0,-0.1,22,0,7
3,Ocon,2021-08-10_11:31:02,10.1,1.0,0.1,19,0,0
4,Williams,2021-08-10_11:31:02,6.3,1.0,0.0,4,0,32
5,Norris,2021-08-10_11:31:02,14.2,1.0,0.1,66,0,0
6,Bottas,2021-08-10_11:31:02,23.1,1.0,0.1,10,0,50
7,Ferrari,2021-08-10_11:31:02,18.8,1.0,0.1,11,28,0
8,Red Bull,2021-08-10_11:31:02,26.6,1.0,-0.1,35,0,76
9,Stroll,2021-08-10_11:31:02,13.3,1.0,0.0,7,0,14
10,Mazepin,2021-08-10_11:31:02,5.3,1.0,0.0,5,1,0
11,Mercedes,2021-08-10_11:31:02,37.1,1.0,-0.1,8,0,3
12,Aston Martin,2021-08-10_11:31:02,16.5,1.0,0.1,5,0,7
13,Haas,2021-08-10_11:31:02,6.1,1.0,0.0,4,0,27
14,AlphaTauri,2021-08-10_11:31:02,12.7,1.0,0.0,5,0,63
15,Perez,2021-08-10_11:31:02,18.6,1.0,-0.2,34,0,58
16,Alpine,2021-08-10_11:31:02,15.1,1.0,0.0,4,0,57
17,Hamilton,2021-08-10_11:31:02,33.0,1.0,0.0,24,0,15
18,Raikkonen,2021-08-10_11:31:02,9.3,1.0,0.0,12,0,76
19,McLaren,2021-08-10_11:31:02,18.7,1.0,0.1,28,0,11
20,Ricciardo,2021-08-10_11:31:02,15.8,1.0,0.0,25,0,96
21,Schumacher,2021-08-10_11:31:02,5.8,1.0,0.0,27,0,8
22,Leclerc,2021-08-10_11:31:02,17.7,1.0,0.1,36,0,6
23,Giovinazzi,2021-08-10_11:31:02,8.0,1.0,-0.1,9,0,2
24,Sainz,2021-08-10_11:31:02,14.5,1.0,0.1,29,30,0
25,Alfa Romeo,2021-08-10_11:31:02,9.2,1.0,0.0,4,0,91
26,Latifi,2021-08-10_11:31:02,6.4,1.0,0.0,4,0,56
27,Russell,2021-08-10_11:31:02,6.2,1.0,0.0,42,10,0
28,Alonso,2021-08-10_11:31:02,14.9,1.0,0.1,11,55,0
29,Verstappen,2021-08-10_11:31:02,25.7,1.0,0.0,60,36,0
