,name,request_time,price,chance_of_playing,weekly_price_change,current_selection_percentage,probability_price_up_percentage,probability_price_down_percentage
0,Ocon,2021-07-05_20:51:03,10.1,1.0,-0.1,19,0,22
1,Red Bull,2021-07-05_20:51:03,26.6,1.0,0.1,36,99,0
2,Stroll,2021-07-05_20:51:03,13.3,1.0,0.0,8,39,0
3,Williams,2021-07-05_20:51:03,6.3,1.0,0.0,4,0,45
4,Norris,2021-07-05_20:51:03,14.0,1.0,0.0,65,99,0
5,Sainz,2021-07-05_20:51:03,14.3,1.0,0.0,27,36,0
6,Alfa Romeo,2021-07-05_20:51:03,9.2,1.0,0.0,4,0,73
7,AlphaTauri,2021-07-05_20:51:03,12.7,1.0,0.0,6,32,0
8,Perez,2021-07-05_20:51:03,18.8,1.0,0.1,37,57,0
9,Alpine,2021-07-05_20:51:03,15.1,1.0,-0.1,4,0,58
10,Vettel,2021-07-05_20:51:03,15.2,1.0,0.0,13,0,4
11,Mazepin,2021-07-05_20:51:03,5.3,1.0,0.0,5,0,9
12,Hamilton,2021-07-05_20:51:03,33.0,1.0,-0.1,24,0,41
13,Raikkonen,2021-07-05_20:51:03,9.3,1.0,0.0,13,0,56
14,Gasly,2021-07-05_20:51:03,11.9,1.0,0.0,46,64,0
15,Tsunoda,2021-07-05_20:51:03,8.5,1.0,0.1,23,30,0
16,Bottas,2021-07-05_20:51:03,23.0,1.0,0.0,10,0,46
17,Ferrari,2021-07-05_20:51:03,18.7,1.0,0.0,11,0,37
18,Giovinazzi,2021-07-05_20:51:03,8.0,1.0,0.0,9,64,0
19,Mercedes,2021-07-05_20:51:03,37.2,1.0,0.0,9,0,61
20,Aston Martin,2021-07-05_20:51:03,16.4,1.0,0.0,5,70,0
21,Haas,2021-07-05_20:51:03,6.1,1.0,0.0,4,0,26
22,McLaren,2021-07-05_20:51:03,18.6,1.0,0.0,27,0,42
23,Ricciardo,2021-07-05_20:51:03,15.8,1.0,-0.1,25,0,26
24,Schumacher,2021-07-05_20:51:03,5.8,1.0,0.0,27,0,0
25,Leclerc,2021-07-05_20:51:03,17.5,1.0,-0.1,34,0,6
26,Latifi,2021-07-05_20:51:03,6.4,1.0,0.0,4,0,55
27,Russell,2021-07-05_20:51:03,6.2,1.0,0.0,41,0,49
28,Alonso,2021-07-05_20:51:03,14.8,1.0,0.0,10,19,0
29,Verstappen,2021-07-05_20:51:03,25.7,1.0,0.1,60,39,0
