,name,request_time,price,chance_of_playing,weekly_price_change,current_selection_percentage,probability_price_up_percentage,probability_price_down_percentage
0,Ferrari,2021-08-12_03:51:02,18.8,1.0,0.1,11,34,0
1,Williams,2021-08-12_03:51:02,6.3,1.0,0.0,4,0,33
2,McLaren,2021-08-12_03:51:02,18.7,1.0,0.1,28,0,11
3,Mercedes,2021-08-12_03:51:02,37.1,1.0,-0.1,8,0,3
4,Red Bull,2021-08-12_03:51:02,26.6,1.0,-0.1,35,0,76
5,Alpine,2021-08-12_03:51:02,15.1,1.0,0.0,4,0,56
6,AlphaTauri,2021-08-12_03:51:02,12.7,1.0,0.0,5,0,64
7,Alfa Romeo,2021-08-12_03:51:02,9.2,1.0,0.0,4,0,93
8,Aston Martin,2021-08-12_03:51:02,16.5,1.0,0.1,5,0,10
9,Haas,2021-08-12_03:51:02,6.1,1.0,0.0,4,0,27
10,Hamilton,2021-08-12_03:51:02,33.0,1.0,0.0,24,0,15
11,Bottas,2021-08-12_03:51:02,23.1,1.0,0.1,10,0,52
12,Verstappen,2021-08-12_03:51:02,25.7,1.0,0.0,60,36,0
13,Perez,2021-08-12_03:51:02,18.6,1.0,-0.2,34,0,59
14,Norris,2021-08-12_03:51:02,14.2,1.0,0.1,66,0,0
15,Ricciardo,2021-08-12_03:51:02,15.8,1.0,0.0,25,0,95
16,Stroll,2021-08-12_03:51:02,13.3,1.0,0.0,7,0,14
17,Vettel,2021-08-12_03:51:02,15.2,1.0,0.0,13,0,46
18,Ocon,2021-08-12_03:51:02,10.1,1.0,0.1,19,0,0
19,Alonso,2021-08-12_03:51:02,14.9,1.0,0.1,11,65,0
20,Leclerc,2021-08-12_03:51:02,17.7,1.0,0.1,36,0,7
21,Sainz,2021-08-12_03:51:02,14.5,1.0,0.1,29,33,0
22,Gasly,2021-08-12_03:51:02,11.9,1.0,0.0,45,0,27
23,Tsunoda,2021-08-12_03:51:02,8.4,1.0,-0.1,22,0,9
24,Raikkonen,2021-08-12_03:51:02,9.3,1.0,0.0,12,0,76
25,Giovinazzi,2021-08-12_03:51:02,8.0,1.0,-0.1,9,0,3
26,Schumacher,2021-08-12_03:51:02,5.8,1.0,0.0,27,0,9
27,Mazepin,2021-08-12_03:51:02,5.3,1.0,0.0,5,1,0
28,Russell,2021-08-12_03:51:02,6.2,1.0,0.0,42,10,0
29,Latifi,2021-08-12_03:51:02,6.4,1.0,0.0,4,0,54
