,name,request_time,price,chance_of_playing,weekly_price_change,current_selection_percentage,probability_price_up_percentage,probability_price_down_percentage
0,Gasly,2021-08-15_03:31:02,11.9,1.0,0.0,45,0,28
1,Vettel,2021-08-15_03:31:02,15.2,1.0,0.0,13,0,44
2,Tsunoda,2021-08-15_03:31:02,8.4,1.0,-0.1,22,0,11
3,Ocon,2021-08-15_03:31:02,10.1,1.0,0.1,19,0,0
4,Williams,2021-08-15_03:31:02,6.3,1.0,0.0,4,0,31
5,Norris,2021-08-15_03:31:02,14.2,1.0,0.1,66,0,0
6,Bottas,2021-08-15_03:31:02,23.1,1.0,0.1,10,0,51
7,Ferrari,2021-08-15_03:31:02,18.8,1.0,0.1,11,40,0
8,Red Bull,2021-08-15_03:31:02,26.6,1.0,-0.1,35,0,81
9,Stroll,2021-08-15_03:31:02,13.3,1.0,0.0,7,0,14
10,Raikkonen,2021-08-15_03:31:02,9.3,1.0,0.0,12,0,78
11,Mazepin,2021-08-15_03:31:02,5.3,1.0,0.0,5,1,0
12,Mercedes,2021-08-15_03:31:02,37.1,1.0,-0.1,8,0,3
13,AlphaTauri,2021-08-15_03:31:02,12.7,1.0,0.0,5,0,66
14,Haas,2021-08-15_03:31:02,6.1,1.0,0.0,4,0,27
15,Aston Martin,2021-08-15_03:31:02,16.5,1.0,0.1,5,0,14
16,Perez,2021-08-15_03:31:02,18.6,1.0,-0.2,34,0,62
17,Alpine,2021-08-15_03:31:02,15.1,1.0,0.0,4,0,54
18,Hamilton,2021-08-15_03:31:02,33.0,1.0,0.0,24,0,15
19,Sainz,2021-08-15_03:31:02,14.5,1.0,0.1,29,38,0
20,Alfa Romeo,2021-08-15_03:31:02,9.2,1.0,0.0,4,0,94
21,McLaren,2021-08-15_03:31:02,18.7,1.0,0.1,28,0,11
22,Ricciardo,2021-08-15_03:31:02,15.7,1.0,-0.1,25,0,2
23,Leclerc,2021-08-15_03:31:02,17.7,1.0,0.1,36,0,7
24,Schumacher,2021-08-15_03:31:02,5.8,1.0,0.0,27,0,10
25,Giovinazzi,2021-08-15_03:31:02,8.0,1.0,-0.1,9,0,4
26,Latifi,2021-08-15_03:31:02,6.4,1.0,0.0,4,0,54
27,Russell,2021-08-15_03:31:02,6.2,1.0,0.0,42,10,0
28,Alonso,2021-08-15_03:31:02,14.9,1.0,0.1,11,71,0
29,Verstappen,2021-08-15_03:31:02,25.7,1.0,0.0,60,36,0
