,name,request_time,price,chance_of_playing,weekly_price_change,current_selection_percentage,probability_price_up_percentage,probability_price_down_percentage
0,Alpine,2021-07-04_10:11:03,15.1,1.0,-0.1,4,0,51
1,Vettel,2021-07-04_10:11:03,15.2,1.0,0.0,13,5,0
2,Ferrari,2021-07-04_10:11:03,18.7,1.0,0.0,11,0,17
3,Red Bull,2021-07-04_10:11:03,26.6,1.0,0.1,36,67,0
4,Stroll,2021-07-04_10:11:03,13.3,1.0,0.0,8,46,0
5,Williams,2021-07-04_10:11:03,6.3,1.0,0.0,4,0,46
6,AlphaTauri,2021-07-04_10:11:03,12.7,1.0,0.0,6,40,0
7,Perez,2021-07-04_10:11:03,18.8,1.0,0.1,37,62,0
8,Alfa Romeo,2021-07-04_10:11:03,9.2,1.0,0.0,4,0,71
9,Mazepin,2021-07-04_10:11:03,5.3,1.0,0.0,5,0,9
10,Hamilton,2021-07-04_10:11:03,33.0,1.0,-0.1,24,0,28
11,Raikkonen,2021-07-04_10:11:03,9.3,1.0,0.0,13,0,54
12,Gasly,2021-07-04_10:11:03,11.9,1.0,0.0,46,60,0
13,Tsunoda,2021-07-04_10:11:03,8.5,1.0,0.1,23,35,0
14,Bottas,2021-07-04_10:11:03,23.0,1.0,0.0,10,0,49
15,Giovinazzi,2021-07-04_10:11:03,8.0,1.0,0.0,9,59,0
16,Sainz,2021-07-04_10:11:03,14.3,1.0,0.0,27,10,0
17,Mercedes,2021-07-04_10:11:03,37.2,1.0,0.0,9,0,51
18,Haas,2021-07-04_10:11:03,6.1,1.0,0.0,4,0,25
19,Aston Martin,2021-07-04_10:11:03,16.4,1.0,0.0,5,76,0
20,McLaren,2021-07-04_10:11:03,18.6,1.0,0.0,27,0,48
21,Ricciardo,2021-07-04_10:11:03,15.8,1.0,-0.1,25,0,20
22,Ocon,2021-07-04_10:11:03,10.2,1.0,-0.2,20,0,84
23,Leclerc,2021-07-04_10:11:03,17.6,1.0,0.0,34,0,85
24,Schumacher,2021-07-04_10:11:03,5.8,1.0,0.0,27,0,6
25,Norris,2021-07-04_10:11:03,14.0,1.0,0.0,65,65,0
26,Latifi,2021-07-04_10:11:03,6.4,1.0,0.0,4,0,52
27,Russell,2021-07-04_10:11:03,6.2,1.0,0.0,41,0,53
28,Alonso,2021-07-04_10:11:03,14.8,1.0,0.0,10,14,0
29,Verstappen,2021-07-04_10:11:03,25.7,1.0,0.1,60,22,0
