,name,request_time,price,chance_of_playing,weekly_price_change,current_selection_percentage,probability_price_up_percentage,probability_price_down_percentage
0,AlphaTauri,2021-05-19_14:01:03,12.8,1.0,0.0,6,0,92
1,Perez,2021-05-19_14:01:03,18.1,1.0,-0.1,30,0,54
2,Alpine,2021-05-19_14:01:03,15.3,1.0,0.1,4,0,15
3,Gasly,2021-05-19_14:01:03,11.6,1.0,-0.1,39,0,97
4,Mazepin,2021-05-19_14:01:03,5.3,1.0,0.0,5,0,49
5,Hamilton,2021-05-19_14:01:03,33.3,1.0,0.0,28,27,0
6,Raikkonen,2021-05-19_14:01:03,9.3,1.0,0.0,13,0,41
7,Vettel,2021-05-19_14:01:03,14.9,1.0,-0.1,11,0,20
8,Tsunoda,2021-05-19_14:01:03,8.7,1.0,-0.2,25,0,4
9,Verstappen,2021-05-19_14:01:03,25.4,1.0,0.1,56,1,0
10,Mercedes,2021-05-19_14:01:03,37.6,1.0,0.0,10,0,83
11,Haas,2021-05-19_14:01:03,6.1,1.0,0.0,4,0,15
12,Aston Martin,2021-05-19_14:01:03,16.5,1.0,0.0,5,0,75
13,Latifi,2021-05-19_14:01:03,6.4,1.0,0.0,4,0,24
14,Russell,2021-05-19_14:01:03,6.2,1.0,-0.1,42,0,2
15,Alonso,2021-05-19_14:01:03,14.9,1.0,-0.1,10,0,39
16,McLaren,2021-05-19_14:01:03,18.9,1.0,0.0,30,0,15
17,Ricciardo,2021-05-19_14:01:03,16.2,1.0,0.0,29,54,0
18,Schumacher,2021-05-19_14:01:03,5.9,1.0,0.1,29,30,0
19,Leclerc,2021-05-19_14:01:03,18.1,1.0,0.1,40,74,0
20,Ocon,2021-05-19_14:01:03,10.6,1.0,0.3,24,4,0
21,Bottas,2021-05-19_14:01:03,23.2,1.0,-0.1,11,0,25
22,Ferrari,2021-05-19_14:01:03,18.7,1.0,0.0,11,69,0
23,Red Bull,2021-05-19_14:01:03,26.1,1.0,0.0,32,11,0
24,Stroll,2021-05-19_14:01:03,13.5,1.0,0.0,8,0,90
25,Williams,2021-05-19_14:01:03,6.3,1.0,0.0,4,0,34
26,Norris,2021-05-19_14:01:03,13.9,1.0,0.0,63,17,0
27,Giovinazzi,2021-05-19_14:01:03,7.8,1.0,0.0,7,0,44
28,Sainz,2021-05-19_14:01:03,14.3,1.0,0.0,26,0,51
29,Alfa Romeo,2021-05-19_14:01:03,9.0,1.0,0.1,4,0,12
