,name,request_time,price,chance_of_playing,weekly_price_change,current_selection_percentage,probability_price_up_percentage,probability_price_down_percentage
0,AlphaTauri,2021-06-13_14:21:02,12.6,1.0,0.0,5,6,0
1,Perez,2021-06-13_14:21:02,18.3,1.0,0.1,32,77,0
2,Alpine,2021-06-13_14:21:02,15.1,1.0,-0.1,4,0,24
3,Gasly,2021-06-13_14:21:02,11.7,1.0,0.2,43,72,0
4,Verstappen,2021-06-13_14:21:02,25.5,1.0,0.1,58,55,0
5,Giovinazzi,2021-06-13_14:21:02,8.0,1.0,0.2,9,75,0
6,Sainz,2021-06-13_14:21:02,14.7,1.0,0.2,31,72,0
7,Alfa Romeo,2021-06-13_14:21:02,9.2,1.0,0.0,4,0,38
8,Norris,2021-06-13_14:21:02,13.9,1.0,0.0,63,57,0
9,Mazepin,2021-06-13_14:21:02,5.3,1.0,0.0,5,0,24
10,Raikkonen,2021-06-13_14:21:02,9.3,1.0,-0.1,13,0,12
11,Hamilton,2021-06-13_14:21:02,33.1,1.0,-0.1,25,0,13
12,Vettel,2021-06-13_14:21:02,15.0,1.0,0.1,12,41,0
13,Tsunoda,2021-06-13_14:21:02,8.4,1.0,-0.2,22,16,0
14,Red Bull,2021-06-13_14:21:02,26.2,1.0,0.1,32,13,0
15,Stroll,2021-06-13_14:21:02,13.4,1.0,0.0,8,0,94
16,Williams,2021-06-13_14:21:02,6.3,1.0,0.0,4,0,45
17,Mercedes,2021-06-13_14:21:02,37.3,1.0,-0.2,9,0,45
18,Aston Martin,2021-06-13_14:21:02,16.4,1.0,0.0,5,29,0
19,Haas,2021-06-13_14:21:02,6.1,1.0,0.0,4,0,26
20,Latifi,2021-06-13_14:21:02,6.4,1.0,0.0,4,0,32
21,Russell,2021-06-13_14:21:02,6.2,1.0,0.0,40,0,72
22,Alonso,2021-06-13_14:21:02,14.7,1.0,-0.1,9,0,3
23,McLaren,2021-06-13_14:21:02,18.6,1.0,-0.1,27,0,64
24,Ricciardo,2021-06-13_14:21:02,16.0,1.0,-0.2,26,0,86
25,Ocon,2021-06-13_14:21:02,10.4,1.0,-0.1,22,0,62
26,Schumacher,2021-06-13_14:21:02,5.8,1.0,-0.1,26,0,35
27,Leclerc,2021-06-13_14:21:02,18.2,1.0,-0.1,41,0,3
28,Bottas,2021-06-13_14:21:02,23.0,1.0,-0.2,10,0,64
29,Ferrari,2021-06-13_14:21:02,19.6,1.0,-0.1,14,0,38
