,name,request_time,price,chance_of_playing,weekly_price_change,current_selection_percentage,probability_price_up_percentage,probability_price_down_percentage
0,AlphaTauri,2021-07-05_18:21:02,12.7,1.0,0.0,6,33,0
1,Perez,2021-07-05_18:21:02,18.8,1.0,0.1,37,58,0
2,Alpine,2021-07-05_18:21:02,15.1,1.0,-0.1,4,0,58
3,Vettel,2021-07-05_18:21:02,15.2,1.0,0.0,13,0,4
4,Ocon,2021-07-05_18:21:02,10.1,1.0,-0.1,19,0,20
5,Red Bull,2021-07-05_18:21:02,26.6,1.0,0.1,36,95,0
6,Stroll,2021-07-05_18:21:02,13.3,1.0,0.0,8,40,0
7,Williams,2021-07-05_18:21:02,6.3,1.0,0.0,4,0,45
8,Norris,2021-07-05_18:21:02,14.0,1.0,0.0,65,98,0
9,Sainz,2021-07-05_18:21:02,14.3,1.0,0.0,27,34,0
10,Alfa Romeo,2021-07-05_18:21:02,9.2,1.0,0.0,4,0,73
11,Mazepin,2021-07-05_18:21:02,5.3,1.0,0.0,5,0,9
12,Raikkonen,2021-07-05_18:21:02,9.3,1.0,0.0,13,0,55
13,Hamilton,2021-07-05_18:21:02,33.0,1.0,-0.1,24,0,40
14,Gasly,2021-07-05_18:21:02,11.9,1.0,0.0,46,62,0
15,Tsunoda,2021-07-05_18:21:02,8.5,1.0,0.1,23,30,0
16,Bottas,2021-07-05_18:21:02,23.0,1.0,0.0,10,0,47
17,Ferrari,2021-07-05_18:21:02,18.7,1.0,0.0,11,0,36
18,Giovinazzi,2021-07-05_18:21:02,8.0,1.0,0.0,9,63,0
19,Mercedes,2021-07-05_18:21:02,37.2,1.0,0.0,9,0,61
20,Aston Martin,2021-07-05_18:21:02,16.4,1.0,0.0,5,70,0
21,Haas,2021-07-05_18:21:02,6.1,1.0,0.0,4,0,26
22,McLaren,2021-07-05_18:21:02,18.6,1.0,0.0,27,0,42
23,Ricciardo,2021-07-05_18:21:02,15.8,1.0,-0.1,25,0,27
24,Schumacher,2021-07-05_18:21:02,5.8,1.0,0.0,27,0,1
25,Leclerc,2021-07-05_18:21:02,17.5,1.0,-0.1,34,0,5
26,Latifi,2021-07-05_18:21:02,6.4,1.0,0.0,4,0,54
27,Russell,2021-07-05_18:21:02,6.2,1.0,0.0,41,0,49
28,Alonso,2021-07-05_18:21:02,14.8,1.0,0.0,10,19,0
29,Verstappen,2021-07-05_18:21:02,25.7,1.0,0.1,60,40,0
