,name,request_time,price,chance_of_playing,weekly_price_change,current_selection_percentage,probability_price_up_percentage,probability_price_down_percentage
0,AlphaTauri,2021-04-18_19:01:02,13.2,1.0,0.0,7,3,0
1,Raikkonen,2021-04-18_19:01:02,9.4,1.0,0.0,14,0,21
2,Ocon,2021-04-18_19:01:02,9.7,1.0,0.0,14,0,85
3,Alfa Romeo,2021-04-18_19:01:02,8.9,1.0,0.0,4,4,0
4,Mercedes,2021-04-18_19:01:02,37.8,1.0,0.0,11,0,66
5,Haas,2021-04-18_19:01:02,6.1,1.0,0.0,4,0,27
6,Hamilton,2021-04-18_19:01:02,33.4,1.0,0.0,28,0,52
7,Vettel,2021-04-18_19:01:02,15.4,1.0,0.0,14,0,76
8,Alonso,2021-04-18_19:01:02,15.1,1.0,-0.1,11,0,13
9,Verstappen,2021-04-18_19:01:02,25.1,1.0,0.0,54,85,0
10,McLaren,2021-04-18_19:01:02,18.7,1.0,0.0,28,0,34
11,Schumacher,2021-04-18_19:01:02,5.7,1.0,0.0,25,0,7
12,Bottas,2021-04-18_19:01:02,23.5,1.0,0.0,12,0,33
13,Red Bull,2021-04-18_19:01:02,26.1,1.0,0.1,32,10,0
14,Mazepin,2021-04-18_19:01:02,5.3,1.0,0.0,5,0,14
15,Williams,2021-04-18_19:01:02,6.3,1.0,0.0,4,0,35
16,Norris,2021-04-18_19:01:02,13.5,1.0,0.1,57,15,0
17,Ferrari,2021-04-18_19:01:02,18.7,1.0,0.0,11,51,0
18,Alpine,2021-04-18_19:01:02,15.1,1.0,0.0,4,0,68
19,Latifi,2021-04-18_19:01:02,6.5,1.0,0.0,4,0,53
20,Russell,2021-04-18_19:01:02,6.2,1.0,0.0,44,68,0
21,Tsunoda,2021-04-18_19:01:02,9.4,1.0,0.0,35,22,0
22,Ricciardo,2021-04-18_19:01:02,16.7,1.0,0.0,33,0,62
23,Stroll,2021-04-18_19:01:02,13.6,1.0,0.0,9,0,22
24,Giovinazzi,2021-04-18_19:01:02,7.8,1.0,0.0,7,0,20
25,Leclerc,2021-04-18_19:01:02,17.5,1.0,0.1,34,2,0
26,Aston Martin,2021-04-18_19:01:02,16.8,1.0,-0.1,6,0,2
27,Perez,2021-04-18_19:01:02,18.4,1.0,0.0,33,0,7
28,Gasly,2021-04-18_19:01:02,11.7,1.0,0.0,43,62,0
29,Sainz,2021-04-18_19:01:02,14.3,1.0,0.0,26,0,26
