,name,request_time,price,chance_of_playing,weekly_price_change,current_selection_percentage,probability_price_up_percentage,probability_price_down_percentage
0,AlphaTauri,2021-04-18_15:11:02,13.2,1.0,0.0,7,9,0
1,Raikkonen,2021-04-18_15:11:02,9.4,1.0,0.0,14,0,24
2,Ocon,2021-04-18_15:11:02,9.7,1.0,0.0,14,0,75
3,Mazepin,2021-04-18_15:11:02,5.3,1.0,0.0,5,0,13
4,Mercedes,2021-04-18_15:11:02,37.8,1.0,0.0,11,0,44
5,Haas,2021-04-18_15:11:02,6.1,1.0,0.0,4,0,27
6,Hamilton,2021-04-18_15:11:02,33.4,1.0,0.0,28,0,44
7,Vettel,2021-04-18_15:11:02,15.4,1.0,0.0,14,0,39
8,Alonso,2021-04-18_15:11:02,15.2,1.0,0.0,12,0,86
9,Verstappen,2021-04-18_15:11:02,25.1,1.0,0.0,54,54,0
10,McLaren,2021-04-18_15:11:02,18.7,1.0,0.0,28,0,41
11,Schumacher,2021-04-18_15:11:02,5.7,1.0,0.0,25,0,3
12,Bottas,2021-04-18_15:11:02,23.5,1.0,0.0,13,0,5
13,Red Bull,2021-04-18_15:11:02,26.0,1.0,0.0,32,88,0
14,Williams,2021-04-18_15:11:02,6.3,1.0,0.0,4,0,34
15,Norris,2021-04-18_15:11:02,13.4,1.0,0.0,56,71,0
16,Alfa Romeo,2021-04-18_15:11:02,8.9,1.0,0.0,4,1,0
17,Alpine,2021-04-18_15:11:02,15.1,1.0,0.0,4,0,62
18,Latifi,2021-04-18_15:11:02,6.5,1.0,0.0,4,0,51
19,Russell,2021-04-18_15:11:02,6.2,1.0,0.0,44,67,0
20,Ferrari,2021-04-18_15:11:02,18.7,1.0,0.0,11,20,0
21,Tsunoda,2021-04-18_15:11:02,9.4,1.0,0.0,35,18,0
22,Ricciardo,2021-04-18_15:11:02,16.7,1.0,0.0,33,0,40
23,Leclerc,2021-04-18_15:11:02,17.4,1.0,0.0,33,72,0
24,Stroll,2021-04-18_15:11:02,13.6,1.0,0.0,9,0,29
25,Giovinazzi,2021-04-18_15:11:02,7.8,1.0,0.0,7,0,18
26,Aston Martin,2021-04-18_15:11:02,16.9,1.0,0.0,6,0,85
27,Perez,2021-04-18_15:11:02,18.4,1.0,0.0,33,14,0
28,Gasly,2021-04-18_15:11:02,11.7,1.0,0.0,43,47,0
29,Sainz,2021-04-18_15:11:02,14.3,1.0,0.0,26,0,29
