,name,request_time,price,chance_of_playing,weekly_price_change,current_selection_percentage,probability_price_up_percentage,probability_price_down_percentage
0,AlphaTauri,2021-05-08_04:31:03,12.9,1.0,-0.2,6,0,73
1,Ocon,2021-05-08_04:31:03,10.2,1.0,0.4,21,88,0
2,Raikkonen,2021-05-08_04:31:03,9.3,1.0,-0.1,13,0,46
3,Hamilton,2021-05-08_04:31:03,33.3,1.0,-0.1,27,11,0
4,Mercedes,2021-05-08_04:31:03,37.6,1.0,0.0,10,0,64
5,Red Bull,2021-05-08_04:31:03,26.1,1.0,0.0,32,0,6
6,Verstappen,2021-05-08_04:31:03,25.3,1.0,0.0,56,68,0
7,Bottas,2021-05-08_04:31:03,23.3,1.0,0.0,11,0,67
8,McLaren,2021-05-08_04:31:03,18.9,1.0,0.1,30,35,0
9,Norris,2021-05-08_04:31:03,13.8,1.0,0.1,62,60,0
10,Alfa Romeo,2021-05-08_04:31:03,8.9,1.0,0.0,4,35,0
11,Mazepin,2021-05-08_04:31:03,5.3,1.0,0.0,5,0,47
12,Haas,2021-05-08_04:31:03,6.1,1.0,0.0,4,0,26
13,Schumacher,2021-05-08_04:31:03,5.7,1.0,0.0,26,80,0
14,Vettel,2021-05-08_04:31:03,15.0,1.0,-0.1,12,0,51
15,Williams,2021-05-08_04:31:03,6.3,1.0,0.0,4,0,41
16,Alonso,2021-05-08_04:31:03,15.0,1.0,0.0,11,0,67
17,Ferrari,2021-05-08_04:31:03,18.7,1.0,-0.2,11,0,13
18,Latifi,2021-05-08_04:31:03,6.4,1.0,-0.1,4,0,16
19,Alpine,2021-05-08_04:31:03,15.2,1.0,0.2,4,71,0
20,Russell,2021-05-08_04:31:03,6.3,1.0,0.1,43,0,49
21,Ricciardo,2021-05-08_04:31:03,16.3,1.0,-0.2,29,0,56
22,Leclerc,2021-05-08_04:31:03,17.9,1.0,0.1,38,60,0
23,Tsunoda,2021-05-08_04:31:03,9.0,1.0,-0.3,28,0,67
24,Stroll,2021-05-08_04:31:03,13.6,1.0,0.0,9,0,96
25,Giovinazzi,2021-05-08_04:31:03,7.8,1.0,0.0,7,0,53
26,Sainz,2021-05-08_04:31:03,14.3,1.0,0.0,26,0,4
27,Perez,2021-05-08_04:31:03,18.3,1.0,0.0,31,0,69
28,Gasly,2021-05-08_04:31:03,11.7,1.0,0.0,41,0,62
29,Aston Martin,2021-05-08_04:31:03,16.5,1.0,-0.1,5,0,7
