,name,request_time,price,chance_of_playing,weekly_price_change,current_selection_percentage,probability_price_up_percentage,probability_price_down_percentage
0,AlphaTauri,2021-05-28_18:01:03,12.6,1.0,-0.2,5,0,42
1,Perez,2021-05-28_18:01:03,18.0,1.0,-0.2,29,0,64
2,Alpine,2021-05-28_18:01:03,15.2,1.0,0.0,4,0,68
3,Williams,2021-05-28_18:01:03,6.3,1.0,0.0,4,0,34
4,Norris,2021-05-28_18:01:03,13.9,1.0,0.0,63,47,0
5,Sainz,2021-05-28_18:01:03,14.7,1.0,0.2,30,5,0
6,Alfa Romeo,2021-05-28_18:01:03,9.2,1.0,0.3,4,0,5
7,Mazepin,2021-05-28_18:01:03,5.3,1.0,0.0,5,0,15
8,Raikkonen,2021-05-28_18:01:03,9.4,1.0,0.1,14,36,0
9,Hamilton,2021-05-28_18:01:03,33.3,1.0,0.0,27,0,58
10,Gasly,2021-05-28_18:01:03,11.5,1.0,-0.2,40,34,0
11,Vettel,2021-05-28_18:01:03,14.9,1.0,-0.1,12,0,4
12,Tsunoda,2021-05-28_18:01:03,8.5,1.0,-0.1,22,0,60
13,Verstappen,2021-05-28_18:01:03,25.4,1.0,0.1,57,80,0
14,Red Bull,2021-05-28_18:01:03,26.0,1.0,-0.1,31,0,48
15,Mercedes,2021-05-28_18:01:03,37.4,1.0,-0.1,10,0,3
16,Aston Martin,2021-05-28_18:01:03,16.4,1.0,-0.1,5,0,0
17,Haas,2021-05-28_18:01:03,6.1,1.0,0.0,4,0,18
18,Latifi,2021-05-28_18:01:03,6.4,1.0,0.0,4,0,25
19,Russell,2021-05-28_18:01:03,6.2,1.0,-0.1,42,2,0
20,Alonso,2021-05-28_18:01:03,14.8,1.0,-0.2,9,0,74
21,McLaren,2021-05-28_18:01:03,18.7,1.0,-0.2,28,0,75
22,Giovinazzi,2021-05-28_18:01:03,7.9,1.0,0.1,9,67,0
23,Ricciardo,2021-05-28_18:01:03,16.1,1.0,-0.1,28,0,4
24,Schumacher,2021-05-28_18:01:03,5.8,1.0,-0.1,27,0,10
25,Leclerc,2021-05-28_18:01:03,18.3,1.0,0.3,42,70,0
26,Ocon,2021-05-28_18:01:03,10.5,1.0,0.2,23,0,34
27,Bottas,2021-05-28_18:01:03,23.1,1.0,-0.1,10,0,19
28,Ferrari,2021-05-28_18:01:03,19.7,1.0,0.2,15,0,0
29,Stroll,2021-05-28_18:01:03,13.4,1.0,-0.1,8,0,49
