,name,request_time,price,chance_of_playing,weekly_price_change,current_selection_percentage,probability_price_up_percentage,probability_price_down_percentage
0,AlphaTauri,2021-06-19_09:51:03,12.6,1.0,0.0,5,20,0
1,Perez,2021-06-19_09:51:03,18.4,1.0,0.2,33,24,0
2,Alpine,2021-06-19_09:51:03,15.1,1.0,-0.1,4,63,0
3,Williams,2021-06-19_09:51:03,6.3,1.0,0.0,4,0,45
4,Norris,2021-06-19_09:51:03,13.9,1.0,0.0,63,54,0
5,Mazepin,2021-06-19_09:51:03,5.3,1.0,0.0,5,0,23
6,Hamilton,2021-06-19_09:51:03,33.1,1.0,-0.1,25,0,8
7,Raikkonen,2021-06-19_09:51:03,9.3,1.0,-0.1,13,0,10
8,Gasly,2021-06-19_09:51:03,11.8,1.0,0.2,44,3,0
9,Vettel,2021-06-19_09:51:03,15.0,1.0,0.1,13,79,0
10,Tsunoda,2021-06-19_09:51:03,8.4,1.0,-0.2,22,21,0
11,Red Bull,2021-06-19_09:51:03,26.2,1.0,0.1,33,44,0
12,Sainz,2021-06-19_09:51:03,14.7,1.0,0.2,30,2,0
13,Alfa Romeo,2021-06-19_09:51:03,9.2,1.0,0.0,4,0,40
14,Giovinazzi,2021-06-19_09:51:03,8.0,1.0,0.2,9,69,0
15,Mercedes,2021-06-19_09:51:03,37.3,1.0,-0.2,9,0,47
16,Aston Martin,2021-06-19_09:51:03,16.4,1.0,0.0,5,43,0
17,Haas,2021-06-19_09:51:03,6.1,1.0,0.0,4,0,25
18,Latifi,2021-06-19_09:51:03,6.4,1.0,0.0,4,0,31
19,Russell,2021-06-19_09:51:03,6.2,1.0,0.0,40,0,86
20,Alonso,2021-06-19_09:51:03,14.7,1.0,-0.1,10,45,0
21,Verstappen,2021-06-19_09:51:03,25.5,1.0,0.1,58,51,0
22,McLaren,2021-06-19_09:51:03,18.6,1.0,-0.1,27,0,71
23,Ricciardo,2021-06-19_09:51:03,15.9,1.0,-0.2,26,0,25
24,Leclerc,2021-06-19_09:51:03,18.2,1.0,-0.1,40,0,67
25,Schumacher,2021-06-19_09:51:03,5.8,1.0,-0.1,26,0,33
26,Ocon,2021-06-19_09:51:03,10.4,1.0,-0.1,22,0,32
27,Bottas,2021-06-19_09:51:03,23.0,1.0,-0.2,10,0,30
28,Ferrari,2021-06-19_09:51:03,19.5,1.0,-0.2,14,0,61
29,Stroll,2021-06-19_09:51:03,13.3,1.0,-0.1,7,0,8
