,name,request_time,price,chance_of_playing,weekly_price_change,current_selection_percentage,probability_price_up_percentage,probability_price_down_percentage
0,Mercedes,2021-04-01_03:30:03,37.9,1.0,-0.1,12,0,12
1,McLaren,2021-04-01_03:30:03,18.9,1.0,0.0,30,8,0
2,Red Bull,2021-04-01_03:30:03,26.0,1.0,0.100000000000001,31,50,0
3,Alpine,2021-04-01_03:30:03,15.3,1.0,-0.0999999999999996,3,0,87
4,Raikkonen,2021-04-01_03:30:03,9.6,1.0,0.0,15,0,78
5,Haas,2021-04-01_03:30:03,6.1,1.0,0.0,1,0,15
6,Hamilton,2021-04-01_03:30:03,33.5,1.0,0.0,29,0,66
7,Schumacher,2021-04-01_03:30:03,5.8,1.0,0.0,27,0,8
8,Ferrari,2021-04-01_03:30:03,18.2,1.0,0.0999999999999979,8,65,0
9,AlphaTauri,2021-04-01_03:30:03,12.9,1.0,0.200000000000001,6,28,0
10,Perez,2021-04-01_03:30:03,18.3,1.0,-0.0999999999999979,32,0,1
11,Vettel,2021-04-01_03:30:03,15.8,1.0,-0.399999999999999,17,0,41
12,Latifi,2021-04-01_03:30:03,6.5,1.0,0.0,4,0,39
13,Alfa Romeo,2021-04-01_03:30:03,8.9,1.0,0.0,1,0,0
14,Stroll,2021-04-01_03:30:03,13.8,1.0,-0.0999999999999996,10,0,30
15,Leclerc,2021-04-01_03:30:03,17.1,1.0,0.300000000000001,30,61,0
16,Bottas,2021-04-01_03:30:03,23.5,1.0,-0.100000000000001,12,0,13
17,Norris,2021-04-01_03:30:03,13.2,1.0,0.0999999999999996,53,87,0
18,Verstappen,2021-04-01_03:30:03,25.0,1.0,0.2,52,19,0
19,Mazepin,2021-04-01_03:30:03,5.4,1.0,-0.0999999999999996,5,0,21
20,Tsunoda,2021-04-01_03:30:03,9.1,1.0,0.3,29,13,0
21,Gasly,2021-04-01_03:30:03,11.7,1.0,0.0,43,99,0
22,Williams,2021-04-01_03:30:03,6.3,1.0,0.0,1,0,21
23,Ricciardo,2021-04-01_03:30:03,17.1,1.0,-0.199999999999999,37,0,48
24,Ocon,2021-04-01_03:30:03,9.9,1.0,-0.199999999999999,15,0,40
25,Alonso,2021-04-01_03:30:03,15.4,1.0,-0.199999999999999,13,0,28
26,Sainz,2021-04-01_03:30:03,14.4,1.0,0.0,27,0,58
27,Giovinazzi,2021-04-01_03:30:03,7.9,1.0,0.0,8,0,41
28,Russell,2021-04-01_03:30:03,6.2,1.0,0.0,42,0,7
29,Aston Martin,2021-04-01_03:30:03,17.2,1.0,-0.4,7,0,10
