,name,request_time,price,chance_of_playing,weekly_price_change,current_selection_percentage,probability_price_up_percentage,probability_price_down_percentage
0,Ocon,2021-07-17_08:11:03,10.1,1.0,-0.1,19,0,84
1,Bottas,2021-07-17_08:11:03,23.0,1.0,0.0,10,0,37
2,Ferrari,2021-07-17_08:11:03,18.7,1.0,0.0,10,0,80
3,Red Bull,2021-07-17_08:11:03,26.7,1.0,0.1,36,33,0
4,Stroll,2021-07-17_08:11:03,13.3,1.0,0.0,8,7,0
5,Gasly,2021-07-17_08:11:03,11.9,1.0,0.0,46,34,0
6,Vettel,2021-07-17_08:11:03,15.2,1.0,0.0,13,0,5
7,Tsunoda,2021-07-17_08:11:03,8.5,1.0,0.0,23,0,15
8,Williams,2021-07-17_08:11:03,6.3,1.0,0.0,4,0,44
9,Norris,2021-07-17_08:11:03,14.1,1.0,0.1,66,77,0
10,Hamilton,2021-07-17_08:11:03,33.0,1.0,0.0,24,0,60
11,Raikkonen,2021-07-17_08:11:03,9.3,1.0,0.0,13,0,67
12,Mazepin,2021-07-17_08:11:03,5.3,1.0,0.0,5,0,10
13,Mercedes,2021-07-17_08:11:03,37.1,1.0,-0.1,8,0,0
14,Aston Martin,2021-07-17_08:11:03,16.4,1.0,0.0,5,56,0
15,AlphaTauri,2021-07-17_08:11:03,12.7,1.0,0.0,6,0,1
16,Haas,2021-07-17_08:11:03,6.1,1.0,0.0,4,0,26
17,Perez,2021-07-17_08:11:03,18.8,1.0,0.0,36,0,0
18,Alpine,2021-07-17_08:11:03,15.1,1.0,0.0,4,0,77
19,Sainz,2021-07-17_08:11:03,14.4,1.0,0.1,28,2,0
20,Alfa Romeo,2021-07-17_08:11:03,9.2,1.0,0.0,4,0,78
21,McLaren,2021-07-17_08:11:03,18.6,1.0,0.0,28,0,0
22,Ricciardo,2021-07-17_08:11:03,15.8,1.0,0.0,25,0,49
23,Leclerc,2021-07-17_08:11:03,17.5,1.0,-0.1,34,0,4
24,Schumacher,2021-07-17_08:11:03,5.8,1.0,0.0,27,33,0
25,Giovinazzi,2021-07-17_08:11:03,8.0,1.0,0.0,9,71,0
26,Latifi,2021-07-17_08:11:03,6.4,1.0,0.0,4,0,58
27,Russell,2021-07-17_08:11:03,6.2,1.0,0.0,41,0,42
28,Alonso,2021-07-17_08:11:03,14.8,1.0,0.0,10,42,0
29,Verstappen,2021-07-17_08:11:03,25.7,1.0,0.0,61,77,0
