,name,request_time,price,chance_of_playing,weekly_price_change,current_selection_percentage,probability_price_up_percentage,probability_price_down_percentage
0,Mercedes,2021-04-04_15:40:02,37.9,1.0,-0.1,12,0,29
1,McLaren,2021-04-04_15:40:02,18.9,1.0,0.0,30,33,0
2,Red Bull,2021-04-04_15:40:02,26.0,1.0,0.100000000000001,31,51,0
3,Schumacher,2021-04-04_15:40:02,5.8,1.0,0.0,27,0,15
4,Ricciardo,2021-04-04_15:40:02,17.1,1.0,-0.199999999999999,36,0,94
5,Ocon,2021-04-04_15:40:02,9.9,1.0,-0.199999999999999,15,0,78
6,Williams,2021-04-04_15:40:02,6.3,1.0,0.0,1,0,25
7,Raikkonen,2021-04-04_15:40:02,9.5,1.0,-0.1,15,0,4
8,Alonso,2021-04-04_15:40:02,15.4,1.0,-0.199999999999999,13,0,67
9,Giovinazzi,2021-04-04_15:40:02,7.9,1.0,0.0,8,0,49
10,Alfa Romeo,2021-04-04_15:40:02,8.9,1.0,0.0,1,0,0
11,Stroll,2021-04-04_15:40:02,13.8,1.0,-0.0999999999999996,10,0,52
12,Sainz,2021-04-04_15:40:02,14.4,1.0,0.0,26,0,75
13,Alpine,2021-04-04_15:40:02,15.2,1.0,-0.2,3,0,17
14,Norris,2021-04-04_15:40:02,13.3,1.0,0.2,54,28,0
15,Verstappen,2021-04-04_15:40:02,25.0,1.0,0.2,52,38,0
16,Haas,2021-04-04_15:40:02,6.1,1.0,0.0,1,0,17
17,Hamilton,2021-04-04_15:40:02,33.5,1.0,0.0,29,0,73
18,Leclerc,2021-04-04_15:40:02,17.2,1.0,0.4,30,3,0
19,Ferrari,2021-04-04_15:40:02,18.2,1.0,0.0999999999999979,8,97,0
20,AlphaTauri,2021-04-04_15:40:02,12.9,1.0,0.200000000000001,6,46,0
21,Perez,2021-04-04_15:40:02,18.3,1.0,-0.0999999999999979,32,16,0
22,Latifi,2021-04-04_15:40:02,6.5,1.0,0.0,4,0,45
23,Russell,2021-04-04_15:40:02,6.2,1.0,0.0,42,0,5
24,Aston Martin,2021-04-04_15:40:02,17.2,1.0,-0.4,7,0,73
25,Bottas,2021-04-04_15:40:02,23.5,1.0,-0.100000000000001,12,0,20
26,Mazepin,2021-04-04_15:40:02,5.4,1.0,-0.0999999999999996,5,0,38
27,Tsunoda,2021-04-04_15:40:02,9.1,1.0,0.3,30,78,0
28,Vettel,2021-04-04_15:40:02,15.7,1.0,-0.5,17,0,6
29,Gasly,2021-04-04_15:40:02,11.8,1.0,0.1,43,0,5
