,name,request_time,price,chance_of_playing,weekly_price_change,current_selection_percentage,probability_price_up_percentage,probability_price_down_percentage
0,Raikkonen,2021-05-04_14:01:02,9.4,1.0,0.0,13,0,87
1,Hamilton,2021-05-04_14:01:02,33.3,1.0,-0.1,27,0,2
2,Gasly,2021-05-04_14:01:02,11.7,1.0,0.0,42,0,0
3,Red Bull,2021-05-04_14:01:02,26.1,1.0,0.0,31,0,11
4,Stroll,2021-05-04_14:01:02,13.6,1.0,0.0,9,0,32
5,AlphaTauri,2021-05-04_14:01:02,12.9,1.0,-0.2,6,0,5
6,Perez,2021-05-04_14:01:02,18.3,1.0,0.0,31,0,46
7,Alpine,2021-05-04_14:01:02,15.2,1.0,0.2,4,17,0
8,Mazepin,2021-05-04_14:01:02,5.3,1.0,0.0,5,0,41
9,Vettel,2021-05-04_14:01:02,15.0,1.0,-0.1,12,0,10
10,Tsunoda,2021-05-04_14:01:02,9.1,1.0,-0.2,29,0,56
11,Russell,2021-05-04_14:01:02,6.3,1.0,0.1,44,0,18
12,Alonso,2021-05-04_14:01:02,15.0,1.0,0.0,10,0,88
13,Verstappen,2021-05-04_14:01:02,25.3,1.0,0.0,56,62,0
14,McLaren,2021-05-04_14:01:02,18.9,1.0,0.1,30,0,3
15,Ricciardo,2021-05-04_14:01:02,16.4,1.0,-0.1,30,0,71
16,Schumacher,2021-05-04_14:01:02,5.7,1.0,0.0,25,8,0
17,Leclerc,2021-05-04_14:01:02,17.9,1.0,0.1,38,7,0
18,Ocon,2021-05-04_14:01:02,10.1,1.0,0.3,19,46,0
19,Bottas,2021-05-04_14:01:02,23.3,1.0,0.0,11,0,63
20,Ferrari,2021-05-04_14:01:02,18.9,1.0,0.0,11,0,91
21,Mercedes,2021-05-04_14:01:02,37.6,1.0,0.0,10,0,57
22,Haas,2021-05-04_14:01:02,6.1,1.0,0.0,4,0,27
23,Aston Martin,2021-05-04_14:01:02,16.6,1.0,0.0,5,0,57
24,Latifi,2021-05-04_14:01:02,6.4,1.0,-0.1,4,0,7
25,Williams,2021-05-04_14:01:02,6.3,1.0,0.0,4,0,38
26,Giovinazzi,2021-05-04_14:01:02,7.8,1.0,0.0,7,0,66
27,Norris,2021-05-04_14:01:02,13.7,1.0,0.0,61,91,0
28,Sainz,2021-05-04_14:01:02,14.4,1.0,0.1,27,0,45
29,Alfa Romeo,2021-05-04_14:01:02,8.9,1.0,0.0,4,33,0
