,name,request_time,price,chance_of_playing,weekly_price_change,current_selection_percentage,probability_price_up_percentage,probability_price_down_percentage
0,AlphaTauri,2021-06-18_10:51:03,12.6,1.0,0.0,5,15,0
1,Perez,2021-06-18_10:51:03,18.4,1.0,0.2,33,5,0
2,Alpine,2021-06-18_10:51:03,15.1,1.0,-0.1,4,0,31
3,Williams,2021-06-18_10:51:03,6.3,1.0,0.0,4,0,46
4,Norris,2021-06-18_10:51:03,13.9,1.0,0.0,63,60,0
5,Mazepin,2021-06-18_10:51:03,5.3,1.0,0.0,5,0,24
6,Raikkonen,2021-06-18_10:51:03,9.3,1.0,-0.1,13,0,14
7,Hamilton,2021-06-18_10:51:03,33.1,1.0,-0.1,25,0,17
8,Gasly,2021-06-18_10:51:03,11.7,1.0,0.2,43,88,0
9,Vettel,2021-06-18_10:51:03,15.0,1.0,0.1,13,74,0
10,Tsunoda,2021-06-18_10:51:03,8.4,1.0,-0.2,22,18,0
11,Red Bull,2021-06-18_10:51:03,26.2,1.0,0.1,32,26,0
12,Sainz,2021-06-18_10:51:03,14.7,1.0,0.2,31,73,0
13,Alfa Romeo,2021-06-18_10:51:03,9.2,1.0,0.0,4,0,40
14,Mercedes,2021-06-18_10:51:03,37.3,1.0,-0.2,9,0,57
15,Haas,2021-06-18_10:51:03,6.1,1.0,0.0,4,0,25
16,Aston Martin,2021-06-18_10:51:03,16.4,1.0,0.0,5,41,0
17,Latifi,2021-06-18_10:51:03,6.4,1.0,0.0,4,0,32
18,Russell,2021-06-18_10:51:03,6.2,1.0,0.0,40,0,81
19,Alonso,2021-06-18_10:51:03,14.7,1.0,-0.1,9,0,10
20,Verstappen,2021-06-18_10:51:03,25.5,1.0,0.1,58,57,0
21,McLaren,2021-06-18_10:51:03,18.6,1.0,-0.1,27,0,71
22,Giovinazzi,2021-06-18_10:51:03,8.0,1.0,0.2,9,78,0
23,Ricciardo,2021-06-18_10:51:03,15.9,1.0,-0.2,26,0,11
24,Ocon,2021-06-18_10:51:03,10.4,1.0,-0.1,22,0,79
25,Schumacher,2021-06-18_10:51:03,5.8,1.0,-0.1,26,0,37
26,Leclerc,2021-06-18_10:51:03,18.2,1.0,-0.1,40,0,16
27,Bottas,2021-06-18_10:51:03,23.0,1.0,-0.2,9,0,77
28,Ferrari,2021-06-18_10:51:03,19.6,1.0,-0.1,14,0,48
29,Stroll,2021-06-18_10:51:03,13.3,1.0,-0.1,8,0,2
