,name,request_time,price,chance_of_playing,weekly_price_change,current_selection_percentage,probability_price_up_percentage,probability_price_down_percentage
0,AlphaTauri,2021-05-26_20:11:03,12.6,1.0,-0.2,5,0,38
1,Perez,2021-05-26_20:11:03,18.0,1.0,-0.2,29,0,62
2,Alpine,2021-05-26_20:11:03,15.2,1.0,0.0,4,0,63
3,Gasly,2021-05-26_20:11:03,11.5,1.0,-0.2,40,29,0
4,Mazepin,2021-05-26_20:11:03,5.3,1.0,0.0,5,0,14
5,Hamilton,2021-05-26_20:11:03,33.3,1.0,0.0,27,0,54
6,Raikkonen,2021-05-26_20:11:03,9.4,1.0,0.1,14,37,0
7,Vettel,2021-05-26_20:11:03,14.9,1.0,-0.1,12,0,8
8,Tsunoda,2021-05-26_20:11:03,8.5,1.0,-0.1,22,0,49
9,Verstappen,2021-05-26_20:11:03,25.4,1.0,0.1,57,78,0
10,Red Bull,2021-05-26_20:11:03,26.0,1.0,-0.1,31,0,53
11,Stroll,2021-05-26_20:11:03,13.4,1.0,-0.1,8,0,46
12,Williams,2021-05-26_20:11:03,6.3,1.0,0.0,4,0,35
13,Mercedes,2021-05-26_20:11:03,37.5,1.0,-0.1,10,0,97
14,Haas,2021-05-26_20:11:03,6.1,1.0,0.0,4,0,18
15,Aston Martin,2021-05-26_20:11:03,16.4,1.0,-0.1,5,0,0
16,Latifi,2021-05-26_20:11:03,6.4,1.0,0.0,4,0,24
17,Russell,2021-05-26_20:11:03,6.2,1.0,-0.1,42,2,0
18,Alonso,2021-05-26_20:11:03,14.8,1.0,-0.2,10,0,66
19,McLaren,2021-05-26_20:11:03,18.7,1.0,-0.2,28,0,71
20,Giovinazzi,2021-05-26_20:11:03,7.9,1.0,0.1,9,54,0
21,Sainz,2021-05-26_20:11:03,14.6,1.0,0.1,30,91,0
22,Alfa Romeo,2021-05-26_20:11:03,9.2,1.0,0.3,4,0,4
23,Ricciardo,2021-05-26_20:11:03,16.2,1.0,0.0,28,0,84
24,Ocon,2021-05-26_20:11:03,10.5,1.0,0.2,23,0,33
25,Leclerc,2021-05-26_20:11:03,18.3,1.0,0.3,42,68,0
26,Schumacher,2021-05-26_20:11:03,5.8,1.0,-0.1,27,0,6
27,Bottas,2021-05-26_20:11:03,23.1,1.0,-0.1,10,0,17
28,Ferrari,2021-05-26_20:11:03,19.6,1.0,0.1,15,84,0
29,Norris,2021-05-26_20:11:03,13.9,1.0,0.0,63,40,0
