,name,request_time,price,chance_of_playing,weekly_price_change,current_selection_percentage,probability_price_up_percentage,probability_price_down_percentage
0,AlphaTauri,2021-05-21_15:21:03,12.7,1.0,-0.1,5,0,68
1,Perez,2021-05-21_15:21:03,18.0,1.0,-0.2,29,0,6
2,Alpine,2021-05-21_15:21:03,15.3,1.0,0.1,4,0,49
3,Gasly,2021-05-21_15:21:03,11.5,1.0,-0.2,39,2,0
4,Hamilton,2021-05-21_15:21:03,33.3,1.0,0.0,28,24,0
5,Vettel,2021-05-21_15:21:03,14.9,1.0,-0.1,11,0,27
6,Tsunoda,2021-05-21_15:21:03,8.6,1.0,-0.3,24,0,3
7,Verstappen,2021-05-21_15:21:03,25.4,1.0,0.1,57,5,0
8,Mazepin,2021-05-21_15:21:03,5.3,1.0,0.0,5,0,47
9,Raikkonen,2021-05-21_15:21:03,9.3,1.0,0.0,13,0,27
10,Alonso,2021-05-21_15:21:03,14.9,1.0,-0.1,10,0,70
11,McLaren,2021-05-21_15:21:03,18.9,1.0,0.0,29,0,84
12,Mercedes,2021-05-21_15:21:03,37.5,1.0,-0.1,10,0,0
13,Haas,2021-05-21_15:21:03,6.1,1.0,0.0,4,0,13
14,Aston Martin,2021-05-21_15:21:03,16.5,1.0,0.0,5,0,88
15,Latifi,2021-05-21_15:21:03,6.4,1.0,0.0,4,0,25
16,Russell,2021-05-21_15:21:03,6.2,1.0,-0.1,42,2,0
17,Ricciardo,2021-05-21_15:21:03,16.2,1.0,0.0,29,56,0
18,Schumacher,2021-05-21_15:21:03,5.9,1.0,0.1,29,35,0
19,Ocon,2021-05-21_15:21:03,10.6,1.0,0.3,25,45,0
20,Leclerc,2021-05-21_15:21:03,18.2,1.0,0.2,41,27,0
21,Bottas,2021-05-21_15:21:03,23.2,1.0,-0.1,11,0,44
22,Ferrari,2021-05-21_15:21:03,18.9,1.0,0.2,12,46,0
23,Red Bull,2021-05-21_15:21:03,26.1,1.0,0.0,31,0,42
24,Stroll,2021-05-21_15:21:03,13.4,1.0,-0.1,8,0,8
25,Williams,2021-05-21_15:21:03,6.3,1.0,0.0,4,0,33
26,Norris,2021-05-21_15:21:03,13.9,1.0,0.0,63,13,0
27,Giovinazzi,2021-05-21_15:21:03,7.8,1.0,0.0,7,0,32
28,Sainz,2021-05-21_15:21:03,14.3,1.0,0.0,27,21,0
29,Alfa Romeo,2021-05-21_15:21:03,9.2,1.0,0.3,4,2,0
