,name,request_time,price,chance_of_playing,weekly_price_change,current_selection_percentage,probability_price_up_percentage,probability_price_down_percentage
0,Mercedes,2021-04-12_00:30:02,37.9,1.0,-0.1,12,0,76
1,McLaren,2021-04-12_00:30:02,18.9,1.0,0.0,29,0,42
2,Red Bull,2021-04-12_00:30:02,26.0,1.0,0.100000000000001,31,51,0
3,Alfa Romeo,2021-04-12_00:30:02,8.9,1.0,0.0,1,3,0
4,Stroll,2021-04-12_00:30:02,13.8,1.0,-0.0999999999999996,10,0,96
5,Bottas,2021-04-12_00:30:02,23.5,1.0,-0.100000000000001,12,0,48
6,Mazepin,2021-04-12_00:30:02,5.4,1.0,-0.0999999999999996,5,0,64
7,Vettel,2021-04-12_00:30:02,15.6,1.0,-0.6,16,0,10
8,Tsunoda,2021-04-12_00:30:02,9.3,1.0,0.5,32,19,0
9,Haas,2021-04-12_00:30:02,6.1,1.0,0.0,1,0,21
10,Aston Martin,2021-04-12_00:30:02,17.1,1.0,-0.5,7,0,73
11,Williams,2021-04-12_00:30:02,6.3,1.0,0.0,1,0,33
12,Raikkonen,2021-04-12_00:30:02,9.5,1.0,-0.1,14,0,39
13,Schumacher,2021-04-12_00:30:02,5.8,1.0,0.0,26,0,41
14,Verstappen,2021-04-12_00:30:02,25.0,1.0,0.2,53,91,0
15,Latifi,2021-04-12_00:30:02,6.5,1.0,0.0,4,0,54
16,Russell,2021-04-12_00:30:02,6.2,1.0,0.0,42,1,0
17,Perez,2021-04-12_00:30:02,18.3,1.0,-0.0999999999999979,32,71,0
18,Alpine,2021-04-12_00:30:02,15.2,1.0,-0.2,3,0,61
19,Ferrari,2021-04-12_00:30:02,18.4,1.0,0.3,9,68,0
20,Alonso,2021-04-12_00:30:02,15.3,1.0,-0.3,12,0,36
21,Leclerc,2021-04-12_00:30:02,17.2,1.0,0.4,30,82,0
22,AlphaTauri,2021-04-12_00:30:02,13.1,1.0,0.4,7,7,0
23,Norris,2021-04-12_00:30:02,13.3,1.0,0.2,55,92,0
24,Giovinazzi,2021-04-12_00:30:02,7.9,1.0,0.0,8,0,68
25,Ricciardo,2021-04-12_00:30:02,17.0,1.0,-0.3,36,0,70
26,Hamilton,2021-04-12_00:30:02,33.5,1.0,0.0,28,0,99
27,Sainz,2021-04-12_00:30:02,14.3,1.0,-0.1,26,0,4
28,Ocon,2021-04-12_00:30:02,9.8,1.0,-0.3,15,0,30
29,Gasly,2021-04-12_00:30:02,11.8,1.0,0.1,42,0,71
