,name,request_time,price,chance_of_playing,weekly_price_change,current_selection_percentage,probability_price_up_percentage,probability_price_down_percentage
0,AlphaTauri,2021-04-16_19:31:02,13.2,1.0,0.5,7,12,0
1,Bottas,2021-04-16_19:31:02,23.5,1.0,-0.100000000000001,12,0,49
2,Williams,2021-04-16_19:31:02,6.3,1.0,0.0,4,0,37
3,Ocon,2021-04-16_19:31:02,9.7,1.0,-0.4,14,0,27
4,Hamilton,2021-04-16_19:31:02,33.4,1.0,-0.1,28,0,41
5,Mercedes,2021-04-16_19:31:02,37.8,1.0,-0.2,11,0,34
6,Mazepin,2021-04-16_19:31:02,5.4,1.0,-0.0999999999999996,5,0,90
7,Haas,2021-04-16_19:31:02,6.1,1.0,0.0,4,0,26
8,Raikkonen,2021-04-16_19:31:02,9.5,1.0,-0.1,14,0,63
9,Schumacher,2021-04-16_19:31:02,5.8,1.0,0.0,25,0,82
10,Latifi,2021-04-16_19:31:02,6.5,1.0,0.0,4,0,56
11,Norris,2021-04-16_19:31:02,13.4,1.0,0.3,56,44,0
12,Vettel,2021-04-16_19:31:02,15.5,1.0,-0.7,15,0,61
13,Alfa Romeo,2021-04-16_19:31:02,8.9,1.0,0.0,4,3,0
14,Alpine,2021-04-16_19:31:02,15.1,1.0,-0.3,4,0,32
15,Ferrari,2021-04-16_19:31:02,18.6,1.0,0.5,10,19,0
16,Russell,2021-04-16_19:31:02,6.2,1.0,0.0,42,24,0
17,Giovinazzi,2021-04-16_19:31:02,7.9,1.0,0.0,8,0,89
18,Stroll,2021-04-16_19:31:02,13.7,1.0,-0.2,9,0,72
19,Sainz,2021-04-16_19:31:02,14.3,1.0,-0.1,26,0,32
20,Ricciardo,2021-04-16_19:31:02,16.8,1.0,-0.5,34,0,8
21,Leclerc,2021-04-16_19:31:02,17.4,1.0,0.6,32,1,0
22,Tsunoda,2021-04-16_19:31:02,9.4,1.0,0.6,35,1,0
23,Aston Martin,2021-04-16_19:31:02,16.9,1.0,-0.7,6,0,13
24,Perez,2021-04-16_19:31:02,18.4,1.0,0.0,33,36,0
25,Red Bull,2021-04-16_19:31:02,26.0,1.0,0.100000000000001,31,56,0
26,McLaren,2021-04-16_19:31:02,18.8,1.0,-0.1,29,0,44
27,Verstappen,2021-04-16_19:31:02,25.1,1.0,0.3,54,54,0
28,Alonso,2021-04-16_19:31:02,15.2,1.0,-0.4,12,0,45
29,Gasly,2021-04-16_19:31:02,11.7,1.0,0.0,42,0,8
