,name,request_time,price,chance_of_playing,weekly_price_change,current_selection_percentage,probability_price_up_percentage,probability_price_down_percentage
0,AlphaTauri,2021-05-16_17:41:02,12.8,1.0,0.0,6,0,81
1,Perez,2021-05-16_17:41:02,18.1,1.0,-0.1,30,0,40
2,Alpine,2021-05-16_17:41:02,15.3,1.0,0.1,4,0,14
3,Gasly,2021-05-16_17:41:02,11.6,1.0,-0.1,39,0,85
4,Vettel,2021-05-16_17:41:02,14.9,1.0,-0.1,12,0,12
5,Tsunoda,2021-05-16_17:41:02,8.8,1.0,-0.1,25,0,84
6,Verstappen,2021-05-16_17:41:02,25.3,1.0,0.0,56,97,0
7,Mazepin,2021-05-16_17:41:02,5.3,1.0,0.0,5,0,48
8,Raikkonen,2021-05-16_17:41:02,9.3,1.0,0.0,13,0,44
9,Hamilton,2021-05-16_17:41:02,33.3,1.0,0.0,28,27,0
10,Alonso,2021-05-16_17:41:02,14.9,1.0,-0.1,10,0,29
11,McLaren,2021-05-16_17:41:02,18.9,1.0,0.0,30,0,12
12,Mercedes,2021-05-16_17:41:02,37.6,1.0,0.0,10,0,79
13,Haas,2021-05-16_17:41:02,6.1,1.0,0.0,4,0,17
14,Aston Martin,2021-05-16_17:41:02,16.5,1.0,0.0,5,0,66
15,Latifi,2021-05-16_17:41:02,6.4,1.0,0.0,4,0,23
16,Russell,2021-05-16_17:41:02,6.2,1.0,-0.1,42,0,1
17,Ricciardo,2021-05-16_17:41:02,16.2,1.0,0.0,29,38,0
18,Ocon,2021-05-16_17:41:02,10.5,1.0,0.2,24,79,0
19,Schumacher,2021-05-16_17:41:02,5.9,1.0,0.1,29,20,0
20,Leclerc,2021-05-16_17:41:02,18.1,1.0,0.1,40,59,0
21,Bottas,2021-05-16_17:41:02,23.2,1.0,-0.1,11,0,19
22,Ferrari,2021-05-16_17:41:02,18.7,1.0,0.0,11,46,0
23,Red Bull,2021-05-16_17:41:02,26.1,1.0,0.0,32,7,0
24,Stroll,2021-05-16_17:41:02,13.5,1.0,0.0,8,0,81
25,Williams,2021-05-16_17:41:02,6.3,1.0,0.0,4,0,36
26,Norris,2021-05-16_17:41:02,13.9,1.0,0.0,63,16,0
27,Giovinazzi,2021-05-16_17:41:02,7.8,1.0,0.0,7,0,44
28,Sainz,2021-05-16_17:41:02,14.3,1.0,0.0,26,0,43
29,Alfa Romeo,2021-05-16_17:41:02,9.0,1.0,0.1,4,0,5
