,name,request_time,price,chance_of_playing,weekly_price_change,current_selection_percentage,probability_price_up_percentage,probability_price_down_percentage
0,AlphaTauri,2021-05-22_02:21:03,12.7,1.0,-0.1,5,0,78
1,Perez,2021-05-22_02:21:03,18.0,1.0,-0.2,29,0,17
2,Alpine,2021-05-22_02:21:03,15.3,1.0,0.1,4,0,60
3,Gasly,2021-05-22_02:21:03,11.5,1.0,-0.2,39,0,0
4,Verstappen,2021-05-22_02:21:03,25.4,1.0,0.1,57,7,0
5,Mazepin,2021-05-22_02:21:03,5.3,1.0,0.0,5,0,46
6,Raikkonen,2021-05-22_02:21:03,9.3,1.0,0.0,13,0,23
7,Hamilton,2021-05-22_02:21:03,33.3,1.0,0.0,28,22,0
8,Vettel,2021-05-22_02:21:03,14.9,1.0,-0.1,11,0,29
9,Tsunoda,2021-05-22_02:21:03,8.6,1.0,-0.3,24,0,17
10,Alonso,2021-05-22_02:21:03,14.9,1.0,-0.1,10,0,81
11,McLaren,2021-05-22_02:21:03,18.8,1.0,-0.1,29,0,6
12,Mercedes,2021-05-22_02:21:03,37.5,1.0,-0.1,10,0,6
13,Haas,2021-05-22_02:21:03,6.1,1.0,0.0,4,0,13
14,Aston Martin,2021-05-22_02:21:03,16.5,1.0,0.0,5,0,90
15,Latifi,2021-05-22_02:21:03,6.4,1.0,0.0,4,0,25
16,Russell,2021-05-22_02:21:03,6.2,1.0,-0.1,42,1,0
17,Ricciardo,2021-05-22_02:21:03,16.2,1.0,0.0,29,57,0
18,Schumacher,2021-05-22_02:21:03,5.9,1.0,0.1,29,35,0
19,Ocon,2021-05-22_02:21:03,10.6,1.0,0.3,25,41,0
20,Leclerc,2021-05-22_02:21:03,18.2,1.0,0.2,41,49,0
21,Bottas,2021-05-22_02:21:03,23.2,1.0,-0.1,11,0,53
22,Ferrari,2021-05-22_02:21:03,19.0,1.0,0.3,12,36,0
23,Red Bull,2021-05-22_02:21:03,26.1,1.0,0.0,31,0,54
24,Stroll,2021-05-22_02:21:03,13.4,1.0,-0.1,8,0,14
25,Williams,2021-05-22_02:21:03,6.3,1.0,0.0,4,0,32
26,Norris,2021-05-22_02:21:03,13.9,1.0,0.0,63,12,0
27,Giovinazzi,2021-05-22_02:21:03,7.8,1.0,0.0,7,0,28
28,Sainz,2021-05-22_02:21:03,14.3,1.0,0.0,27,45,0
29,Alfa Romeo,2021-05-22_02:21:03,9.2,1.0,0.3,4,1,0
