,name,request_time,price,chance_of_playing,weekly_price_change,current_selection_percentage,probability_price_up_percentage,probability_price_down_percentage
0,AlphaTauri,2021-07-16_01:21:03,12.7,1.0,0.0,6,29,0
1,Perez,2021-07-16_01:21:03,18.8,1.0,0.1,37,57,0
2,Alpine,2021-07-16_01:21:03,15.1,1.0,-0.1,4,0,70
3,Tsunoda,2021-07-16_01:21:03,8.5,1.0,0.1,23,18,0
4,Bottas,2021-07-16_01:21:03,23.0,1.0,0.0,10,0,42
5,Ferrari,2021-07-16_01:21:03,18.7,1.0,0.0,10,0,64
6,Red Bull,2021-07-16_01:21:03,26.7,1.0,0.1,36,27,0
7,Mazepin,2021-07-16_01:21:03,5.3,1.0,0.0,5,0,11
8,Raikkonen,2021-07-16_01:21:03,9.3,1.0,0.0,13,0,59
9,Hamilton,2021-07-16_01:21:03,33.0,1.0,-0.1,24,0,57
10,Gasly,2021-07-16_01:21:03,11.9,1.0,0.0,46,69,0
11,Vettel,2021-07-16_01:21:03,15.2,1.0,0.0,13,0,20
12,Mercedes,2021-07-16_01:21:03,37.2,1.0,0.0,9,0,81
13,Aston Martin,2021-07-16_01:21:03,16.4,1.0,0.0,5,70,0
14,Haas,2021-07-16_01:21:03,6.1,1.0,0.0,4,0,26
15,McLaren,2021-07-16_01:21:03,18.6,1.0,0.0,27,0,35
16,Ricciardo,2021-07-16_01:21:03,15.8,1.0,-0.1,25,0,55
17,Ocon,2021-07-16_01:21:03,10.1,1.0,-0.1,19,0,72
18,Schumacher,2021-07-16_01:21:03,5.8,1.0,0.0,27,7,0
19,Leclerc,2021-07-16_01:21:03,17.5,1.0,-0.1,34,0,37
20,Norris,2021-07-16_01:21:03,14.1,1.0,0.1,65,30,0
21,Giovinazzi,2021-07-16_01:21:03,8.0,1.0,0.0,9,79,0
22,Latifi,2021-07-16_01:21:03,6.4,1.0,0.0,4,0,59
23,Russell,2021-07-16_01:21:03,6.2,1.0,0.0,41,0,42
24,Alonso,2021-07-16_01:21:03,14.8,1.0,0.0,10,37,0
25,Verstappen,2021-07-16_01:21:03,25.7,1.0,0.1,61,63,0
26,Stroll,2021-07-16_01:21:03,13.3,1.0,0.0,8,30,0
27,Williams,2021-07-16_01:21:03,6.3,1.0,0.0,4,0,46
28,Sainz,2021-07-16_01:21:03,14.3,1.0,0.0,27,67,0
29,Alfa Romeo,2021-07-16_01:21:03,9.2,1.0,0.0,4,0,76
