,name,request_time,price,chance_of_playing,weekly_price_change,current_selection_percentage,probability_price_up_percentage,probability_price_down_percentage
0,Stroll,2021-05-10_09:41:02,13.5,1.0,0.0,8,0,51
1,Raikkonen,2021-05-10_09:41:02,9.3,1.0,0.0,13,0,48
2,Perez,2021-05-10_09:41:02,18.2,1.0,0.0,30,0,90
3,Alpine,2021-05-10_09:41:02,15.3,1.0,0.1,4,0,4
4,AlphaTauri,2021-05-10_09:41:02,12.8,1.0,0.0,6,0,45
5,Red Bull,2021-05-10_09:41:02,26.1,1.0,0.0,32,0,8
6,Gasly,2021-05-10_09:41:02,11.6,1.0,-0.1,40,0,35
7,Hamilton,2021-05-10_09:41:02,33.3,1.0,0.0,28,25,0
8,Vettel,2021-05-10_09:41:02,15.0,1.0,0.0,12,0,81
9,Ferrari,2021-05-10_09:41:02,18.7,1.0,0.0,11,0,3
10,Bottas,2021-05-10_09:41:02,23.2,1.0,-0.1,11,0,1
11,Mazepin,2021-05-10_09:41:02,5.3,1.0,0.0,5,0,48
12,Alonso,2021-05-10_09:41:02,15.0,1.0,0.0,10,0,94
13,Verstappen,2021-05-10_09:41:02,25.3,1.0,0.0,56,82,0
14,Leclerc,2021-05-10_09:41:02,18.0,1.0,0.0,40,93,0
15,Schumacher,2021-05-10_09:41:02,5.8,1.0,0.0,28,76,0
16,Russell,2021-05-10_09:41:02,6.3,1.0,0.0,42,0,97
17,Tsunoda,2021-05-10_09:41:02,8.8,1.0,-0.1,26,0,7
18,Ocon,2021-05-10_09:41:02,10.4,1.0,0.1,23,73,0
19,McLaren,2021-05-10_09:41:02,18.9,1.0,0.0,30,8,0
20,Ricciardo,2021-05-10_09:41:02,16.2,1.0,0.0,29,10,0
21,Latifi,2021-05-10_09:41:02,6.4,1.0,0.0,4,0,22
22,Aston Martin,2021-05-10_09:41:02,16.5,1.0,0.0,5,0,37
23,Williams,2021-05-10_09:41:02,6.3,1.0,0.0,4,0,40
24,Haas,2021-05-10_09:41:02,6.1,1.0,0.0,4,0,20
25,Mercedes,2021-05-10_09:41:02,37.6,1.0,0.0,10,0,68
26,Giovinazzi,2021-05-10_09:41:02,7.8,1.0,0.0,7,0,42
27,Norris,2021-05-10_09:41:02,13.9,1.0,0.0,63,9,0
28,Alfa Romeo,2021-05-10_09:41:02,8.9,1.0,0.0,4,54,0
29,Sainz,2021-05-10_09:41:02,14.3,1.0,0.0,26,0,15
