,name,request_time,price,chance_of_playing,weekly_price_change,current_selection_percentage,probability_price_up_percentage,probability_price_down_percentage
0,AlphaTauri,2021-06-30_19:01:02,12.7,1.0,0.1,6,39,0
1,Perez,2021-06-30_19:01:02,18.8,1.0,0.4,37,53,0
2,Alpine,2021-06-30_19:01:02,15.1,1.0,-0.1,4,0,1
3,Williams,2021-06-30_19:01:02,6.3,1.0,0.0,4,0,46
4,Norris,2021-06-30_19:01:02,14.0,1.0,0.1,64,32,0
5,Bottas,2021-06-30_19:01:02,23.0,1.0,0.0,10,0,64
6,Ferrari,2021-06-30_19:01:02,18.7,1.0,-0.6,10,0,88
7,Stroll,2021-06-30_19:01:02,13.3,1.0,0.0,8,20,0
8,Mazepin,2021-06-30_19:01:02,5.3,1.0,0.0,5,0,12
9,Hamilton,2021-06-30_19:01:02,33.1,1.0,0.0,25,0,94
10,Raikkonen,2021-06-30_19:01:02,9.3,1.0,0.0,13,0,66
11,Gasly,2021-06-30_19:01:02,11.9,1.0,0.1,46,46,0
12,Vettel,2021-06-30_19:01:02,15.2,1.0,0.2,14,33,0
13,Tsunoda,2021-06-30_19:01:02,8.5,1.0,0.1,23,11,0
14,Red Bull,2021-06-30_19:01:02,26.5,1.0,0.3,35,98,0
15,Sainz,2021-06-30_19:01:02,14.3,1.0,-0.4,26,0,58
16,Alfa Romeo,2021-06-30_19:01:02,9.2,1.0,0.0,4,0,72
17,Mercedes,2021-06-30_19:01:02,37.2,1.0,-0.1,9,0,42
18,Aston Martin,2021-06-30_19:01:02,16.4,1.0,0.0,5,68,0
19,Haas,2021-06-30_19:01:02,6.1,1.0,0.0,4,0,26
20,Latifi,2021-06-30_19:01:02,6.4,1.0,0.0,4,0,49
21,Russell,2021-06-30_19:01:02,6.2,1.0,0.0,40,0,70
22,Alonso,2021-06-30_19:01:02,14.8,1.0,0.0,10,47,0
23,Verstappen,2021-06-30_19:01:02,25.6,1.0,0.1,60,87,0
24,McLaren,2021-06-30_19:01:02,18.6,1.0,0.0,28,41,0
25,Giovinazzi,2021-06-30_19:01:02,8.0,1.0,0.0,9,39,0
26,Ricciardo,2021-06-30_19:01:02,15.9,1.0,0.0,26,0,0
27,Leclerc,2021-06-30_19:01:02,17.6,1.0,-0.4,34,0,85
28,Schumacher,2021-06-30_19:01:02,5.8,1.0,0.0,26,0,19
29,Ocon,2021-06-30_19:01:02,10.3,1.0,-0.1,21,0,36
