,name,request_time,price,chance_of_playing,weekly_price_change,current_selection_percentage,probability_price_up_percentage,probability_price_down_percentage
0,AlphaTauri,2021-06-26_08:01:03,12.6,1.0,0.0,5,16,0
1,Perez,2021-06-26_08:01:03,18.7,1.0,0.3,35,9,0
2,Alpine,2021-06-26_08:01:03,15.3,1.0,0.1,4,0,51
3,Williams,2021-06-26_08:01:03,6.3,1.0,0.0,4,0,46
4,Norris,2021-06-26_08:01:03,14.0,1.0,0.1,64,10,0
5,Sainz,2021-06-26_08:01:03,14.5,1.0,-0.2,28,0,39
6,Mazepin,2021-06-26_08:01:03,5.3,1.0,0.0,5,0,14
7,Raikkonen,2021-06-26_08:01:03,9.3,1.0,-0.1,13,0,44
8,Hamilton,2021-06-26_08:01:03,33.1,1.0,-0.1,25,0,66
9,Gasly,2021-06-26_08:01:03,11.8,1.0,0.2,44,57,0
10,Vettel,2021-06-26_08:01:03,15.2,1.0,0.2,13,0,0
11,Tsunoda,2021-06-26_08:01:03,8.4,1.0,0.0,22,0,21
12,Verstappen,2021-06-26_08:01:03,25.6,1.0,0.1,59,31,0
13,Alfa Romeo,2021-06-26_08:01:03,9.2,1.0,0.0,4,0,60
14,Red Bull,2021-06-26_08:01:03,26.4,1.0,0.2,34,63,0
15,Mercedes,2021-06-26_08:01:03,37.3,1.0,-0.1,9,0,98
16,Aston Martin,2021-06-26_08:01:03,16.4,1.0,0.0,5,64,0
17,Haas,2021-06-26_08:01:03,6.1,1.0,0.0,4,0,26
18,Latifi,2021-06-26_08:01:03,6.4,1.0,0.0,4,0,42
19,Russell,2021-06-26_08:01:03,6.2,1.0,0.0,40,0,83
20,Alonso,2021-06-26_08:01:03,14.8,1.0,0.0,10,50,0
21,McLaren,2021-06-26_08:01:03,18.6,1.0,0.0,28,34,0
22,Giovinazzi,2021-06-26_08:01:03,8.0,1.0,0.0,9,74,0
23,Ricciardo,2021-06-26_08:01:03,15.9,1.0,-0.2,26,18,0
24,Schumacher,2021-06-26_08:01:03,5.8,1.0,0.0,26,0,18
25,Leclerc,2021-06-26_08:01:03,17.7,1.0,-0.3,36,0,49
26,Ocon,2021-06-26_08:01:03,10.4,1.0,-0.1,23,25,0
27,Bottas,2021-06-26_08:01:03,23.0,1.0,-0.1,10,13,0
28,Ferrari,2021-06-26_08:01:03,18.9,1.0,-0.4,11,0,56
29,Stroll,2021-06-26_08:01:03,13.3,1.0,-0.1,7,0,18
