,name,request_time,price,chance_of_playing,weekly_price_change,current_selection_percentage,probability_price_up_percentage,probability_price_down_percentage
0,Gasly,2021-05-20_23:41:03,11.5,1.0,-0.2,39,2,0
1,AlphaTauri,2021-05-20_23:41:03,12.7,1.0,-0.1,5,0,12
2,Perez,2021-05-20_23:41:03,18.1,1.0,-0.1,29,0,78
3,Alpine,2021-05-20_23:41:03,15.3,1.0,0.1,4,0,40
4,Mazepin,2021-05-20_23:41:03,5.3,1.0,0.0,5,0,48
5,Raikkonen,2021-05-20_23:41:03,9.3,1.0,0.0,13,0,31
6,Hamilton,2021-05-20_23:41:03,33.3,1.0,0.0,28,24,0
7,Vettel,2021-05-20_23:41:03,14.9,1.0,-0.1,11,0,25
8,Tsunoda,2021-05-20_23:41:03,8.7,1.0,-0.2,24,0,74
9,Verstappen,2021-05-20_23:41:03,25.4,1.0,0.1,56,5,0
10,Mercedes,2021-05-20_23:41:03,37.6,1.0,0.0,10,0,96
11,Aston Martin,2021-05-20_23:41:03,16.5,1.0,0.0,5,0,84
12,Haas,2021-05-20_23:41:03,6.1,1.0,0.0,4,0,14
13,Latifi,2021-05-20_23:41:03,6.4,1.0,0.0,4,0,25
14,Russell,2021-05-20_23:41:03,6.2,1.0,-0.1,42,0,4
15,Alonso,2021-05-20_23:41:03,14.9,1.0,-0.1,10,0,61
16,McLaren,2021-05-20_23:41:03,18.9,1.0,0.0,29,0,58
17,Ricciardo,2021-05-20_23:41:03,16.2,1.0,0.0,29,60,0
18,Leclerc,2021-05-20_23:41:03,18.2,1.0,0.2,41,8,0
19,Ocon,2021-05-20_23:41:03,10.6,1.0,0.3,25,33,0
20,Schumacher,2021-05-20_23:41:03,5.9,1.0,0.1,29,35,0
21,Bottas,2021-05-20_23:41:03,23.2,1.0,-0.1,11,0,39
22,Ferrari,2021-05-20_23:41:03,18.8,1.0,0.1,11,65,0
23,Red Bull,2021-05-20_23:41:03,26.1,1.0,0.0,31,0,30
24,Stroll,2021-05-20_23:41:03,13.4,1.0,-0.1,8,0,4
25,Williams,2021-05-20_23:41:03,6.3,1.0,0.0,4,0,34
26,Norris,2021-05-20_23:41:03,13.9,1.0,0.0,63,14,0
27,Giovinazzi,2021-05-20_23:41:03,7.8,1.0,0.0,7,0,36
28,Sainz,2021-05-20_23:41:03,14.3,1.0,0.0,26,0,1
29,Alfa Romeo,2021-05-20_23:41:03,9.1,1.0,0.2,4,45,0
