,name,request_time,price,chance_of_playing,weekly_price_change,current_selection_percentage,probability_price_up_percentage,probability_price_down_percentage
0,Mercedes,2021-04-09_11:30:03,37.9,1.0,-0.1,12,0,50
1,McLaren,2021-04-09_11:30:03,18.9,1.0,0.0,29,0,22
2,Red Bull,2021-04-09_11:30:03,26.0,1.0,0.100000000000001,31,37,0
3,Alfa Romeo,2021-04-09_11:30:03,8.9,1.0,0.0,1,0,0
4,Stroll,2021-04-09_11:30:03,13.8,1.0,-0.0999999999999996,10,0,72
5,Bottas,2021-04-09_11:30:03,23.5,1.0,-0.100000000000001,12,0,32
6,Vettel,2021-04-09_11:30:03,15.7,1.0,-0.5,16,0,60
7,Mazepin,2021-04-09_11:30:03,5.4,1.0,-0.0999999999999996,5,0,51
8,Tsunoda,2021-04-09_11:30:03,9.2,1.0,0.4,31,53,0
9,Haas,2021-04-09_11:30:03,6.1,1.0,0.0,1,0,19
10,Aston Martin,2021-04-09_11:30:03,17.1,1.0,-0.5,7,0,26
11,Williams,2021-04-09_11:30:03,6.3,1.0,0.0,1,0,28
12,Raikkonen,2021-04-09_11:30:03,9.5,1.0,-0.1,15,0,27
13,Schumacher,2021-04-09_11:30:03,5.8,1.0,0.0,26,0,24
14,Verstappen,2021-04-09_11:30:03,25.0,1.0,0.2,52,64,0
15,Perez,2021-04-09_11:30:03,18.3,1.0,-0.0999999999999979,32,24,0
16,Latifi,2021-04-09_11:30:03,6.5,1.0,0.0,4,0,48
17,Russell,2021-04-09_11:30:03,6.2,1.0,0.0,42,0,0
18,Alpine,2021-04-09_11:30:03,15.2,1.0,-0.2,3,0,42
19,Ferrari,2021-04-09_11:30:03,18.4,1.0,0.3,9,27,0
20,Leclerc,2021-04-09_11:30:03,17.2,1.0,0.4,30,45,0
21,Alonso,2021-04-09_11:30:03,15.3,1.0,-0.3,13,0,6
22,Sainz,2021-04-09_11:30:03,14.4,1.0,0.0,26,0,90
23,Norris,2021-04-09_11:30:03,13.3,1.0,0.2,54,64,0
24,AlphaTauri,2021-04-09_11:30:03,13.0,1.0,0.3,7,46,0
25,Giovinazzi,2021-04-09_11:30:03,7.9,1.0,0.0,8,0,57
26,Ricciardo,2021-04-09_11:30:03,17.0,1.0,-0.3,36,0,32
27,Hamilton,2021-04-09_11:30:03,33.5,1.0,0.0,28,0,84
28,Ocon,2021-04-09_11:30:03,9.8,1.0,-0.3,15,0,9
29,Gasly,2021-04-09_11:30:03,11.8,1.0,0.1,43,0,34
