,name,request_time,price,chance_of_playing,weekly_price_change,current_selection_percentage,probability_price_up_percentage,probability_price_down_percentage
0,Tsunoda,2021-04-11_16:00:02,9.3,1.0,0.5,32,6,0
1,Mercedes,2021-04-11_16:00:02,37.9,1.0,-0.1,12,0,69
2,McLaren,2021-04-11_16:00:02,18.9,1.0,0.0,29,0,39
3,Red Bull,2021-04-11_16:00:02,26.0,1.0,0.100000000000001,31,46,0
4,Alfa Romeo,2021-04-11_16:00:02,8.9,1.0,0.0,1,2,0
5,Stroll,2021-04-11_16:00:02,13.8,1.0,-0.0999999999999996,10,0,90
6,Bottas,2021-04-11_16:00:02,23.5,1.0,-0.100000000000001,12,0,44
7,Vettel,2021-04-11_16:00:02,15.7,1.0,-0.5,16,0,97
8,Mazepin,2021-04-11_16:00:02,5.4,1.0,-0.0999999999999996,5,0,60
9,Haas,2021-04-11_16:00:02,6.1,1.0,0.0,1,0,20
10,Aston Martin,2021-04-11_16:00:02,17.1,1.0,-0.5,7,0,61
11,Williams,2021-04-11_16:00:02,6.3,1.0,0.0,1,0,31
12,Raikkonen,2021-04-11_16:00:02,9.5,1.0,-0.1,15,0,36
13,Schumacher,2021-04-11_16:00:02,5.8,1.0,0.0,26,0,38
14,Verstappen,2021-04-11_16:00:02,25.0,1.0,0.2,53,84,0
15,Latifi,2021-04-11_16:00:02,6.5,1.0,0.0,4,0,53
16,Russell,2021-04-11_16:00:02,6.2,1.0,0.0,42,3,0
17,Perez,2021-04-11_16:00:02,18.3,1.0,-0.0999999999999979,32,51,0
18,Alpine,2021-04-11_16:00:02,15.2,1.0,-0.2,3,0,57
19,Ferrari,2021-04-11_16:00:02,18.4,1.0,0.3,9,61,0
20,Alonso,2021-04-11_16:00:02,15.3,1.0,-0.3,13,0,28
21,Leclerc,2021-04-11_16:00:02,17.2,1.0,0.4,30,75,0
22,Norris,2021-04-11_16:00:02,13.3,1.0,0.2,55,85,0
23,AlphaTauri,2021-04-11_16:00:02,13.0,1.0,0.3,7,94,0
24,Giovinazzi,2021-04-11_16:00:02,7.9,1.0,0.0,8,0,65
25,Ricciardo,2021-04-11_16:00:02,17.0,1.0,-0.3,36,0,61
26,Hamilton,2021-04-11_16:00:02,33.5,1.0,0.0,28,0,94
27,Sainz,2021-04-11_16:00:02,14.3,1.0,-0.1,26,0,3
28,Ocon,2021-04-11_16:00:02,9.8,1.0,-0.3,15,0,25
29,Gasly,2021-04-11_16:00:02,11.8,1.0,0.1,42,0,63
