,name,request_time,price,chance_of_playing,weekly_price_change,current_selection_percentage,probability_price_up_percentage,probability_price_down_percentage
0,AlphaTauri,2021-07-02_23:41:03,12.7,1.0,0.1,6,46,0
1,Perez,2021-07-02_23:41:03,18.8,1.0,0.4,37,72,0
2,Alpine,2021-07-02_23:41:03,15.1,1.0,-0.1,4,0,17
3,Williams,2021-07-02_23:41:03,6.3,1.0,0.0,4,0,46
4,Norris,2021-07-02_23:41:03,14.0,1.0,0.1,65,47,0
5,Bottas,2021-07-02_23:41:03,23.0,1.0,0.0,10,0,62
6,Ferrari,2021-07-02_23:41:03,18.7,1.0,-0.6,10,0,85
7,Stroll,2021-07-02_23:41:03,13.3,1.0,0.0,8,29,0
8,Mazepin,2021-07-02_23:41:03,5.3,1.0,0.0,5,0,11
9,Hamilton,2021-07-02_23:41:03,33.0,1.0,-0.1,24,0,10
10,Raikkonen,2021-07-02_23:41:03,9.3,1.0,0.0,13,0,62
11,Gasly,2021-07-02_23:41:03,11.9,1.0,0.1,46,51,0
12,Vettel,2021-07-02_23:41:03,15.2,1.0,0.2,14,24,0
13,Tsunoda,2021-07-02_23:41:03,8.5,1.0,0.1,23,28,0
14,Red Bull,2021-07-02_23:41:03,26.6,1.0,0.1,35,26,0
15,Sainz,2021-07-02_23:41:03,14.3,1.0,-0.4,26,0,50
16,Alfa Romeo,2021-07-02_23:41:03,9.2,1.0,0.0,4,0,71
17,Mercedes,2021-07-02_23:41:03,37.2,1.0,-0.1,9,0,52
18,Aston Martin,2021-07-02_23:41:03,16.4,1.0,0.0,5,66,0
19,Haas,2021-07-02_23:41:03,6.1,1.0,0.0,4,0,26
20,Latifi,2021-07-02_23:41:03,6.4,1.0,0.0,4,0,50
21,Russell,2021-07-02_23:41:03,6.2,1.0,0.0,41,0,67
22,Alonso,2021-07-02_23:41:03,14.8,1.0,0.0,10,45,0
23,Verstappen,2021-07-02_23:41:03,25.7,1.0,0.1,60,3,0
24,McLaren,2021-07-02_23:41:03,18.6,1.0,0.0,28,21,0
25,Giovinazzi,2021-07-02_23:41:03,8.0,1.0,0.0,9,31,0
26,Ricciardo,2021-07-02_23:41:03,15.9,1.0,0.0,26,0,43
27,Leclerc,2021-07-02_23:41:03,17.6,1.0,-0.4,34,0,90
28,Schumacher,2021-07-02_23:41:03,5.8,1.0,0.0,26,0,15
29,Ocon,2021-07-02_23:41:03,10.3,1.0,-0.1,21,0,81
