,name,request_time,price,chance_of_playing,weekly_price_change,current_selection_percentage,probability_price_up_percentage,probability_price_down_percentage
0,AlphaTauri,2021-05-25_19:41:03,12.6,1.0,-0.2,5,0,32
1,Perez,2021-05-25_19:41:03,18.0,1.0,-0.2,29,0,61
2,Alpine,2021-05-25_19:41:03,15.2,1.0,0.0,4,0,58
3,Gasly,2021-05-25_19:41:03,11.5,1.0,-0.2,40,23,0
4,Verstappen,2021-05-25_19:41:03,25.4,1.0,0.1,57,69,0
5,Giovinazzi,2021-05-25_19:41:03,7.9,1.0,0.1,9,40,0
6,Sainz,2021-05-25_19:41:03,14.6,1.0,0.1,30,73,0
7,Alfa Romeo,2021-05-25_19:41:03,9.2,1.0,0.3,4,0,4
8,Mazepin,2021-05-25_19:41:03,5.3,1.0,0.0,5,0,14
9,Hamilton,2021-05-25_19:41:03,33.3,1.0,0.0,27,0,48
10,Raikkonen,2021-05-25_19:41:03,9.4,1.0,0.1,14,38,0
11,Vettel,2021-05-25_19:41:03,14.9,1.0,-0.1,12,0,13
12,Tsunoda,2021-05-25_19:41:03,8.5,1.0,-0.1,23,0,35
13,Red Bull,2021-05-25_19:41:03,26.0,1.0,-0.1,31,0,59
14,Stroll,2021-05-25_19:41:03,13.4,1.0,-0.1,8,0,41
15,Williams,2021-05-25_19:41:03,6.3,1.0,0.0,4,0,34
16,Norris,2021-05-25_19:41:03,13.9,1.0,0.0,63,31,0
17,Mercedes,2021-05-25_19:41:03,37.5,1.0,-0.1,10,0,91
18,Haas,2021-05-25_19:41:03,6.1,1.0,0.0,4,0,18
19,Aston Martin,2021-05-25_19:41:03,16.4,1.0,-0.1,5,0,0
20,Latifi,2021-05-25_19:41:03,6.4,1.0,0.0,4,0,23
21,Russell,2021-05-25_19:41:03,6.2,1.0,-0.1,42,2,0
22,Alonso,2021-05-25_19:41:03,14.8,1.0,-0.2,10,0,57
23,McLaren,2021-05-25_19:41:03,18.7,1.0,-0.2,28,0,67
24,Ricciardo,2021-05-25_19:41:03,16.2,1.0,0.0,28,0,62
25,Leclerc,2021-05-25_19:41:03,18.3,1.0,0.3,42,69,0
26,Schumacher,2021-05-25_19:41:03,5.8,1.0,-0.1,27,0,2
27,Ocon,2021-05-25_19:41:03,10.5,1.0,0.2,23,0,34
28,Bottas,2021-05-25_19:41:03,23.1,1.0,-0.1,10,0,13
29,Ferrari,2021-05-25_19:41:03,19.6,1.0,0.1,15,72,0
