,name,request_time,price,chance_of_playing,weekly_price_change,current_selection_percentage,probability_price_up_percentage,probability_price_down_percentage
0,AlphaTauri,2021-07-01_17:01:03,12.7,1.0,0.1,6,41,0
1,Perez,2021-07-01_17:01:03,18.8,1.0,0.4,37,57,0
2,Alpine,2021-07-01_17:01:03,15.1,1.0,-0.1,4,0,3
3,Williams,2021-07-01_17:01:03,6.3,1.0,0.0,4,0,46
4,Norris,2021-07-01_17:01:03,14.0,1.0,0.1,64,35,0
5,Bottas,2021-07-01_17:01:03,23.0,1.0,0.0,10,0,63
6,Ferrari,2021-07-01_17:01:03,18.7,1.0,-0.6,10,0,89
7,Stroll,2021-07-01_17:01:03,13.3,1.0,0.0,8,20,0
8,Mazepin,2021-07-01_17:01:03,5.3,1.0,0.0,5,0,12
9,Hamilton,2021-07-01_17:01:03,33.1,1.0,0.0,25,0,99
10,Raikkonen,2021-07-01_17:01:03,9.3,1.0,0.0,13,0,66
11,Gasly,2021-07-01_17:01:03,11.9,1.0,0.1,46,46,0
12,Vettel,2021-07-01_17:01:03,15.2,1.0,0.2,14,31,0
13,Tsunoda,2021-07-01_17:01:03,8.5,1.0,0.1,23,13,0
14,Red Bull,2021-07-01_17:01:03,26.6,1.0,0.1,35,4,0
15,Sainz,2021-07-01_17:01:03,14.3,1.0,-0.4,26,0,59
16,Alfa Romeo,2021-07-01_17:01:03,9.2,1.0,0.0,4,0,71
17,Mercedes,2021-07-01_17:01:03,37.2,1.0,-0.1,9,0,44
18,Aston Martin,2021-07-01_17:01:03,16.4,1.0,0.0,5,65,0
19,Haas,2021-07-01_17:01:03,6.1,1.0,0.0,4,0,26
20,Latifi,2021-07-01_17:01:03,6.4,1.0,0.0,4,0,49
21,Russell,2021-07-01_17:01:03,6.2,1.0,0.0,40,0,69
22,Alonso,2021-07-01_17:01:03,14.8,1.0,0.0,10,49,0
23,Verstappen,2021-07-01_17:01:03,25.6,1.0,0.1,60,91,0
24,McLaren,2021-07-01_17:01:03,18.6,1.0,0.0,28,39,0
25,Giovinazzi,2021-07-01_17:01:03,8.0,1.0,0.0,9,37,0
26,Ricciardo,2021-07-01_17:01:03,15.9,1.0,0.0,26,0,5
27,Leclerc,2021-07-01_17:01:03,17.6,1.0,-0.4,34,0,88
28,Schumacher,2021-07-01_17:01:03,5.8,1.0,0.0,26,0,18
29,Ocon,2021-07-01_17:01:03,10.3,1.0,-0.1,21,0,43
