,name,request_time,price,chance_of_playing,weekly_price_change,current_selection_percentage,probability_price_up_percentage,probability_price_down_percentage
0,Norris,2021-08-30_15:51:02,14.2,1.0,0.0,66,14,0
1,Gasly,2021-08-30_15:51:02,11.9,1.0,0.0,45,0,3
2,Vettel,2021-08-30_15:51:02,15.2,1.0,0.0,14,26,0
3,Tsunoda,2021-08-30_15:51:02,8.4,1.0,-0.1,21,0,48
4,Ocon,2021-08-30_15:51:02,10.2,1.0,0.2,20,9,0
5,Bottas,2021-08-30_15:51:02,23.0,1.0,0.0,10,0,38
6,Williams,2021-08-30_15:51:02,6.3,1.0,0.0,4,0,20
7,Ferrari,2021-08-30_15:51:02,18.8,1.0,0.1,11,0,64
8,Red Bull,2021-08-30_15:51:02,26.6,1.0,0.1,35,6,0
9,Stroll,2021-08-30_15:51:02,13.3,1.0,0.0,7,0,8
10,Mazepin,2021-08-30_15:51:02,5.3,1.0,0.0,5,0,10
11,Mercedes,2021-08-30_15:51:02,37.1,1.0,0.0,8,0,11
12,AlphaTauri,2021-08-30_15:51:02,12.7,1.0,0.0,5,0,86
13,Haas,2021-08-30_15:51:02,6.1,1.0,0.0,4,0,26
14,Aston Martin,2021-08-30_15:51:02,16.5,1.0,0.1,5,0,50
15,Perez,2021-08-30_15:51:02,18.5,1.0,-0.2,34,45,0
16,Alpine,2021-08-30_15:51:02,15.1,1.0,0.0,4,55,0
17,Raikkonen,2021-08-30_15:51:02,9.2,1.0,-0.1,12,0,5
18,Hamilton,2021-08-30_15:51:02,33.0,1.0,0.0,24,0,12
19,McLaren,2021-08-30_15:51:02,18.7,1.0,0.1,28,0,52
20,Ricciardo,2021-08-30_15:51:02,15.7,1.0,-0.1,24,0,39
21,Schumacher,2021-08-30_15:51:02,5.8,1.0,0.0,26,0,25
22,Leclerc,2021-08-30_15:51:02,17.6,1.0,0.0,35,0,41
23,Giovinazzi,2021-08-30_15:51:02,8.0,1.0,-0.1,9,0,47
24,Sainz,2021-08-30_15:51:02,14.5,1.0,0.1,29,52,0
25,Alfa Romeo,2021-08-30_15:51:02,9.1,1.0,-0.1,4,0,0
26,Latifi,2021-08-30_15:51:02,6.4,1.0,0.0,4,0,49
27,Russell,2021-08-30_15:51:02,6.2,1.0,0.0,42,22,0
28,Alonso,2021-08-30_15:51:02,15.0,1.0,0.1,11,53,0
29,Verstappen,2021-08-30_15:51:02,25.7,1.0,0.0,61,56,0
