,name,request_time,price,chance_of_playing,weekly_price_change,current_selection_percentage,probability_price_up_percentage,probability_price_down_percentage
0,AlphaTauri,2021-04-17_19:11:03,13.2,1.0,0.0,7,9,0
1,Raikkonen,2021-04-17_19:11:03,9.4,1.0,0.0,14,0,20
2,Ocon,2021-04-17_19:11:03,9.7,1.0,0.0,14,0,77
3,Mazepin,2021-04-17_19:11:03,5.3,1.0,0.0,5,0,13
4,Mercedes,2021-04-17_19:11:03,37.8,1.0,0.0,11,0,39
5,Haas,2021-04-17_19:11:03,6.1,1.0,0.0,4,0,26
6,Hamilton,2021-04-17_19:11:03,33.4,1.0,0.0,28,0,44
7,Vettel,2021-04-17_19:11:03,15.4,1.0,0.0,14,0,32
8,Alonso,2021-04-17_19:11:03,15.2,1.0,0.0,12,0,80
9,Verstappen,2021-04-17_19:11:03,25.1,1.0,0.0,54,55,0
10,McLaren,2021-04-17_19:11:03,18.7,1.0,0.0,28,0,45
11,Schumacher,2021-04-17_19:11:03,5.7,1.0,0.0,25,0,1
12,Bottas,2021-04-17_19:11:03,23.5,1.0,0.0,13,0,0
13,Red Bull,2021-04-17_19:11:03,26.0,1.0,0.0,32,84,0
14,Williams,2021-04-17_19:11:03,6.3,1.0,0.0,4,0,35
15,Norris,2021-04-17_19:11:03,13.4,1.0,0.0,56,66,0
16,Alfa Romeo,2021-04-17_19:11:03,8.9,1.0,0.0,4,1,0
17,Alpine,2021-04-17_19:11:03,15.1,1.0,0.0,4,0,58
18,Latifi,2021-04-17_19:11:03,6.5,1.0,0.0,4,0,51
19,Russell,2021-04-17_19:11:03,6.2,1.0,0.0,43,64,0
20,Ferrari,2021-04-17_19:11:03,18.7,1.0,0.0,11,22,0
21,Tsunoda,2021-04-17_19:11:03,9.4,1.0,0.0,35,20,0
22,Ricciardo,2021-04-17_19:11:03,16.7,1.0,0.0,33,0,33
23,Leclerc,2021-04-17_19:11:03,17.4,1.0,0.0,33,67,0
24,Stroll,2021-04-17_19:11:03,13.6,1.0,0.0,9,0,29
25,Giovinazzi,2021-04-17_19:11:03,7.8,1.0,0.0,8,0,14
26,Aston Martin,2021-04-17_19:11:03,16.9,1.0,0.0,6,0,77
27,Perez,2021-04-17_19:11:03,18.4,1.0,0.0,33,5,0
28,Gasly,2021-04-17_19:11:03,11.7,1.0,0.0,43,42,0
29,Sainz,2021-04-17_19:11:03,14.3,1.0,0.0,26,0,22
