,name,request_time,price,chance_of_playing,weekly_price_change,current_selection_percentage,probability_price_up_percentage,probability_price_down_percentage
0,Red Bull,2021-04-24_18:31:03,26.1,1.0,0.1,32,3,0
1,Stroll,2021-04-24_18:31:03,13.6,1.0,0.0,9,4,0
2,Williams,2021-04-24_18:31:03,6.3,1.0,0.0,4,0,33
3,AlphaTauri,2021-04-24_18:31:03,13.2,1.0,0.0,7,0,53
4,Perez,2021-04-24_18:31:03,18.3,1.0,-0.1,32,0,11
5,Alpine,2021-04-24_18:31:03,15.0,1.0,-0.1,4,0,24
6,Raikkonen,2021-04-24_18:31:03,9.4,1.0,0.0,14,0,15
7,Hamilton,2021-04-24_18:31:03,33.4,1.0,0.0,27,0,74
8,Gasly,2021-04-24_18:31:03,11.7,1.0,0.0,43,84,0
9,Vettel,2021-04-24_18:31:03,15.2,1.0,-0.2,13,0,43
10,Mazepin,2021-04-24_18:31:03,5.3,1.0,0.0,5,0,26
11,Tsunoda,2021-04-24_18:31:03,9.4,1.0,0.0,34,0,33
12,Latifi,2021-04-24_18:31:03,6.5,1.0,0.0,4,0,69
13,Russell,2021-04-24_18:31:03,6.2,1.0,0.0,44,77,0
14,Alonso,2021-04-24_18:31:03,15.0,1.0,-0.2,11,0,38
15,Verstappen,2021-04-24_18:31:03,25.2,1.0,0.1,55,75,0
16,McLaren,2021-04-24_18:31:03,18.7,1.0,0.0,29,64,0
17,Ricciardo,2021-04-24_18:31:03,16.6,1.0,-0.1,31,0,82
18,Leclerc,2021-04-24_18:31:03,17.7,1.0,0.3,36,15,0
19,Schumacher,2021-04-24_18:31:03,5.7,1.0,0.0,25,0,23
20,Ocon,2021-04-24_18:31:03,9.6,1.0,-0.1,13,1,0
21,Bottas,2021-04-24_18:31:03,23.4,1.0,-0.1,12,0,59
22,Ferrari,2021-04-24_18:31:03,18.8,1.0,0.1,11,50,0
23,Mercedes,2021-04-24_18:31:03,37.7,1.0,-0.1,11,0,60
24,Haas,2021-04-24_18:31:03,6.1,1.0,0.0,4,0,27
25,Aston Martin,2021-04-24_18:31:03,16.7,1.0,-0.2,5,0,15
26,Norris,2021-04-24_18:31:03,13.6,1.0,0.2,59,64,0
27,Giovinazzi,2021-04-24_18:31:03,7.8,1.0,0.0,7,0,39
28,Sainz,2021-04-24_18:31:03,14.3,1.0,0.0,26,7,0
29,Alfa Romeo,2021-04-24_18:31:03,8.9,1.0,0.0,4,14,0
