,name,request_time,price,chance_of_playing,weekly_price_change,current_selection_percentage,probability_price_up_percentage,probability_price_down_percentage
0,AlphaTauri,2021-05-07_22:51:02,12.9,1.0,-0.2,6,0,68
1,Perez,2021-05-07_22:51:02,18.3,1.0,0.0,31,0,63
2,Alpine,2021-05-07_22:51:02,15.2,1.0,0.2,4,67,0
3,Hamilton,2021-05-07_22:51:02,33.3,1.0,-0.1,27,8,0
4,Raikkonen,2021-05-07_22:51:02,9.3,1.0,-0.1,13,0,42
5,Gasly,2021-05-07_22:51:02,11.7,1.0,0.0,41,0,54
6,Red Bull,2021-05-07_22:51:02,26.1,1.0,0.0,32,0,5
7,Stroll,2021-05-07_22:51:02,13.6,1.0,0.0,9,0,89
8,Mazepin,2021-05-07_22:51:02,5.3,1.0,0.0,5,0,46
9,Vettel,2021-05-07_22:51:02,15.0,1.0,-0.1,12,0,49
10,Tsunoda,2021-05-07_22:51:02,9.0,1.0,-0.3,28,0,62
11,Russell,2021-05-07_22:51:02,6.3,1.0,0.1,43,0,44
12,Alonso,2021-05-07_22:51:02,15.0,1.0,0.0,11,0,73
13,Verstappen,2021-05-07_22:51:02,25.3,1.0,0.0,56,69,0
14,McLaren,2021-05-07_22:51:02,18.9,1.0,0.1,30,34,0
15,Ricciardo,2021-05-07_22:51:02,16.3,1.0,-0.2,29,0,48
16,Schumacher,2021-05-07_22:51:02,5.7,1.0,0.0,26,73,0
17,Ocon,2021-05-07_22:51:02,10.2,1.0,0.4,21,75,0
18,Leclerc,2021-05-07_22:51:02,17.9,1.0,0.1,38,51,0
19,Bottas,2021-05-07_22:51:02,23.3,1.0,0.0,11,0,70
20,Ferrari,2021-05-07_22:51:02,18.7,1.0,-0.2,11,0,11
21,Mercedes,2021-05-07_22:51:02,37.6,1.0,0.0,10,0,63
22,Haas,2021-05-07_22:51:02,6.1,1.0,0.0,4,0,26
23,Aston Martin,2021-05-07_22:51:02,16.5,1.0,-0.1,5,0,4
24,Latifi,2021-05-07_22:51:02,6.4,1.0,-0.1,4,0,16
25,Williams,2021-05-07_22:51:02,6.3,1.0,0.0,4,0,40
26,Giovinazzi,2021-05-07_22:51:02,7.8,1.0,0.0,7,0,55
27,Norris,2021-05-07_22:51:02,13.8,1.0,0.1,62,57,0
28,Sainz,2021-05-07_22:51:02,14.4,1.0,0.1,26,0,95
29,Alfa Romeo,2021-05-07_22:51:02,8.9,1.0,0.0,4,35,0
