,name,request_time,price,chance_of_playing,weekly_price_change,current_selection_percentage,probability_price_up_percentage,probability_price_down_percentage
0,AlphaTauri,2021-05-05_11:21:03,12.9,1.0,-0.2,6,0,18
1,Perez,2021-05-05_11:21:03,18.3,1.0,0.0,31,0,46
2,Alpine,2021-05-05_11:21:03,15.2,1.0,0.2,4,37,0
3,Raikkonen,2021-05-05_11:21:03,9.3,1.0,-0.1,13,0,1
4,Hamilton,2021-05-05_11:21:03,33.3,1.0,-0.1,27,0,1
5,Gasly,2021-05-05_11:21:03,11.7,1.0,0.0,42,0,9
6,Red Bull,2021-05-05_11:21:03,26.1,1.0,0.0,32,0,8
7,Stroll,2021-05-05_11:21:03,13.6,1.0,0.0,9,0,42
8,Mazepin,2021-05-05_11:21:03,5.3,1.0,0.0,5,0,43
9,Vettel,2021-05-05_11:21:03,15.0,1.0,-0.1,12,0,21
10,Tsunoda,2021-05-05_11:21:03,9.1,1.0,-0.2,29,0,94
11,Russell,2021-05-05_11:21:03,6.3,1.0,0.1,44,0,22
12,Alonso,2021-05-05_11:21:03,15.0,1.0,0.0,10,0,90
13,Verstappen,2021-05-05_11:21:03,25.3,1.0,0.0,56,64,0
14,McLaren,2021-05-05_11:21:03,18.9,1.0,0.1,30,6,0
15,Ricciardo,2021-05-05_11:21:03,16.4,1.0,-0.1,30,0,87
16,Schumacher,2021-05-05_11:21:03,5.7,1.0,0.0,25,21,0
17,Leclerc,2021-05-05_11:21:03,17.9,1.0,0.1,38,14,0
18,Ocon,2021-05-05_11:21:03,10.1,1.0,0.3,19,84,0
19,Bottas,2021-05-05_11:21:03,23.3,1.0,0.0,11,0,68
20,Ferrari,2021-05-05_11:21:03,18.8,1.0,-0.1,11,0,65
21,Mercedes,2021-05-05_11:21:03,37.6,1.0,0.0,10,0,59
22,Aston Martin,2021-05-05_11:21:03,16.6,1.0,0.0,5,0,68
23,Haas,2021-05-05_11:21:03,6.1,1.0,0.0,4,0,27
24,Latifi,2021-05-05_11:21:03,6.4,1.0,-0.1,4,0,9
25,Williams,2021-05-05_11:21:03,6.3,1.0,0.0,4,0,37
26,Giovinazzi,2021-05-05_11:21:03,7.8,1.0,0.0,7,0,63
27,Norris,2021-05-05_11:21:03,13.8,1.0,0.1,61,10,0
28,Sainz,2021-05-05_11:21:03,14.4,1.0,0.1,27,0,55
29,Alfa Romeo,2021-05-05_11:21:03,8.9,1.0,0.0,4,33,0
