,name,request_time,price,chance_of_playing,weekly_price_change,current_selection_percentage,probability_price_up_percentage,probability_price_down_percentage
0,AlphaTauri,2021-05-24_11:21:03,12.6,1.0,-0.2,5,0,27
1,Perez,2021-05-24_11:21:03,18.0,1.0,-0.2,29,0,61
2,Alpine,2021-05-24_11:21:03,15.2,1.0,0.0,4,0,50
3,Gasly,2021-05-24_11:21:03,11.5,1.0,-0.2,39,10,0
4,Verstappen,2021-05-24_11:21:03,25.4,1.0,0.1,57,60,0
5,Giovinazzi,2021-05-24_11:21:03,7.9,1.0,0.1,8,16,0
6,Sainz,2021-05-24_11:21:03,14.6,1.0,0.1,30,47,0
7,Alfa Romeo,2021-05-24_11:21:03,9.2,1.0,0.3,4,0,3
8,Mazepin,2021-05-24_11:21:03,5.3,1.0,0.0,5,0,15
9,Hamilton,2021-05-24_11:21:03,33.3,1.0,0.0,27,0,39
10,Raikkonen,2021-05-24_11:21:03,9.4,1.0,0.1,14,39,0
11,Vettel,2021-05-24_11:21:03,14.9,1.0,-0.1,11,0,20
12,Tsunoda,2021-05-24_11:21:03,8.5,1.0,-0.1,23,0,16
13,Red Bull,2021-05-24_11:21:03,26.0,1.0,-0.1,30,0,68
14,Stroll,2021-05-24_11:21:03,13.4,1.0,-0.1,8,0,36
15,Williams,2021-05-24_11:21:03,6.3,1.0,0.0,4,0,33
16,Norris,2021-05-24_11:21:03,13.9,1.0,0.0,63,18,0
17,Mercedes,2021-05-24_11:21:03,37.5,1.0,-0.1,10,0,79
18,Haas,2021-05-24_11:21:03,6.1,1.0,0.0,4,0,16
19,Aston Martin,2021-05-24_11:21:03,16.4,1.0,-0.1,5,0,1
20,Latifi,2021-05-24_11:21:03,6.4,1.0,0.0,4,0,22
21,Russell,2021-05-24_11:21:03,6.2,1.0,-0.1,42,2,0
22,Alonso,2021-05-24_11:21:03,14.8,1.0,-0.2,10,0,46
23,McLaren,2021-05-24_11:21:03,18.7,1.0,-0.2,28,0,57
24,Ricciardo,2021-05-24_11:21:03,16.2,1.0,0.0,28,0,28
25,Schumacher,2021-05-24_11:21:03,5.9,1.0,0.1,27,0,91
26,Ocon,2021-05-24_11:21:03,10.5,1.0,0.2,23,0,31
27,Leclerc,2021-05-24_11:21:03,18.3,1.0,0.3,42,67,0
28,Bottas,2021-05-24_11:21:03,23.1,1.0,-0.1,10,0,7
29,Ferrari,2021-05-24_11:21:03,19.6,1.0,0.1,15,49,0
