,name,request_time,price,chance_of_playing,weekly_price_change,current_selection_percentage,probability_price_up_percentage,probability_price_down_percentage
0,AlphaTauri,2021-07-11_07:11:03,12.7,1.0,0.0,6,31,0
1,Perez,2021-07-11_07:11:03,18.8,1.0,0.1,37,61,0
2,Alpine,2021-07-11_07:11:03,15.1,1.0,-0.1,4,0,63
3,Tsunoda,2021-07-11_07:11:03,8.5,1.0,0.1,23,25,0
4,Bottas,2021-07-11_07:11:03,23.0,1.0,0.0,10,0,45
5,Ferrari,2021-07-11_07:11:03,18.7,1.0,0.0,11,0,53
6,Red Bull,2021-07-11_07:11:03,26.7,1.0,0.1,36,16,0
7,Mazepin,2021-07-11_07:11:03,5.3,1.0,0.0,5,0,10
8,Raikkonen,2021-07-11_07:11:03,9.3,1.0,0.0,13,0,58
9,Hamilton,2021-07-11_07:11:03,33.0,1.0,-0.1,24,0,53
10,Gasly,2021-07-11_07:11:03,11.9,1.0,0.0,46,69,0
11,Vettel,2021-07-11_07:11:03,15.2,1.0,0.0,13,0,14
12,Mercedes,2021-07-11_07:11:03,37.2,1.0,0.0,9,0,74
13,Aston Martin,2021-07-11_07:11:03,16.4,1.0,0.0,5,69,0
14,Haas,2021-07-11_07:11:03,6.1,1.0,0.0,4,0,27
15,McLaren,2021-07-11_07:11:03,18.6,1.0,0.0,27,0,39
16,Ricciardo,2021-07-11_07:11:03,15.8,1.0,-0.1,25,0,44
17,Ocon,2021-07-11_07:11:03,10.1,1.0,-0.1,19,0,51
18,Schumacher,2021-07-11_07:11:03,5.8,1.0,0.0,27,3,0
19,Leclerc,2021-07-11_07:11:03,17.5,1.0,-0.1,34,0,24
20,Norris,2021-07-11_07:11:03,14.1,1.0,0.1,65,16,0
21,Giovinazzi,2021-07-11_07:11:03,8.0,1.0,0.0,9,74,0
22,Latifi,2021-07-11_07:11:03,6.4,1.0,0.0,4,0,56
23,Russell,2021-07-11_07:11:03,6.2,1.0,0.0,41,0,46
24,Alonso,2021-07-11_07:11:03,14.8,1.0,0.0,10,28,0
25,Verstappen,2021-07-11_07:11:03,25.7,1.0,0.1,61,55,0
26,Stroll,2021-07-11_07:11:03,13.3,1.0,0.0,8,34,0
27,Williams,2021-07-11_07:11:03,6.3,1.0,0.0,4,0,45
28,Sainz,2021-07-11_07:11:03,14.3,1.0,0.0,27,55,0
29,Alfa Romeo,2021-07-11_07:11:03,9.2,1.0,0.0,4,0,77
