,name,request_time,price,chance_of_playing,weekly_price_change,current_selection_percentage,probability_price_up_percentage,probability_price_down_percentage
0,Bottas,2021-04-16_12:31:02,23.5,1.0,-0.100000000000001,12,0,77
1,Williams,2021-04-16_12:31:02,6.3,1.0,0.0,4,0,35
2,Sainz,2021-04-16_12:31:02,14.3,1.0,-0.1,26,0,37
3,Ocon,2021-04-16_12:31:02,9.7,1.0,-0.4,14,0,9
4,Mercedes,2021-04-16_12:31:02,37.8,1.0,-0.2,11,0,29
5,Hamilton,2021-04-16_12:31:02,33.4,1.0,-0.1,28,0,36
6,Alpine,2021-04-16_12:31:02,15.1,1.0,-0.3,4,0,21
7,Ferrari,2021-04-16_12:31:02,18.5,1.0,0.4,9,79,0
8,Mazepin,2021-04-16_12:31:02,5.4,1.0,-0.0999999999999996,5,0,83
9,Haas,2021-04-16_12:31:02,6.1,1.0,0.0,4,0,24
10,Latifi,2021-04-16_12:31:02,6.5,1.0,0.0,4,0,60
11,Schumacher,2021-04-16_12:31:02,5.8,1.0,0.0,26,0,77
12,Raikkonen,2021-04-16_12:31:02,9.5,1.0,-0.1,14,0,67
13,Norris,2021-04-16_12:31:02,13.4,1.0,0.3,56,46,0
14,Vettel,2021-04-16_12:31:02,15.5,1.0,-0.7,15,0,36
15,Alfa Romeo,2021-04-16_12:31:02,8.9,1.0,0.0,4,3,0
16,AlphaTauri,2021-04-16_12:31:02,13.1,1.0,0.4,7,92,0
17,Giovinazzi,2021-04-16_12:31:02,7.9,1.0,0.0,8,0,86
18,Ricciardo,2021-04-16_12:31:02,16.9,1.0,-0.4,35,0,69
19,Stroll,2021-04-16_12:31:02,13.7,1.0,-0.2,9,0,56
20,Perez,2021-04-16_12:31:02,18.4,1.0,0.0,33,40,0
21,Red Bull,2021-04-16_12:31:02,26.0,1.0,0.100000000000001,31,57,0
22,Leclerc,2021-04-16_12:31:02,17.3,1.0,0.5,32,76,0
23,Tsunoda,2021-04-16_12:31:02,9.3,1.0,0.5,34,85,0
24,McLaren,2021-04-16_12:31:02,18.8,1.0,-0.1,29,0,6
25,Verstappen,2021-04-16_12:31:02,25.1,1.0,0.3,54,54,0
26,Aston Martin,2021-04-16_12:31:02,17.0,1.0,-0.6,6,0,89
27,Alonso,2021-04-16_12:31:02,15.2,1.0,-0.4,12,0,28
28,Russell,2021-04-16_12:31:02,6.2,1.0,0.0,42,17,0
29,Gasly,2021-04-16_12:31:02,11.7,1.0,0.0,42,0,17
