,name,request_time,price,chance_of_playing,weekly_price_change,current_selection_percentage,probability_price_up_percentage,probability_price_down_percentage
0,Gasly,2021-08-02_14:41:03,11.9,1.0,0.0,45,0,28
1,Vettel,2021-08-02_14:41:03,15.2,1.0,0.0,13,0,54
2,Tsunoda,2021-08-02_14:41:03,8.5,1.0,0.0,22,0,94
3,Ocon,2021-08-02_14:41:03,10.0,1.0,-0.1,19,61,0
4,Bottas,2021-08-02_14:41:03,23.1,1.0,0.1,10,0,30
5,Ferrari,2021-08-02_14:41:03,18.8,1.0,0.1,11,11,0
6,Red Bull,2021-08-02_14:41:03,26.6,1.0,-0.1,35,0,58
7,Stroll,2021-08-02_14:41:03,13.3,1.0,0.0,8,0,5
8,Williams,2021-08-02_14:41:03,6.3,1.0,0.0,4,0,36
9,Norris,2021-08-02_14:41:03,14.2,1.0,0.1,66,0,6
10,Hamilton,2021-08-02_14:41:03,33.0,1.0,0.0,24,0,19
11,Mazepin,2021-08-02_14:41:03,5.3,1.0,0.0,5,3,0
12,Mercedes,2021-08-02_14:41:03,37.1,1.0,-0.1,8,0,0
13,AlphaTauri,2021-08-02_14:41:03,12.7,1.0,0.0,5,0,59
14,Aston Martin,2021-08-02_14:41:03,16.4,1.0,0.0,5,50,0
15,Haas,2021-08-02_14:41:03,6.1,1.0,0.0,4,0,26
16,Perez,2021-08-02_14:41:03,18.6,1.0,-0.2,34,0,32
17,Alpine,2021-08-02_14:41:03,15.1,1.0,0.0,4,0,65
18,Raikkonen,2021-08-02_14:41:03,9.3,1.0,0.0,13,0,70
19,McLaren,2021-08-02_14:41:03,18.7,1.0,0.1,28,0,0
20,Ricciardo,2021-08-02_14:41:03,15.8,1.0,0.0,25,0,77
21,Schumacher,2021-08-02_14:41:03,5.8,1.0,0.0,27,0,0
22,Leclerc,2021-08-02_14:41:03,17.6,1.0,0.1,36,95,0
23,Giovinazzi,2021-08-02_14:41:03,8.1,1.0,0.1,9,0,85
24,Sainz,2021-08-02_14:41:03,14.5,1.0,0.1,28,9,0
25,Alfa Romeo,2021-08-02_14:41:03,9.2,1.0,0.0,4,0,88
26,Latifi,2021-08-02_14:41:03,6.4,1.0,0.0,4,0,57
27,Russell,2021-08-02_14:41:03,6.2,1.0,0.0,42,5,0
28,Alonso,2021-08-02_14:41:03,14.9,1.0,0.1,11,23,0
29,Verstappen,2021-08-02_14:41:03,25.7,1.0,0.0,60,36,0
