,name,request_time,price,chance_of_playing,weekly_price_change,current_selection_percentage,probability_price_up_percentage,probability_price_down_percentage
0,Stroll,2021-07-09_08:41:02,13.3,1.0,0.0,8,36,0
1,Williams,2021-07-09_08:41:02,6.3,1.0,0.0,4,0,45
2,Norris,2021-07-09_08:41:02,14.1,1.0,0.1,65,12,0
3,Gasly,2021-07-09_08:41:02,11.9,1.0,0.0,46,67,0
4,Vettel,2021-07-09_08:41:02,15.2,1.0,0.0,13,0,13
5,Tsunoda,2021-07-09_08:41:02,8.5,1.0,0.1,23,26,0
6,Ocon,2021-07-09_08:41:02,10.1,1.0,-0.1,19,0,46
7,Bottas,2021-07-09_08:41:02,23.0,1.0,0.0,10,0,43
8,Ferrari,2021-07-09_08:41:02,18.7,1.0,0.0,11,0,49
9,Red Bull,2021-07-09_08:41:02,26.7,1.0,0.1,36,13,0
10,Hamilton,2021-07-09_08:41:02,33.0,1.0,-0.1,24,0,51
11,Mazepin,2021-07-09_08:41:02,5.3,1.0,0.0,5,0,10
12,Mercedes,2021-07-09_08:41:02,37.2,1.0,0.0,9,0,73
13,AlphaTauri,2021-07-09_08:41:02,12.7,1.0,0.0,6,31,0
14,Aston Martin,2021-07-09_08:41:02,16.4,1.0,0.0,5,69,0
15,Haas,2021-07-09_08:41:02,6.1,1.0,0.0,4,0,27
16,Perez,2021-07-09_08:41:02,18.8,1.0,0.1,37,59,0
17,Alpine,2021-07-09_08:41:02,15.1,1.0,-0.1,4,0,63
18,Raikkonen,2021-07-09_08:41:02,9.3,1.0,0.0,13,0,58
19,McLaren,2021-07-09_08:41:02,18.6,1.0,0.0,27,0,41
20,Ricciardo,2021-07-09_08:41:02,15.8,1.0,-0.1,25,0,40
21,Schumacher,2021-07-09_08:41:02,5.8,1.0,0.0,27,2,0
22,Leclerc,2021-07-09_08:41:02,17.5,1.0,-0.1,34,0,20
23,Giovinazzi,2021-07-09_08:41:02,8.0,1.0,0.0,9,72,0
24,Sainz,2021-07-09_08:41:02,14.3,1.0,0.0,27,52,0
25,Alfa Romeo,2021-07-09_08:41:02,9.2,1.0,0.0,4,0,74
26,Latifi,2021-07-09_08:41:02,6.4,1.0,0.0,4,0,56
27,Russell,2021-07-09_08:41:02,6.2,1.0,0.0,41,0,46
28,Alonso,2021-07-09_08:41:02,14.8,1.0,0.0,10,26,0
29,Verstappen,2021-07-09_08:41:02,25.7,1.0,0.1,61,53,0
