,name,request_time,price,chance_of_playing,weekly_price_change,current_selection_percentage,probability_price_up_percentage,probability_price_down_percentage
0,Norris,2021-07-22_07:21:03,14.1,1.0,0.1,66,86,0
1,Gasly,2021-07-22_07:21:03,11.9,1.0,0.0,45,21,0
2,Vettel,2021-07-22_07:21:03,15.2,1.0,0.0,13,0,17
3,Tsunoda,2021-07-22_07:21:03,8.5,1.0,0.0,23,0,31
4,Ocon,2021-07-22_07:21:03,10.0,1.0,-0.1,19,0,0
5,Bottas,2021-07-22_07:21:03,23.0,1.0,0.0,10,0,34
6,Williams,2021-07-22_07:21:03,6.3,1.0,0.0,4,0,42
7,Ferrari,2021-07-22_07:21:03,18.7,1.0,0.0,10,0,73
8,Red Bull,2021-07-22_07:21:03,26.7,1.0,0.1,36,13,0
9,Stroll,2021-07-22_07:21:03,13.3,1.0,0.0,8,3,0
10,Raikkonen,2021-07-22_07:21:03,9.3,1.0,0.0,13,0,67
11,Mazepin,2021-07-22_07:21:03,5.3,1.0,0.0,5,0,10
12,Mercedes,2021-07-22_07:21:03,37.1,1.0,-0.1,8,0,5
13,AlphaTauri,2021-07-22_07:21:03,12.7,1.0,0.0,6,0,13
14,Haas,2021-07-22_07:21:03,6.1,1.0,0.0,4,0,26
15,Aston Martin,2021-07-22_07:21:03,16.4,1.0,0.0,5,60,0
16,Perez,2021-07-22_07:21:03,18.8,1.0,0.0,36,0,45
17,Alpine,2021-07-22_07:21:03,15.1,1.0,0.0,4,0,82
18,Hamilton,2021-07-22_07:21:03,33.0,1.0,0.0,24,0,60
19,Sainz,2021-07-22_07:21:03,14.4,1.0,0.1,28,1,0
20,Alfa Romeo,2021-07-22_07:21:03,9.2,1.0,0.0,4,0,81
21,McLaren,2021-07-22_07:21:03,18.6,1.0,0.0,28,23,0
22,Ricciardo,2021-07-22_07:21:03,15.8,1.0,0.0,25,0,51
23,Leclerc,2021-07-22_07:21:03,17.5,1.0,-0.1,35,47,0
24,Schumacher,2021-07-22_07:21:03,5.8,1.0,0.0,27,32,0
25,Giovinazzi,2021-07-22_07:21:03,8.0,1.0,0.0,10,83,0
26,Latifi,2021-07-22_07:21:03,6.4,1.0,0.0,4,0,61
27,Russell,2021-07-22_07:21:03,6.2,1.0,0.0,41,0,34
28,Alonso,2021-07-22_07:21:03,14.8,1.0,0.0,10,67,0
29,Verstappen,2021-07-22_07:21:03,25.7,1.0,0.0,61,76,0
