,name,request_time,price,chance_of_playing,weekly_price_change,current_selection_percentage,probability_price_up_percentage,probability_price_down_percentage
0,Gasly,2021-05-21_01:51:02,11.5,1.0,-0.2,39,2,0
1,AlphaTauri,2021-05-21_01:51:02,12.7,1.0,-0.1,5,0,13
2,Perez,2021-05-21_01:51:02,18.1,1.0,-0.1,29,0,78
3,Alpine,2021-05-21_01:51:02,15.3,1.0,0.1,4,0,40
4,Mazepin,2021-05-21_01:51:02,5.3,1.0,0.0,5,0,47
5,Hamilton,2021-05-21_01:51:02,33.3,1.0,0.0,28,24,0
6,Raikkonen,2021-05-21_01:51:02,9.3,1.0,0.0,13,0,30
7,Vettel,2021-05-21_01:51:02,14.9,1.0,-0.1,11,0,25
8,Tsunoda,2021-05-21_01:51:02,8.7,1.0,-0.2,24,0,77
9,Verstappen,2021-05-21_01:51:02,25.4,1.0,0.1,57,5,0
10,Alonso,2021-05-21_01:51:02,14.9,1.0,-0.1,10,0,63
11,McLaren,2021-05-21_01:51:02,18.9,1.0,0.0,29,0,63
12,Mercedes,2021-05-21_01:51:02,37.6,1.0,0.0,10,0,96
13,Haas,2021-05-21_01:51:02,6.1,1.0,0.0,4,0,14
14,Aston Martin,2021-05-21_01:51:02,16.5,1.0,0.0,5,0,85
15,Latifi,2021-05-21_01:51:02,6.4,1.0,0.0,4,0,25
16,Russell,2021-05-21_01:51:02,6.2,1.0,-0.1,42,0,4
17,Ricciardo,2021-05-21_01:51:02,16.2,1.0,0.0,29,59,0
18,Schumacher,2021-05-21_01:51:02,5.9,1.0,0.1,29,35,0
19,Ocon,2021-05-21_01:51:02,10.6,1.0,0.3,25,32,0
20,Leclerc,2021-05-21_01:51:02,18.2,1.0,0.2,41,11,0
21,Bottas,2021-05-21_01:51:02,23.2,1.0,-0.1,11,0,40
22,Ferrari,2021-05-21_01:51:02,18.8,1.0,0.1,11,80,0
23,Red Bull,2021-05-21_01:51:02,26.1,1.0,0.0,31,0,32
24,Stroll,2021-05-21_01:51:02,13.4,1.0,-0.1,8,0,4
25,Williams,2021-05-21_01:51:02,6.3,1.0,0.0,4,0,34
26,Norris,2021-05-21_01:51:02,13.9,1.0,0.0,63,14,0
27,Giovinazzi,2021-05-21_01:51:02,7.8,1.0,0.0,7,0,36
28,Sainz,2021-05-21_01:51:02,14.3,1.0,0.0,26,2,0
29,Alfa Romeo,2021-05-21_01:51:02,9.1,1.0,0.2,4,43,0
