,name,request_time,price,chance_of_playing,weekly_price_change,current_selection_percentage,probability_price_up_percentage,probability_price_down_percentage
0,AlphaTauri,2021-06-28_16:41:03,12.7,1.0,0.1,6,37,0
1,Ferrari,2021-06-28_16:41:03,18.7,1.0,-0.6,10,0,83
2,Red Bull,2021-06-28_16:41:03,26.5,1.0,0.3,35,77,0
3,Stroll,2021-06-28_16:41:03,13.3,1.0,0.0,8,17,0
4,Williams,2021-06-28_16:41:03,6.3,1.0,0.0,4,0,46
5,Perez,2021-06-28_16:41:03,18.8,1.0,0.4,37,36,0
6,Alpine,2021-06-28_16:41:03,15.2,1.0,-0.1,4,0,95
7,Vettel,2021-06-28_16:41:03,15.2,1.0,0.2,14,42,0
8,Tsunoda,2021-06-28_16:41:03,8.5,1.0,0.1,23,3,0
9,Bottas,2021-06-28_16:41:03,23.0,1.0,0.0,10,0,58
10,Mazepin,2021-06-28_16:41:03,5.3,1.0,0.0,5,0,12
11,Hamilton,2021-06-28_16:41:03,33.1,1.0,0.0,25,0,84
12,Raikkonen,2021-06-28_16:41:03,9.3,1.0,0.0,13,0,71
13,Gasly,2021-06-28_16:41:03,11.9,1.0,0.1,46,43,0
14,Sainz,2021-06-28_16:41:03,14.3,1.0,-0.4,26,0,59
15,Alfa Romeo,2021-06-28_16:41:03,9.2,1.0,0.0,4,0,69
16,Mercedes,2021-06-28_16:41:03,37.2,1.0,-0.1,9,0,34
17,Haas,2021-06-28_16:41:03,6.1,1.0,0.0,4,0,26
18,Aston Martin,2021-06-28_16:41:03,16.4,1.0,0.0,5,71,0
19,McLaren,2021-06-28_16:41:03,18.6,1.0,0.0,28,53,0
20,Ricciardo,2021-06-28_16:41:03,15.9,1.0,0.0,26,20,0
21,Leclerc,2021-06-28_16:41:03,17.6,1.0,-0.4,34,0,76
22,Schumacher,2021-06-28_16:41:03,5.8,1.0,0.0,26,0,22
23,Ocon,2021-06-28_16:41:03,10.3,1.0,-0.1,21,0,17
24,Norris,2021-06-28_16:41:03,14.0,1.0,0.1,64,24,0
25,Giovinazzi,2021-06-28_16:41:03,8.0,1.0,0.0,9,43,0
26,Latifi,2021-06-28_16:41:03,6.4,1.0,0.0,4,0,47
27,Russell,2021-06-28_16:41:03,6.2,1.0,0.0,40,0,70
28,Alonso,2021-06-28_16:41:03,14.8,1.0,0.0,10,46,0
29,Verstappen,2021-06-28_16:41:03,25.6,1.0,0.1,60,78,0
