,name,request_time,price,chance_of_playing,weekly_price_change,current_selection_percentage,probability_price_up_percentage,probability_price_down_percentage
0,Stroll,2021-05-16_06:31:02,13.5,1.0,0.0,8,0,79
1,Raikkonen,2021-05-16_06:31:02,9.3,1.0,0.0,13,0,45
2,Perez,2021-05-16_06:31:02,18.1,1.0,-0.1,30,0,39
3,Alpine,2021-05-16_06:31:02,15.3,1.0,0.1,4,0,14
4,AlphaTauri,2021-05-16_06:31:02,12.8,1.0,0.0,6,0,80
5,Red Bull,2021-05-16_06:31:02,26.1,1.0,0.0,32,7,0
6,Gasly,2021-05-16_06:31:02,11.6,1.0,-0.1,39,0,83
7,Hamilton,2021-05-16_06:31:02,33.3,1.0,0.0,28,27,0
8,Vettel,2021-05-16_06:31:02,14.9,1.0,-0.1,12,0,11
9,Ferrari,2021-05-16_06:31:02,18.7,1.0,0.0,11,43,0
10,Bottas,2021-05-16_06:31:02,23.2,1.0,-0.1,11,0,19
11,Mazepin,2021-05-16_06:31:02,5.3,1.0,0.0,5,0,49
12,Alonso,2021-05-16_06:31:02,14.9,1.0,-0.1,10,0,27
13,Verstappen,2021-05-16_06:31:02,25.3,1.0,0.0,56,95,0
14,Leclerc,2021-05-16_06:31:02,18.1,1.0,0.1,40,58,0
15,Schumacher,2021-05-16_06:31:02,5.9,1.0,0.1,29,19,0
16,Russell,2021-05-16_06:31:02,6.2,1.0,-0.1,42,0,1
17,Tsunoda,2021-05-16_06:31:02,8.8,1.0,-0.1,25,0,82
18,Ocon,2021-05-16_06:31:02,10.5,1.0,0.2,24,75,0
19,McLaren,2021-05-16_06:31:02,18.9,1.0,0.0,30,0,11
20,Ricciardo,2021-05-16_06:31:02,16.2,1.0,0.0,29,37,0
21,Latifi,2021-05-16_06:31:02,6.4,1.0,0.0,4,0,23
22,Aston Martin,2021-05-16_06:31:02,16.5,1.0,0.0,5,0,66
23,Williams,2021-05-16_06:31:02,6.3,1.0,0.0,4,0,37
24,Haas,2021-05-16_06:31:02,6.1,1.0,0.0,4,0,17
25,Mercedes,2021-05-16_06:31:02,37.6,1.0,0.0,10,0,77
26,Giovinazzi,2021-05-16_06:31:02,7.8,1.0,0.0,7,0,44
27,Norris,2021-05-16_06:31:02,13.9,1.0,0.0,63,15,0
28,Alfa Romeo,2021-05-16_06:31:02,9.0,1.0,0.1,4,0,3
29,Sainz,2021-05-16_06:31:02,14.3,1.0,0.0,26,0,42
