,name,request_time,price,chance_of_playing,weekly_price_change,current_selection_percentage,probability_price_up_percentage,probability_price_down_percentage
0,Gasly,2021-08-31_19:31:03,11.9,1.0,0.0,45,0,2
1,Vettel,2021-08-31_19:31:03,15.2,1.0,0.0,14,39,0
2,Tsunoda,2021-08-31_19:31:03,8.4,1.0,-0.1,21,0,51
3,Ocon,2021-08-31_19:31:03,10.2,1.0,0.2,20,10,0
4,Williams,2021-08-31_19:31:03,6.3,1.0,0.0,4,0,19
5,Norris,2021-08-31_19:31:03,14.2,1.0,0.0,66,14,0
6,Bottas,2021-08-31_19:31:03,23.0,1.0,0.0,10,0,39
7,Ferrari,2021-08-31_19:31:03,18.8,1.0,0.1,11,0,67
8,Red Bull,2021-08-31_19:31:03,26.6,1.0,0.1,35,8,0
9,Stroll,2021-08-31_19:31:03,13.3,1.0,0.0,7,0,9
10,Mazepin,2021-08-31_19:31:03,5.3,1.0,0.0,5,0,10
11,Mercedes,2021-08-31_19:31:03,37.1,1.0,0.0,8,0,12
12,Haas,2021-08-31_19:31:03,6.1,1.0,0.0,4,0,25
13,Aston Martin,2021-08-31_19:31:03,16.5,1.0,0.1,5,0,50
14,AlphaTauri,2021-08-31_19:31:03,12.7,1.0,0.0,5,0,85
15,Perez,2021-08-31_19:31:03,18.5,1.0,-0.2,34,42,0
16,Alpine,2021-08-31_19:31:03,15.1,1.0,0.0,4,58,0
17,Raikkonen,2021-08-31_19:31:03,9.2,1.0,-0.1,12,0,7
18,Hamilton,2021-08-31_19:31:03,33.0,1.0,0.0,24,0,12
19,Sainz,2021-08-31_19:31:03,14.5,1.0,0.1,29,51,0
20,Alfa Romeo,2021-08-31_19:31:03,9.1,1.0,-0.1,4,0,0
21,McLaren,2021-08-31_19:31:03,18.7,1.0,0.1,28,0,52
22,Ricciardo,2021-08-31_19:31:03,15.7,1.0,-0.1,24,0,40
23,Leclerc,2021-08-31_19:31:03,17.6,1.0,0.0,35,0,44
24,Schumacher,2021-08-31_19:31:03,5.8,1.0,0.0,26,0,27
25,Giovinazzi,2021-08-31_19:31:03,8.0,1.0,-0.1,9,0,49
26,Latifi,2021-08-31_19:31:03,6.4,1.0,0.0,4,0,47
27,Russell,2021-08-31_19:31:03,6.2,1.0,0.0,42,25,0
28,Alonso,2021-08-31_19:31:03,15.0,1.0,0.1,11,53,0
29,Verstappen,2021-08-31_19:31:03,25.7,1.0,0.0,61,57,0
