,name,request_time,price,chance_of_playing,weekly_price_change,current_selection_percentage,probability_price_up_percentage,probability_price_down_percentage
0,AlphaTauri,2021-04-21_11:11:03,13.2,1.0,0.0,7,0,40
1,Raikkonen,2021-04-21_11:11:03,9.4,1.0,0.0,14,0,15
2,Hamilton,2021-04-21_11:11:03,33.4,1.0,0.0,28,0,67
3,Mazepin,2021-04-21_11:11:03,5.3,1.0,0.0,5,0,23
4,Mercedes,2021-04-21_11:11:03,37.7,1.0,-0.1,11,0,36
5,Haas,2021-04-21_11:11:03,6.1,1.0,0.0,4,0,27
6,Vettel,2021-04-21_11:11:03,15.3,1.0,-0.1,13,0,99
7,Alonso,2021-04-21_11:11:03,15.0,1.0,-0.2,11,0,4
8,Verstappen,2021-04-21_11:11:03,25.2,1.0,0.1,55,53,0
9,McLaren,2021-04-21_11:11:03,18.7,1.0,0.0,28,31,0
10,Ocon,2021-04-21_11:11:03,9.7,1.0,0.0,13,0,96
11,Schumacher,2021-04-21_11:11:03,5.7,1.0,0.0,25,0,18
12,Bottas,2021-04-21_11:11:03,23.4,1.0,-0.1,12,0,29
13,Red Bull,2021-04-21_11:11:03,26.1,1.0,0.1,32,6,0
14,Williams,2021-04-21_11:11:03,6.3,1.0,0.0,4,0,34
15,Norris,2021-04-21_11:11:03,13.6,1.0,0.2,58,24,0
16,Alfa Romeo,2021-04-21_11:11:03,8.9,1.0,0.0,4,11,0
17,Alpine,2021-04-21_11:11:03,15.0,1.0,-0.1,4,0,11
18,Latifi,2021-04-21_11:11:03,6.5,1.0,0.0,4,0,66
19,Russell,2021-04-21_11:11:03,6.2,1.0,0.0,44,74,0
20,Ferrari,2021-04-21_11:11:03,18.8,1.0,0.1,11,36,0
21,Tsunoda,2021-04-21_11:11:03,9.4,1.0,0.0,34,0,17
22,Ricciardo,2021-04-21_11:11:03,16.6,1.0,-0.1,32,0,50
23,Leclerc,2021-04-21_11:11:03,17.6,1.0,0.2,35,64,0
24,Stroll,2021-04-21_11:11:03,13.6,1.0,0.0,9,0,3
25,Giovinazzi,2021-04-21_11:11:03,7.8,1.0,0.0,7,0,35
26,Aston Martin,2021-04-21_11:11:03,16.8,1.0,-0.1,5,0,82
27,Perez,2021-04-21_11:11:03,18.4,1.0,0.0,32,0,87
28,Gasly,2021-04-21_11:11:03,11.7,1.0,0.0,43,78,0
29,Sainz,2021-04-21_11:11:03,14.3,1.0,0.0,26,0,4
