,name,request_time,price,chance_of_playing,weekly_price_change,current_selection_percentage,probability_price_up_percentage,probability_price_down_percentage
0,Gasly,2021-08-28_23:41:03,11.9,1.0,0.0,45,0,3
1,Vettel,2021-08-28_23:41:03,15.2,1.0,0.0,14,10,0
2,Tsunoda,2021-08-28_23:41:03,8.4,1.0,-0.1,21,0,43
3,Ocon,2021-08-28_23:41:03,10.2,1.0,0.2,20,7,0
4,Williams,2021-08-28_23:41:03,6.3,1.0,0.0,4,0,24
5,Norris,2021-08-28_23:41:03,14.2,1.0,0.0,66,14,0
6,Bottas,2021-08-28_23:41:03,23.0,1.0,0.0,10,0,35
7,Ferrari,2021-08-28_23:41:03,18.8,1.0,0.1,11,0,57
8,Red Bull,2021-08-28_23:41:03,26.5,1.0,-0.1,35,98,0
9,Stroll,2021-08-28_23:41:03,13.3,1.0,0.0,8,0,5
10,Hamilton,2021-08-28_23:41:03,33.0,1.0,0.0,24,0,10
11,Mazepin,2021-08-28_23:41:03,5.3,1.0,0.0,5,0,10
12,Mercedes,2021-08-28_23:41:03,37.1,1.0,0.0,8,0,9
13,AlphaTauri,2021-08-28_23:41:03,12.7,1.0,0.0,5,0,81
14,Aston Martin,2021-08-28_23:41:03,16.5,1.0,0.1,5,0,48
15,Haas,2021-08-28_23:41:03,6.1,1.0,0.0,4,0,26
16,Perez,2021-08-28_23:41:03,18.5,1.0,-0.2,34,52,0
17,Alpine,2021-08-28_23:41:03,15.1,1.0,0.0,4,52,0
18,Raikkonen,2021-08-28_23:41:03,9.2,1.0,-0.1,12,0,2
19,Sainz,2021-08-28_23:41:03,14.5,1.0,0.1,29,55,0
20,Alfa Romeo,2021-08-28_23:41:03,9.2,1.0,0.0,4,0,96
21,McLaren,2021-08-28_23:41:03,18.7,1.0,0.1,28,0,49
22,Ricciardo,2021-08-28_23:41:03,15.7,1.0,-0.1,24,0,39
23,Schumacher,2021-08-28_23:41:03,5.8,1.0,0.0,26,0,19
24,Leclerc,2021-08-28_23:41:03,17.6,1.0,0.0,35,0,36
25,Giovinazzi,2021-08-28_23:41:03,8.0,1.0,-0.1,9,0,41
26,Latifi,2021-08-28_23:41:03,6.4,1.0,0.0,4,0,50
27,Russell,2021-08-28_23:41:03,6.2,1.0,0.0,42,12,0
28,Alonso,2021-08-28_23:41:03,15.0,1.0,0.1,11,55,0
29,Verstappen,2021-08-28_23:41:03,25.7,1.0,0.0,61,50,0
