,name,request_time,price,chance_of_playing,weekly_price_change,current_selection_percentage,probability_price_up_percentage,probability_price_down_percentage
0,Mercedes,2021-03-31_15:30:03,37.9,1.0,-0.1,12,0,5
1,McLaren,2021-03-31_15:30:03,18.9,1.0,0.0,30,9,0
2,Red Bull,2021-03-31_15:30:03,26.0,1.0,0.100000000000001,31,32,0
3,Alpine,2021-03-31_15:30:03,15.3,1.0,-0.0999999999999996,3,0,75
4,Tsunoda,2021-03-31_15:30:03,9.0,1.0,0.199999999999999,29,92,0
5,Raikkonen,2021-03-31_15:30:03,9.6,1.0,0.0,15,0,82
6,Mazepin,2021-03-31_15:30:03,5.4,1.0,-0.0999999999999996,5,0,14
7,Latifi,2021-03-31_15:30:03,6.5,1.0,0.0,4,0,36
8,Alfa Romeo,2021-03-31_15:30:03,8.9,1.0,0.0,1,0,0
9,Stroll,2021-03-31_15:30:03,13.8,1.0,-0.0999999999999996,10,0,20
10,Leclerc,2021-03-31_15:30:03,17.1,1.0,0.300000000000001,29,39,0
11,Gasly,2021-03-31_15:30:03,11.7,1.0,0.0,43,92,0
12,Verstappen,2021-03-31_15:30:03,25.0,1.0,0.2,52,9,0
13,Williams,2021-03-31_15:30:03,6.3,1.0,0.0,1,0,19
14,Haas,2021-03-31_15:30:03,6.1,1.0,0.0,1,0,14
15,Hamilton,2021-03-31_15:30:03,33.5,1.0,0.0,29,0,60
16,Bottas,2021-03-31_15:30:03,23.5,1.0,-0.100000000000001,12,0,8
17,Norris,2021-03-31_15:30:03,13.2,1.0,0.0999999999999996,53,77,0
18,Ricciardo,2021-03-31_15:30:03,17.1,1.0,-0.199999999999999,37,0,30
19,Ocon,2021-03-31_15:30:03,9.9,1.0,-0.199999999999999,15,0,26
20,Schumacher,2021-03-31_15:30:03,5.8,1.0,0.0,27,0,11
21,Ferrari,2021-03-31_15:30:03,18.2,1.0,0.0999999999999979,8,60,0
22,AlphaTauri,2021-03-31_15:30:03,12.9,1.0,0.200000000000001,6,20,0
23,Aston Martin,2021-03-31_15:30:03,17.3,1.0,-0.300000000000001,7,0,85
24,Perez,2021-03-31_15:30:03,18.3,1.0,-0.0999999999999979,32,0,2
25,Vettel,2021-03-31_15:30:03,15.8,1.0,-0.399999999999999,17,0,16
26,Alonso,2021-03-31_15:30:03,15.4,1.0,-0.199999999999999,13,0,14
27,Sainz,2021-03-31_15:30:03,14.4,1.0,0.0,27,0,48
28,Giovinazzi,2021-03-31_15:30:03,7.9,1.0,0.0,8,0,36
29,Russell,2021-03-31_15:30:03,6.2,1.0,0.0,42,0,5
