,name,request_time,price,chance_of_playing,weekly_price_change,current_selection_percentage,probability_price_up_percentage,probability_price_down_percentage
0,Gasly,2021-08-02_20:21:02,11.9,1.0,0.0,45,0,27
1,Vettel,2021-08-02_20:21:02,15.2,1.0,0.0,13,0,51
2,Tsunoda,2021-08-02_20:21:02,8.5,1.0,0.0,22,0,98
3,Ocon,2021-08-02_20:21:02,10.0,1.0,-0.1,19,63,0
4,Bottas,2021-08-02_20:21:02,23.1,1.0,0.1,10,0,33
5,Ferrari,2021-08-02_20:21:02,18.8,1.0,0.1,11,11,0
6,Red Bull,2021-08-02_20:21:02,26.6,1.0,-0.1,35,0,62
7,Stroll,2021-08-02_20:21:02,13.3,1.0,0.0,7,0,6
8,Williams,2021-08-02_20:21:02,6.3,1.0,0.0,4,0,35
9,Norris,2021-08-02_20:21:02,14.2,1.0,0.1,66,0,4
10,Mazepin,2021-08-02_20:21:02,5.3,1.0,0.0,5,3,0
11,Mercedes,2021-08-02_20:21:02,37.1,1.0,-0.1,8,0,1
12,AlphaTauri,2021-08-02_20:21:02,12.7,1.0,0.0,5,0,60
13,Aston Martin,2021-08-02_20:21:02,16.4,1.0,0.0,5,51,0
14,Haas,2021-08-02_20:21:02,6.1,1.0,0.0,4,0,27
15,Perez,2021-08-02_20:21:02,18.6,1.0,-0.2,34,0,37
16,Alpine,2021-08-02_20:21:02,15.1,1.0,0.0,4,0,64
17,Raikkonen,2021-08-02_20:21:02,9.3,1.0,0.0,13,0,69
18,Hamilton,2021-08-02_20:21:02,33.0,1.0,0.0,24,0,19
19,McLaren,2021-08-02_20:21:02,18.7,1.0,0.1,28,2,0
20,Ricciardo,2021-08-02_20:21:02,15.8,1.0,0.0,25,0,80
21,Schumacher,2021-08-02_20:21:02,5.8,1.0,0.0,27,0,2
22,Leclerc,2021-08-02_20:21:02,17.6,1.0,0.1,36,98,0
23,Giovinazzi,2021-08-02_20:21:02,8.1,1.0,0.1,9,0,87
24,Sainz,2021-08-02_20:21:02,14.5,1.0,0.1,28,12,0
25,Alfa Romeo,2021-08-02_20:21:02,9.2,1.0,0.0,4,0,88
26,Latifi,2021-08-02_20:21:02,6.4,1.0,0.0,4,0,56
27,Russell,2021-08-02_20:21:02,6.2,1.0,0.0,42,6,0
28,Alonso,2021-08-02_20:21:02,14.9,1.0,0.1,11,26,0
29,Verstappen,2021-08-02_20:21:02,25.7,1.0,0.0,60,35,0
