,name,request_time,price,chance_of_playing,weekly_price_change,current_selection_percentage,probability_price_up_percentage,probability_price_down_percentage
0,AlphaTauri,2021-06-23_14:21:02,12.6,1.0,0.0,5,5,0
1,Perez,2021-06-23_14:21:02,18.6,1.0,0.2,35,18,0
2,Alpine,2021-06-23_14:21:02,15.3,1.0,0.1,4,0,0
3,Tsunoda,2021-06-23_14:21:02,8.4,1.0,0.0,22,0,11
4,Bottas,2021-06-23_14:21:02,23.0,1.0,-0.1,10,59,0
5,Ferrari,2021-06-23_14:21:02,19.1,1.0,-0.2,12,0,99
6,Red Bull,2021-06-23_14:21:02,26.4,1.0,0.2,34,0,0
7,Mazepin,2021-06-23_14:21:02,5.3,1.0,0.0,5,0,16
8,Raikkonen,2021-06-23_14:21:02,9.3,1.0,-0.1,13,0,30
9,Hamilton,2021-06-23_14:21:02,33.1,1.0,-0.1,25,0,43
10,Gasly,2021-06-23_14:21:02,11.8,1.0,0.2,44,16,0
11,Vettel,2021-06-23_14:21:02,15.1,1.0,0.1,13,35,0
12,Mercedes,2021-06-23_14:21:02,37.3,1.0,-0.1,9,0,68
13,Aston Martin,2021-06-23_14:21:02,16.4,1.0,0.0,5,51,0
14,Haas,2021-06-23_14:21:02,6.1,1.0,0.0,4,0,24
15,McLaren,2021-06-23_14:21:02,18.6,1.0,0.0,27,0,18
16,Ricciardo,2021-06-23_14:21:02,15.9,1.0,-0.2,26,0,29
17,Leclerc,2021-06-23_14:21:02,17.8,1.0,-0.2,37,0,15
18,Ocon,2021-06-23_14:21:02,10.4,1.0,-0.1,23,43,0
19,Schumacher,2021-06-23_14:21:02,5.8,1.0,0.0,26,0,14
20,Norris,2021-06-23_14:21:02,13.9,1.0,0.0,64,85,0
21,Giovinazzi,2021-06-23_14:21:02,8.0,1.0,0.0,9,66,0
22,Latifi,2021-06-23_14:21:02,6.4,1.0,0.0,4,0,39
23,Russell,2021-06-23_14:21:02,6.2,1.0,0.0,40,0,85
24,Alonso,2021-06-23_14:21:02,14.8,1.0,0.0,10,48,0
25,Verstappen,2021-06-23_14:21:02,25.6,1.0,0.1,59,1,0
26,Stroll,2021-06-23_14:21:02,13.3,1.0,-0.1,7,0,20
27,Williams,2021-06-23_14:21:02,6.3,1.0,0.0,4,0,45
28,Sainz,2021-06-23_14:21:02,14.6,1.0,-0.1,29,0,31
29,Alfa Romeo,2021-06-23_14:21:02,9.2,1.0,0.0,4,0,52
