,name,request_time,price,chance_of_playing,weekly_price_change,current_selection_percentage,probability_price_up_percentage,probability_price_down_percentage
0,Mercedes,2021-04-07_07:20:03,37.9,1.0,-0.1,12,0,41
1,McLaren,2021-04-07_07:20:03,18.9,1.0,0.0,30,0,10
2,Red Bull,2021-04-07_07:20:03,26.0,1.0,0.100000000000001,31,32,0
3,Ocon,2021-04-07_07:20:03,9.9,1.0,-0.199999999999999,15,0,94
4,Williams,2021-04-07_07:20:03,6.3,1.0,0.0,1,0,25
5,Raikkonen,2021-04-07_07:20:03,9.5,1.0,-0.1,15,0,23
6,Alonso,2021-04-07_07:20:03,15.4,1.0,-0.199999999999999,13,0,87
7,Giovinazzi,2021-04-07_07:20:03,7.9,1.0,0.0,8,0,53
8,Alfa Romeo,2021-04-07_07:20:03,8.9,1.0,0.0,1,0,0
9,Stroll,2021-04-07_07:20:03,13.8,1.0,-0.0999999999999996,10,0,62
10,Sainz,2021-04-07_07:20:03,14.4,1.0,0.0,26,0,83
11,Alpine,2021-04-07_07:20:03,15.2,1.0,-0.2,3,0,31
12,Norris,2021-04-07_07:20:03,13.3,1.0,0.2,54,50,0
13,Ricciardo,2021-04-07_07:20:03,17.0,1.0,-0.3,36,0,16
14,Hamilton,2021-04-07_07:20:03,33.5,1.0,0.0,28,0,78
15,Haas,2021-04-07_07:20:03,6.1,1.0,0.0,1,0,19
16,Schumacher,2021-04-07_07:20:03,5.8,1.0,0.0,27,0,19
17,Verstappen,2021-04-07_07:20:03,25.0,1.0,0.2,52,52,0
18,Perez,2021-04-07_07:20:03,18.3,1.0,-0.0999999999999979,32,21,0
19,Latifi,2021-04-07_07:20:03,6.5,1.0,0.0,4,0,46
20,Russell,2021-04-07_07:20:03,6.2,1.0,0.0,42,0,1
21,AlphaTauri,2021-04-07_07:20:03,13.0,1.0,0.3,6,10,0
22,Aston Martin,2021-04-07_07:20:03,17.1,1.0,-0.5,7,0,3
23,Leclerc,2021-04-07_07:20:03,17.2,1.0,0.4,30,27,0
24,Ferrari,2021-04-07_07:20:03,18.4,1.0,0.3,9,9,0
25,Bottas,2021-04-07_07:20:03,23.5,1.0,-0.100000000000001,12,0,26
26,Vettel,2021-04-07_07:20:03,15.7,1.0,-0.5,17,0,35
27,Mazepin,2021-04-07_07:20:03,5.4,1.0,-0.0999999999999996,5,0,45
28,Tsunoda,2021-04-07_07:20:03,9.2,1.0,0.4,31,23,0
29,Gasly,2021-04-07_07:20:03,11.8,1.0,0.1,43,0,24
