,name,request_time,price,chance_of_playing,weekly_price_change,current_selection_percentage,probability_price_up_percentage,probability_price_down_percentage
0,AlphaTauri,2021-04-17_06:01:02,13.2,1.0,0.5,8,30,0
1,Bottas,2021-04-17_06:01:02,23.5,1.0,-0.100000000000001,12,0,22
2,Williams,2021-04-17_06:01:02,6.3,1.0,0.0,4,0,38
3,Ocon,2021-04-17_06:01:02,9.7,1.0,-0.4,14,0,43
4,Hamilton,2021-04-17_06:01:02,33.4,1.0,-0.1,28,0,40
5,Mercedes,2021-04-17_06:01:02,37.8,1.0,-0.2,11,0,33
6,McLaren,2021-04-17_06:01:02,18.8,1.0,-0.1,28,0,77
7,Red Bull,2021-04-17_06:01:02,26.0,1.0,0.100000000000001,31,67,0
8,Verstappen,2021-04-17_06:01:02,25.1,1.0,0.3,53,48,0
9,Alonso,2021-04-17_06:01:02,15.2,1.0,-0.4,12,0,57
10,Haas,2021-04-17_06:01:02,6.1,1.0,0.0,4,0,27
11,Raikkonen,2021-04-17_06:01:02,9.5,1.0,-0.1,14,0,69
12,Schumacher,2021-04-17_06:01:02,5.8,1.0,0.0,25,0,88
13,Latifi,2021-04-17_06:01:02,6.5,1.0,0.0,4,0,55
14,Norris,2021-04-17_06:01:02,13.4,1.0,0.3,56,40,0
15,Vettel,2021-04-17_06:01:02,15.5,1.0,-0.7,15,0,81
16,Alfa Romeo,2021-04-17_06:01:02,8.9,1.0,0.0,4,3,0
17,Mazepin,2021-04-17_06:01:02,5.3,1.0,-0.2,5,0,0
18,Alpine,2021-04-17_06:01:02,15.1,1.0,-0.3,4,0,42
19,Ferrari,2021-04-17_06:01:02,18.6,1.0,0.5,10,37,0
20,Russell,2021-04-17_06:01:02,6.2,1.0,0.0,43,29,0
21,Stroll,2021-04-17_06:01:02,13.7,1.0,-0.2,9,0,84
22,Giovinazzi,2021-04-17_06:01:02,7.9,1.0,0.0,8,0,89
23,Ricciardo,2021-04-17_06:01:02,16.8,1.0,-0.5,34,0,41
24,Leclerc,2021-04-17_06:01:02,17.4,1.0,0.6,32,16,0
25,Tsunoda,2021-04-17_06:01:02,9.4,1.0,0.6,35,11,0
26,Aston Martin,2021-04-17_06:01:02,16.9,1.0,-0.7,6,0,35
27,Sainz,2021-04-17_06:01:02,14.3,1.0,-0.1,26,0,20
28,Perez,2021-04-17_06:01:02,18.4,1.0,0.0,33,35,0
29,Gasly,2021-04-17_06:01:02,11.7,1.0,0.0,42,6,0
