,name,request_time,price,chance_of_playing,weekly_price_change,current_selection_percentage,probability_price_up_percentage,probability_price_down_percentage
0,Norris,2021-07-31_16:51:03,14.2,1.0,0.1,66,0,1
1,Gasly,2021-07-31_16:51:03,11.9,1.0,0.0,45,0,26
2,Vettel,2021-07-31_16:51:03,15.2,1.0,0.0,13,0,62
3,Tsunoda,2021-07-31_16:51:03,8.5,1.0,0.0,22,0,93
4,Ocon,2021-07-31_16:51:03,10.0,1.0,-0.1,19,26,0
5,Bottas,2021-07-31_16:51:03,23.0,1.0,0.0,10,91,0
6,Ferrari,2021-07-31_16:51:03,18.8,1.0,0.1,11,11,0
7,Red Bull,2021-07-31_16:51:03,26.6,1.0,-0.1,35,0,44
8,Stroll,2021-07-31_16:51:03,13.3,1.0,0.0,8,0,1
9,Williams,2021-07-31_16:51:03,6.3,1.0,0.0,4,0,36
10,Hamilton,2021-07-31_16:51:03,33.0,1.0,0.0,24,0,21
11,Mazepin,2021-07-31_16:51:03,5.3,1.0,0.0,5,4,0
12,Mercedes,2021-07-31_16:51:03,37.1,1.0,-0.1,8,0,0
13,AlphaTauri,2021-07-31_16:51:03,12.7,1.0,0.0,5,0,56
14,Aston Martin,2021-07-31_16:51:03,16.4,1.0,0.0,5,45,0
15,Haas,2021-07-31_16:51:03,6.1,1.0,0.0,4,0,25
16,Perez,2021-07-31_16:51:03,18.6,1.0,-0.2,34,0,15
17,Alpine,2021-07-31_16:51:03,15.1,1.0,0.0,4,0,67
18,Raikkonen,2021-07-31_16:51:03,9.3,1.0,0.0,13,0,65
19,Giovinazzi,2021-07-31_16:51:03,8.1,1.0,0.1,9,0,71
20,Sainz,2021-07-31_16:51:03,14.4,1.0,0.0,28,90,0
21,McLaren,2021-07-31_16:51:03,18.6,1.0,0.0,28,88,0
22,Ricciardo,2021-07-31_16:51:03,15.8,1.0,0.0,25,0,65
23,Schumacher,2021-07-31_16:51:03,5.8,1.0,0.0,27,1,0
24,Leclerc,2021-07-31_16:51:03,17.6,1.0,0.1,36,83,0
25,Alfa Romeo,2021-07-31_16:51:03,9.2,1.0,0.0,4,0,86
26,Latifi,2021-07-31_16:51:03,6.4,1.0,0.0,4,0,57
27,Russell,2021-07-31_16:51:03,6.2,1.0,0.0,42,3,0
28,Alonso,2021-07-31_16:51:03,14.9,1.0,0.1,11,12,0
29,Verstappen,2021-07-31_16:51:03,25.7,1.0,0.0,60,38,0
