,name,request_time,price,chance_of_playing,weekly_price_change,current_selection_percentage,probability_price_up_percentage,probability_price_down_percentage
0,AlphaTauri,2021-07-04_17:01:03,12.7,1.0,0.0,6,39,0
1,Perez,2021-07-04_17:01:03,18.8,1.0,0.1,37,61,0
2,Alpine,2021-07-04_17:01:03,15.1,1.0,-0.1,4,0,53
3,Vettel,2021-07-04_17:01:03,15.2,1.0,0.0,13,5,0
4,Red Bull,2021-07-04_17:01:03,26.6,1.0,0.1,36,70,0
5,Giovinazzi,2021-07-04_17:01:03,8.0,1.0,0.0,9,57,0
6,Sainz,2021-07-04_17:01:03,14.3,1.0,0.0,27,13,0
7,Alfa Romeo,2021-07-04_17:01:03,9.2,1.0,0.0,4,0,72
8,Mazepin,2021-07-04_17:01:03,5.3,1.0,0.0,5,0,9
9,Hamilton,2021-07-04_17:01:03,33.0,1.0,-0.1,24,0,30
10,Raikkonen,2021-07-04_17:01:03,9.3,1.0,0.0,13,0,55
11,Gasly,2021-07-04_17:01:03,11.9,1.0,0.0,46,62,0
12,Tsunoda,2021-07-04_17:01:03,8.5,1.0,0.1,23,35,0
13,Bottas,2021-07-04_17:01:03,23.0,1.0,0.0,10,0,49
14,Ferrari,2021-07-04_17:01:03,18.7,1.0,0.0,11,0,20
15,Stroll,2021-07-04_17:01:03,13.3,1.0,0.0,8,47,0
16,Williams,2021-07-04_17:01:03,6.3,1.0,0.0,4,0,46
17,Mercedes,2021-07-04_17:01:03,37.2,1.0,0.0,9,0,52
18,Haas,2021-07-04_17:01:03,6.1,1.0,0.0,4,0,26
19,Aston Martin,2021-07-04_17:01:03,16.4,1.0,0.0,5,76,0
20,Norris,2021-07-04_17:01:03,14.0,1.0,0.0,65,71,0
21,McLaren,2021-07-04_17:01:03,18.6,1.0,0.0,27,0,46
22,Ricciardo,2021-07-04_17:01:03,15.8,1.0,-0.1,25,0,21
23,Ocon,2021-07-04_17:01:03,10.2,1.0,-0.2,20,0,89
24,Leclerc,2021-07-04_17:01:03,17.6,1.0,0.0,34,0,88
25,Schumacher,2021-07-04_17:01:03,5.8,1.0,0.0,27,0,6
26,Verstappen,2021-07-04_17:01:03,25.7,1.0,0.1,60,25,0
27,Latifi,2021-07-04_17:01:03,6.4,1.0,0.0,4,0,52
28,Russell,2021-07-04_17:01:03,6.2,1.0,0.0,41,0,52
29,Alonso,2021-07-04_17:01:03,14.8,1.0,0.0,10,14,0
