,name,request_time,price,chance_of_playing,weekly_price_change,current_selection_percentage,probability_price_up_percentage,probability_price_down_percentage
0,Mercedes,2021-04-11_21:30:02,37.9,1.0,-0.1,12,0,74
1,McLaren,2021-04-11_21:30:02,18.9,1.0,0.0,29,0,41
2,Red Bull,2021-04-11_21:30:02,26.0,1.0,0.100000000000001,31,49,0
3,Alfa Romeo,2021-04-11_21:30:02,8.9,1.0,0.0,1,3,0
4,Stroll,2021-04-11_21:30:02,13.8,1.0,-0.0999999999999996,10,0,94
5,Bottas,2021-04-11_21:30:02,23.5,1.0,-0.100000000000001,12,0,47
6,Mazepin,2021-04-11_21:30:02,5.4,1.0,-0.0999999999999996,5,0,62
7,Vettel,2021-04-11_21:30:02,15.6,1.0,-0.6,16,0,7
8,Tsunoda,2021-04-11_21:30:02,9.3,1.0,0.5,32,16,0
9,Haas,2021-04-11_21:30:02,6.1,1.0,0.0,1,0,20
10,Aston Martin,2021-04-11_21:30:02,17.1,1.0,-0.5,7,0,69
11,Williams,2021-04-11_21:30:02,6.3,1.0,0.0,1,0,32
12,Raikkonen,2021-04-11_21:30:02,9.5,1.0,-0.1,14,0,38
13,Schumacher,2021-04-11_21:30:02,5.8,1.0,0.0,26,0,39
14,Verstappen,2021-04-11_21:30:02,25.0,1.0,0.2,53,89,0
15,Latifi,2021-04-11_21:30:02,6.5,1.0,0.0,4,0,54
16,Russell,2021-04-11_21:30:02,6.2,1.0,0.0,42,1,0
17,Perez,2021-04-11_21:30:02,18.3,1.0,-0.0999999999999979,32,65,0
18,Alpine,2021-04-11_21:30:02,15.2,1.0,-0.2,3,0,60
19,Ferrari,2021-04-11_21:30:02,18.4,1.0,0.3,9,67,0
20,Alonso,2021-04-11_21:30:02,15.3,1.0,-0.3,12,0,34
21,Leclerc,2021-04-11_21:30:02,17.2,1.0,0.4,30,80,0
22,AlphaTauri,2021-04-11_21:30:02,13.1,1.0,0.4,7,5,0
23,Norris,2021-04-11_21:30:02,13.3,1.0,0.2,55,90,0
24,Giovinazzi,2021-04-11_21:30:02,7.9,1.0,0.0,8,0,67
25,Ricciardo,2021-04-11_21:30:02,17.0,1.0,-0.3,36,0,67
26,Hamilton,2021-04-11_21:30:02,33.5,1.0,0.0,28,0,97
27,Sainz,2021-04-11_21:30:02,14.3,1.0,-0.1,26,0,4
28,Ocon,2021-04-11_21:30:02,9.8,1.0,-0.3,15,0,29
29,Gasly,2021-04-11_21:30:02,11.8,1.0,0.1,42,0,68
