,name,request_time,price,chance_of_playing,weekly_price_change,current_selection_percentage,probability_price_up_percentage,probability_price_down_percentage
0,AlphaTauri,2021-07-01_23:01:02,12.7,1.0,0.1,6,41,0
1,Perez,2021-07-01_23:01:02,18.8,1.0,0.4,37,62,0
2,Alpine,2021-07-01_23:01:02,15.1,1.0,-0.1,4,0,5
3,Vettel,2021-07-01_23:01:02,15.2,1.0,0.2,14,30,0
4,Tsunoda,2021-07-01_23:01:02,8.5,1.0,0.1,23,14,0
5,Bottas,2021-07-01_23:01:02,23.0,1.0,0.0,10,0,64
6,Ferrari,2021-07-01_23:01:02,18.7,1.0,-0.6,10,0,91
7,Red Bull,2021-07-01_23:01:02,26.6,1.0,0.1,35,9,0
8,Stroll,2021-07-01_23:01:02,13.3,1.0,0.0,8,21,0
9,Williams,2021-07-01_23:01:02,6.3,1.0,0.0,4,0,47
10,Mazepin,2021-07-01_23:01:02,5.3,1.0,0.0,5,0,11
11,Raikkonen,2021-07-01_23:01:02,9.3,1.0,0.0,13,0,66
12,Hamilton,2021-07-01_23:01:02,33.0,1.0,-0.1,25,0,2
13,Gasly,2021-07-01_23:01:02,11.9,1.0,0.1,46,48,0
14,Sainz,2021-07-01_23:01:02,14.3,1.0,-0.4,26,0,58
15,Alfa Romeo,2021-07-01_23:01:02,9.2,1.0,0.0,4,0,71
16,Mercedes,2021-07-01_23:01:02,37.2,1.0,-0.1,9,0,46
17,Aston Martin,2021-07-01_23:01:02,16.4,1.0,0.0,5,66,0
18,Haas,2021-07-01_23:01:02,6.1,1.0,0.0,4,0,26
19,McLaren,2021-07-01_23:01:02,18.6,1.0,0.0,28,36,0
20,Ricciardo,2021-07-01_23:01:02,15.9,1.0,0.0,26,0,11
21,Ocon,2021-07-01_23:01:02,10.3,1.0,-0.1,21,0,48
22,Schumacher,2021-07-01_23:01:02,5.8,1.0,0.0,26,0,18
23,Leclerc,2021-07-01_23:01:02,17.6,1.0,-0.4,34,0,89
24,Norris,2021-07-01_23:01:02,14.0,1.0,0.1,64,36,0
25,Giovinazzi,2021-07-01_23:01:02,8.0,1.0,0.0,9,38,0
26,Latifi,2021-07-01_23:01:02,6.4,1.0,0.0,4,0,48
27,Russell,2021-07-01_23:01:02,6.2,1.0,0.0,40,0,70
28,Alonso,2021-07-01_23:01:02,14.8,1.0,0.0,10,48,0
29,Verstappen,2021-07-01_23:01:02,25.6,1.0,0.1,60,91,0
