,name,request_time,price,chance_of_playing,weekly_price_change,current_selection_percentage,probability_price_up_percentage,probability_price_down_percentage
0,Norris,2021-08-01_09:51:02,14.2,1.0,0.1,66,0,3
1,Gasly,2021-08-01_09:51:02,11.9,1.0,0.0,45,0,26
2,Vettel,2021-08-01_09:51:02,15.2,1.0,0.0,13,0,61
3,Tsunoda,2021-08-01_09:51:02,8.5,1.0,0.0,22,0,91
4,Ocon,2021-08-01_09:51:02,10.0,1.0,-0.1,19,26,0
5,Bottas,2021-08-01_09:51:02,23.1,1.0,0.1,10,0,0
6,Williams,2021-08-01_09:51:02,6.3,1.0,0.0,4,0,36
7,Ferrari,2021-08-01_09:51:02,18.8,1.0,0.1,11,8,0
8,Red Bull,2021-08-01_09:51:02,26.6,1.0,-0.1,35,0,50
9,Stroll,2021-08-01_09:51:02,13.3,1.0,0.0,8,0,1
10,Raikkonen,2021-08-01_09:51:02,9.3,1.0,0.0,13,0,66
11,Mazepin,2021-08-01_09:51:02,5.3,1.0,0.0,5,4,0
12,Mercedes,2021-08-01_09:51:02,37.1,1.0,-0.1,8,0,0
13,Aston Martin,2021-08-01_09:51:02,16.4,1.0,0.0,5,44,0
14,AlphaTauri,2021-08-01_09:51:02,12.7,1.0,0.0,5,0,57
15,Haas,2021-08-01_09:51:02,6.1,1.0,0.0,4,0,25
16,Perez,2021-08-01_09:51:02,18.6,1.0,-0.2,34,0,19
17,Alpine,2021-08-01_09:51:02,15.1,1.0,0.0,4,0,69
18,Hamilton,2021-08-01_09:51:02,33.0,1.0,0.0,24,0,22
19,Sainz,2021-08-01_09:51:02,14.4,1.0,0.0,28,98,0
20,Alfa Romeo,2021-08-01_09:51:02,9.2,1.0,0.0,4,0,84
21,McLaren,2021-08-01_09:51:02,18.6,1.0,0.0,28,97,0
22,Ricciardo,2021-08-01_09:51:02,15.8,1.0,0.0,25,0,66
23,Schumacher,2021-08-01_09:51:02,5.8,1.0,0.0,27,1,0
24,Leclerc,2021-08-01_09:51:02,17.6,1.0,0.1,36,86,0
25,Giovinazzi,2021-08-01_09:51:02,8.1,1.0,0.1,9,0,73
26,Latifi,2021-08-01_09:51:02,6.4,1.0,0.0,4,0,58
27,Russell,2021-08-01_09:51:02,6.2,1.0,0.0,42,3,0
28,Alonso,2021-08-01_09:51:02,14.9,1.0,0.1,11,12,0
29,Verstappen,2021-08-01_09:51:02,25.7,1.0,0.0,60,36,0
