,name,request_time,price,chance_of_playing,weekly_price_change,current_selection_percentage,probability_price_up_percentage,probability_price_down_percentage
0,AlphaTauri,2021-04-27_13:31:03,13.2,1.0,0.0,7,0,61
1,Perez,2021-04-27_13:31:03,18.3,1.0,-0.1,31,0,21
2,Alpine,2021-04-27_13:31:03,15.0,1.0,-0.1,4,0,29
3,Hamilton,2021-04-27_13:31:03,33.4,1.0,0.0,27,0,76
4,Raikkonen,2021-04-27_13:31:03,9.4,1.0,0.0,14,0,15
5,Gasly,2021-04-27_13:31:03,11.7,1.0,0.0,43,85,0
6,Vettel,2021-04-27_13:31:03,15.2,1.0,-0.2,13,0,63
7,Red Bull,2021-04-27_13:31:03,26.1,1.0,0.1,32,0,0
8,Stroll,2021-04-27_13:31:03,13.6,1.0,0.0,9,8,0
9,Mazepin,2021-04-27_13:31:03,5.3,1.0,0.0,5,0,28
10,Tsunoda,2021-04-27_13:31:03,9.4,1.0,0.0,34,0,42
11,Latifi,2021-04-27_13:31:03,6.5,1.0,0.0,4,0,70
12,Russell,2021-04-27_13:31:03,6.2,1.0,0.0,44,77,0
13,Alonso,2021-04-27_13:31:03,15.0,1.0,-0.2,11,0,54
14,Verstappen,2021-04-27_13:31:03,25.2,1.0,0.1,55,85,0
15,McLaren,2021-04-27_13:31:03,18.7,1.0,0.0,29,85,0
16,Ricciardo,2021-04-27_13:31:03,16.6,1.0,-0.1,31,0,97
17,Ocon,2021-04-27_13:31:03,9.6,1.0,-0.1,13,3,0
18,Schumacher,2021-04-27_13:31:03,5.7,1.0,0.0,25,0,25
19,Leclerc,2021-04-27_13:31:03,17.7,1.0,0.3,36,38,0
20,Bottas,2021-04-27_13:31:03,23.4,1.0,-0.1,12,0,72
21,Ferrari,2021-04-27_13:31:03,18.8,1.0,0.1,11,51,0
22,Williams,2021-04-27_13:31:03,6.3,1.0,0.0,4,0,33
23,Mercedes,2021-04-27_13:31:03,37.7,1.0,-0.1,11,0,69
24,Haas,2021-04-27_13:31:03,6.1,1.0,0.0,4,0,28
25,Aston Martin,2021-04-27_13:31:03,16.7,1.0,-0.2,5,0,30
26,Sainz,2021-04-27_13:31:03,14.3,1.0,0.0,26,14,0
27,Alfa Romeo,2021-04-27_13:31:03,8.9,1.0,0.0,4,16,0
28,Norris,2021-04-27_13:31:03,13.6,1.0,0.2,59,79,0
29,Giovinazzi,2021-04-27_13:31:03,7.8,1.0,0.0,7,0,42
