,name,request_time,price,chance_of_playing,weekly_price_change,current_selection_percentage,probability_price_up_percentage,probability_price_down_percentage
0,AlphaTauri,2021-04-29_07:01:03,13.2,1.0,0.0,7,0,67
1,Perez,2021-04-29_07:01:03,18.3,1.0,-0.1,31,0,28
2,Alpine,2021-04-29_07:01:03,15.0,1.0,-0.1,4,0,34
3,Hamilton,2021-04-29_07:01:03,33.4,1.0,0.0,27,0,79
4,Raikkonen,2021-04-29_07:01:03,9.4,1.0,0.0,14,0,14
5,Gasly,2021-04-29_07:01:03,11.7,1.0,0.0,44,86,0
6,Vettel,2021-04-29_07:01:03,15.2,1.0,-0.2,13,0,77
7,Red Bull,2021-04-29_07:01:03,26.1,1.0,0.1,32,0,5
8,Stroll,2021-04-29_07:01:03,13.6,1.0,0.0,9,11,0
9,Mazepin,2021-04-29_07:01:03,5.3,1.0,0.0,5,0,29
10,Tsunoda,2021-04-29_07:01:03,9.4,1.0,0.0,34,0,50
11,Latifi,2021-04-29_07:01:03,6.5,1.0,0.0,4,0,72
12,Russell,2021-04-29_07:01:03,6.2,1.0,0.0,44,77,0
13,Alonso,2021-04-29_07:01:03,15.0,1.0,-0.2,11,0,66
14,Verstappen,2021-04-29_07:01:03,25.2,1.0,0.1,55,93,0
15,McLaren,2021-04-29_07:01:03,18.8,1.0,0.1,29,4,0
16,Ricciardo,2021-04-29_07:01:03,16.5,1.0,-0.2,31,0,9
17,Ocon,2021-04-29_07:01:03,9.6,1.0,-0.1,13,5,0
18,Schumacher,2021-04-29_07:01:03,5.7,1.0,0.0,25,0,27
19,Leclerc,2021-04-29_07:01:03,17.7,1.0,0.3,36,53,0
20,Bottas,2021-04-29_07:01:03,23.4,1.0,-0.1,11,0,85
21,Ferrari,2021-04-29_07:01:03,18.8,1.0,0.1,11,48,0
22,Mercedes,2021-04-29_07:01:03,37.7,1.0,-0.1,11,0,79
23,Aston Martin,2021-04-29_07:01:03,16.7,1.0,-0.2,5,0,40
24,Haas,2021-04-29_07:01:03,6.1,1.0,0.0,4,0,27
25,Williams,2021-04-29_07:01:03,6.3,1.0,0.0,4,0,33
26,Norris,2021-04-29_07:01:03,13.6,1.0,0.2,60,90,0
27,Giovinazzi,2021-04-29_07:01:03,7.8,1.0,0.0,7,0,45
28,Sainz,2021-04-29_07:01:03,14.3,1.0,0.0,26,19,0
29,Alfa Romeo,2021-04-29_07:01:03,8.9,1.0,0.0,4,19,0
