,name,request_time,price,chance_of_playing,weekly_price_change,current_selection_percentage,probability_price_up_percentage,probability_price_down_percentage
0,AlphaTauri,2021-05-22_16:31:03,12.6,1.0,-0.2,5,0,19
1,Perez,2021-05-22_16:31:03,18.0,1.0,-0.2,29,0,63
2,Alpine,2021-05-22_16:31:03,15.2,1.0,0.0,4,0,37
3,Gasly,2021-05-22_16:31:03,11.5,1.0,-0.2,39,0,11
4,Verstappen,2021-05-22_16:31:03,25.4,1.0,0.1,57,42,0
5,Giovinazzi,2021-05-22_16:31:03,7.8,1.0,0.0,8,63,0
6,Sainz,2021-05-22_16:31:03,14.6,1.0,0.1,29,3,0
7,Alfa Romeo,2021-05-22_16:31:03,9.2,1.0,0.3,4,0,1
8,Mazepin,2021-05-22_16:31:03,5.3,1.0,0.0,5,0,15
9,Raikkonen,2021-05-22_16:31:03,9.4,1.0,0.1,14,40,0
10,Hamilton,2021-05-22_16:31:03,33.3,1.0,0.0,27,0,22
11,Vettel,2021-05-22_16:31:03,14.9,1.0,-0.1,11,0,28
12,Tsunoda,2021-05-22_16:31:03,8.6,1.0,-0.3,23,0,89
13,Red Bull,2021-05-22_16:31:03,26.0,1.0,-0.1,30,0,72
14,Stroll,2021-05-22_16:31:03,13.4,1.0,-0.1,8,0,30
15,Williams,2021-05-22_16:31:03,6.3,1.0,0.0,4,0,31
16,Norris,2021-05-22_16:31:03,13.9,1.0,0.0,63,0,2
17,Mercedes,2021-05-22_16:31:03,37.5,1.0,-0.1,10,0,65
18,Haas,2021-05-22_16:31:03,6.1,1.0,0.0,4,0,13
19,Aston Martin,2021-05-22_16:31:03,16.4,1.0,-0.1,5,0,1
20,Latifi,2021-05-22_16:31:03,6.4,1.0,0.0,4,0,21
21,Russell,2021-05-22_16:31:03,6.2,1.0,-0.1,42,4,0
22,Alonso,2021-05-22_16:31:03,14.8,1.0,-0.2,10,0,30
23,McLaren,2021-05-22_16:31:03,18.7,1.0,-0.2,28,0,41
24,Ricciardo,2021-05-22_16:31:03,16.2,1.0,0.0,29,25,0
25,Schumacher,2021-05-22_16:31:03,5.9,1.0,0.1,27,0,70
26,Leclerc,2021-05-22_16:31:03,18.3,1.0,0.3,42,68,0
27,Ocon,2021-05-22_16:31:03,10.5,1.0,0.2,23,0,24
28,Bottas,2021-05-22_16:31:03,23.2,1.0,-0.1,10,0,97
29,Ferrari,2021-05-22_16:31:03,19.5,1.0,0.8,14,98,0
