,name,request_time,price,chance_of_playing,weekly_price_change,current_selection_percentage,probability_price_up_percentage,probability_price_down_percentage
0,AlphaTauri,2021-04-30_12:11:03,13.2,1.0,0.0,7,0,75
1,Perez,2021-04-30_12:11:03,18.3,1.0,-0.1,31,0,35
2,Alpine,2021-04-30_12:11:03,15.0,1.0,-0.1,4,0,39
3,Raikkonen,2021-04-30_12:11:03,9.4,1.0,0.0,14,0,13
4,Hamilton,2021-04-30_12:11:03,33.4,1.0,0.0,27,0,82
5,Gasly,2021-04-30_12:11:03,11.7,1.0,0.0,44,87,0
6,Vettel,2021-04-30_12:11:03,15.2,1.0,-0.2,13,0,97
7,Red Bull,2021-04-30_12:11:03,26.1,1.0,0.1,31,0,11
8,Stroll,2021-04-30_12:11:03,13.6,1.0,0.0,9,16,0
9,Mazepin,2021-04-30_12:11:03,5.3,1.0,0.0,5,0,31
10,Tsunoda,2021-04-30_12:11:03,9.4,1.0,0.0,33,0,64
11,Latifi,2021-04-30_12:11:03,6.5,1.0,0.0,4,0,74
12,Russell,2021-04-30_12:11:03,6.2,1.0,0.0,44,79,0
13,Alonso,2021-04-30_12:11:03,15.0,1.0,-0.2,10,0,84
14,Verstappen,2021-04-30_12:11:03,25.3,1.0,0.2,55,5,0
15,McLaren,2021-04-30_12:11:03,18.8,1.0,0.1,29,30,0
16,Ricciardo,2021-04-30_12:11:03,16.5,1.0,-0.2,31,0,22
17,Leclerc,2021-04-30_12:11:03,17.7,1.0,0.3,36,78,0
18,Schumacher,2021-04-30_12:11:03,5.7,1.0,0.0,25,0,29
19,Ocon,2021-04-30_12:11:03,9.6,1.0,-0.1,13,8,0
20,Bottas,2021-04-30_12:11:03,23.3,1.0,-0.2,11,0,3
21,Ferrari,2021-04-30_12:11:03,18.8,1.0,0.1,11,51,0
22,Mercedes,2021-04-30_12:11:03,37.7,1.0,-0.1,11,0,94
23,Aston Martin,2021-04-30_12:11:03,16.7,1.0,-0.2,5,0,56
24,Haas,2021-04-30_12:11:03,6.1,1.0,0.0,4,0,28
25,Williams,2021-04-30_12:11:03,6.3,1.0,0.0,4,0,33
26,Norris,2021-04-30_12:11:03,13.7,1.0,0.3,60,10,0
27,Giovinazzi,2021-04-30_12:11:03,7.8,1.0,0.0,7,0,47
28,Sainz,2021-04-30_12:11:03,14.3,1.0,0.0,27,28,0
29,Alfa Romeo,2021-04-30_12:11:03,8.9,1.0,0.0,4,21,0
