,name,request_time,price,chance_of_playing,weekly_price_change,current_selection_percentage,probability_price_up_percentage,probability_price_down_percentage
0,Mercedes,2021-04-08_13:30:02,37.9,1.0,-0.1,12,0,45
1,McLaren,2021-04-08_13:30:02,18.9,1.0,0.0,30,0,18
2,Red Bull,2021-04-08_13:30:02,26.0,1.0,0.100000000000001,31,33,0
3,Alfa Romeo,2021-04-08_13:30:02,8.9,1.0,0.0,1,0,0
4,Stroll,2021-04-08_13:30:02,13.8,1.0,-0.0999999999999996,10,0,67
5,Bottas,2021-04-08_13:30:02,23.5,1.0,-0.100000000000001,12,0,29
6,Vettel,2021-04-08_13:30:02,15.7,1.0,-0.5,16,0,47
7,Mazepin,2021-04-08_13:30:02,5.4,1.0,-0.0999999999999996,5,0,48
8,Tsunoda,2021-04-08_13:30:02,9.2,1.0,0.4,31,40,0
9,Haas,2021-04-08_13:30:02,6.1,1.0,0.0,1,0,19
10,Aston Martin,2021-04-08_13:30:02,17.1,1.0,-0.5,7,0,14
11,Williams,2021-04-08_13:30:02,6.3,1.0,0.0,1,0,26
12,Raikkonen,2021-04-08_13:30:02,9.5,1.0,-0.1,15,0,25
13,Schumacher,2021-04-08_13:30:02,5.8,1.0,0.0,26,0,21
14,Verstappen,2021-04-08_13:30:02,25.0,1.0,0.2,52,58,0
15,Perez,2021-04-08_13:30:02,18.3,1.0,-0.0999999999999979,32,23,0
16,Latifi,2021-04-08_13:30:02,6.5,1.0,0.0,4,0,47
17,Russell,2021-04-08_13:30:02,6.2,1.0,0.0,42,0,0
18,Alpine,2021-04-08_13:30:02,15.2,1.0,-0.2,3,0,36
19,Ferrari,2021-04-08_13:30:02,18.4,1.0,0.3,9,21,0
20,Alonso,2021-04-08_13:30:02,15.4,1.0,-0.199999999999999,13,0,96
21,Leclerc,2021-04-08_13:30:02,17.2,1.0,0.4,30,36,0
22,Sainz,2021-04-08_13:30:02,14.4,1.0,0.0,26,0,87
23,Norris,2021-04-08_13:30:02,13.3,1.0,0.2,54,57,0
24,AlphaTauri,2021-04-08_13:30:02,13.0,1.0,0.3,6,33,0
25,Giovinazzi,2021-04-08_13:30:02,7.9,1.0,0.0,8,0,54
26,Ricciardo,2021-04-08_13:30:02,17.0,1.0,-0.3,36,0,24
27,Hamilton,2021-04-08_13:30:02,33.5,1.0,0.0,28,0,81
28,Ocon,2021-04-08_13:30:02,9.8,1.0,-0.3,15,0,3
29,Gasly,2021-04-08_13:30:02,11.8,1.0,0.1,43,0,30
