,name,request_time,price,chance_of_playing,weekly_price_change,current_selection_percentage,probability_price_up_percentage,probability_price_down_percentage
0,AlphaTauri,2021-04-18_20:01:03,13.2,1.0,0.0,7,1,0
1,Raikkonen,2021-04-18_20:01:03,9.4,1.0,0.0,14,0,20
2,Hamilton,2021-04-18_20:01:03,33.4,1.0,0.0,28,0,52
3,Vettel,2021-04-18_20:01:03,15.4,1.0,0.0,14,0,81
4,Alonso,2021-04-18_20:01:03,15.1,1.0,-0.1,11,0,16
5,Verstappen,2021-04-18_20:01:03,25.1,1.0,0.0,54,86,0
6,McLaren,2021-04-18_20:01:03,18.7,1.0,0.0,28,0,32
7,Ocon,2021-04-18_20:01:03,9.7,1.0,0.0,14,0,86
8,Schumacher,2021-04-18_20:01:03,5.7,1.0,0.0,25,0,7
9,Bottas,2021-04-18_20:01:03,23.5,1.0,0.0,12,0,37
10,Red Bull,2021-04-18_20:01:03,26.1,1.0,0.1,32,10,0
11,Williams,2021-04-18_20:01:03,6.3,1.0,0.0,4,0,34
12,Norris,2021-04-18_20:01:03,13.5,1.0,0.1,57,19,0
13,Alfa Romeo,2021-04-18_20:01:03,8.9,1.0,0.0,4,4,0
14,Mazepin,2021-04-18_20:01:03,5.3,1.0,0.0,5,0,14
15,Mercedes,2021-04-18_20:01:03,37.8,1.0,0.0,11,0,70
16,Haas,2021-04-18_20:01:03,6.1,1.0,0.0,4,0,27
17,Alpine,2021-04-18_20:01:03,15.1,1.0,0.0,4,0,68
18,Latifi,2021-04-18_20:01:03,6.5,1.0,0.0,4,0,53
19,Russell,2021-04-18_20:01:03,6.2,1.0,0.0,44,68,0
20,Ferrari,2021-04-18_20:01:03,18.7,1.0,0.0,11,59,0
21,Tsunoda,2021-04-18_20:01:03,9.4,1.0,0.0,35,21,0
22,Ricciardo,2021-04-18_20:01:03,16.7,1.0,0.0,33,0,65
23,Leclerc,2021-04-18_20:01:03,17.5,1.0,0.1,34,11,0
24,Stroll,2021-04-18_20:01:03,13.6,1.0,0.0,9,0,21
25,Giovinazzi,2021-04-18_20:01:03,7.8,1.0,0.0,7,0,21
26,Aston Martin,2021-04-18_20:01:03,16.8,1.0,-0.1,6,0,4
27,Perez,2021-04-18_20:01:03,18.4,1.0,0.0,33,0,10
28,Gasly,2021-04-18_20:01:03,11.7,1.0,0.0,43,64,0
29,Sainz,2021-04-18_20:01:03,14.3,1.0,0.0,26,0,25
