,name,request_time,price,chance_of_playing,weekly_price_change,current_selection_percentage,probability_price_up_percentage,probability_price_down_percentage
0,AlphaTauri,2021-06-20_11:21:03,12.6,1.0,0.0,5,7,0
1,Perez,2021-06-20_11:21:03,18.4,1.0,0.2,33,85,0
2,Alpine,2021-06-20_11:21:03,15.3,1.0,0.1,4,41,0
3,Bottas,2021-06-20_11:21:03,23.0,1.0,-0.1,10,86,0
4,Ferrari,2021-06-20_11:21:03,19.2,1.0,-0.5,13,0,40
5,Stroll,2021-06-20_11:21:03,13.3,1.0,-0.1,7,0,18
6,Williams,2021-06-20_11:21:03,6.3,1.0,0.0,4,0,43
7,Norris,2021-06-20_11:21:03,13.9,1.0,0.0,63,51,0
8,Mazepin,2021-06-20_11:21:03,5.3,1.0,0.0,5,0,22
9,Hamilton,2021-06-20_11:21:03,33.1,1.0,-0.1,25,0,13
10,Raikkonen,2021-06-20_11:21:03,9.3,1.0,-0.1,13,0,23
11,Gasly,2021-06-20_11:21:03,11.8,1.0,0.2,43,0,25
12,Vettel,2021-06-20_11:21:03,15.0,1.0,0.1,13,74,0
13,Tsunoda,2021-06-20_11:21:03,8.4,1.0,0.0,22,9,0
14,Red Bull,2021-06-20_11:21:03,26.3,1.0,0.2,33,15,0
15,Sainz,2021-06-20_11:21:03,14.7,1.0,0.0,30,0,27
16,Alfa Romeo,2021-06-20_11:21:03,9.2,1.0,0.0,4,0,44
17,Mercedes,2021-06-20_11:21:03,37.3,1.0,-0.1,9,0,36
18,Haas,2021-06-20_11:21:03,6.1,1.0,0.0,4,0,23
19,Aston Martin,2021-06-20_11:21:03,16.4,1.0,0.0,5,39,0
20,Latifi,2021-06-20_11:21:03,6.4,1.0,0.0,4,0,36
21,Russell,2021-06-20_11:21:03,6.2,1.0,0.0,40,0,91
22,Alonso,2021-06-20_11:21:03,14.8,1.0,0.0,10,52,0
23,Verstappen,2021-06-20_11:21:03,25.5,1.0,0.0,58,67,0
24,McLaren,2021-06-20_11:21:03,18.6,1.0,0.0,27,0,56
25,Giovinazzi,2021-06-20_11:21:03,8.0,1.0,0.0,9,59,0
26,Ricciardo,2021-06-20_11:21:03,15.9,1.0,-0.2,26,0,44
27,Leclerc,2021-06-20_11:21:03,18.0,1.0,-0.3,38,0,60
28,Schumacher,2021-06-20_11:21:03,5.8,1.0,0.0,26,0,17
29,Ocon,2021-06-20_11:21:03,10.4,1.0,-0.1,23,81,0
