,name,request_time,price,chance_of_playing,weekly_price_change,current_selection_percentage,probability_price_up_percentage,probability_price_down_percentage
0,Gasly,2021-08-01_23:01:02,11.9,1.0,0.0,45,0,28
1,Vettel,2021-08-01_23:01:02,15.2,1.0,0.0,13,0,55
2,Tsunoda,2021-08-01_23:01:02,8.5,1.0,0.0,22,0,93
3,Ocon,2021-08-01_23:01:02,10.0,1.0,-0.1,19,50,0
4,Bottas,2021-08-01_23:01:02,23.1,1.0,0.1,10,0,22
5,Ferrari,2021-08-01_23:01:02,18.8,1.0,0.1,11,8,0
6,Red Bull,2021-08-01_23:01:02,26.6,1.0,-0.1,35,0,56
7,Stroll,2021-08-01_23:01:02,13.3,1.0,0.0,8,0,3
8,Williams,2021-08-01_23:01:02,6.3,1.0,0.0,4,0,36
9,Norris,2021-08-01_23:01:02,14.2,1.0,0.1,66,0,6
10,Mazepin,2021-08-01_23:01:02,5.3,1.0,0.0,5,4,0
11,Hamilton,2021-08-01_23:01:02,33.0,1.0,0.0,24,0,20
12,Mercedes,2021-08-01_23:01:02,37.1,1.0,-0.1,8,0,0
13,Haas,2021-08-01_23:01:02,6.1,1.0,0.0,4,0,27
14,Aston Martin,2021-08-01_23:01:02,16.4,1.0,0.0,5,46,0
15,AlphaTauri,2021-08-01_23:01:02,12.7,1.0,0.0,5,0,59
16,Perez,2021-08-01_23:01:02,18.6,1.0,-0.2,34,0,26
17,Alpine,2021-08-01_23:01:02,15.1,1.0,0.0,4,0,69
18,Raikkonen,2021-08-01_23:01:02,9.3,1.0,0.0,13,0,66
19,Sainz,2021-08-01_23:01:02,14.5,1.0,0.1,28,4,0
20,Alfa Romeo,2021-08-01_23:01:02,9.2,1.0,0.0,4,0,86
21,McLaren,2021-08-01_23:01:02,18.7,1.0,0.1,28,0,0
22,Ricciardo,2021-08-01_23:01:02,15.8,1.0,0.0,25,0,73
23,Leclerc,2021-08-01_23:01:02,17.6,1.0,0.1,36,91,0
24,Schumacher,2021-08-01_23:01:02,5.8,1.0,0.0,27,0,0
25,Giovinazzi,2021-08-01_23:01:02,8.1,1.0,0.1,9,0,79
26,Latifi,2021-08-01_23:01:02,6.4,1.0,0.0,4,0,58
27,Russell,2021-08-01_23:01:02,6.2,1.0,0.0,42,4,0
28,Alonso,2021-08-01_23:01:02,14.9,1.0,0.1,11,19,0
29,Verstappen,2021-08-01_23:01:02,25.7,1.0,0.0,60,35,0
