,name,request_time,price,chance_of_playing,weekly_price_change,current_selection_percentage,probability_price_up_percentage,probability_price_down_percentage
0,Ocon,2021-07-17_02:11:02,10.1,1.0,-0.1,19,0,86
1,Bottas,2021-07-17_02:11:02,23.0,1.0,0.0,10,0,38
2,Ferrari,2021-07-17_02:11:02,18.7,1.0,0.0,10,0,78
3,Red Bull,2021-07-17_02:11:02,26.7,1.0,0.1,36,33,0
4,Stroll,2021-07-17_02:11:02,13.3,1.0,0.0,8,7,0
5,Gasly,2021-07-17_02:11:02,11.9,1.0,0.0,46,34,0
6,Vettel,2021-07-17_02:11:02,15.2,1.0,0.0,13,0,5
7,Tsunoda,2021-07-17_02:11:02,8.5,1.0,0.0,23,0,15
8,Williams,2021-07-17_02:11:02,6.3,1.0,0.0,4,0,43
9,Norris,2021-07-17_02:11:02,14.1,1.0,0.1,66,76,0
10,Hamilton,2021-07-17_02:11:02,33.0,1.0,0.0,24,0,60
11,Mazepin,2021-07-17_02:11:02,5.3,1.0,0.0,5,0,10
12,Mercedes,2021-07-17_02:11:02,37.2,1.0,0.0,8,0,96
13,Haas,2021-07-17_02:11:02,6.1,1.0,0.0,4,0,26
14,AlphaTauri,2021-07-17_02:11:02,12.7,1.0,0.0,6,0,1
15,Aston Martin,2021-07-17_02:11:02,16.4,1.0,0.0,5,56,0
16,Perez,2021-07-17_02:11:02,18.8,1.0,0.0,36,0,0
17,Alpine,2021-07-17_02:11:02,15.1,1.0,0.0,4,0,78
18,Raikkonen,2021-07-17_02:11:02,9.3,1.0,0.0,13,0,66
19,Sainz,2021-07-17_02:11:02,14.4,1.0,0.1,28,2,0
20,Alfa Romeo,2021-07-17_02:11:02,9.2,1.0,0.0,4,0,78
21,McLaren,2021-07-17_02:11:02,18.6,1.0,0.0,28,0,0
22,Ricciardo,2021-07-17_02:11:02,15.8,1.0,0.0,25,0,51
23,Schumacher,2021-07-17_02:11:02,5.8,1.0,0.0,27,33,0
24,Leclerc,2021-07-17_02:11:02,17.5,1.0,-0.1,34,0,4
25,Giovinazzi,2021-07-17_02:11:02,8.0,1.0,0.0,9,70,0
26,Latifi,2021-07-17_02:11:02,6.4,1.0,0.0,4,0,58
27,Russell,2021-07-17_02:11:02,6.2,1.0,0.0,41,0,42
28,Alonso,2021-07-17_02:11:02,14.8,1.0,0.0,10,41,0
29,Verstappen,2021-07-17_02:11:02,25.7,1.0,0.0,61,76,0
