,name,request_time,price,chance_of_playing,weekly_price_change,current_selection_percentage,probability_price_up_percentage,probability_price_down_percentage
0,Mercedes,2021-04-09_14:50:03,37.9,1.0,-0.1,12,0,50
1,McLaren,2021-04-09_14:50:03,18.9,1.0,0.0,29,0,26
2,Red Bull,2021-04-09_14:50:03,26.0,1.0,0.100000000000001,31,37,0
3,Alfa Romeo,2021-04-09_14:50:03,8.9,1.0,0.0,1,0,0
4,Stroll,2021-04-09_14:50:03,13.8,1.0,-0.0999999999999996,10,0,73
5,Bottas,2021-04-09_14:50:03,23.5,1.0,-0.100000000000001,12,0,32
6,Vettel,2021-04-09_14:50:03,15.7,1.0,-0.5,16,0,61
7,Mazepin,2021-04-09_14:50:03,5.4,1.0,-0.0999999999999996,5,0,52
8,Tsunoda,2021-04-09_14:50:03,9.2,1.0,0.4,31,56,0
9,Haas,2021-04-09_14:50:03,6.1,1.0,0.0,1,0,19
10,Aston Martin,2021-04-09_14:50:03,17.1,1.0,-0.5,7,0,28
11,Williams,2021-04-09_14:50:03,6.3,1.0,0.0,1,0,28
12,Raikkonen,2021-04-09_14:50:03,9.5,1.0,-0.1,15,0,28
13,Schumacher,2021-04-09_14:50:03,5.8,1.0,0.0,26,0,24
14,Verstappen,2021-04-09_14:50:03,25.0,1.0,0.2,52,65,0
15,Perez,2021-04-09_14:50:03,18.3,1.0,-0.0999999999999979,32,24,0
16,Latifi,2021-04-09_14:50:03,6.5,1.0,0.0,4,0,48
17,Russell,2021-04-09_14:50:03,6.2,1.0,0.0,42,1,0
18,Alpine,2021-04-09_14:50:03,15.2,1.0,-0.2,3,0,42
19,Ferrari,2021-04-09_14:50:03,18.4,1.0,0.3,9,35,0
20,Leclerc,2021-04-09_14:50:03,17.2,1.0,0.4,30,47,0
21,Alonso,2021-04-09_14:50:03,15.3,1.0,-0.3,13,0,7
22,Sainz,2021-04-09_14:50:03,14.4,1.0,0.0,26,0,91
23,Norris,2021-04-09_14:50:03,13.3,1.0,0.2,55,65,0
24,AlphaTauri,2021-04-09_14:50:03,13.0,1.0,0.3,7,50,0
25,Giovinazzi,2021-04-09_14:50:03,7.9,1.0,0.0,8,0,57
26,Ricciardo,2021-04-09_14:50:03,17.0,1.0,-0.3,36,0,33
27,Hamilton,2021-04-09_14:50:03,33.5,1.0,0.0,28,0,84
28,Ocon,2021-04-09_14:50:03,9.8,1.0,-0.3,15,0,10
29,Gasly,2021-04-09_14:50:03,11.8,1.0,0.1,43,0,37
