,name,request_time,price,chance_of_playing,weekly_price_change,current_selection_percentage,probability_price_up_percentage,probability_price_down_percentage
0,Red Bull,2021-05-08_17:31:02,26.1,1.0,0.0,31,0,18
1,Stroll,2021-05-08_17:31:02,13.5,1.0,0.0,8,0,33
2,AlphaTauri,2021-05-08_17:31:02,12.8,1.0,0.0,6,0,23
3,Perez,2021-05-08_17:31:02,18.2,1.0,0.0,30,0,50
4,Alpine,2021-05-08_17:31:02,15.3,1.0,0.1,4,0,0
5,Raikkonen,2021-05-08_17:31:02,9.3,1.0,0.0,13,0,51
6,Hamilton,2021-05-08_17:31:02,33.3,1.0,0.0,28,23,0
7,Ocon,2021-05-08_17:31:02,10.4,1.0,0.1,22,3,0
8,Bottas,2021-05-08_17:31:02,23.3,1.0,0.0,11,0,85
9,Ferrari,2021-05-08_17:31:02,18.7,1.0,0.0,11,0,32
10,Mazepin,2021-05-08_17:31:02,5.3,1.0,0.0,5,0,48
11,Gasly,2021-05-08_17:31:02,11.6,1.0,-0.1,41,0,3
12,Vettel,2021-05-08_17:31:02,15.0,1.0,0.0,12,0,63
13,Tsunoda,2021-05-08_17:31:02,8.9,1.0,0.0,27,0,55
14,Russell,2021-05-08_17:31:02,6.3,1.0,0.0,42,0,94
15,Alonso,2021-05-08_17:31:02,15.0,1.0,0.0,11,0,67
16,Verstappen,2021-05-08_17:31:02,25.3,1.0,0.0,56,75,0
17,McLaren,2021-05-08_17:31:02,18.9,1.0,0.0,30,17,0
18,Ricciardo,2021-05-08_17:31:02,16.2,1.0,0.0,29,0,4
19,Leclerc,2021-05-08_17:31:02,18.0,1.0,0.0,39,41,0
20,Mercedes,2021-05-08_17:31:02,37.6,1.0,0.0,10,0,65
21,Haas,2021-05-08_17:31:02,6.1,1.0,0.0,4,0,24
22,Aston Martin,2021-05-08_17:31:02,16.5,1.0,0.0,5,0,25
23,Latifi,2021-05-08_17:31:02,6.4,1.0,0.0,4,0,21
24,Schumacher,2021-05-08_17:31:02,5.8,1.0,0.0,27,45,0
25,Williams,2021-05-08_17:31:02,6.3,1.0,0.0,4,0,43
26,Giovinazzi,2021-05-08_17:31:02,7.8,1.0,0.0,7,0,41
27,Norris,2021-05-08_17:31:02,13.9,1.0,0.0,63,9,0
28,Sainz,2021-05-08_17:31:02,14.3,1.0,0.0,26,0,3
29,Alfa Romeo,2021-05-08_17:31:02,8.9,1.0,0.0,4,40,0
