,name,request_time,price,chance_of_playing,weekly_price_change,current_selection_percentage,probability_price_up_percentage,probability_price_down_percentage
0,AlphaTauri,2021-06-19_14:31:03,12.6,1.0,0.0,5,9,0
1,Perez,2021-06-19_14:31:03,18.4,1.0,0.2,33,68,0
2,Alpine,2021-06-19_14:31:03,15.3,1.0,0.1,4,9,0
3,Williams,2021-06-19_14:31:03,6.3,1.0,0.0,4,0,44
4,Norris,2021-06-19_14:31:03,13.9,1.0,0.0,63,51,0
5,Mazepin,2021-06-19_14:31:03,5.3,1.0,0.0,5,0,22
6,Hamilton,2021-06-19_14:31:03,33.1,1.0,-0.1,25,0,10
7,Raikkonen,2021-06-19_14:31:03,9.3,1.0,-0.1,13,0,20
8,Gasly,2021-06-19_14:31:03,11.8,1.0,0.2,43,0,18
9,Vettel,2021-06-19_14:31:03,15.0,1.0,0.1,13,76,0
10,Tsunoda,2021-06-19_14:31:03,8.4,1.0,-0.2,22,13,0
11,Red Bull,2021-06-19_14:31:03,26.2,1.0,0.1,33,94,0
12,Sainz,2021-06-19_14:31:03,14.7,1.0,0.2,30,0,23
13,Alfa Romeo,2021-06-19_14:31:03,9.2,1.0,0.0,4,0,44
14,Mercedes,2021-06-19_14:31:03,37.3,1.0,-0.2,9,0,36
15,Aston Martin,2021-06-19_14:31:03,16.4,1.0,0.0,5,39,0
16,Haas,2021-06-19_14:31:03,6.1,1.0,0.0,4,0,24
17,Latifi,2021-06-19_14:31:03,6.4,1.0,0.0,4,0,34
18,Russell,2021-06-19_14:31:03,6.2,1.0,0.0,40,0,89
19,Alonso,2021-06-19_14:31:03,14.8,1.0,0.0,10,32,0
20,Verstappen,2021-06-19_14:31:03,25.5,1.0,0.1,58,61,0
21,McLaren,2021-06-19_14:31:03,18.6,1.0,-0.1,27,0,58
22,Giovinazzi,2021-06-19_14:31:03,8.0,1.0,0.2,9,60,0
23,Ricciardo,2021-06-19_14:31:03,15.9,1.0,-0.2,26,0,38
24,Leclerc,2021-06-19_14:31:03,18.0,1.0,-0.3,39,0,16
25,Schumacher,2021-06-19_14:31:03,5.8,1.0,-0.1,26,0,20
26,Ocon,2021-06-19_14:31:03,10.4,1.0,-0.1,23,54,0
27,Bottas,2021-06-19_14:31:03,23.0,1.0,-0.2,10,64,0
28,Ferrari,2021-06-19_14:31:03,19.3,1.0,-0.4,13,0,78
29,Stroll,2021-06-19_14:31:03,13.3,1.0,-0.1,7,0,15
