,name,request_time,price,chance_of_playing,weekly_price_change,current_selection_percentage,probability_price_up_percentage,probability_price_down_percentage
0,AlphaTauri,2021-04-17_14:41:03,13.2,1.0,0.0,7,9,0
1,Raikkonen,2021-04-17_14:41:03,9.4,1.0,0.0,14,0,20
2,Ocon,2021-04-17_14:41:03,9.7,1.0,0.0,14,0,77
3,Verstappen,2021-04-17_14:41:03,25.1,1.0,0.0,54,54,0
4,McLaren,2021-04-17_14:41:03,18.7,1.0,0.0,28,0,45
5,Schumacher,2021-04-17_14:41:03,5.7,1.0,0.0,25,0,0
6,Bottas,2021-04-17_14:41:03,23.5,1.0,0.0,13,1,0
7,Red Bull,2021-04-17_14:41:03,26.0,1.0,0.0,32,83,0
8,Williams,2021-04-17_14:41:03,6.3,1.0,0.0,4,0,37
9,Norris,2021-04-17_14:41:03,13.4,1.0,0.0,56,63,0
10,Mazepin,2021-04-17_14:41:03,5.3,1.0,0.0,5,0,13
11,Mercedes,2021-04-17_14:41:03,37.8,1.0,0.0,11,0,38
12,Haas,2021-04-17_14:41:03,6.1,1.0,0.0,4,0,28
13,Hamilton,2021-04-17_14:41:03,33.4,1.0,0.0,28,0,44
14,Vettel,2021-04-17_14:41:03,15.4,1.0,0.0,14,0,31
15,Alonso,2021-04-17_14:41:03,15.2,1.0,0.0,12,0,79
16,Alfa Romeo,2021-04-17_14:41:03,8.9,1.0,0.0,4,1,0
17,Alpine,2021-04-17_14:41:03,15.1,1.0,0.0,4,0,59
18,Latifi,2021-04-17_14:41:03,6.5,1.0,0.0,4,0,53
19,Russell,2021-04-17_14:41:03,6.2,1.0,0.0,43,64,0
20,Ferrari,2021-04-17_14:41:03,18.7,1.0,0.0,11,22,0
21,Tsunoda,2021-04-17_14:41:03,9.4,1.0,0.0,35,21,0
22,Ricciardo,2021-04-17_14:41:03,16.7,1.0,0.0,33,0,31
23,Leclerc,2021-04-17_14:41:03,17.4,1.0,0.0,33,66,0
24,Stroll,2021-04-17_14:41:03,13.6,1.0,0.0,9,0,28
25,Giovinazzi,2021-04-17_14:41:03,7.8,1.0,0.0,8,0,14
26,Aston Martin,2021-04-17_14:41:03,16.9,1.0,0.0,6,0,76
27,Perez,2021-04-17_14:41:03,18.4,1.0,0.0,33,2,0
28,Gasly,2021-04-17_14:41:03,11.7,1.0,0.0,43,41,0
29,Sainz,2021-04-17_14:41:03,14.3,1.0,0.0,26,0,22
