,name,request_time,price,chance_of_playing,weekly_price_change,current_selection_percentage,probability_price_up_percentage,probability_price_down_percentage
0,Norris,2021-07-30_06:11:02,14.1,1.0,0.1,66,99,0
1,Gasly,2021-07-30_06:11:02,11.9,1.0,0.0,45,11,0
2,Vettel,2021-07-30_06:11:02,15.2,1.0,0.0,13,0,24
3,Tsunoda,2021-07-30_06:11:02,8.5,1.0,0.0,23,0,45
4,Ocon,2021-07-30_06:11:02,10.0,1.0,-0.1,19,0,9
5,Bottas,2021-07-30_06:11:02,23.0,1.0,0.0,10,0,33
6,Williams,2021-07-30_06:11:02,6.3,1.0,0.0,4,0,40
7,Ferrari,2021-07-30_06:11:02,18.7,1.0,0.0,10,0,61
8,Red Bull,2021-07-30_06:11:02,26.7,1.0,0.1,36,0,6
9,Stroll,2021-07-30_06:11:02,13.3,1.0,0.0,8,0,0
10,Hamilton,2021-07-30_06:11:02,33.0,1.0,0.0,24,0,57
11,Mazepin,2021-07-30_06:11:02,5.3,1.0,0.0,5,0,10
12,Mercedes,2021-07-30_06:11:02,37.1,1.0,-0.1,8,0,13
13,AlphaTauri,2021-07-30_06:11:02,12.7,1.0,0.0,5,0,22
14,Haas,2021-07-30_06:11:02,6.1,1.0,0.0,4,0,26
15,Aston Martin,2021-07-30_06:11:02,16.4,1.0,0.0,5,66,0
16,Perez,2021-07-30_06:11:02,18.8,1.0,0.0,35,0,84
17,Alpine,2021-07-30_06:11:02,15.1,1.0,0.0,4,0,84
18,Raikkonen,2021-07-30_06:11:02,9.3,1.0,0.0,13,0,70
19,Sainz,2021-07-30_06:11:02,14.4,1.0,0.1,28,2,0
20,Alfa Romeo,2021-07-30_06:11:02,9.2,1.0,0.0,4,0,81
21,McLaren,2021-07-30_06:11:02,18.6,1.0,0.0,28,44,0
22,Ricciardo,2021-07-30_06:11:02,15.8,1.0,0.0,25,0,55
23,Leclerc,2021-07-30_06:11:02,17.5,1.0,-0.1,35,94,0
24,Schumacher,2021-07-30_06:11:02,5.8,1.0,0.0,27,33,0
25,Giovinazzi,2021-07-30_06:11:02,8.1,1.0,0.1,10,0,13
26,Latifi,2021-07-30_06:11:02,6.4,1.0,0.0,4,0,62
27,Russell,2021-07-30_06:11:02,6.2,1.0,0.0,41,0,30
28,Alonso,2021-07-30_06:11:02,14.9,1.0,0.1,10,0,4
29,Verstappen,2021-07-30_06:11:02,25.7,1.0,0.0,61,79,0
