,name,request_time,price,chance_of_playing,weekly_price_change,current_selection_percentage,probability_price_up_percentage,probability_price_down_percentage
0,AlphaTauri,2021-04-16_21:01:03,13.2,1.0,0.5,7,15,0
1,Bottas,2021-04-16_21:01:03,23.5,1.0,-0.100000000000001,12,0,44
2,Williams,2021-04-16_21:01:03,6.3,1.0,0.0,4,0,37
3,Ocon,2021-04-16_21:01:03,9.7,1.0,-0.4,14,0,30
4,Hamilton,2021-04-16_21:01:03,33.4,1.0,-0.1,28,0,41
5,Mercedes,2021-04-16_21:01:03,37.8,1.0,-0.2,11,0,34
6,Red Bull,2021-04-16_21:01:03,26.0,1.0,0.100000000000001,31,56,0
7,McLaren,2021-04-16_21:01:03,18.8,1.0,-0.1,29,0,50
8,Verstappen,2021-04-16_21:01:03,25.1,1.0,0.3,54,54,0
9,Alonso,2021-04-16_21:01:03,15.2,1.0,-0.4,12,0,47
10,Mazepin,2021-04-16_21:01:03,5.4,1.0,-0.0999999999999996,5,0,93
11,Haas,2021-04-16_21:01:03,6.1,1.0,0.0,4,0,26
12,Raikkonen,2021-04-16_21:01:03,9.5,1.0,-0.1,14,0,65
13,Schumacher,2021-04-16_21:01:03,5.8,1.0,0.0,25,0,84
14,Latifi,2021-04-16_21:01:03,6.5,1.0,0.0,4,0,56
15,Norris,2021-04-16_21:01:03,13.4,1.0,0.3,56,44,0
16,Vettel,2021-04-16_21:01:03,15.5,1.0,-0.7,15,0,64
17,Alfa Romeo,2021-04-16_21:01:03,8.9,1.0,0.0,4,3,0
18,Alpine,2021-04-16_21:01:03,15.1,1.0,-0.3,4,0,34
19,Ferrari,2021-04-16_21:01:03,18.6,1.0,0.5,10,25,0
20,Russell,2021-04-16_21:01:03,6.2,1.0,0.0,42,25,0
21,Giovinazzi,2021-04-16_21:01:03,7.9,1.0,0.0,8,0,90
22,Stroll,2021-04-16_21:01:03,13.7,1.0,-0.2,9,0,74
23,Sainz,2021-04-16_21:01:03,14.3,1.0,-0.1,26,0,29
24,Ricciardo,2021-04-16_21:01:03,16.8,1.0,-0.5,34,0,14
25,Leclerc,2021-04-16_21:01:03,17.4,1.0,0.6,32,3,0
26,Tsunoda,2021-04-16_21:01:03,9.4,1.0,0.6,35,2,0
27,Aston Martin,2021-04-16_21:01:03,16.9,1.0,-0.7,6,0,17
28,Perez,2021-04-16_21:01:03,18.4,1.0,0.0,33,37,0
29,Gasly,2021-04-16_21:01:03,11.7,1.0,0.0,42,0,4
