,name,request_time,price,chance_of_playing,weekly_price_change,current_selection_percentage,probability_price_up_percentage,probability_price_down_percentage
0,AlphaTauri,2021-06-28_06:01:03,12.7,1.0,0.1,6,38,0
1,Perez,2021-06-28_06:01:03,18.8,1.0,0.4,36,29,0
2,Alpine,2021-06-28_06:01:03,15.2,1.0,-0.1,4,0,91
3,Williams,2021-06-28_06:01:03,6.3,1.0,0.0,4,0,46
4,Norris,2021-06-28_06:01:03,14.0,1.0,0.1,64,20,0
5,Bottas,2021-06-28_06:01:03,23.0,1.0,0.0,10,0,58
6,Ferrari,2021-06-28_06:01:03,18.7,1.0,-0.6,10,0,82
7,Stroll,2021-06-28_06:01:03,13.3,1.0,0.0,8,15,0
8,Mazepin,2021-06-28_06:01:03,5.3,1.0,0.0,5,0,13
9,Hamilton,2021-06-28_06:01:03,33.1,1.0,0.0,25,0,80
10,Raikkonen,2021-06-28_06:01:03,9.3,1.0,0.0,13,0,71
11,Gasly,2021-06-28_06:01:03,11.9,1.0,0.1,46,43,0
12,Vettel,2021-06-28_06:01:03,15.2,1.0,0.2,14,48,0
13,Tsunoda,2021-06-28_06:01:03,8.4,1.0,0.0,23,98,0
14,Red Bull,2021-06-28_06:01:03,26.5,1.0,0.3,35,67,0
15,Sainz,2021-06-28_06:01:03,14.3,1.0,-0.4,26,0,60
16,Alfa Romeo,2021-06-28_06:01:03,9.2,1.0,0.0,4,0,67
17,Mercedes,2021-06-28_06:01:03,37.2,1.0,-0.1,9,0,32
18,Aston Martin,2021-06-28_06:01:03,16.4,1.0,0.0,5,72,0
19,Haas,2021-06-28_06:01:03,6.1,1.0,0.0,4,0,26
20,Latifi,2021-06-28_06:01:03,6.4,1.0,0.0,4,0,47
21,Russell,2021-06-28_06:01:03,6.2,1.0,0.0,40,0,70
22,Alonso,2021-06-28_06:01:03,14.8,1.0,0.0,10,44,0
23,Verstappen,2021-06-28_06:01:03,25.6,1.0,0.1,60,72,0
24,McLaren,2021-06-28_06:01:03,18.6,1.0,0.0,28,61,0
25,Giovinazzi,2021-06-28_06:01:03,8.0,1.0,0.0,9,45,0
26,Ricciardo,2021-06-28_06:01:03,15.9,1.0,0.0,26,30,0
27,Leclerc,2021-06-28_06:01:03,17.6,1.0,-0.4,34,0,75
28,Schumacher,2021-06-28_06:01:03,5.8,1.0,0.0,26,0,24
29,Ocon,2021-06-28_06:01:03,10.3,1.0,-0.1,21,0,8
