,name,request_time,price,chance_of_playing,weekly_price_change,current_selection_percentage,probability_price_up_percentage,probability_price_down_percentage
0,AlphaTauri,2021-06-27_08:21:02,12.7,1.0,0.1,6,37,0
1,Perez,2021-06-27_08:21:02,18.8,1.0,0.4,36,12,0
2,Alpine,2021-06-27_08:21:02,15.2,1.0,-0.1,4,0,82
3,Tsunoda,2021-06-27_08:21:02,8.4,1.0,0.0,23,68,0
4,Bottas,2021-06-27_08:21:02,23.0,1.0,0.0,10,0,54
5,Ferrari,2021-06-27_08:21:02,18.7,1.0,-0.6,10,0,82
6,Red Bull,2021-06-27_08:21:02,26.5,1.0,0.3,35,39,0
7,Mazepin,2021-06-27_08:21:02,5.3,1.0,0.0,5,0,13
8,Raikkonen,2021-06-27_08:21:02,9.3,1.0,0.0,13,0,74
9,Hamilton,2021-06-27_08:21:02,33.1,1.0,0.0,25,0,66
10,Gasly,2021-06-27_08:21:02,11.9,1.0,0.1,46,46,0
11,Vettel,2021-06-27_08:21:02,15.2,1.0,0.2,14,64,0
12,Mercedes,2021-06-27_08:21:02,37.2,1.0,-0.1,9,0,25
13,Aston Martin,2021-06-27_08:21:02,16.4,1.0,0.0,5,76,0
14,Haas,2021-06-27_08:21:02,6.1,1.0,0.0,4,0,27
15,McLaren,2021-06-27_08:21:02,18.6,1.0,0.0,28,81,0
16,Ricciardo,2021-06-27_08:21:02,15.9,1.0,0.0,27,57,0
17,Leclerc,2021-06-27_08:21:02,17.6,1.0,-0.4,34,0,63
18,Ocon,2021-06-27_08:21:02,10.4,1.0,0.0,22,0,77
19,Schumacher,2021-06-27_08:21:02,5.8,1.0,0.0,26,0,28
20,Norris,2021-06-27_08:21:02,14.0,1.0,0.1,64,12,0
21,Giovinazzi,2021-06-27_08:21:02,8.0,1.0,0.0,9,53,0
22,Latifi,2021-06-27_08:21:02,6.4,1.0,0.0,4,0,46
23,Russell,2021-06-27_08:21:02,6.2,1.0,0.0,40,0,72
24,Alonso,2021-06-27_08:21:02,14.8,1.0,0.0,10,45,0
25,Verstappen,2021-06-27_08:21:02,25.6,1.0,0.1,60,61,0
26,Stroll,2021-06-27_08:21:02,13.3,1.0,0.0,8,10,0
27,Williams,2021-06-27_08:21:02,6.3,1.0,0.0,4,0,46
28,Sainz,2021-06-27_08:21:02,14.3,1.0,-0.4,26,0,66
29,Alfa Romeo,2021-06-27_08:21:02,9.2,1.0,0.0,4,0,67
