,name,request_time,price,chance_of_playing,weekly_price_change,current_selection_percentage,probability_price_up_percentage,probability_price_down_percentage
0,Williams,2021-07-04_21:01:03,6.3,1.0,0.0,4,0,45
1,Giovinazzi,2021-07-04_21:01:03,8.0,1.0,0.0,9,59,0
2,AlphaTauri,2021-07-04_21:01:03,12.7,1.0,0.0,6,35,0
3,Sainz,2021-07-04_21:01:03,14.3,1.0,0.0,27,22,0
4,Perez,2021-07-04_21:01:03,18.8,1.0,0.1,37,59,0
5,Alfa Romeo,2021-07-04_21:01:03,9.2,1.0,0.0,4,0,74
6,Alpine,2021-07-04_21:01:03,15.1,1.0,-0.1,4,0,56
7,Vettel,2021-07-04_21:01:03,15.2,1.0,0.0,13,2,0
8,Red Bull,2021-07-04_21:01:03,26.6,1.0,0.1,36,87,0
9,Stroll,2021-07-04_21:01:03,13.3,1.0,0.0,8,43,0
10,Ferrari,2021-07-04_21:01:03,18.7,1.0,0.0,11,0,26
11,Mazepin,2021-07-04_21:01:03,5.3,1.0,0.0,5,0,9
12,Hamilton,2021-07-04_21:01:03,33.0,1.0,-0.1,24,0,34
13,Raikkonen,2021-07-04_21:01:03,9.3,1.0,0.0,13,0,54
14,Gasly,2021-07-04_21:01:03,11.9,1.0,0.0,46,61,0
15,Tsunoda,2021-07-04_21:01:03,8.5,1.0,0.1,23,32,0
16,Bottas,2021-07-04_21:01:03,23.0,1.0,0.0,10,0,48
17,Mercedes,2021-07-04_21:01:03,37.2,1.0,0.0,9,0,56
18,Haas,2021-07-04_21:01:03,6.1,1.0,0.0,4,0,26
19,Aston Martin,2021-07-04_21:01:03,16.4,1.0,0.0,5,74,0
20,McLaren,2021-07-04_21:01:03,18.6,1.0,0.0,27,0,45
21,Ricciardo,2021-07-04_21:01:03,15.8,1.0,-0.1,25,0,23
22,Leclerc,2021-07-04_21:01:03,17.6,1.0,0.0,34,0,94
23,Schumacher,2021-07-04_21:01:03,5.8,1.0,0.0,27,0,4
24,Ocon,2021-07-04_21:01:03,10.1,1.0,-0.1,20,0,2
25,Norris,2021-07-04_21:01:03,14.0,1.0,0.0,65,88,0
26,Latifi,2021-07-04_21:01:03,6.4,1.0,0.0,4,0,54
27,Russell,2021-07-04_21:01:03,6.2,1.0,0.0,41,0,51
28,Alonso,2021-07-04_21:01:03,14.8,1.0,0.0,10,17,0
29,Verstappen,2021-07-04_21:01:03,25.7,1.0,0.1,60,32,0
