,name,request_time,price,chance_of_playing,weekly_price_change,current_selection_percentage,probability_price_up_percentage,probability_price_down_percentage
0,AlphaTauri,2021-06-19_13:01:03,12.6,1.0,0.0,5,21,0
1,Perez,2021-06-19_13:01:03,18.4,1.0,0.2,33,30,0
2,Alpine,2021-06-19_13:01:03,15.2,1.0,0.0,4,6,0
3,Gasly,2021-06-19_13:01:03,11.8,1.0,0.2,44,5,0
4,Verstappen,2021-06-19_13:01:03,25.5,1.0,0.1,58,51,0
5,Giovinazzi,2021-06-19_13:01:03,8.0,1.0,0.2,9,64,0
6,Sainz,2021-06-19_13:01:03,14.7,1.0,0.2,30,0,25
7,Alfa Romeo,2021-06-19_13:01:03,9.2,1.0,0.0,4,0,41
8,Norris,2021-06-19_13:01:03,13.9,1.0,0.0,63,50,0
9,Mazepin,2021-06-19_13:01:03,5.3,1.0,0.0,5,0,22
10,Raikkonen,2021-06-19_13:01:03,9.3,1.0,-0.1,13,0,11
11,Hamilton,2021-06-19_13:01:03,33.1,1.0,-0.1,25,0,6
12,Vettel,2021-06-19_13:01:03,15.0,1.0,0.1,13,82,0
13,Tsunoda,2021-06-19_13:01:03,8.4,1.0,-0.2,22,22,0
14,Red Bull,2021-06-19_13:01:03,26.2,1.0,0.1,33,49,0
15,Stroll,2021-06-19_13:01:03,13.3,1.0,-0.1,7,0,11
16,Williams,2021-06-19_13:01:03,6.3,1.0,0.0,4,0,46
17,Mercedes,2021-06-19_13:01:03,37.3,1.0,-0.2,9,0,43
18,Aston Martin,2021-06-19_13:01:03,16.4,1.0,0.0,5,42,0
19,Haas,2021-06-19_13:01:03,6.1,1.0,0.0,4,0,25
20,Latifi,2021-06-19_13:01:03,6.4,1.0,0.0,4,0,31
21,Russell,2021-06-19_13:01:03,6.2,1.0,0.0,40,0,88
22,Alonso,2021-06-19_13:01:03,14.7,1.0,-0.1,10,77,0
23,McLaren,2021-06-19_13:01:03,18.6,1.0,-0.1,27,0,69
24,Ricciardo,2021-06-19_13:01:03,15.9,1.0,-0.2,26,0,28
25,Ocon,2021-06-19_13:01:03,10.4,1.0,-0.1,22,0,16
26,Schumacher,2021-06-19_13:01:03,5.8,1.0,-0.1,26,0,32
27,Leclerc,2021-06-19_13:01:03,18.2,1.0,-0.1,40,0,86
28,Bottas,2021-06-19_13:01:03,23.0,1.0,-0.2,10,0,7
29,Ferrari,2021-06-19_13:01:03,19.4,1.0,-0.3,13,0,7
