,name,request_time,price,chance_of_playing,weekly_price_change,current_selection_percentage,probability_price_up_percentage,probability_price_down_percentage
0,Gasly,2021-08-22_02:41:03,11.9,1.0,0.0,45,0,29
1,Vettel,2021-08-22_02:41:03,15.2,1.0,0.0,13,0,39
2,Tsunoda,2021-08-22_02:41:03,8.4,1.0,-0.1,22,0,14
3,Ocon,2021-08-22_02:41:03,10.1,1.0,0.1,20,3,0
4,Williams,2021-08-22_02:41:03,6.3,1.0,0.0,4,0,30
5,Norris,2021-08-22_02:41:03,14.2,1.0,0.1,66,0,1
6,Bottas,2021-08-22_02:41:03,23.1,1.0,0.1,10,0,51
7,Ferrari,2021-08-22_02:41:03,18.8,1.0,0.1,11,54,0
8,Red Bull,2021-08-22_02:41:03,26.6,1.0,-0.1,35,0,85
9,Stroll,2021-08-22_02:41:03,13.3,1.0,0.0,7,0,14
10,Mazepin,2021-08-22_02:41:03,5.3,1.0,0.0,5,2,0
11,Mercedes,2021-08-22_02:41:03,37.1,1.0,-0.1,8,0,3
12,Aston Martin,2021-08-22_02:41:03,16.5,1.0,0.1,5,0,18
13,Haas,2021-08-22_02:41:03,6.1,1.0,0.0,4,0,25
14,AlphaTauri,2021-08-22_02:41:03,12.7,1.0,0.0,5,0,65
15,Perez,2021-08-22_02:41:03,18.6,1.0,-0.2,34,0,70
16,Alpine,2021-08-22_02:41:03,15.1,1.0,0.0,4,0,51
17,Hamilton,2021-08-22_02:41:03,33.0,1.0,0.0,24,0,12
18,Raikkonen,2021-08-22_02:41:03,9.3,1.0,0.0,12,0,78
19,McLaren,2021-08-22_02:41:03,18.7,1.0,0.1,28,0,14
20,Ricciardo,2021-08-22_02:41:03,15.7,1.0,-0.1,25,0,5
21,Schumacher,2021-08-22_02:41:03,5.8,1.0,0.0,27,0,12
22,Leclerc,2021-08-22_02:41:03,17.7,1.0,0.1,36,0,9
23,Giovinazzi,2021-08-22_02:41:03,8.0,1.0,-0.1,9,0,6
24,Sainz,2021-08-22_02:41:03,14.5,1.0,0.1,29,43,0
25,Alfa Romeo,2021-08-22_02:41:03,9.2,1.0,0.0,4,0,90
26,Latifi,2021-08-22_02:41:03,6.4,1.0,0.0,4,0,52
27,Russell,2021-08-22_02:41:03,6.2,1.0,0.0,42,11,0
28,Alonso,2021-08-22_02:41:03,14.9,1.0,0.1,11,84,0
29,Verstappen,2021-08-22_02:41:03,25.7,1.0,0.0,60,35,0
