,name,request_time,price,chance_of_playing,weekly_price_change,current_selection_percentage,probability_price_up_percentage,probability_price_down_percentage
0,Stroll,2021-07-16_08:11:03,13.3,1.0,0.0,8,28,0
1,Williams,2021-07-16_08:11:03,6.3,1.0,0.0,4,0,45
2,Norris,2021-07-16_08:11:03,14.1,1.0,0.1,65,33,0
3,Gasly,2021-07-16_08:11:03,11.9,1.0,0.0,46,68,0
4,Vettel,2021-07-16_08:11:03,15.2,1.0,0.0,13,0,21
5,Tsunoda,2021-07-16_08:11:03,8.5,1.0,0.1,23,17,0
6,Ocon,2021-07-16_08:11:03,10.1,1.0,-0.1,19,0,74
7,Bottas,2021-07-16_08:11:03,23.0,1.0,0.0,10,0,42
8,Ferrari,2021-07-16_08:11:03,18.7,1.0,0.0,10,0,65
9,Red Bull,2021-07-16_08:11:03,26.7,1.0,0.1,36,28,0
10,Hamilton,2021-07-16_08:11:03,33.0,1.0,-0.1,24,0,57
11,Mazepin,2021-07-16_08:11:03,5.3,1.0,0.0,5,0,11
12,Mercedes,2021-07-16_08:11:03,37.2,1.0,0.0,9,0,83
13,AlphaTauri,2021-07-16_08:11:03,12.7,1.0,0.0,6,30,0
14,Aston Martin,2021-07-16_08:11:03,16.4,1.0,0.0,5,67,0
15,Haas,2021-07-16_08:11:03,6.1,1.0,0.0,4,0,27
16,Perez,2021-07-16_08:11:03,18.8,1.0,0.1,37,58,0
17,Alpine,2021-07-16_08:11:03,15.1,1.0,-0.1,4,0,70
18,Raikkonen,2021-07-16_08:11:03,9.3,1.0,0.0,13,0,60
19,McLaren,2021-07-16_08:11:03,18.6,1.0,0.0,27,0,35
20,Ricciardo,2021-07-16_08:11:03,15.8,1.0,-0.1,25,0,56
21,Schumacher,2021-07-16_08:11:03,5.8,1.0,0.0,27,8,0
22,Leclerc,2021-07-16_08:11:03,17.5,1.0,-0.1,34,0,38
23,Giovinazzi,2021-07-16_08:11:03,8.0,1.0,0.0,9,80,0
24,Sainz,2021-07-16_08:11:03,14.3,1.0,0.0,27,67,0
25,Alfa Romeo,2021-07-16_08:11:03,9.2,1.0,0.0,4,0,78
26,Verstappen,2021-07-16_08:11:03,25.7,1.0,0.1,61,63,0
27,Latifi,2021-07-16_08:11:03,6.4,1.0,0.0,4,0,59
28,Russell,2021-07-16_08:11:03,6.2,1.0,0.0,41,0,41
29,Alonso,2021-07-16_08:11:03,14.8,1.0,0.0,10,40,0
