,name,request_time,price,chance_of_playing,weekly_price_change,current_selection_percentage,probability_price_up_percentage,probability_price_down_percentage
0,Alpine,2021-06-17_06:11:02,15.1,1.0,-0.1,4,0,28
1,Williams,2021-06-17_06:11:02,6.3,1.0,0.0,4,0,45
2,Norris,2021-06-17_06:11:02,13.9,1.0,0.0,63,58,0
3,AlphaTauri,2021-06-17_06:11:02,12.6,1.0,0.0,5,10,0
4,Perez,2021-06-17_06:11:02,18.3,1.0,0.1,33,90,0
5,Mazepin,2021-06-17_06:11:02,5.3,1.0,0.0,5,0,24
6,Hamilton,2021-06-17_06:11:02,33.1,1.0,-0.1,25,0,15
7,Raikkonen,2021-06-17_06:11:02,9.3,1.0,-0.1,13,0,12
8,Gasly,2021-06-17_06:11:02,11.7,1.0,0.2,43,80,0
9,Vettel,2021-06-17_06:11:02,15.0,1.0,0.1,13,57,0
10,Tsunoda,2021-06-17_06:11:02,8.4,1.0,-0.2,22,17,0
11,Red Bull,2021-06-17_06:11:02,26.2,1.0,0.1,32,20,0
12,Sainz,2021-06-17_06:11:02,14.7,1.0,0.2,31,73,0
13,Alfa Romeo,2021-06-17_06:11:02,9.2,1.0,0.0,4,0,38
14,Giovinazzi,2021-06-17_06:11:02,8.0,1.0,0.2,9,77,0
15,Mercedes,2021-06-17_06:11:02,37.3,1.0,-0.2,9,0,52
16,Aston Martin,2021-06-17_06:11:02,16.4,1.0,0.0,5,36,0
17,Haas,2021-06-17_06:11:02,6.1,1.0,0.0,4,0,26
18,Latifi,2021-06-17_06:11:02,6.4,1.0,0.0,4,0,32
19,Russell,2021-06-17_06:11:02,6.2,1.0,0.0,40,0,77
20,Alonso,2021-06-17_06:11:02,14.7,1.0,-0.1,9,0,6
21,Verstappen,2021-06-17_06:11:02,25.5,1.0,0.1,58,57,0
22,McLaren,2021-06-17_06:11:02,18.6,1.0,-0.1,27,0,68
23,Ferrari,2021-06-17_06:11:02,19.6,1.0,-0.1,14,0,42
24,Stroll,2021-06-17_06:11:02,13.4,1.0,0.0,8,0,99
25,Ricciardo,2021-06-17_06:11:02,15.9,1.0,-0.2,26,0,1
26,Leclerc,2021-06-17_06:11:02,18.2,1.0,-0.1,41,0,9
27,Schumacher,2021-06-17_06:11:02,5.8,1.0,-0.1,26,0,36
28,Ocon,2021-06-17_06:11:02,10.4,1.0,-0.1,22,0,72
29,Bottas,2021-06-17_06:11:02,23.0,1.0,-0.2,10,0,70
