,name,request_time,price,chance_of_playing,weekly_price_change,current_selection_percentage,probability_price_up_percentage,probability_price_down_percentage
0,Bottas,2021-06-30_21:01:02,23.0,1.0,0.0,10,0,64
1,Ferrari,2021-06-30_21:01:02,18.7,1.0,-0.6,10,0,89
2,Red Bull,2021-06-30_21:01:02,26.6,1.0,0.1,35,0,0
3,Stroll,2021-06-30_21:01:02,13.3,1.0,0.0,8,20,0
4,Williams,2021-06-30_21:01:02,6.3,1.0,0.0,4,0,46
5,AlphaTauri,2021-06-30_21:01:02,12.7,1.0,0.1,6,39,0
6,Perez,2021-06-30_21:01:02,18.8,1.0,0.4,37,52,0
7,Alpine,2021-06-30_21:01:02,15.1,1.0,-0.1,4,0,1
8,Vettel,2021-06-30_21:01:02,15.2,1.0,0.2,14,33,0
9,Tsunoda,2021-06-30_21:01:02,8.5,1.0,0.1,23,11,0
10,Mazepin,2021-06-30_21:01:02,5.3,1.0,0.0,5,0,12
11,Hamilton,2021-06-30_21:01:02,33.1,1.0,0.0,25,0,97
12,Raikkonen,2021-06-30_21:01:02,9.3,1.0,0.0,13,0,68
13,Gasly,2021-06-30_21:01:02,11.9,1.0,0.1,46,46,0
14,Sainz,2021-06-30_21:01:02,14.3,1.0,-0.4,26,0,58
15,Alfa Romeo,2021-06-30_21:01:02,9.2,1.0,0.0,4,0,71
16,Mercedes,2021-06-30_21:01:02,37.2,1.0,-0.1,9,0,42
17,Haas,2021-06-30_21:01:02,6.1,1.0,0.0,4,0,26
18,Aston Martin,2021-06-30_21:01:02,16.4,1.0,0.0,5,66,0
19,Norris,2021-06-30_21:01:02,14.0,1.0,0.1,64,32,0
20,Giovinazzi,2021-06-30_21:01:02,8.0,1.0,0.0,9,39,0
21,McLaren,2021-06-30_21:01:02,18.6,1.0,0.0,28,40,0
22,Ricciardo,2021-06-30_21:01:02,15.9,1.0,0.0,26,0,0
23,Leclerc,2021-06-30_21:01:02,17.6,1.0,-0.4,34,0,85
24,Schumacher,2021-06-30_21:01:02,5.8,1.0,0.0,26,0,18
25,Ocon,2021-06-30_21:01:02,10.3,1.0,-0.1,21,0,38
26,Latifi,2021-06-30_21:01:02,6.4,1.0,0.0,4,0,48
27,Russell,2021-06-30_21:01:02,6.2,1.0,0.0,40,0,68
28,Alonso,2021-06-30_21:01:02,14.8,1.0,0.0,10,47,0
29,Verstappen,2021-06-30_21:01:02,25.6,1.0,0.1,60,86,0
