,name,request_time,price,chance_of_playing,weekly_price_change,current_selection_percentage,probability_price_up_percentage,probability_price_down_percentage
0,Red Bull,2021-05-09_16:41:03,26.1,1.0,0.0,31,0,18
1,Stroll,2021-05-09_16:41:03,13.5,1.0,0.0,8,0,35
2,AlphaTauri,2021-05-09_16:41:03,12.8,1.0,0.0,6,0,27
3,Perez,2021-05-09_16:41:03,18.2,1.0,0.0,30,0,58
4,Alpine,2021-05-09_16:41:03,15.3,1.0,0.1,4,4,0
5,Raikkonen,2021-05-09_16:41:03,9.3,1.0,0.0,13,0,53
6,Hamilton,2021-05-09_16:41:03,33.3,1.0,0.0,28,23,0
7,Gasly,2021-05-09_16:41:03,11.6,1.0,-0.1,40,0,10
8,Vettel,2021-05-09_16:41:03,15.0,1.0,0.0,12,0,67
9,Tsunoda,2021-05-09_16:41:03,8.9,1.0,0.0,27,0,62
10,Russell,2021-05-09_16:41:03,6.3,1.0,0.0,42,0,95
11,Alonso,2021-05-09_16:41:03,15.0,1.0,0.0,11,0,69
12,Verstappen,2021-05-09_16:41:03,25.3,1.0,0.0,56,75,0
13,McLaren,2021-05-09_16:41:03,18.9,1.0,0.0,30,17,0
14,Ricciardo,2021-05-09_16:41:03,16.2,1.0,0.0,29,0,5
15,Leclerc,2021-05-09_16:41:03,18.0,1.0,0.0,39,47,0
16,Ocon,2021-05-09_16:41:03,10.4,1.0,0.1,23,15,0
17,Bottas,2021-05-09_16:41:03,23.3,1.0,0.0,11,0,87
18,Ferrari,2021-05-09_16:41:03,18.7,1.0,0.0,11,0,28
19,Mazepin,2021-05-09_16:41:03,5.3,1.0,0.0,5,0,48
20,Williams,2021-05-09_16:41:03,6.3,1.0,0.0,4,0,43
21,Giovinazzi,2021-05-09_16:41:03,7.8,1.0,0.0,7,0,40
22,Mercedes,2021-05-09_16:41:03,37.6,1.0,0.0,10,0,66
23,Haas,2021-05-09_16:41:03,6.1,1.0,0.0,4,0,24
24,Aston Martin,2021-05-09_16:41:03,16.5,1.0,0.0,5,0,27
25,Latifi,2021-05-09_16:41:03,6.4,1.0,0.0,4,0,22
26,Schumacher,2021-05-09_16:41:03,5.8,1.0,0.0,27,49,0
27,Norris,2021-05-09_16:41:03,13.9,1.0,0.0,63,10,0
28,Sainz,2021-05-09_16:41:03,14.3,1.0,0.0,26,0,3
29,Alfa Romeo,2021-05-09_16:41:03,8.9,1.0,0.0,4,41,0
