,name,request_time,price,chance_of_playing,weekly_price_change,current_selection_percentage,probability_price_up_percentage,probability_price_down_percentage
0,AlphaTauri,2021-06-05_19:21:03,12.6,1.0,0.0,5,0,23
1,Perez,2021-06-05_19:21:03,18.2,1.0,0.2,31,56,0
2,Alpine,2021-06-05_19:21:03,15.1,1.0,-0.1,4,0,0
3,Williams,2021-06-05_19:21:03,6.3,1.0,0.0,4,0,41
4,Norris,2021-06-05_19:21:03,13.9,1.0,0.0,63,42,0
5,Sainz,2021-06-05_19:21:03,14.7,1.0,0.2,31,86,0
6,Alfa Romeo,2021-06-05_19:21:03,9.2,1.0,0.0,4,0,31
7,Mazepin,2021-06-05_19:21:03,5.3,1.0,0.0,5,0,26
8,Hamilton,2021-06-05_19:21:03,33.2,1.0,-0.1,26,0,82
9,Raikkonen,2021-06-05_19:21:03,9.3,1.0,-0.1,13,0,5
10,Gasly,2021-06-05_19:21:03,11.7,1.0,0.2,42,6,0
11,Vettel,2021-06-05_19:21:03,14.9,1.0,0.0,12,6,0
12,Tsunoda,2021-06-05_19:21:03,8.4,1.0,-0.2,22,0,1
13,Verstappen,2021-06-05_19:21:03,25.5,1.0,0.1,58,40,0
14,Red Bull,2021-06-05_19:21:03,26.1,1.0,0.1,32,35,0
15,Aston Martin,2021-06-05_19:21:03,16.4,1.0,0.0,5,0,0
16,Latifi,2021-06-05_19:21:03,6.4,1.0,0.0,4,0,28
17,Russell,2021-06-05_19:21:03,6.2,1.0,0.0,41,0,44
18,Alonso,2021-06-05_19:21:03,14.8,1.0,0.0,9,0,81
19,McLaren,2021-06-05_19:21:03,18.6,1.0,-0.1,27,0,37
20,Giovinazzi,2021-06-05_19:21:03,8.0,1.0,0.2,9,63,0
21,Mercedes,2021-06-05_19:21:03,37.3,1.0,-0.2,9,0,1
22,Haas,2021-06-05_19:21:03,6.1,1.0,0.0,4,0,25
23,Ferrari,2021-06-05_19:21:03,19.7,1.0,0.2,14,0,77
24,Stroll,2021-06-05_19:21:03,13.4,1.0,0.0,8,0,73
25,Ricciardo,2021-06-05_19:21:03,16.0,1.0,-0.2,27,0,8
26,Ocon,2021-06-05_19:21:03,10.5,1.0,0.0,23,0,77
27,Leclerc,2021-06-05_19:21:03,18.3,1.0,0.0,41,0,42
28,Schumacher,2021-06-05_19:21:03,5.8,1.0,-0.1,26,0,40
29,Bottas,2021-06-05_19:21:03,23.0,1.0,-0.2,10,0,3
