,name,request_time,price,chance_of_playing,weekly_price_change,current_selection_percentage,probability_price_up_percentage,probability_price_down_percentage
0,AlphaTauri,2021-05-27_01:21:03,12.6,1.0,-0.2,5,0,38
1,Perez,2021-05-27_01:21:03,18.0,1.0,-0.2,29,0,63
2,Alpine,2021-05-27_01:21:03,15.2,1.0,0.0,4,0,65
3,Gasly,2021-05-27_01:21:03,11.5,1.0,-0.2,40,30,0
4,Williams,2021-05-27_01:21:03,6.3,1.0,0.0,4,0,34
5,Mazepin,2021-05-27_01:21:03,5.3,1.0,0.0,5,0,15
6,Raikkonen,2021-05-27_01:21:03,9.4,1.0,0.1,14,37,0
7,Hamilton,2021-05-27_01:21:03,33.3,1.0,0.0,27,0,54
8,Vettel,2021-05-27_01:21:03,14.9,1.0,-0.1,12,0,7
9,Tsunoda,2021-05-27_01:21:03,8.5,1.0,-0.1,22,0,51
10,Verstappen,2021-05-27_01:21:03,25.4,1.0,0.1,57,79,0
11,Red Bull,2021-05-27_01:21:03,26.0,1.0,-0.1,31,0,50
12,Stroll,2021-05-27_01:21:03,13.4,1.0,-0.1,8,0,46
13,McLaren,2021-05-27_01:21:03,18.7,1.0,-0.2,28,0,74
14,Giovinazzi,2021-05-27_01:21:03,7.9,1.0,0.1,9,57,0
15,Sainz,2021-05-27_01:21:03,14.6,1.0,0.1,30,94,0
16,Alfa Romeo,2021-05-27_01:21:03,9.2,1.0,0.3,4,0,5
17,Mercedes,2021-05-27_01:21:03,37.5,1.0,-0.1,10,0,98
18,Aston Martin,2021-05-27_01:21:03,16.4,1.0,-0.1,5,0,0
19,Haas,2021-05-27_01:21:03,6.1,1.0,0.0,4,0,18
20,Latifi,2021-05-27_01:21:03,6.4,1.0,0.0,4,0,25
21,Russell,2021-05-27_01:21:03,6.2,1.0,-0.1,42,2,0
22,Alonso,2021-05-27_01:21:03,14.8,1.0,-0.2,9,0,69
23,Ricciardo,2021-05-27_01:21:03,16.2,1.0,0.0,28,0,90
24,Schumacher,2021-05-27_01:21:03,5.8,1.0,-0.1,27,0,7
25,Leclerc,2021-05-27_01:21:03,18.3,1.0,0.3,42,68,0
26,Ocon,2021-05-27_01:21:03,10.5,1.0,0.2,23,0,34
27,Bottas,2021-05-27_01:21:03,23.1,1.0,-0.1,10,0,18
28,Ferrari,2021-05-27_01:21:03,19.6,1.0,0.1,15,87,0
29,Norris,2021-05-27_01:21:03,13.9,1.0,0.0,63,42,0
