,name,request_time,price,chance_of_playing,weekly_price_change,current_selection_percentage,probability_price_up_percentage,probability_price_down_percentage
0,Gasly,2021-08-04_05:31:03,11.9,1.0,0.0,45,0,28
1,Vettel,2021-08-04_05:31:03,15.2,1.0,0.0,13,0,50
2,Tsunoda,2021-08-04_05:31:03,8.4,1.0,-0.1,22,0,1
3,Ocon,2021-08-04_05:31:03,10.0,1.0,-0.1,19,74,0
4,Williams,2021-08-04_05:31:03,6.3,1.0,0.0,4,0,35
5,Norris,2021-08-04_05:31:03,14.2,1.0,0.1,66,0,3
6,Bottas,2021-08-04_05:31:03,23.1,1.0,0.1,10,0,38
7,Ferrari,2021-08-04_05:31:03,18.8,1.0,0.1,11,14,0
8,Red Bull,2021-08-04_05:31:03,26.6,1.0,-0.1,35,0,65
9,Stroll,2021-08-04_05:31:03,13.3,1.0,0.0,7,0,8
10,Mazepin,2021-08-04_05:31:03,5.3,1.0,0.0,5,2,0
11,Mercedes,2021-08-04_05:31:03,37.1,1.0,-0.1,8,0,1
12,AlphaTauri,2021-08-04_05:31:03,12.7,1.0,0.0,5,0,61
13,Aston Martin,2021-08-04_05:31:03,16.4,1.0,0.0,5,56,0
14,Haas,2021-08-04_05:31:03,6.1,1.0,0.0,4,0,27
15,Perez,2021-08-04_05:31:03,18.6,1.0,-0.2,34,0,41
16,Alpine,2021-08-04_05:31:03,15.1,1.0,0.0,4,0,61
17,Hamilton,2021-08-04_05:31:03,33.0,1.0,0.0,24,0,18
18,Raikkonen,2021-08-04_05:31:03,9.3,1.0,0.0,13,0,72
19,McLaren,2021-08-04_05:31:03,18.7,1.0,0.1,28,2,0
20,Ricciardo,2021-08-04_05:31:03,15.8,1.0,0.0,25,0,81
21,Leclerc,2021-08-04_05:31:03,17.7,1.0,0.1,36,0,0
22,Schumacher,2021-08-04_05:31:03,5.8,1.0,0.0,27,0,3
23,Giovinazzi,2021-08-04_05:31:03,8.1,1.0,0.1,9,0,92
24,Sainz,2021-08-04_05:31:03,14.5,1.0,0.1,29,17,0
25,Alfa Romeo,2021-08-04_05:31:03,9.2,1.0,0.0,4,0,89
26,Latifi,2021-08-04_05:31:03,6.4,1.0,0.0,4,0,57
27,Russell,2021-08-04_05:31:03,6.2,1.0,0.0,42,7,0
28,Alonso,2021-08-04_05:31:03,14.9,1.0,0.1,11,32,0
29,Verstappen,2021-08-04_05:31:03,25.7,1.0,0.0,60,35,0
