,name,request_time,price,chance_of_playing,weekly_price_change,current_selection_percentage,probability_price_up_percentage,probability_price_down_percentage
0,Ferrari,2021-07-26_09:11:03,18.7,1.0,0.0,10,0,70
1,Red Bull,2021-07-26_09:11:03,26.7,1.0,0.1,36,5,0
2,Stroll,2021-07-26_09:11:03,13.3,1.0,0.0,8,2,0
3,Williams,2021-07-26_09:11:03,6.3,1.0,0.0,4,0,41
4,AlphaTauri,2021-07-26_09:11:03,12.7,1.0,0.0,6,0,16
5,Perez,2021-07-26_09:11:03,18.8,1.0,0.0,36,0,61
6,Alpine,2021-07-26_09:11:03,15.1,1.0,0.0,4,0,85
7,Vettel,2021-07-26_09:11:03,15.2,1.0,0.0,13,0,20
8,Tsunoda,2021-07-26_09:11:03,8.5,1.0,0.0,23,0,38
9,Bottas,2021-07-26_09:11:03,23.0,1.0,0.0,10,0,35
10,Mazepin,2021-07-26_09:11:03,5.3,1.0,0.0,5,0,10
11,Hamilton,2021-07-26_09:11:03,33.0,1.0,0.0,24,0,59
12,Raikkonen,2021-07-26_09:11:03,9.3,1.0,0.0,13,0,68
13,Gasly,2021-07-26_09:11:03,11.9,1.0,0.0,45,16,0
14,Sainz,2021-07-26_09:11:03,14.4,1.0,0.1,28,0,0
15,Alfa Romeo,2021-07-26_09:11:03,9.2,1.0,0.0,4,0,80
16,Giovinazzi,2021-07-26_09:11:03,8.1,1.0,0.1,10,0,1
17,Mercedes,2021-07-26_09:11:03,37.1,1.0,-0.1,8,0,9
18,Haas,2021-07-26_09:11:03,6.1,1.0,0.0,4,0,26
19,Aston Martin,2021-07-26_09:11:03,16.4,1.0,0.0,5,64,0
20,McLaren,2021-07-26_09:11:03,18.6,1.0,0.0,28,32,0
21,Ricciardo,2021-07-26_09:11:03,15.8,1.0,0.0,25,0,53
22,Leclerc,2021-07-26_09:11:03,17.5,1.0,-0.1,35,62,0
23,Schumacher,2021-07-26_09:11:03,5.8,1.0,0.0,27,32,0
24,Ocon,2021-07-26_09:11:03,10.0,1.0,-0.1,19,0,4
25,Norris,2021-07-26_09:11:03,14.1,1.0,0.1,66,92,0
26,Latifi,2021-07-26_09:11:03,6.4,1.0,0.0,4,0,61
27,Russell,2021-07-26_09:11:03,6.2,1.0,0.0,41,0,32
28,Alonso,2021-07-26_09:11:03,14.8,1.0,0.0,10,80,0
29,Verstappen,2021-07-26_09:11:03,25.7,1.0,0.0,61,77,0
