,name,request_time,price,chance_of_playing,weekly_price_change,current_selection_percentage,probability_price_up_percentage,probability_price_down_percentage
0,AlphaTauri,2021-04-27_22:11:02,13.2,1.0,0.0,7,0,61
1,Perez,2021-04-27_22:11:02,18.3,1.0,-0.1,31,0,23
2,Alpine,2021-04-27_22:11:02,15.0,1.0,-0.1,4,0,30
3,Hamilton,2021-04-27_22:11:02,33.4,1.0,0.0,27,0,78
4,Raikkonen,2021-04-27_22:11:02,9.4,1.0,0.0,14,0,15
5,Gasly,2021-04-27_22:11:02,11.7,1.0,0.0,43,87,0
6,Vettel,2021-04-27_22:11:02,15.2,1.0,-0.2,13,0,66
7,Red Bull,2021-04-27_22:11:02,26.1,1.0,0.1,32,0,1
8,Stroll,2021-04-27_22:11:02,13.6,1.0,0.0,9,8,0
9,Mazepin,2021-04-27_22:11:02,5.3,1.0,0.0,5,0,28
10,Tsunoda,2021-04-27_22:11:02,9.4,1.0,0.0,34,0,45
11,Latifi,2021-04-27_22:11:02,6.5,1.0,0.0,4,0,71
12,Russell,2021-04-27_22:11:02,6.2,1.0,0.0,44,78,0
13,Alonso,2021-04-27_22:11:02,15.0,1.0,-0.2,11,0,57
14,Verstappen,2021-04-27_22:11:02,25.2,1.0,0.1,55,86,0
15,McLaren,2021-04-27_22:11:02,18.7,1.0,0.0,29,90,0
16,Ricciardo,2021-04-27_22:11:02,16.5,1.0,-0.2,31,0,2
17,Ocon,2021-04-27_22:11:02,9.6,1.0,-0.1,13,3,0
18,Schumacher,2021-04-27_22:11:02,5.7,1.0,0.0,25,0,25
19,Leclerc,2021-04-27_22:11:02,17.7,1.0,0.3,36,42,0
20,Bottas,2021-04-27_22:11:02,23.4,1.0,-0.1,12,0,76
21,Ferrari,2021-04-27_22:11:02,18.8,1.0,0.1,11,50,0
22,Mercedes,2021-04-27_22:11:02,37.7,1.0,-0.1,11,0,73
23,Aston Martin,2021-04-27_22:11:02,16.7,1.0,-0.2,5,0,32
24,Haas,2021-04-27_22:11:02,6.1,1.0,0.0,4,0,28
25,Williams,2021-04-27_22:11:02,6.3,1.0,0.0,4,0,33
26,Norris,2021-04-27_22:11:02,13.6,1.0,0.2,59,80,0
27,Giovinazzi,2021-04-27_22:11:02,7.8,1.0,0.0,7,0,43
28,Sainz,2021-04-27_22:11:02,14.3,1.0,0.0,26,16,0
29,Alfa Romeo,2021-04-27_22:11:02,8.9,1.0,0.0,4,16,0
