,name,request_time,price,chance_of_playing,weekly_price_change,current_selection_percentage,probability_price_up_percentage,probability_price_down_percentage
0,Norris,2021-08-02_11:51:02,14.2,1.0,0.1,66,0,6
1,Gasly,2021-08-02_11:51:02,11.9,1.0,0.0,45,0,28
2,Vettel,2021-08-02_11:51:02,15.2,1.0,0.0,13,0,53
3,Tsunoda,2021-08-02_11:51:02,8.5,1.0,0.0,22,0,94
4,Ocon,2021-08-02_11:51:02,10.0,1.0,-0.1,19,59,0
5,Bottas,2021-08-02_11:51:02,23.1,1.0,0.1,10,0,29
6,Ferrari,2021-08-02_11:51:02,18.8,1.0,0.1,11,10,0
7,Red Bull,2021-08-02_11:51:02,26.6,1.0,-0.1,35,0,59
8,Stroll,2021-08-02_11:51:02,13.3,1.0,0.0,8,0,5
9,Williams,2021-08-02_11:51:02,6.3,1.0,0.0,4,0,36
10,Hamilton,2021-08-02_11:51:02,33.0,1.0,0.0,24,0,19
11,Mazepin,2021-08-02_11:51:02,5.3,1.0,0.0,5,3,0
12,Mercedes,2021-08-02_11:51:02,37.1,1.0,-0.1,8,0,0
13,AlphaTauri,2021-08-02_11:51:02,12.7,1.0,0.0,5,0,59
14,Aston Martin,2021-08-02_11:51:02,16.4,1.0,0.0,5,49,0
15,Haas,2021-08-02_11:51:02,6.1,1.0,0.0,4,0,26
16,Perez,2021-08-02_11:51:02,18.6,1.0,-0.2,34,0,31
17,Alpine,2021-08-02_11:51:02,15.1,1.0,0.0,4,0,66
18,Raikkonen,2021-08-02_11:51:02,9.3,1.0,0.0,13,0,68
19,Giovinazzi,2021-08-02_11:51:02,8.1,1.0,0.1,9,0,83
20,Sainz,2021-08-02_11:51:02,14.5,1.0,0.1,28,8,0
21,McLaren,2021-08-02_11:51:02,18.7,1.0,0.1,28,0,0
22,Ricciardo,2021-08-02_11:51:02,15.8,1.0,0.0,25,0,75
23,Schumacher,2021-08-02_11:51:02,5.8,1.0,0.0,27,0,0
24,Leclerc,2021-08-02_11:51:02,17.6,1.0,0.1,36,94,0
25,Alfa Romeo,2021-08-02_11:51:02,9.2,1.0,0.0,4,0,87
26,Latifi,2021-08-02_11:51:02,6.4,1.0,0.0,4,0,57
27,Russell,2021-08-02_11:51:02,6.2,1.0,0.0,42,4,0
28,Alonso,2021-08-02_11:51:02,14.9,1.0,0.1,11,22,0
29,Verstappen,2021-08-02_11:51:02,25.7,1.0,0.0,60,36,0
