,name,request_time,price,chance_of_playing,weekly_price_change,current_selection_percentage,probability_price_up_percentage,probability_price_down_percentage
0,Gasly,2021-07-26_01:31:02,11.9,1.0,0.0,45,16,0
1,Vettel,2021-07-26_01:31:02,15.2,1.0,0.0,13,0,20
2,Tsunoda,2021-07-26_01:31:02,8.5,1.0,0.0,23,0,37
3,Ocon,2021-07-26_01:31:02,10.0,1.0,-0.1,19,0,4
4,Bottas,2021-07-26_01:31:02,23.0,1.0,0.0,10,0,35
5,Williams,2021-07-26_01:31:02,6.3,1.0,0.0,4,0,40
6,Norris,2021-07-26_01:31:02,14.1,1.0,0.1,66,93,0
7,Ferrari,2021-07-26_01:31:02,18.7,1.0,0.0,10,0,70
8,Red Bull,2021-07-26_01:31:02,26.7,1.0,0.1,36,6,0
9,Stroll,2021-07-26_01:31:02,13.3,1.0,0.0,8,2,0
10,Mazepin,2021-07-26_01:31:02,5.3,1.0,0.0,5,0,11
11,Mercedes,2021-07-26_01:31:02,37.1,1.0,-0.1,8,0,9
12,AlphaTauri,2021-07-26_01:31:02,12.7,1.0,0.0,6,0,16
13,Haas,2021-07-26_01:31:02,6.1,1.0,0.0,4,0,26
14,Aston Martin,2021-07-26_01:31:02,16.4,1.0,0.0,5,63,0
15,Perez,2021-07-26_01:31:02,18.8,1.0,0.0,36,0,60
16,Alpine,2021-07-26_01:31:02,15.1,1.0,0.0,4,0,85
17,Raikkonen,2021-07-26_01:31:02,9.3,1.0,0.0,13,0,68
18,Hamilton,2021-07-26_01:31:02,33.0,1.0,0.0,24,0,60
19,McLaren,2021-07-26_01:31:02,18.6,1.0,0.0,28,32,0
20,Ricciardo,2021-07-26_01:31:02,15.8,1.0,0.0,25,0,54
21,Leclerc,2021-07-26_01:31:02,17.5,1.0,-0.1,35,63,0
22,Schumacher,2021-07-26_01:31:02,5.8,1.0,0.0,27,32,0
23,Giovinazzi,2021-07-26_01:31:02,8.1,1.0,0.1,10,0,0
24,Sainz,2021-07-26_01:31:02,14.4,1.0,0.1,28,0,0
25,Alfa Romeo,2021-07-26_01:31:02,9.2,1.0,0.0,4,0,80
26,Latifi,2021-07-26_01:31:02,6.4,1.0,0.0,4,0,61
27,Russell,2021-07-26_01:31:02,6.2,1.0,0.0,41,0,33
28,Alonso,2021-07-26_01:31:02,14.8,1.0,0.0,10,79,0
29,Verstappen,2021-07-26_01:31:02,25.7,1.0,0.0,61,78,0
