,name,request_time,price,chance_of_playing,weekly_price_change,current_selection_percentage,probability_price_up_percentage,probability_price_down_percentage
0,Stroll,2021-05-22_00:51:02,13.4,1.0,-0.1,8,0,13
1,Raikkonen,2021-05-22_00:51:02,9.3,1.0,0.0,13,0,23
2,Perez,2021-05-22_00:51:02,18.0,1.0,-0.2,29,0,16
3,Alpine,2021-05-22_00:51:02,15.3,1.0,0.1,4,0,59
4,AlphaTauri,2021-05-22_00:51:02,12.7,1.0,-0.1,5,0,76
5,Red Bull,2021-05-22_00:51:02,26.1,1.0,0.0,31,0,53
6,Gasly,2021-05-22_00:51:02,11.5,1.0,-0.2,39,1,0
7,Hamilton,2021-05-22_00:51:02,33.3,1.0,0.0,28,22,0
8,Vettel,2021-05-22_00:51:02,14.9,1.0,-0.1,11,0,28
9,Ferrari,2021-05-22_00:51:02,19.0,1.0,0.3,12,25,0
10,Bottas,2021-05-22_00:51:02,23.2,1.0,-0.1,11,0,52
11,Mazepin,2021-05-22_00:51:02,5.3,1.0,0.0,5,0,46
12,Alonso,2021-05-22_00:51:02,14.9,1.0,-0.1,10,0,79
13,Verstappen,2021-05-22_00:51:02,25.4,1.0,0.1,57,7,0
14,Leclerc,2021-05-22_00:51:02,18.2,1.0,0.2,41,45,0
15,Schumacher,2021-05-22_00:51:02,5.9,1.0,0.1,29,35,0
16,Russell,2021-05-22_00:51:02,6.2,1.0,-0.1,42,1,0
17,Tsunoda,2021-05-22_00:51:02,8.6,1.0,-0.3,24,0,14
18,Ocon,2021-05-22_00:51:02,10.6,1.0,0.3,25,41,0
19,McLaren,2021-05-22_00:51:02,18.8,1.0,-0.1,29,0,3
20,Ricciardo,2021-05-22_00:51:02,16.2,1.0,0.0,29,56,0
21,Latifi,2021-05-22_00:51:02,6.4,1.0,0.0,4,0,24
22,Aston Martin,2021-05-22_00:51:02,16.5,1.0,0.0,5,0,90
23,Williams,2021-05-22_00:51:02,6.3,1.0,0.0,4,0,33
24,Haas,2021-05-22_00:51:02,6.1,1.0,0.0,4,0,13
25,Mercedes,2021-05-22_00:51:02,37.5,1.0,-0.1,10,0,5
26,Giovinazzi,2021-05-22_00:51:02,7.8,1.0,0.0,7,0,29
27,Norris,2021-05-22_00:51:02,13.9,1.0,0.0,63,12,0
28,Alfa Romeo,2021-05-22_00:51:02,9.2,1.0,0.3,4,1,0
29,Sainz,2021-05-22_00:51:02,14.3,1.0,0.0,27,42,0
