,name,request_time,price,chance_of_playing,weekly_price_change,current_selection_percentage,probability_price_up_percentage,probability_price_down_percentage
0,Gasly,2021-07-19_14:51:02,11.9,1.0,0.0,46,26,0
1,Vettel,2021-07-19_14:51:02,15.2,1.0,0.0,13,0,11
2,Tsunoda,2021-07-19_14:51:02,8.5,1.0,0.0,23,0,24
3,Ocon,2021-07-19_14:51:02,10.1,1.0,-0.1,19,0,93
4,Bottas,2021-07-19_14:51:02,23.0,1.0,0.0,10,0,37
5,Ferrari,2021-07-19_14:51:02,18.7,1.0,0.0,10,0,75
6,Red Bull,2021-07-19_14:51:02,26.7,1.0,0.1,36,22,0
7,Stroll,2021-07-19_14:51:02,13.3,1.0,0.0,8,5,0
8,Williams,2021-07-19_14:51:02,6.3,1.0,0.0,4,0,42
9,Norris,2021-07-19_14:51:02,14.1,1.0,0.1,66,82,0
10,Mazepin,2021-07-19_14:51:02,5.3,1.0,0.0,5,0,10
11,Mercedes,2021-07-19_14:51:02,37.1,1.0,-0.1,8,0,2
12,AlphaTauri,2021-07-19_14:51:02,12.7,1.0,0.0,6,0,8
13,Haas,2021-07-19_14:51:02,6.1,1.0,0.0,4,0,26
14,Aston Martin,2021-07-19_14:51:02,16.4,1.0,0.0,5,57,0
15,Perez,2021-07-19_14:51:02,18.8,1.0,0.0,36,0,25
16,Alpine,2021-07-19_14:51:02,15.1,1.0,0.0,4,0,79
17,Hamilton,2021-07-19_14:51:02,33.0,1.0,0.0,24,0,59
18,Raikkonen,2021-07-19_14:51:02,9.3,1.0,0.0,13,0,68
19,Sainz,2021-07-19_14:51:02,14.4,1.0,0.1,28,2,0
20,Alfa Romeo,2021-07-19_14:51:02,9.2,1.0,0.0,4,0,78
21,McLaren,2021-07-19_14:51:02,18.6,1.0,0.0,28,12,0
22,Ricciardo,2021-07-19_14:51:02,15.8,1.0,0.0,25,0,49
23,Leclerc,2021-07-19_14:51:02,17.5,1.0,-0.1,34,25,0
24,Schumacher,2021-07-19_14:51:02,5.8,1.0,0.0,27,33,0
25,Giovinazzi,2021-07-19_14:51:02,8.0,1.0,0.0,9,77,0
26,Latifi,2021-07-19_14:51:02,6.4,1.0,0.0,4,0,59
27,Russell,2021-07-19_14:51:02,6.2,1.0,0.0,41,0,37
28,Alonso,2021-07-19_14:51:02,14.8,1.0,0.0,10,54,0
29,Verstappen,2021-07-19_14:51:02,25.7,1.0,0.0,61,74,0
