,name,request_time,price,chance_of_playing,weekly_price_change,current_selection_percentage,probability_price_up_percentage,probability_price_down_percentage
0,Stroll,2021-04-13_08:30:03,13.7,1.0,-0.2,10,0,8
1,Alfa Romeo,2021-04-13_08:30:03,8.9,1.0,0.0,1,2,0
2,Mercedes,2021-04-13_08:30:03,37.9,1.0,-0.1,12,0,93
3,McLaren,2021-04-13_08:30:03,18.9,1.0,0.0,29,0,55
4,Red Bull,2021-04-13_08:30:03,26.0,1.0,0.100000000000001,31,49,0
5,Bottas,2021-04-13_08:30:03,23.5,1.0,-0.100000000000001,12,0,59
6,Mazepin,2021-04-13_08:30:03,5.4,1.0,-0.0999999999999996,5,0,70
7,Vettel,2021-04-13_08:30:03,15.6,1.0,-0.6,16,0,39
8,Tsunoda,2021-04-13_08:30:03,9.3,1.0,0.5,32,50,0
9,Aston Martin,2021-04-13_08:30:03,17.0,1.0,-0.6,6,0,3
10,Verstappen,2021-04-13_08:30:03,25.1,1.0,0.3,53,6,0
11,Hamilton,2021-04-13_08:30:03,33.4,1.0,-0.1,28,0,9
12,Perez,2021-04-13_08:30:03,18.4,1.0,0.0,33,8,0
13,Haas,2021-04-13_08:30:03,6.1,1.0,0.0,1,0,22
14,Williams,2021-04-13_08:30:03,6.3,1.0,0.0,1,0,35
15,Raikkonen,2021-04-13_08:30:03,9.5,1.0,-0.1,14,0,50
16,Schumacher,2021-04-13_08:30:03,5.8,1.0,0.0,26,0,51
17,Latifi,2021-04-13_08:30:03,6.5,1.0,0.0,4,0,57
18,Leclerc,2021-04-13_08:30:03,17.3,1.0,0.5,31,3,0
19,Alpine,2021-04-13_08:30:03,15.2,1.0,-0.2,3,0,74
20,Alonso,2021-04-13_08:30:03,15.3,1.0,-0.3,12,0,57
21,Sainz,2021-04-13_08:30:03,14.3,1.0,-0.1,26,0,12
22,Russell,2021-04-13_08:30:03,6.2,1.0,0.0,42,2,0
23,Ferrari,2021-04-13_08:30:03,18.5,1.0,0.4,9,27,0
24,AlphaTauri,2021-04-13_08:30:03,13.1,1.0,0.4,7,27,0
25,Giovinazzi,2021-04-13_08:30:03,7.9,1.0,0.0,8,0,76
26,Ricciardo,2021-04-13_08:30:03,17.0,1.0,-0.3,36,0,95
27,Ocon,2021-04-13_08:30:03,9.8,1.0,-0.3,15,0,45
28,Norris,2021-04-13_08:30:03,13.4,1.0,0.3,55,7,0
29,Gasly,2021-04-13_08:30:03,11.8,1.0,0.1,42,0,89
