,name,request_time,price,chance_of_playing,weekly_price_change,current_selection_percentage,probability_price_up_percentage,probability_price_down_percentage
0,AlphaTauri,2021-06-16_01:11:03,12.6,1.0,0.0,5,9,0
1,Perez,2021-06-16_01:11:03,18.3,1.0,0.1,33,86,0
2,Alpine,2021-06-16_01:11:03,15.1,1.0,-0.1,4,0,27
3,Williams,2021-06-16_01:11:03,6.3,1.0,0.0,4,0,46
4,Norris,2021-06-16_01:11:03,13.9,1.0,0.0,63,58,0
5,Mazepin,2021-06-16_01:11:03,5.3,1.0,0.0,5,0,24
6,Raikkonen,2021-06-16_01:11:03,9.3,1.0,-0.1,13,0,12
7,Hamilton,2021-06-16_01:11:03,33.1,1.0,-0.1,25,0,15
8,Gasly,2021-06-16_01:11:03,11.7,1.0,0.2,43,78,0
9,Vettel,2021-06-16_01:11:03,15.0,1.0,0.1,13,53,0
10,Tsunoda,2021-06-16_01:11:03,8.4,1.0,-0.2,22,17,0
11,Red Bull,2021-06-16_01:11:03,26.2,1.0,0.1,32,19,0
12,Sainz,2021-06-16_01:11:03,14.7,1.0,0.2,31,72,0
13,Alfa Romeo,2021-06-16_01:11:03,9.2,1.0,0.0,4,0,38
14,Giovinazzi,2021-06-16_01:11:03,8.0,1.0,0.2,9,76,0
15,Mercedes,2021-06-16_01:11:03,37.3,1.0,-0.2,9,0,50
16,Haas,2021-06-16_01:11:03,6.1,1.0,0.0,4,0,26
17,Aston Martin,2021-06-16_01:11:03,16.4,1.0,0.0,5,33,0
18,Latifi,2021-06-16_01:11:03,6.4,1.0,0.0,4,0,31
19,Russell,2021-06-16_01:11:03,6.2,1.0,0.0,40,0,74
20,Alonso,2021-06-16_01:11:03,14.7,1.0,-0.1,9,0,5
21,Verstappen,2021-06-16_01:11:03,25.5,1.0,0.1,58,55,0
22,McLaren,2021-06-16_01:11:03,18.6,1.0,-0.1,27,0,68
23,Ricciardo,2021-06-16_01:11:03,16.0,1.0,-0.2,26,0,96
24,Ocon,2021-06-16_01:11:03,10.4,1.0,-0.1,22,0,69
25,Schumacher,2021-06-16_01:11:03,5.8,1.0,-0.1,26,0,37
26,Leclerc,2021-06-16_01:11:03,18.2,1.0,-0.1,41,0,7
27,Bottas,2021-06-16_01:11:03,23.0,1.0,-0.2,10,0,67
28,Ferrari,2021-06-16_01:11:03,19.6,1.0,-0.1,14,0,41
29,Stroll,2021-06-16_01:11:03,13.4,1.0,0.0,8,0,96
