,name,request_time,price,chance_of_playing,weekly_price_change,current_selection_percentage,probability_price_up_percentage,probability_price_down_percentage
0,Gasly,2021-08-28_10:01:02,11.9,1.0,0.0,45,0,20
1,Vettel,2021-08-28_10:01:02,15.2,1.0,0.0,13,0,25
2,Tsunoda,2021-08-28_10:01:02,8.4,1.0,-0.1,22,0,26
3,Ocon,2021-08-28_10:01:02,10.1,1.0,0.1,20,31,0
4,Williams,2021-08-28_10:01:02,6.3,1.0,0.0,4,0,26
5,Norris,2021-08-28_10:01:02,14.2,1.0,0.1,66,0,1
6,Bottas,2021-08-28_10:01:02,23.1,1.0,0.1,10,0,73
7,Ferrari,2021-08-28_10:01:02,18.9,1.0,0.2,12,0,7
8,Red Bull,2021-08-28_10:01:02,26.5,1.0,-0.1,35,7,0
9,Stroll,2021-08-28_10:01:02,13.3,1.0,0.0,7,0,20
10,Hamilton,2021-08-28_10:01:02,33.0,1.0,0.0,24,0,4
11,Mazepin,2021-08-28_10:01:02,5.3,1.0,0.0,5,1,0
12,Mercedes,2021-08-28_10:01:02,37.1,1.0,-0.1,8,0,0
13,Aston Martin,2021-08-28_10:01:02,16.5,1.0,0.1,5,0,54
14,Haas,2021-08-28_10:01:02,6.1,1.0,0.0,4,0,24
15,AlphaTauri,2021-08-28_10:01:02,12.7,1.0,0.0,5,0,71
16,Perez,2021-08-28_10:01:02,18.5,1.0,-0.2,33,0,5
17,Alpine,2021-08-28_10:01:02,15.1,1.0,0.0,4,0,17
18,Raikkonen,2021-08-28_10:01:02,9.3,1.0,0.0,12,0,89
19,Sainz,2021-08-28_10:01:02,14.5,1.0,0.1,29,94,0
20,Alfa Romeo,2021-08-28_10:01:02,9.2,1.0,0.0,4,0,94
21,McLaren,2021-08-28_10:01:02,18.7,1.0,0.1,28,0,30
22,Ricciardo,2021-08-28_10:01:02,15.7,1.0,-0.1,24,0,23
23,Schumacher,2021-08-28_10:01:02,5.8,1.0,0.0,26,0,18
24,Leclerc,2021-08-28_10:01:02,17.7,1.0,0.1,36,0,33
25,Giovinazzi,2021-08-28_10:01:02,8.0,1.0,-0.1,9,0,19
26,Latifi,2021-08-28_10:01:02,6.4,1.0,0.0,4,0,47
27,Russell,2021-08-28_10:01:02,6.2,1.0,0.0,42,10,0
28,Alonso,2021-08-28_10:01:02,15.0,1.0,0.1,11,30,0
29,Verstappen,2021-08-28_10:01:02,25.7,1.0,0.0,60,31,0
