,name,request_time,price,chance_of_playing,weekly_price_change,current_selection_percentage,probability_price_up_percentage,probability_price_down_percentage
0,AlphaTauri,2021-05-12_06:01:02,12.8,1.0,0.0,6,0,66
1,Perez,2021-05-12_06:01:02,18.1,1.0,-0.1,30,0,20
2,Alpine,2021-05-12_06:01:02,15.3,1.0,0.1,4,0,10
3,Verstappen,2021-05-12_06:01:02,25.3,1.0,0.0,56,91,0
4,McLaren,2021-05-12_06:01:02,18.9,1.0,0.0,30,0,2
5,Ricciardo,2021-05-12_06:01:02,16.2,1.0,0.0,29,24,0
6,Ocon,2021-05-12_06:01:02,10.5,1.0,0.2,24,35,0
7,Leclerc,2021-05-12_06:01:02,18.1,1.0,0.1,40,34,0
8,Mazepin,2021-05-12_06:01:02,5.3,1.0,0.0,5,0,48
9,Hamilton,2021-05-12_06:01:02,33.3,1.0,0.0,28,25,0
10,Raikkonen,2021-05-12_06:01:02,9.3,1.0,0.0,13,0,46
11,Gasly,2021-05-12_06:01:02,11.6,1.0,-0.1,40,0,64
12,Vettel,2021-05-12_06:01:02,15.0,1.0,0.0,12,0,99
13,Tsunoda,2021-05-12_06:01:02,8.8,1.0,-0.1,26,0,52
14,Russell,2021-05-12_06:01:02,6.2,1.0,-0.1,42,0,0
15,Alonso,2021-05-12_06:01:02,14.9,1.0,-0.1,10,0,14
16,Giovinazzi,2021-05-12_06:01:02,7.8,1.0,0.0,7,0,44
17,Mercedes,2021-05-12_06:01:02,37.6,1.0,0.0,10,0,76
18,Aston Martin,2021-05-12_06:01:02,16.5,1.0,0.0,5,0,54
19,Haas,2021-05-12_06:01:02,6.1,1.0,0.0,4,0,17
20,Latifi,2021-05-12_06:01:02,6.4,1.0,0.0,4,0,22
21,Schumacher,2021-05-12_06:01:02,5.9,1.0,0.1,28,5,0
22,Red Bull,2021-05-12_06:01:02,26.1,1.0,0.0,32,3,0
23,Stroll,2021-05-12_06:01:02,13.5,1.0,0.0,8,0,68
24,Williams,2021-05-12_06:01:02,6.3,1.0,0.0,4,0,38
25,Bottas,2021-05-12_06:01:02,23.2,1.0,-0.1,11,0,11
26,Ferrari,2021-05-12_06:01:02,18.7,1.0,0.0,11,19,0
27,Norris,2021-05-12_06:01:02,13.9,1.0,0.0,63,12,0
28,Sainz,2021-05-12_06:01:02,14.3,1.0,0.0,26,0,33
29,Alfa Romeo,2021-05-12_06:01:02,8.9,1.0,0.0,4,75,0
