,name,request_time,price,chance_of_playing,weekly_price_change,current_selection_percentage,probability_price_up_percentage,probability_price_down_percentage
0,Ocon,2021-07-05_19:41:03,10.1,1.0,-0.1,19,0,21
1,Red Bull,2021-07-05_19:41:03,26.6,1.0,0.1,36,96,0
2,Stroll,2021-07-05_19:41:03,13.3,1.0,0.0,8,40,0
3,Williams,2021-07-05_19:41:03,6.3,1.0,0.0,4,0,44
4,AlphaTauri,2021-07-05_19:41:03,12.7,1.0,0.0,6,32,0
5,Perez,2021-07-05_19:41:03,18.8,1.0,0.1,37,59,0
6,Alpine,2021-07-05_19:41:03,15.1,1.0,-0.1,4,0,57
7,Vettel,2021-07-05_19:41:03,15.2,1.0,0.0,13,0,4
8,Norris,2021-07-05_19:41:03,14.0,1.0,0.0,65,98,0
9,Sainz,2021-07-05_19:41:03,14.3,1.0,0.0,27,35,0
10,Alfa Romeo,2021-07-05_19:41:03,9.2,1.0,0.0,4,0,73
11,Raikkonen,2021-07-05_19:41:03,9.3,1.0,0.0,13,0,55
12,Gasly,2021-07-05_19:41:03,11.9,1.0,0.0,46,64,0
13,Tsunoda,2021-07-05_19:41:03,8.5,1.0,0.1,23,30,0
14,Bottas,2021-07-05_19:41:03,23.0,1.0,0.0,10,0,47
15,Ferrari,2021-07-05_19:41:03,18.7,1.0,0.0,11,0,37
16,Giovinazzi,2021-07-05_19:41:03,8.0,1.0,0.0,9,63,0
17,Mazepin,2021-07-05_19:41:03,5.3,1.0,0.0,5,0,10
18,Hamilton,2021-07-05_19:41:03,33.0,1.0,-0.1,24,0,40
19,Mercedes,2021-07-05_19:41:03,37.2,1.0,0.0,9,0,61
20,Haas,2021-07-05_19:41:03,6.1,1.0,0.0,4,0,27
21,Aston Martin,2021-07-05_19:41:03,16.4,1.0,0.0,5,70,0
22,McLaren,2021-07-05_19:41:03,18.6,1.0,0.0,27,0,43
23,Ricciardo,2021-07-05_19:41:03,15.8,1.0,-0.1,25,0,27
24,Leclerc,2021-07-05_19:41:03,17.5,1.0,-0.1,34,0,6
25,Schumacher,2021-07-05_19:41:03,5.8,1.0,0.0,27,0,0
26,Latifi,2021-07-05_19:41:03,6.4,1.0,0.0,4,0,54
27,Russell,2021-07-05_19:41:03,6.2,1.0,0.0,41,0,49
28,Alonso,2021-07-05_19:41:03,14.8,1.0,0.0,10,19,0
29,Verstappen,2021-07-05_19:41:03,25.7,1.0,0.1,60,40,0
