,name,request_time,price,chance_of_playing,weekly_price_change,current_selection_percentage,probability_price_up_percentage,probability_price_down_percentage
0,Gasly,2021-07-25_05:11:03,11.9,1.0,0.0,45,17,0
1,Vettel,2021-07-25_05:11:03,15.2,1.0,0.0,13,0,20
2,Tsunoda,2021-07-25_05:11:03,8.5,1.0,0.0,23,0,36
3,Ocon,2021-07-25_05:11:03,10.0,1.0,-0.1,19,0,3
4,Bottas,2021-07-25_05:11:03,23.0,1.0,0.0,10,0,34
5,Williams,2021-07-25_05:11:03,6.3,1.0,0.0,4,0,40
6,Norris,2021-07-25_05:11:03,14.1,1.0,0.1,66,91,0
7,Ferrari,2021-07-25_05:11:03,18.7,1.0,0.0,10,0,71
8,Red Bull,2021-07-25_05:11:03,26.7,1.0,0.1,36,7,0
9,Stroll,2021-07-25_05:11:03,13.3,1.0,0.0,8,2,0
10,Mazepin,2021-07-25_05:11:03,5.3,1.0,0.0,5,0,10
11,Mercedes,2021-07-25_05:11:03,37.1,1.0,-0.1,8,0,8
12,AlphaTauri,2021-07-25_05:11:03,12.7,1.0,0.0,6,0,15
13,Haas,2021-07-25_05:11:03,6.1,1.0,0.0,4,0,26
14,Aston Martin,2021-07-25_05:11:03,16.4,1.0,0.0,5,63,0
15,Perez,2021-07-25_05:11:03,18.8,1.0,0.0,36,0,57
16,Alpine,2021-07-25_05:11:03,15.1,1.0,0.0,4,0,84
17,Raikkonen,2021-07-25_05:11:03,9.3,1.0,0.0,13,0,68
18,Hamilton,2021-07-25_05:11:03,33.0,1.0,0.0,24,0,58
19,McLaren,2021-07-25_05:11:03,18.6,1.0,0.0,28,29,0
20,Ricciardo,2021-07-25_05:11:03,15.8,1.0,0.0,25,0,52
21,Leclerc,2021-07-25_05:11:03,17.5,1.0,-0.1,35,59,0
22,Schumacher,2021-07-25_05:11:03,5.8,1.0,0.0,27,32,0
23,Giovinazzi,2021-07-25_05:11:03,8.0,1.0,0.0,10,96,0
24,Sainz,2021-07-25_05:11:03,14.4,1.0,0.1,28,1,0
25,Alfa Romeo,2021-07-25_05:11:03,9.2,1.0,0.0,4,0,81
26,Latifi,2021-07-25_05:11:03,6.4,1.0,0.0,4,0,60
27,Russell,2021-07-25_05:11:03,6.2,1.0,0.0,41,0,33
28,Alonso,2021-07-25_05:11:03,14.8,1.0,0.0,10,74,0
29,Verstappen,2021-07-25_05:11:03,25.7,1.0,0.0,61,77,0
