,name,request_time,price,chance_of_playing,weekly_price_change,current_selection_percentage,probability_price_up_percentage,probability_price_down_percentage
0,AlphaTauri,2021-04-20_14:11:02,13.2,1.0,0.0,7,0,34
1,Raikkonen,2021-04-20_14:11:02,9.4,1.0,0.0,14,0,16
2,Hamilton,2021-04-20_14:11:02,33.4,1.0,0.0,28,0,67
3,Mazepin,2021-04-20_14:11:02,5.3,1.0,0.0,5,0,22
4,Mercedes,2021-04-20_14:11:02,37.7,1.0,-0.1,11,0,27
5,Haas,2021-04-20_14:11:02,6.1,1.0,0.0,4,0,27
6,Vettel,2021-04-20_14:11:02,15.3,1.0,-0.1,14,0,80
7,Alonso,2021-04-20_14:11:02,15.1,1.0,-0.1,11,0,89
8,Verstappen,2021-04-20_14:11:02,25.2,1.0,0.1,55,44,0
9,McLaren,2021-04-20_14:11:02,18.7,1.0,0.0,28,19,0
10,Ocon,2021-04-20_14:11:02,9.7,1.0,0.0,13,0,96
11,Schumacher,2021-04-20_14:11:02,5.7,1.0,0.0,25,0,17
12,Bottas,2021-04-20_14:11:02,23.4,1.0,-0.1,12,0,17
13,Red Bull,2021-04-20_14:11:02,26.1,1.0,0.1,32,7,0
14,Williams,2021-04-20_14:11:02,6.3,1.0,0.0,4,0,34
15,Norris,2021-04-20_14:11:02,13.6,1.0,0.2,58,11,0
16,Alfa Romeo,2021-04-20_14:11:02,8.9,1.0,0.0,4,11,0
17,Alpine,2021-04-20_14:11:02,15.0,1.0,-0.1,4,0,6
18,Latifi,2021-04-20_14:11:02,6.5,1.0,0.0,4,0,64
19,Russell,2021-04-20_14:11:02,6.2,1.0,0.0,44,74,0
20,Ferrari,2021-04-20_14:11:02,18.8,1.0,0.1,11,30,0
21,Tsunoda,2021-04-20_14:11:02,9.4,1.0,0.0,34,0,10
22,Ricciardo,2021-04-20_14:11:02,16.6,1.0,-0.1,32,0,38
23,Leclerc,2021-04-20_14:11:02,17.6,1.0,0.2,35,42,0
24,Stroll,2021-04-20_14:11:02,13.6,1.0,0.0,9,0,5
25,Giovinazzi,2021-04-20_14:11:02,7.8,1.0,0.0,7,0,32
26,Aston Martin,2021-04-20_14:11:02,16.8,1.0,-0.1,6,0,69
27,Perez,2021-04-20_14:11:02,18.4,1.0,0.0,32,0,74
28,Gasly,2021-04-20_14:11:02,11.7,1.0,0.0,43,76,0
29,Sainz,2021-04-20_14:11:02,14.3,1.0,0.0,26,0,7
