,name,request_time,price,chance_of_playing,weekly_price_change,current_selection_percentage,probability_price_up_percentage,probability_price_down_percentage
0,Ferrari,2021-06-30_01:31:03,18.7,1.0,-0.6,10,0,85
1,Red Bull,2021-06-30_01:31:03,26.5,1.0,0.3,35,92,0
2,Stroll,2021-06-30_01:31:03,13.3,1.0,0.0,8,19,0
3,Williams,2021-06-30_01:31:03,6.3,1.0,0.0,4,0,45
4,AlphaTauri,2021-06-30_01:31:03,12.7,1.0,0.1,6,38,0
5,Perez,2021-06-30_01:31:03,18.8,1.0,0.4,37,49,0
6,Alpine,2021-06-30_01:31:03,15.2,1.0,-0.1,4,0,98
7,Vettel,2021-06-30_01:31:03,15.2,1.0,0.2,14,35,0
8,Tsunoda,2021-06-30_01:31:03,8.5,1.0,0.1,23,9,0
9,Bottas,2021-06-30_01:31:03,23.0,1.0,0.0,10,0,63
10,Mazepin,2021-06-30_01:31:03,5.3,1.0,0.0,5,0,12
11,Raikkonen,2021-06-30_01:31:03,9.3,1.0,0.0,13,0,67
12,Hamilton,2021-06-30_01:31:03,33.1,1.0,0.0,25,0,91
13,Gasly,2021-06-30_01:31:03,11.9,1.0,0.1,46,45,0
14,Sainz,2021-06-30_01:31:03,14.3,1.0,-0.4,26,0,58
15,Alfa Romeo,2021-06-30_01:31:03,9.2,1.0,0.0,4,0,71
16,Mercedes,2021-06-30_01:31:03,37.2,1.0,-0.1,9,0,39
17,Aston Martin,2021-06-30_01:31:03,16.4,1.0,0.0,5,67,0
18,Haas,2021-06-30_01:31:03,6.1,1.0,0.0,4,0,26
19,Norris,2021-06-30_01:31:03,14.0,1.0,0.1,64,30,0
20,Giovinazzi,2021-06-30_01:31:03,8.0,1.0,0.0,9,40,0
21,McLaren,2021-06-30_01:31:03,18.6,1.0,0.0,28,44,0
22,Ricciardo,2021-06-30_01:31:03,15.9,1.0,0.0,26,5,0
23,Ocon,2021-06-30_01:31:03,10.3,1.0,-0.1,21,0,32
24,Schumacher,2021-06-30_01:31:03,5.8,1.0,0.0,26,0,20
25,Leclerc,2021-06-30_01:31:03,17.6,1.0,-0.4,34,0,84
26,Latifi,2021-06-30_01:31:03,6.4,1.0,0.0,4,0,49
27,Russell,2021-06-30_01:31:03,6.2,1.0,0.0,40,0,68
28,Alonso,2021-06-30_01:31:03,14.8,1.0,0.0,10,46,0
29,Verstappen,2021-06-30_01:31:03,25.6,1.0,0.1,60,84,0
