,name,request_time,price,chance_of_playing,weekly_price_change,current_selection_percentage,probability_price_up_percentage,probability_price_down_percentage
0,Mercedes,2021-04-05_00:00:03,37.9,1.0,-0.1,12,0,31
1,McLaren,2021-04-05_00:00:03,18.9,1.0,0.0,30,26,0
2,Red Bull,2021-04-05_00:00:03,26.0,1.0,0.100000000000001,31,40,0
3,Schumacher,2021-04-05_00:00:03,5.8,1.0,0.0,27,0,16
4,Ricciardo,2021-04-05_00:00:03,17.1,1.0,-0.199999999999999,36,0,99
5,Ocon,2021-04-05_00:00:03,9.9,1.0,-0.199999999999999,15,0,80
6,Williams,2021-04-05_00:00:03,6.3,1.0,0.0,1,0,25
7,Raikkonen,2021-04-05_00:00:03,9.5,1.0,-0.1,15,0,12
8,Alonso,2021-04-05_00:00:03,15.4,1.0,-0.199999999999999,13,0,71
9,Giovinazzi,2021-04-05_00:00:03,7.9,1.0,0.0,8,0,50
10,Alfa Romeo,2021-04-05_00:00:03,8.9,1.0,0.0,1,0,0
11,Stroll,2021-04-05_00:00:03,13.8,1.0,-0.0999999999999996,10,0,54
12,Sainz,2021-04-05_00:00:03,14.4,1.0,0.0,26,0,77
13,Alpine,2021-04-05_00:00:03,15.2,1.0,-0.2,3,0,19
14,Norris,2021-04-05_00:00:03,13.3,1.0,0.2,54,35,0
15,Verstappen,2021-04-05_00:00:03,25.0,1.0,0.2,52,42,0
16,Haas,2021-04-05_00:00:03,6.1,1.0,0.0,1,0,17
17,Hamilton,2021-04-05_00:00:03,33.5,1.0,0.0,29,0,74
18,Ferrari,2021-04-05_00:00:03,18.3,1.0,0.2,8,29,0
19,Leclerc,2021-04-05_00:00:03,17.2,1.0,0.4,30,9,0
20,AlphaTauri,2021-04-05_00:00:03,12.9,1.0,0.200000000000001,6,57,0
21,Perez,2021-04-05_00:00:03,18.3,1.0,-0.0999999999999979,32,16,0
22,Latifi,2021-04-05_00:00:03,6.5,1.0,0.0,4,0,45
23,Russell,2021-04-05_00:00:03,6.2,1.0,0.0,42,0,4
24,Aston Martin,2021-04-05_00:00:03,17.2,1.0,-0.4,7,0,78
25,Bottas,2021-04-05_00:00:03,23.5,1.0,-0.100000000000001,12,0,21
26,Mazepin,2021-04-05_00:00:03,5.4,1.0,-0.0999999999999996,5,0,39
27,Tsunoda,2021-04-05_00:00:03,9.1,1.0,0.3,30,84,0
28,Vettel,2021-04-05_00:00:03,15.7,1.0,-0.5,17,0,12
29,Gasly,2021-04-05_00:00:03,11.8,1.0,0.1,43,0,7
