,name,request_time,price,chance_of_playing,weekly_price_change,current_selection_percentage,probability_price_up_percentage,probability_price_down_percentage
0,Gasly,2021-08-29_12:31:03,11.9,1.0,0.0,45,0,3
1,Vettel,2021-08-29_12:31:03,15.2,1.0,0.0,14,13,0
2,Tsunoda,2021-08-29_12:31:03,8.4,1.0,-0.1,21,0,43
3,Ocon,2021-08-29_12:31:03,10.2,1.0,0.2,20,7,0
4,Williams,2021-08-29_12:31:03,6.3,1.0,0.0,4,0,23
5,Norris,2021-08-29_12:31:03,14.2,1.0,0.0,66,13,0
6,Bottas,2021-08-29_12:31:03,23.0,1.0,0.0,10,0,35
7,Ferrari,2021-08-29_12:31:03,18.8,1.0,0.1,11,0,58
8,Red Bull,2021-08-29_12:31:03,26.6,1.0,0.1,35,0,0
9,Stroll,2021-08-29_12:31:03,13.3,1.0,0.0,8,0,5
10,Raikkonen,2021-08-29_12:31:03,9.2,1.0,-0.1,12,0,2
11,Mazepin,2021-08-29_12:31:03,5.3,1.0,0.0,5,0,10
12,Mercedes,2021-08-29_12:31:03,37.1,1.0,0.0,8,0,10
13,Haas,2021-08-29_12:31:03,6.1,1.0,0.0,4,0,26
14,Aston Martin,2021-08-29_12:31:03,16.5,1.0,0.1,5,0,48
15,AlphaTauri,2021-08-29_12:31:03,12.7,1.0,0.0,5,0,84
16,Perez,2021-08-29_12:31:03,18.5,1.0,-0.2,34,52,0
17,Alpine,2021-08-29_12:31:03,15.1,1.0,0.0,4,53,0
18,Hamilton,2021-08-29_12:31:03,33.0,1.0,0.0,24,0,10
19,McLaren,2021-08-29_12:31:03,18.7,1.0,0.1,28,0,50
20,Ricciardo,2021-08-29_12:31:03,15.7,1.0,-0.1,24,0,40
21,Leclerc,2021-08-29_12:31:03,17.6,1.0,0.0,35,0,37
22,Schumacher,2021-08-29_12:31:03,5.8,1.0,0.0,26,0,20
23,Giovinazzi,2021-08-29_12:31:03,8.0,1.0,-0.1,9,0,42
24,Sainz,2021-08-29_12:31:03,14.5,1.0,0.1,29,55,0
25,Alfa Romeo,2021-08-29_12:31:03,9.2,1.0,0.0,4,0,97
26,Latifi,2021-08-29_12:31:03,6.4,1.0,0.0,4,0,50
27,Russell,2021-08-29_12:31:03,6.2,1.0,0.0,42,13,0
28,Alonso,2021-08-29_12:31:03,15.0,1.0,0.1,11,56,0
29,Verstappen,2021-08-29_12:31:03,25.7,1.0,0.0,61,52,0
