,name,request_time,price,chance_of_playing,weekly_price_change,current_selection_percentage,probability_price_up_percentage,probability_price_down_percentage
0,Norris,2021-07-20_06:11:03,14.1,1.0,0.1,66,83,0
1,Gasly,2021-07-20_06:11:03,11.9,1.0,0.0,46,25,0
2,Vettel,2021-07-20_06:11:03,15.2,1.0,0.0,13,0,14
3,Tsunoda,2021-07-20_06:11:03,8.5,1.0,0.0,23,0,26
4,Ocon,2021-07-20_06:11:03,10.1,1.0,-0.1,19,0,93
5,Bottas,2021-07-20_06:11:03,23.0,1.0,0.0,10,0,36
6,Williams,2021-07-20_06:11:03,6.3,1.0,0.0,4,0,42
7,Ferrari,2021-07-20_06:11:03,18.7,1.0,0.0,10,0,74
8,Red Bull,2021-07-20_06:11:03,26.7,1.0,0.1,36,19,0
9,Stroll,2021-07-20_06:11:03,13.3,1.0,0.0,8,4,0
10,Raikkonen,2021-07-20_06:11:03,9.3,1.0,0.0,13,0,67
11,Mazepin,2021-07-20_06:11:03,5.3,1.0,0.0,5,0,10
12,Mercedes,2021-07-20_06:11:03,37.1,1.0,-0.1,8,0,2
13,Aston Martin,2021-07-20_06:11:03,16.4,1.0,0.0,5,59,0
14,Haas,2021-07-20_06:11:03,6.1,1.0,0.0,4,0,26
15,AlphaTauri,2021-07-20_06:11:03,12.7,1.0,0.0,6,0,9
16,Perez,2021-07-20_06:11:03,18.8,1.0,0.0,36,0,32
17,Alpine,2021-07-20_06:11:03,15.1,1.0,0.0,4,0,80
18,Hamilton,2021-07-20_06:11:03,33.0,1.0,0.0,24,0,60
19,Sainz,2021-07-20_06:11:03,14.4,1.0,0.1,28,1,0
20,Alfa Romeo,2021-07-20_06:11:03,9.2,1.0,0.0,4,0,78
21,McLaren,2021-07-20_06:11:03,18.6,1.0,0.0,28,16,0
22,Ricciardo,2021-07-20_06:11:03,15.8,1.0,0.0,25,0,49
23,Schumacher,2021-07-20_06:11:03,5.8,1.0,0.0,27,32,0
24,Leclerc,2021-07-20_06:11:03,17.5,1.0,-0.1,34,33,0
25,Giovinazzi,2021-07-20_06:11:03,8.0,1.0,0.0,9,80,0
26,Latifi,2021-07-20_06:11:03,6.4,1.0,0.0,4,0,60
27,Russell,2021-07-20_06:11:03,6.2,1.0,0.0,41,0,37
28,Alonso,2021-07-20_06:11:03,14.8,1.0,0.0,10,58,0
29,Verstappen,2021-07-20_06:11:03,25.7,1.0,0.0,61,77,0
