,name,request_time,price,chance_of_playing,weekly_price_change,current_selection_percentage,probability_price_up_percentage,probability_price_down_percentage
0,Gasly,2021-08-27_03:41:03,11.9,1.0,0.0,45,0,29
1,Vettel,2021-08-27_03:41:03,15.2,1.0,0.0,13,0,33
2,Tsunoda,2021-08-27_03:41:03,8.4,1.0,-0.1,22,0,21
3,Ocon,2021-08-27_03:41:03,10.1,1.0,0.1,20,11,0
4,Williams,2021-08-27_03:41:03,6.3,1.0,0.0,4,0,28
5,Norris,2021-08-27_03:41:03,14.2,1.0,0.1,66,0,0
6,Bottas,2021-08-27_03:41:03,23.1,1.0,0.1,10,0,57
7,Ferrari,2021-08-27_03:41:03,18.9,1.0,0.2,12,3,0
8,Red Bull,2021-08-27_03:41:03,26.5,1.0,-0.1,35,0,0
9,Stroll,2021-08-27_03:41:03,13.3,1.0,0.0,7,0,17
10,Mazepin,2021-08-27_03:41:03,5.3,1.0,0.0,5,2,0
11,Mercedes,2021-08-27_03:41:03,37.1,1.0,-0.1,8,0,4
12,AlphaTauri,2021-08-27_03:41:03,12.7,1.0,0.0,5,0,70
13,Haas,2021-08-27_03:41:03,6.1,1.0,0.0,4,0,24
14,Aston Martin,2021-08-27_03:41:03,16.5,1.0,0.1,5,0,47
15,Perez,2021-08-27_03:41:03,18.6,1.0,-0.2,34,0,86
16,Alpine,2021-08-27_03:41:03,15.1,1.0,0.0,4,0,46
17,Hamilton,2021-08-27_03:41:03,33.0,1.0,0.0,24,0,10
18,Raikkonen,2021-08-27_03:41:03,9.3,1.0,0.0,12,0,82
19,McLaren,2021-08-27_03:41:03,18.7,1.0,0.1,28,0,18
20,Ricciardo,2021-08-27_03:41:03,15.7,1.0,-0.1,25,0,11
21,Leclerc,2021-08-27_03:41:03,17.7,1.0,0.1,36,0,10
22,Schumacher,2021-08-27_03:41:03,5.8,1.0,0.0,26,0,15
23,Giovinazzi,2021-08-27_03:41:03,8.0,1.0,-0.1,9,0,11
24,Sainz,2021-08-27_03:41:03,14.5,1.0,0.1,29,58,0
25,Alfa Romeo,2021-08-27_03:41:03,9.2,1.0,0.0,4,0,91
26,Latifi,2021-08-27_03:41:03,6.4,1.0,0.0,4,0,49
27,Russell,2021-08-27_03:41:03,6.2,1.0,0.0,42,12,0
28,Alonso,2021-08-27_03:41:03,15.0,1.0,0.1,11,3,0
29,Verstappen,2021-08-27_03:41:03,25.7,1.0,0.0,60,33,0
