,name,request_time,price,chance_of_playing,weekly_price_change,current_selection_percentage,probability_price_up_percentage,probability_price_down_percentage
0,AlphaTauri,2021-06-16_07:41:02,12.6,1.0,0.0,5,10,0
1,Perez,2021-06-16_07:41:02,18.3,1.0,0.1,33,86,0
2,Alpine,2021-06-16_07:41:02,15.1,1.0,-0.1,4,0,27
3,Gasly,2021-06-16_07:41:02,11.7,1.0,0.2,43,79,0
4,Verstappen,2021-06-16_07:41:02,25.5,1.0,0.1,58,56,0
5,Giovinazzi,2021-06-16_07:41:02,8.0,1.0,0.2,9,77,0
6,Sainz,2021-06-16_07:41:02,14.7,1.0,0.2,31,71,0
7,Alfa Romeo,2021-06-16_07:41:02,9.2,1.0,0.0,4,0,38
8,Norris,2021-06-16_07:41:02,13.9,1.0,0.0,63,57,0
9,Mazepin,2021-06-16_07:41:02,5.3,1.0,0.0,5,0,24
10,Raikkonen,2021-06-16_07:41:02,9.3,1.0,-0.1,13,0,12
11,Hamilton,2021-06-16_07:41:02,33.1,1.0,-0.1,25,0,15
12,Vettel,2021-06-16_07:41:02,15.0,1.0,0.1,13,52,0
13,Tsunoda,2021-06-16_07:41:02,8.4,1.0,-0.2,22,17,0
14,Red Bull,2021-06-16_07:41:02,26.2,1.0,0.1,32,18,0
15,Stroll,2021-06-16_07:41:02,13.4,1.0,0.0,8,0,95
16,Williams,2021-06-16_07:41:02,6.3,1.0,0.0,4,0,46
17,Mercedes,2021-06-16_07:41:02,37.3,1.0,-0.2,9,0,51
18,Aston Martin,2021-06-16_07:41:02,16.4,1.0,0.0,5,34,0
19,Haas,2021-06-16_07:41:02,6.1,1.0,0.0,4,0,25
20,Latifi,2021-06-16_07:41:02,6.4,1.0,0.0,4,0,32
21,Russell,2021-06-16_07:41:02,6.2,1.0,0.0,40,0,75
22,Alonso,2021-06-16_07:41:02,14.7,1.0,-0.1,9,0,5
23,McLaren,2021-06-16_07:41:02,18.6,1.0,-0.1,27,0,68
24,Ricciardo,2021-06-16_07:41:02,16.0,1.0,-0.2,26,0,95
25,Ocon,2021-06-16_07:41:02,10.4,1.0,-0.1,22,0,70
26,Schumacher,2021-06-16_07:41:02,5.8,1.0,-0.1,26,0,36
27,Leclerc,2021-06-16_07:41:02,18.2,1.0,-0.1,41,0,8
28,Bottas,2021-06-16_07:41:02,23.0,1.0,-0.2,10,0,69
29,Ferrari,2021-06-16_07:41:02,19.6,1.0,-0.1,14,0,41
