,name,request_time,price,chance_of_playing,weekly_price_change,current_selection_percentage,probability_price_up_percentage,probability_price_down_percentage
0,AlphaTauri,2021-05-24_23:11:03,12.6,1.0,-0.2,5,0,30
1,Perez,2021-05-24_23:11:03,18.0,1.0,-0.2,29,0,62
2,Alpine,2021-05-24_23:11:03,15.2,1.0,0.0,4,0,54
3,Gasly,2021-05-24_23:11:03,11.5,1.0,-0.2,40,18,0
4,Verstappen,2021-05-24_23:11:03,25.4,1.0,0.1,57,67,0
5,Giovinazzi,2021-05-24_23:11:03,7.9,1.0,0.1,8,30,0
6,Sainz,2021-05-24_23:11:03,14.6,1.0,0.1,30,59,0
7,Alfa Romeo,2021-05-24_23:11:03,9.2,1.0,0.3,4,0,3
8,Mazepin,2021-05-24_23:11:03,5.3,1.0,0.0,5,0,14
9,Hamilton,2021-05-24_23:11:03,33.3,1.0,0.0,27,0,44
10,Raikkonen,2021-05-24_23:11:03,9.4,1.0,0.1,14,39,0
11,Vettel,2021-05-24_23:11:03,14.9,1.0,-0.1,12,0,17
12,Tsunoda,2021-05-24_23:11:03,8.5,1.0,-0.1,23,0,26
13,Red Bull,2021-05-24_23:11:03,26.0,1.0,-0.1,30,0,63
14,Stroll,2021-05-24_23:11:03,13.4,1.0,-0.1,8,0,40
15,Williams,2021-05-24_23:11:03,6.3,1.0,0.0,4,0,34
16,Norris,2021-05-24_23:11:03,13.9,1.0,0.0,63,26,0
17,Mercedes,2021-05-24_23:11:03,37.5,1.0,-0.1,10,0,87
18,Haas,2021-05-24_23:11:03,6.1,1.0,0.0,4,0,17
19,Aston Martin,2021-05-24_23:11:03,16.4,1.0,-0.1,5,0,0
20,Latifi,2021-05-24_23:11:03,6.4,1.0,0.0,4,0,22
21,Russell,2021-05-24_23:11:03,6.2,1.0,-0.1,42,2,0
22,Alonso,2021-05-24_23:11:03,14.8,1.0,-0.2,10,0,52
23,McLaren,2021-05-24_23:11:03,18.7,1.0,-0.2,28,0,62
24,Ricciardo,2021-05-24_23:11:03,16.2,1.0,0.0,28,0,47
25,Leclerc,2021-05-24_23:11:03,18.3,1.0,0.3,42,68,0
26,Schumacher,2021-05-24_23:11:03,5.9,1.0,0.1,27,0,98
27,Ocon,2021-05-24_23:11:03,10.5,1.0,0.2,23,0,32
28,Bottas,2021-05-24_23:11:03,23.1,1.0,-0.1,10,0,11
29,Ferrari,2021-05-24_23:11:03,19.6,1.0,0.1,15,62,0
