,name,request_time,price,chance_of_playing,weekly_price_change,current_selection_percentage,probability_price_up_percentage,probability_price_down_percentage
0,Raikkonen,2021-05-05_04:11:02,9.4,1.0,0.0,13,0,98
1,Hamilton,2021-05-05_04:11:02,33.3,1.0,-0.1,27,0,1
2,Gasly,2021-05-05_04:11:02,11.7,1.0,0.0,42,0,7
3,Red Bull,2021-05-05_04:11:02,26.1,1.0,0.0,32,0,9
4,Stroll,2021-05-05_04:11:02,13.6,1.0,0.0,9,0,41
5,AlphaTauri,2021-05-05_04:11:02,12.9,1.0,-0.2,6,0,16
6,Perez,2021-05-05_04:11:02,18.3,1.0,0.0,31,0,45
7,Alpine,2021-05-05_04:11:02,15.2,1.0,0.2,4,37,0
8,Mazepin,2021-05-05_04:11:02,5.3,1.0,0.0,5,0,42
9,Vettel,2021-05-05_04:11:02,15.0,1.0,-0.1,12,0,18
10,Tsunoda,2021-05-05_04:11:02,9.1,1.0,-0.2,29,0,90
11,Russell,2021-05-05_04:11:02,6.3,1.0,0.1,44,0,22
12,Alonso,2021-05-05_04:11:02,15.0,1.0,0.0,10,0,89
13,Verstappen,2021-05-05_04:11:02,25.3,1.0,0.0,56,64,0
14,McLaren,2021-05-05_04:11:02,18.9,1.0,0.1,30,4,0
15,Ricciardo,2021-05-05_04:11:02,16.4,1.0,-0.1,30,0,82
16,Schumacher,2021-05-05_04:11:02,5.7,1.0,0.0,25,19,0
17,Leclerc,2021-05-05_04:11:02,17.9,1.0,0.1,38,12,0
18,Ocon,2021-05-05_04:11:02,10.1,1.0,0.3,19,79,0
19,Bottas,2021-05-05_04:11:02,23.3,1.0,0.0,11,0,67
20,Ferrari,2021-05-05_04:11:02,18.8,1.0,-0.1,11,0,61
21,Mercedes,2021-05-05_04:11:02,37.6,1.0,0.0,10,0,58
22,Aston Martin,2021-05-05_04:11:02,16.6,1.0,0.0,5,0,65
23,Haas,2021-05-05_04:11:02,6.1,1.0,0.0,4,0,27
24,Latifi,2021-05-05_04:11:02,6.4,1.0,-0.1,4,0,8
25,Williams,2021-05-05_04:11:02,6.3,1.0,0.0,4,0,38
26,Giovinazzi,2021-05-05_04:11:02,7.8,1.0,0.0,7,0,62
27,Norris,2021-05-05_04:11:02,13.8,1.0,0.1,61,8,0
28,Sainz,2021-05-05_04:11:02,14.4,1.0,0.1,27,0,52
29,Alfa Romeo,2021-05-05_04:11:02,8.9,1.0,0.0,4,33,0
