,name,request_time,price,chance_of_playing,weekly_price_change,current_selection_percentage,probability_price_up_percentage,probability_price_down_percentage
0,Ferrari,2021-07-02_02:51:02,18.7,1.0,-0.6,10,0,92
1,Red Bull,2021-07-02_02:51:02,26.6,1.0,0.1,35,10,0
2,Stroll,2021-07-02_02:51:02,13.3,1.0,0.0,8,22,0
3,Williams,2021-07-02_02:51:02,6.3,1.0,0.0,4,0,47
4,AlphaTauri,2021-07-02_02:51:02,12.7,1.0,0.1,6,41,0
5,Perez,2021-07-02_02:51:02,18.8,1.0,0.4,37,62,0
6,Alpine,2021-07-02_02:51:02,15.1,1.0,-0.1,4,0,5
7,Vettel,2021-07-02_02:51:02,15.2,1.0,0.2,14,29,0
8,Tsunoda,2021-07-02_02:51:02,8.5,1.0,0.1,23,15,0
9,Bottas,2021-07-02_02:51:02,23.0,1.0,0.0,10,0,66
10,Mazepin,2021-07-02_02:51:02,5.3,1.0,0.0,5,0,11
11,Hamilton,2021-07-02_02:51:02,33.0,1.0,-0.1,25,0,3
12,Raikkonen,2021-07-02_02:51:02,9.3,1.0,0.0,13,0,67
13,Gasly,2021-07-02_02:51:02,11.9,1.0,0.1,46,49,0
14,Sainz,2021-07-02_02:51:02,14.3,1.0,-0.4,26,0,57
15,Alfa Romeo,2021-07-02_02:51:02,9.2,1.0,0.0,4,0,71
16,Mercedes,2021-07-02_02:51:02,37.2,1.0,-0.1,9,0,47
17,Haas,2021-07-02_02:51:02,6.1,1.0,0.0,4,0,26
18,Aston Martin,2021-07-02_02:51:02,16.4,1.0,0.0,5,65,0
19,McLaren,2021-07-02_02:51:02,18.6,1.0,0.0,28,36,0
20,Ricciardo,2021-07-02_02:51:02,15.9,1.0,0.0,26,0,13
21,Leclerc,2021-07-02_02:51:02,17.6,1.0,-0.4,34,0,90
22,Schumacher,2021-07-02_02:51:02,5.8,1.0,0.0,26,0,18
23,Ocon,2021-07-02_02:51:02,10.3,1.0,-0.1,21,0,50
24,Norris,2021-07-02_02:51:02,14.0,1.0,0.1,64,38,0
25,Giovinazzi,2021-07-02_02:51:02,8.0,1.0,0.0,9,38,0
26,Latifi,2021-07-02_02:51:02,6.4,1.0,0.0,4,0,49
27,Russell,2021-07-02_02:51:02,6.2,1.0,0.0,40,0,69
28,Alonso,2021-07-02_02:51:02,14.8,1.0,0.0,10,49,0
29,Verstappen,2021-07-02_02:51:02,25.6,1.0,0.1,60,91,0
