,name,request_time,price,chance_of_playing,weekly_price_change,current_selection_percentage,probability_price_up_percentage,probability_price_down_percentage
0,AlphaTauri,2021-04-27_01:01:02,13.2,1.0,0.0,7,0,59
1,Perez,2021-04-27_01:01:02,18.3,1.0,-0.1,32,0,19
2,Alpine,2021-04-27_01:01:02,15.0,1.0,-0.1,4,0,28
3,Raikkonen,2021-04-27_01:01:02,9.4,1.0,0.0,14,0,15
4,Hamilton,2021-04-27_01:01:02,33.4,1.0,0.0,27,0,77
5,Gasly,2021-04-27_01:01:02,11.7,1.0,0.0,43,85,0
6,Vettel,2021-04-27_01:01:02,15.2,1.0,-0.2,13,0,59
7,Red Bull,2021-04-27_01:01:02,26.1,1.0,0.1,32,0,0
8,Stroll,2021-04-27_01:01:02,13.6,1.0,0.0,9,8,0
9,Williams,2021-04-27_01:01:02,6.3,1.0,0.0,4,0,33
10,Mazepin,2021-04-27_01:01:02,5.3,1.0,0.0,5,0,28
11,Tsunoda,2021-04-27_01:01:02,9.4,1.0,0.0,34,0,40
12,Latifi,2021-04-27_01:01:02,6.5,1.0,0.0,4,0,71
13,Russell,2021-04-27_01:01:02,6.2,1.0,0.0,44,78,0
14,Alonso,2021-04-27_01:01:02,15.0,1.0,-0.2,11,0,52
15,Verstappen,2021-04-27_01:01:02,25.2,1.0,0.1,55,85,0
16,McLaren,2021-04-27_01:01:02,18.7,1.0,0.0,29,81,0
17,Ricciardo,2021-04-27_01:01:02,16.6,1.0,-0.1,31,0,96
18,Leclerc,2021-04-27_01:01:02,17.7,1.0,0.3,36,34,0
19,Schumacher,2021-04-27_01:01:02,5.7,1.0,0.0,25,0,25
20,Ocon,2021-04-27_01:01:02,9.6,1.0,-0.1,13,2,0
21,Bottas,2021-04-27_01:01:02,23.4,1.0,-0.1,12,0,69
22,Ferrari,2021-04-27_01:01:02,18.8,1.0,0.1,11,50,0
23,Mercedes,2021-04-27_01:01:02,37.7,1.0,-0.1,11,0,69
24,Haas,2021-04-27_01:01:02,6.1,1.0,0.0,4,0,27
25,Aston Martin,2021-04-27_01:01:02,16.7,1.0,-0.2,5,0,27
26,Norris,2021-04-27_01:01:02,13.6,1.0,0.2,59,76,0
27,Giovinazzi,2021-04-27_01:01:02,7.8,1.0,0.0,7,0,43
28,Sainz,2021-04-27_01:01:02,14.3,1.0,0.0,26,13,0
29,Alfa Romeo,2021-04-27_01:01:02,8.9,1.0,0.0,4,16,0
