,name,request_time,price,chance_of_playing,weekly_price_change,current_selection_percentage,probability_price_up_percentage,probability_price_down_percentage
0,Mercedes,2021-04-10_18:00:02,37.9,1.0,-0.1,12,0,57
1,McLaren,2021-04-10_18:00:02,18.9,1.0,0.0,29,0,33
2,Red Bull,2021-04-10_18:00:02,26.0,1.0,0.100000000000001,31,39,0
3,Alfa Romeo,2021-04-10_18:00:02,8.9,1.0,0.0,1,1,0
4,Stroll,2021-04-10_18:00:02,13.8,1.0,-0.0999999999999996,10,0,80
5,Bottas,2021-04-10_18:00:02,23.5,1.0,-0.100000000000001,12,0,35
6,Vettel,2021-04-10_18:00:02,15.7,1.0,-0.5,16,0,76
7,Mazepin,2021-04-10_18:00:02,5.4,1.0,-0.0999999999999996,5,0,56
8,Tsunoda,2021-04-10_18:00:02,9.2,1.0,0.4,31,75,0
9,Haas,2021-04-10_18:00:02,6.1,1.0,0.0,1,0,19
10,Aston Martin,2021-04-10_18:00:02,17.1,1.0,-0.5,7,0,40
11,Williams,2021-04-10_18:00:02,6.3,1.0,0.0,1,0,29
12,Raikkonen,2021-04-10_18:00:02,9.5,1.0,-0.1,15,0,32
13,Schumacher,2021-04-10_18:00:02,5.8,1.0,0.0,26,0,28
14,Verstappen,2021-04-10_18:00:02,25.0,1.0,0.2,52,73,0
15,Perez,2021-04-10_18:00:02,18.3,1.0,-0.0999999999999979,32,25,0
16,Latifi,2021-04-10_18:00:02,6.5,1.0,0.0,4,0,50
17,Russell,2021-04-10_18:00:02,6.2,1.0,0.0,42,4,0
18,Alpine,2021-04-10_18:00:02,15.2,1.0,-0.2,3,0,48
19,Ferrari,2021-04-10_18:00:02,18.4,1.0,0.3,9,49,0
20,Leclerc,2021-04-10_18:00:02,17.2,1.0,0.4,30,61,0
21,Alonso,2021-04-10_18:00:02,15.3,1.0,-0.3,13,0,15
22,Sainz,2021-04-10_18:00:02,14.4,1.0,0.0,26,0,97
23,Norris,2021-04-10_18:00:02,13.3,1.0,0.2,55,74,0
24,AlphaTauri,2021-04-10_18:00:02,13.0,1.0,0.3,7,70,0
25,Giovinazzi,2021-04-10_18:00:02,7.9,1.0,0.0,8,0,60
26,Ricciardo,2021-04-10_18:00:02,17.0,1.0,-0.3,36,0,45
27,Hamilton,2021-04-10_18:00:02,33.5,1.0,0.0,28,0,89
28,Ocon,2021-04-10_18:00:02,9.8,1.0,-0.3,15,0,16
29,Gasly,2021-04-10_18:00:02,11.8,1.0,0.1,43,0,47
