,name,request_time,price,chance_of_playing,weekly_price_change,current_selection_percentage,probability_price_up_percentage,probability_price_down_percentage
0,AlphaTauri,2021-04-22_01:41:03,13.2,1.0,0.0,7,0,42
1,Raikkonen,2021-04-22_01:41:03,9.4,1.0,0.0,14,0,15
2,Hamilton,2021-04-22_01:41:03,33.4,1.0,0.0,28,0,70
3,Mazepin,2021-04-22_01:41:03,5.3,1.0,0.0,5,0,24
4,Mercedes,2021-04-22_01:41:03,37.7,1.0,-0.1,11,0,41
5,Haas,2021-04-22_01:41:03,6.1,1.0,0.0,4,0,28
6,Vettel,2021-04-22_01:41:03,15.2,1.0,-0.2,13,0,10
7,Alonso,2021-04-22_01:41:03,15.0,1.0,-0.2,11,0,13
8,Verstappen,2021-04-22_01:41:03,25.2,1.0,0.1,55,59,0
9,McLaren,2021-04-22_01:41:03,18.7,1.0,0.0,28,38,0
10,Ocon,2021-04-22_01:41:03,9.7,1.0,0.0,13,0,99
11,Schumacher,2021-04-22_01:41:03,5.7,1.0,0.0,25,0,19
12,Bottas,2021-04-22_01:41:03,23.4,1.0,-0.1,12,0,36
13,Red Bull,2021-04-22_01:41:03,26.1,1.0,0.1,32,7,0
14,Williams,2021-04-22_01:41:03,6.3,1.0,0.0,4,0,34
15,Norris,2021-04-22_01:41:03,13.6,1.0,0.2,59,35,0
16,Alfa Romeo,2021-04-22_01:41:03,8.9,1.0,0.0,4,11,0
17,Alpine,2021-04-22_01:41:03,15.0,1.0,-0.1,4,0,14
18,Latifi,2021-04-22_01:41:03,6.5,1.0,0.0,4,0,66
19,Russell,2021-04-22_01:41:03,6.2,1.0,0.0,44,75,0
20,Ferrari,2021-04-22_01:41:03,18.8,1.0,0.1,11,39,0
21,Tsunoda,2021-04-22_01:41:03,9.4,1.0,0.0,34,0,21
22,Ricciardo,2021-04-22_01:41:03,16.6,1.0,-0.1,32,0,59
23,Leclerc,2021-04-22_01:41:03,17.6,1.0,0.2,35,78,0
24,Stroll,2021-04-22_01:41:03,13.6,1.0,0.0,9,0,1
25,Giovinazzi,2021-04-22_01:41:03,7.8,1.0,0.0,7,0,36
26,Aston Martin,2021-04-22_01:41:03,16.8,1.0,-0.1,5,0,89
27,Perez,2021-04-22_01:41:03,18.4,1.0,0.0,32,0,94
28,Gasly,2021-04-22_01:41:03,11.7,1.0,0.0,43,81,0
29,Sainz,2021-04-22_01:41:03,14.3,1.0,0.0,26,0,1
