,name,request_time,price,chance_of_playing,weekly_price_change,current_selection_percentage,probability_price_up_percentage,probability_price_down_percentage
0,AlphaTauri,2021-04-18_06:21:02,13.2,1.0,0.0,7,9,0
1,Raikkonen,2021-04-18_06:21:02,9.4,1.0,0.0,14,0,22
2,Ocon,2021-04-18_06:21:02,9.7,1.0,0.0,14,0,76
3,Mazepin,2021-04-18_06:21:02,5.3,1.0,0.0,5,0,13
4,Mercedes,2021-04-18_06:21:02,37.8,1.0,0.0,11,0,41
5,Haas,2021-04-18_06:21:02,6.1,1.0,0.0,4,0,27
6,Hamilton,2021-04-18_06:21:02,33.4,1.0,0.0,28,0,44
7,Vettel,2021-04-18_06:21:02,15.4,1.0,0.0,14,0,35
8,Alonso,2021-04-18_06:21:02,15.2,1.0,0.0,12,0,84
9,Verstappen,2021-04-18_06:21:02,25.1,1.0,0.0,54,54,0
10,McLaren,2021-04-18_06:21:02,18.7,1.0,0.0,28,0,43
11,Schumacher,2021-04-18_06:21:02,5.7,1.0,0.0,25,0,2
12,Bottas,2021-04-18_06:21:02,23.5,1.0,0.0,13,0,2
13,Red Bull,2021-04-18_06:21:02,26.0,1.0,0.0,32,85,0
14,Williams,2021-04-18_06:21:02,6.3,1.0,0.0,4,0,34
15,Norris,2021-04-18_06:21:02,13.4,1.0,0.0,56,67,0
16,Alfa Romeo,2021-04-18_06:21:02,8.9,1.0,0.0,4,1,0
17,Alpine,2021-04-18_06:21:02,15.1,1.0,0.0,4,0,59
18,Latifi,2021-04-18_06:21:02,6.5,1.0,0.0,4,0,52
19,Russell,2021-04-18_06:21:02,6.2,1.0,0.0,43,65,0
20,Ferrari,2021-04-18_06:21:02,18.7,1.0,0.0,11,21,0
21,Tsunoda,2021-04-18_06:21:02,9.4,1.0,0.0,35,19,0
22,Ricciardo,2021-04-18_06:21:02,16.7,1.0,0.0,33,0,36
23,Leclerc,2021-04-18_06:21:02,17.4,1.0,0.0,33,69,0
24,Stroll,2021-04-18_06:21:02,13.6,1.0,0.0,9,0,29
25,Giovinazzi,2021-04-18_06:21:02,7.8,1.0,0.0,8,0,16
26,Aston Martin,2021-04-18_06:21:02,16.9,1.0,0.0,6,0,81
27,Perez,2021-04-18_06:21:02,18.4,1.0,0.0,33,9,0
28,Gasly,2021-04-18_06:21:02,11.7,1.0,0.0,43,44,0
29,Sainz,2021-04-18_06:21:02,14.3,1.0,0.0,26,0,26
