,name,request_time,price,chance_of_playing,weekly_price_change,current_selection_percentage,probability_price_up_percentage,probability_price_down_percentage
0,AlphaTauri,2021-06-21_21:11:03,12.6,1.0,0.0,5,6,0
1,Perez,2021-06-21_21:11:03,18.5,1.0,0.1,34,84,0
2,Alpine,2021-06-21_21:11:03,15.3,1.0,0.1,4,10,0
3,Williams,2021-06-21_21:11:03,6.3,1.0,0.0,4,0,44
4,Norris,2021-06-21_21:11:03,13.9,1.0,0.0,64,76,0
5,Sainz,2021-06-21_21:11:03,14.6,1.0,-0.1,29,0,9
6,Mazepin,2021-06-21_21:11:03,5.3,1.0,0.0,5,0,17
7,Raikkonen,2021-06-21_21:11:03,9.3,1.0,-0.1,13,0,28
8,Hamilton,2021-06-21_21:11:03,33.1,1.0,-0.1,25,0,34
9,Gasly,2021-06-21_21:11:03,11.8,1.0,0.2,44,4,0
10,Vettel,2021-06-21_21:11:03,15.1,1.0,0.1,13,22,0
11,Tsunoda,2021-06-21_21:11:03,8.4,1.0,0.0,22,0,4
12,Verstappen,2021-06-21_21:11:03,25.5,1.0,0.0,59,91,0
13,Alfa Romeo,2021-06-21_21:11:03,9.2,1.0,0.0,4,0,50
14,Red Bull,2021-06-21_21:11:03,26.3,1.0,0.2,34,77,0
15,Mercedes,2021-06-21_21:11:03,37.3,1.0,-0.1,9,0,56
16,Aston Martin,2021-06-21_21:11:03,16.4,1.0,0.0,5,47,0
17,Haas,2021-06-21_21:11:03,6.1,1.0,0.0,4,0,24
18,Latifi,2021-06-21_21:11:03,6.4,1.0,0.0,4,0,38
19,Russell,2021-06-21_21:11:03,6.2,1.0,0.0,40,0,86
20,Alonso,2021-06-21_21:11:03,14.8,1.0,0.0,10,47,0
21,McLaren,2021-06-21_21:11:03,18.6,1.0,0.0,27,0,28
22,Giovinazzi,2021-06-21_21:11:03,8.0,1.0,0.0,9,64,0
23,Ricciardo,2021-06-21_21:11:03,15.9,1.0,-0.2,26,0,31
24,Schumacher,2021-06-21_21:11:03,5.8,1.0,0.0,26,0,15
25,Leclerc,2021-06-21_21:11:03,17.9,1.0,-0.1,37,0,75
26,Ocon,2021-06-21_21:11:03,10.4,1.0,-0.1,23,52,0
27,Bottas,2021-06-21_21:11:03,23.0,1.0,-0.1,10,67,0
28,Ferrari,2021-06-21_21:11:03,19.1,1.0,-0.2,12,0,56
29,Stroll,2021-06-21_21:11:03,13.3,1.0,-0.1,7,0,19
