,name,request_time,price,chance_of_playing,weekly_price_change,current_selection_percentage,probability_price_up_percentage,probability_price_down_percentage
0,AlphaTauri,2021-06-02_12:41:02,12.6,1.0,-0.2,5,0,45
1,Perez,2021-06-02_12:41:02,18.0,1.0,-0.2,29,0,60
2,Alpine,2021-06-02_12:41:02,15.2,1.0,0.0,4,0,75
3,Hamilton,2021-06-02_12:41:02,33.3,1.0,0.0,27,0,64
4,Raikkonen,2021-06-02_12:41:02,9.4,1.0,0.1,14,34,0
5,Gasly,2021-06-02_12:41:02,11.5,1.0,-0.2,40,41,0
6,Red Bull,2021-06-02_12:41:02,26.0,1.0,-0.1,31,0,41
7,Stroll,2021-06-02_12:41:02,13.4,1.0,-0.1,8,0,52
8,Leclerc,2021-06-02_12:41:02,18.3,1.0,0.3,42,68,0
9,Bottas,2021-06-02_12:41:02,23.1,1.0,-0.1,10,0,21
10,Ferrari,2021-06-02_12:41:02,19.7,1.0,0.2,15,4,0
11,Mazepin,2021-06-02_12:41:02,5.3,1.0,0.0,5,0,15
12,Vettel,2021-06-02_12:41:02,14.9,1.0,-0.1,12,0,0
13,Tsunoda,2021-06-02_12:41:02,8.5,1.0,-0.1,22,0,74
14,Russell,2021-06-02_12:41:02,6.2,1.0,-0.1,42,1,0
15,Alonso,2021-06-02_12:41:02,14.8,1.0,-0.2,9,0,83
16,Verstappen,2021-06-02_12:41:02,25.4,1.0,0.1,57,87,0
17,McLaren,2021-06-02_12:41:02,18.7,1.0,-0.2,28,0,78
18,Ricciardo,2021-06-02_12:41:02,16.1,1.0,-0.1,28,0,25
19,Ocon,2021-06-02_12:41:02,10.5,1.0,0.2,23,0,35
20,Schumacher,2021-06-02_12:41:02,5.8,1.0,-0.1,26,0,15
21,Haas,2021-06-02_12:41:02,6.1,1.0,0.0,4,0,18
22,Latifi,2021-06-02_12:41:02,6.4,1.0,0.0,4,0,26
23,Williams,2021-06-02_12:41:02,6.3,1.0,0.0,4,0,33
24,Giovinazzi,2021-06-02_12:41:02,7.9,1.0,0.1,9,87,0
25,Mercedes,2021-06-02_12:41:02,37.4,1.0,-0.1,10,0,9
26,Aston Martin,2021-06-02_12:41:02,16.4,1.0,-0.1,5,0,0
27,Norris,2021-06-02_12:41:02,13.9,1.0,0.0,63,59,0
28,Sainz,2021-06-02_12:41:02,14.7,1.0,0.2,30,16,0
29,Alfa Romeo,2021-06-02_12:41:02,9.2,1.0,0.3,4,0,6
