,name,request_time,price,chance_of_playing,weekly_price_change,current_selection_percentage,probability_price_up_percentage,probability_price_down_percentage
0,Ocon,2021-07-19_05:31:03,10.1,1.0,-0.1,19,0,90
1,Bottas,2021-07-19_05:31:03,23.0,1.0,0.0,10,0,37
2,Ferrari,2021-07-19_05:31:03,18.7,1.0,0.0,10,0,75
3,Red Bull,2021-07-19_05:31:03,26.7,1.0,0.1,36,25,0
4,Stroll,2021-07-19_05:31:03,13.3,1.0,0.0,8,5,0
5,Gasly,2021-07-19_05:31:03,11.9,1.0,0.0,46,28,0
6,Vettel,2021-07-19_05:31:03,15.2,1.0,0.0,13,0,9
7,Tsunoda,2021-07-19_05:31:03,8.5,1.0,0.0,23,0,22
8,Williams,2021-07-19_05:31:03,6.3,1.0,0.0,4,0,42
9,Norris,2021-07-19_05:31:03,14.1,1.0,0.1,66,81,0
10,Hamilton,2021-07-19_05:31:03,33.0,1.0,0.0,24,0,61
11,Mazepin,2021-07-19_05:31:03,5.3,1.0,0.0,5,0,10
12,Mercedes,2021-07-19_05:31:03,37.1,1.0,-0.1,8,0,1
13,Aston Martin,2021-07-19_05:31:03,16.4,1.0,0.0,5,57,0
14,Haas,2021-07-19_05:31:03,6.1,1.0,0.0,4,0,26
15,AlphaTauri,2021-07-19_05:31:03,12.7,1.0,0.0,6,0,6
16,Perez,2021-07-19_05:31:03,18.8,1.0,0.0,36,0,19
17,Alpine,2021-07-19_05:31:03,15.1,1.0,0.0,4,0,78
18,Raikkonen,2021-07-19_05:31:03,9.3,1.0,0.0,13,0,66
19,Sainz,2021-07-19_05:31:03,14.4,1.0,0.1,28,2,0
20,Alfa Romeo,2021-07-19_05:31:03,9.2,1.0,0.0,4,0,79
21,McLaren,2021-07-19_05:31:03,18.6,1.0,0.0,28,8,0
22,Ricciardo,2021-07-19_05:31:03,15.8,1.0,0.0,25,0,49
23,Schumacher,2021-07-19_05:31:03,5.8,1.0,0.0,27,33,0
24,Leclerc,2021-07-19_05:31:03,17.5,1.0,-0.1,34,19,0
25,Giovinazzi,2021-07-19_05:31:03,8.0,1.0,0.0,9,73,0
26,Latifi,2021-07-19_05:31:03,6.4,1.0,0.0,4,0,59
27,Russell,2021-07-19_05:31:03,6.2,1.0,0.0,41,0,37
28,Alonso,2021-07-19_05:31:03,14.8,1.0,0.0,10,50,0
29,Verstappen,2021-07-19_05:31:03,25.7,1.0,0.0,61,77,0
