,name,request_time,price,chance_of_playing,weekly_price_change,current_selection_percentage,probability_price_up_percentage,probability_price_down_percentage
0,Perez,2021-05-11_15:51:02,18.1,1.0,-0.1,30,0,15
1,Alpine,2021-05-11_15:51:02,15.3,1.0,0.1,4,0,10
2,Hamilton,2021-05-11_15:51:02,33.3,1.0,0.0,28,25,0
3,Raikkonen,2021-05-11_15:51:02,9.3,1.0,0.0,13,0,46
4,Tsunoda,2021-05-11_15:51:02,8.8,1.0,-0.1,26,0,44
5,Russell,2021-05-11_15:51:02,6.2,1.0,-0.1,42,0,0
6,Alonso,2021-05-11_15:51:02,14.9,1.0,-0.1,10,0,10
7,Verstappen,2021-05-11_15:51:02,25.3,1.0,0.0,56,91,0
8,McLaren,2021-05-11_15:51:02,18.9,1.0,0.0,30,0,0
9,Ricciardo,2021-05-11_15:51:02,16.2,1.0,0.0,29,21,0
10,Ocon,2021-05-11_15:51:02,10.5,1.0,0.2,24,26,0
11,Leclerc,2021-05-11_15:51:02,18.1,1.0,0.1,40,28,0
12,AlphaTauri,2021-05-11_15:51:02,12.8,1.0,0.0,6,0,62
13,Mazepin,2021-05-11_15:51:02,5.3,1.0,0.0,5,0,48
14,Gasly,2021-05-11_15:51:02,11.6,1.0,-0.1,40,0,60
15,Vettel,2021-05-11_15:51:02,15.0,1.0,0.0,12,0,96
16,Giovinazzi,2021-05-11_15:51:02,7.8,1.0,0.0,7,0,43
17,Mercedes,2021-05-11_15:51:02,37.6,1.0,0.0,10,0,73
18,Aston Martin,2021-05-11_15:51:02,16.5,1.0,0.0,5,0,51
19,Haas,2021-05-11_15:51:02,6.1,1.0,0.0,4,0,17
20,Latifi,2021-05-11_15:51:02,6.4,1.0,0.0,4,0,22
21,Schumacher,2021-05-11_15:51:02,5.9,1.0,0.1,28,0,0
22,Red Bull,2021-05-11_15:51:02,26.1,1.0,0.0,32,2,0
23,Stroll,2021-05-11_15:51:02,13.5,1.0,0.0,8,0,65
24,Williams,2021-05-11_15:51:02,6.3,1.0,0.0,4,0,38
25,Bottas,2021-05-11_15:51:02,23.2,1.0,-0.1,11,0,10
26,Ferrari,2021-05-11_15:51:02,18.7,1.0,0.0,11,15,0
27,Norris,2021-05-11_15:51:02,13.9,1.0,0.0,63,11,0
28,Sainz,2021-05-11_15:51:02,14.3,1.0,0.0,26,0,30
29,Alfa Romeo,2021-05-11_15:51:02,8.9,1.0,0.0,4,68,0
