,name,request_time,price,chance_of_playing,weekly_price_change,current_selection_percentage,probability_price_up_percentage,probability_price_down_percentage
0,Gasly,2021-09-03_22:31:02,11.9,1.0,0.0,45,0,9
1,Vettel,2021-09-03_22:31:02,15.3,1.0,0.1,14,9,0
2,Tsunoda,2021-09-03_22:31:02,8.4,1.0,-0.1,21,0,66
3,Ocon,2021-09-03_22:31:02,10.2,1.0,0.2,21,32,0
4,Williams,2021-09-03_22:31:02,6.3,1.0,0.0,4,0,9
5,Norris,2021-09-03_22:31:02,14.2,1.0,0.0,66,5,0
6,Bottas,2021-09-03_22:31:02,23.0,1.0,0.0,10,0,47
7,Ferrari,2021-09-03_22:31:02,18.8,1.0,0.1,11,0,30
8,Red Bull,2021-09-03_22:31:02,26.6,1.0,0.1,35,8,0
9,Stroll,2021-09-03_22:31:02,13.3,1.0,0.0,7,0,17
10,Raikkonen,2021-09-03_22:31:02,9.2,1.0,-0.1,12,0,14
11,Mazepin,2021-09-03_22:31:02,5.3,1.0,0.0,5,0,12
12,Mercedes,2021-09-03_22:31:02,37.1,1.0,0.0,8,0,16
13,AlphaTauri,2021-09-03_22:31:02,12.7,1.0,0.0,5,0,92
14,Aston Martin,2021-09-03_22:31:02,16.5,1.0,0.1,5,0,56
15,Haas,2021-09-03_22:31:02,6.1,1.0,0.0,4,0,24
16,Perez,2021-09-03_22:31:02,18.5,1.0,-0.2,34,4,0
17,Alpine,2021-09-03_22:31:02,15.1,1.0,0.0,4,62,0
18,Hamilton,2021-09-03_22:31:02,33.0,1.0,0.0,24,0,19
19,Sainz,2021-09-03_22:31:02,14.5,1.0,0.1,29,63,0
20,Alfa Romeo,2021-09-03_22:31:02,9.1,1.0,-0.1,4,0,0
21,McLaren,2021-09-03_22:31:02,18.7,1.0,0.1,28,0,70
22,Ricciardo,2021-09-03_22:31:02,15.7,1.0,-0.1,24,0,47
23,Schumacher,2021-09-03_22:31:02,5.8,1.0,0.0,26,0,40
24,Leclerc,2021-09-03_22:31:02,17.6,1.0,0.0,35,0,27
25,Giovinazzi,2021-09-03_22:31:02,8.0,1.0,-0.1,9,0,57
26,Latifi,2021-09-03_22:31:02,6.4,1.0,0.0,4,0,44
27,Russell,2021-09-03_22:31:02,6.2,1.0,0.0,43,38,0
28,Alonso,2021-09-03_22:31:02,15.0,1.0,0.1,11,41,0
29,Verstappen,2021-09-03_22:31:02,25.7,1.0,0.0,61,63,0
