,name,request_time,price,chance_of_playing,weekly_price_change,current_selection_percentage,probability_price_up_percentage,probability_price_down_percentage
0,Stroll,2021-05-11_14:41:03,13.5,1.0,0.0,8,0,63
1,Raikkonen,2021-05-11_14:41:03,9.3,1.0,0.0,13,0,47
2,Perez,2021-05-11_14:41:03,18.1,1.0,-0.1,30,0,15
3,Alpine,2021-05-11_14:41:03,15.3,1.0,0.1,4,0,9
4,AlphaTauri,2021-05-11_14:41:03,12.8,1.0,0.0,6,0,62
5,Red Bull,2021-05-11_14:41:03,26.1,1.0,0.0,32,2,0
6,Gasly,2021-05-11_14:41:03,11.6,1.0,-0.1,40,0,59
7,Hamilton,2021-05-11_14:41:03,33.3,1.0,0.0,28,26,0
8,Vettel,2021-05-11_14:41:03,15.0,1.0,0.0,12,0,94
9,Ferrari,2021-05-11_14:41:03,18.7,1.0,0.0,11,14,0
10,Bottas,2021-05-11_14:41:03,23.2,1.0,-0.1,11,0,10
11,Mazepin,2021-05-11_14:41:03,5.3,1.0,0.0,5,0,48
12,Alonso,2021-05-11_14:41:03,14.9,1.0,-0.1,10,0,10
13,Verstappen,2021-05-11_14:41:03,25.3,1.0,0.0,56,90,0
14,Leclerc,2021-05-11_14:41:03,18.1,1.0,0.1,40,27,0
15,Schumacher,2021-05-11_14:41:03,5.9,1.0,0.1,28,0,0
16,Russell,2021-05-11_14:41:03,6.2,1.0,-0.1,42,0,0
17,Tsunoda,2021-05-11_14:41:03,8.8,1.0,-0.1,26,0,43
18,Ocon,2021-05-11_14:41:03,10.5,1.0,0.2,24,24,0
19,McLaren,2021-05-11_14:41:03,18.9,1.0,0.0,30,0,0
20,Ricciardo,2021-05-11_14:41:03,16.2,1.0,0.0,29,21,0
21,Latifi,2021-05-11_14:41:03,6.4,1.0,0.0,4,0,22
22,Aston Martin,2021-05-11_14:41:03,16.5,1.0,0.0,5,0,51
23,Williams,2021-05-11_14:41:03,6.3,1.0,0.0,4,0,38
24,Haas,2021-05-11_14:41:03,6.1,1.0,0.0,4,0,17
25,Mercedes,2021-05-11_14:41:03,37.6,1.0,0.0,10,0,74
26,Giovinazzi,2021-05-11_14:41:03,7.8,1.0,0.0,7,0,43
27,Norris,2021-05-11_14:41:03,13.9,1.0,0.0,63,11,0
28,Alfa Romeo,2021-05-11_14:41:03,8.9,1.0,0.0,4,68,0
29,Sainz,2021-05-11_14:41:03,14.3,1.0,0.0,26,0,30
