,name,request_time,price,chance_of_playing,weekly_price_change,current_selection_percentage,probability_price_up_percentage,probability_price_down_percentage
0,Alpine,2021-04-15_20:11:02,15.1,1.0,-0.3,4,0,10
1,Haas,2021-04-15_20:11:02,6.1,1.0,0.0,4,0,25
2,Mercedes,2021-04-15_20:11:02,37.8,1.0,-0.2,11,0,18
3,Williams,2021-04-15_20:11:02,6.3,1.0,0.0,4,0,39
4,Hamilton,2021-04-15_20:11:02,33.4,1.0,-0.1,28,0,28
5,Alfa Romeo,2021-04-15_20:11:02,8.9,1.0,0.0,4,4,0
6,Perez,2021-04-15_20:11:02,18.4,1.0,0.0,33,39,0
7,Vettel,2021-04-15_20:11:02,15.5,1.0,-0.7,15,0,17
8,Mazepin,2021-04-15_20:11:02,5.4,1.0,-0.0999999999999996,5,0,77
9,Sainz,2021-04-15_20:11:02,14.3,1.0,-0.1,26,0,32
10,AlphaTauri,2021-04-15_20:11:02,13.1,1.0,0.4,7,74,0
11,Tsunoda,2021-04-15_20:11:02,9.3,1.0,0.5,34,77,0
12,Ferrari,2021-04-15_20:11:02,18.5,1.0,0.4,9,71,0
13,Latifi,2021-04-15_20:11:02,6.5,1.0,0.0,4,0,61
14,Bottas,2021-04-15_20:11:02,23.5,1.0,-0.100000000000001,12,0,82
15,Stroll,2021-04-15_20:11:02,13.7,1.0,-0.2,9,0,43
16,Raikkonen,2021-04-15_20:11:02,9.5,1.0,-0.1,14,0,72
17,Red Bull,2021-04-15_20:11:02,26.0,1.0,0.100000000000001,31,60,0
18,Leclerc,2021-04-15_20:11:02,17.3,1.0,0.5,31,50,0
19,McLaren,2021-04-15_20:11:02,18.9,1.0,0.0,29,0,87
20,Aston Martin,2021-04-15_20:11:02,17.0,1.0,-0.6,6,0,64
21,Alonso,2021-04-15_20:11:02,15.2,1.0,-0.4,12,0,13
22,Verstappen,2021-04-15_20:11:02,25.1,1.0,0.3,53,40,0
23,Russell,2021-04-15_20:11:02,6.2,1.0,0.0,42,11,0
24,Giovinazzi,2021-04-15_20:11:02,7.9,1.0,0.0,8,0,89
25,Schumacher,2021-04-15_20:11:02,5.8,1.0,0.0,26,0,70
26,Ricciardo,2021-04-15_20:11:02,16.9,1.0,-0.4,35,0,50
27,Norris,2021-04-15_20:11:02,13.4,1.0,0.3,56,38,0
28,Ocon,2021-04-15_20:11:02,9.8,1.0,-0.3,14,0,91
29,Gasly,2021-04-15_20:11:02,11.7,1.0,0.0,42,0,10
