,name,request_time,price,chance_of_playing,weekly_price_change,current_selection_percentage,probability_price_up_percentage,probability_price_down_percentage
0,Tsunoda,2021-04-13_12:30:03,9.3,1.0,0.5,32,53,0
1,Stroll,2021-04-13_12:30:03,13.7,1.0,-0.2,10,0,10
2,Alfa Romeo,2021-04-13_12:30:03,8.9,1.0,0.0,4,2,0
3,Mercedes,2021-04-13_12:30:03,37.9,1.0,-0.1,12,0,93
4,McLaren,2021-04-13_12:30:03,18.9,1.0,0.0,29,0,57
5,Red Bull,2021-04-13_12:30:03,26.0,1.0,0.100000000000001,31,49,0
6,Bottas,2021-04-13_12:30:03,23.5,1.0,-0.100000000000001,12,0,60
7,Mazepin,2021-04-13_12:30:03,5.4,1.0,-0.0999999999999996,5,0,70
8,Vettel,2021-04-13_12:30:03,15.6,1.0,-0.6,16,0,42
9,Verstappen,2021-04-13_12:30:03,25.1,1.0,0.3,53,8,0
10,Hamilton,2021-04-13_12:30:03,33.4,1.0,-0.1,28,0,10
11,Perez,2021-04-13_12:30:03,18.4,1.0,0.0,33,9,0
12,Haas,2021-04-13_12:30:03,6.1,1.0,0.0,4,0,21
13,Williams,2021-04-13_12:30:03,6.3,1.0,0.0,4,0,36
14,Raikkonen,2021-04-13_12:30:03,9.5,1.0,-0.1,14,0,51
15,Schumacher,2021-04-13_12:30:03,5.8,1.0,0.0,26,0,51
16,Latifi,2021-04-13_12:30:03,6.5,1.0,0.0,4,0,57
17,Aston Martin,2021-04-13_12:30:03,17.0,1.0,-0.6,6,0,4
18,Sainz,2021-04-13_12:30:03,14.3,1.0,-0.1,26,0,12
19,Leclerc,2021-04-13_12:30:03,17.3,1.0,0.5,31,5,0
20,Alpine,2021-04-13_12:30:03,15.2,1.0,-0.2,4,0,75
21,Alonso,2021-04-13_12:30:03,15.3,1.0,-0.3,12,0,58
22,Russell,2021-04-13_12:30:03,6.2,1.0,0.0,42,2,0
23,Ferrari,2021-04-13_12:30:03,18.5,1.0,0.4,9,30,0
24,AlphaTauri,2021-04-13_12:30:03,13.1,1.0,0.4,7,32,0
25,Giovinazzi,2021-04-13_12:30:03,7.9,1.0,0.0,8,0,75
26,Ricciardo,2021-04-13_12:30:03,17.0,1.0,-0.3,36,0,97
27,Ocon,2021-04-13_12:30:03,9.8,1.0,-0.3,15,0,47
28,Norris,2021-04-13_12:30:03,13.4,1.0,0.3,55,9,0
29,Gasly,2021-04-13_12:30:03,11.8,1.0,0.1,42,0,90
