,name,request_time,price,chance_of_playing,weekly_price_change,current_selection_percentage,probability_price_up_percentage,probability_price_down_percentage
0,AlphaTauri,2021-05-11_16:21:03,12.8,1.0,0.0,6,0,63
1,Perez,2021-05-11_16:21:03,18.1,1.0,-0.1,30,0,16
2,Alpine,2021-05-11_16:21:03,15.3,1.0,0.1,4,0,10
3,Raikkonen,2021-05-11_16:21:03,9.3,1.0,0.0,13,0,47
4,Hamilton,2021-05-11_16:21:03,33.3,1.0,0.0,28,26,0
5,Tsunoda,2021-05-11_16:21:03,8.8,1.0,-0.1,26,0,44
6,Russell,2021-05-11_16:21:03,6.2,1.0,-0.1,42,0,0
7,Alonso,2021-05-11_16:21:03,14.9,1.0,-0.1,10,0,10
8,Verstappen,2021-05-11_16:21:03,25.3,1.0,0.0,56,88,0
9,McLaren,2021-05-11_16:21:03,18.9,1.0,0.0,30,0,0
10,Ricciardo,2021-05-11_16:21:03,16.2,1.0,0.0,29,21,0
11,Leclerc,2021-05-11_16:21:03,18.1,1.0,0.1,40,29,0
12,Ocon,2021-05-11_16:21:03,10.5,1.0,0.2,24,26,0
13,Mazepin,2021-05-11_16:21:03,5.3,1.0,0.0,5,0,49
14,Gasly,2021-05-11_16:21:03,11.6,1.0,-0.1,40,0,59
15,Vettel,2021-05-11_16:21:03,15.0,1.0,0.0,12,0,95
16,Mercedes,2021-05-11_16:21:03,37.6,1.0,0.0,10,0,74
17,Haas,2021-05-11_16:21:03,6.1,1.0,0.0,4,0,18
18,Aston Martin,2021-05-11_16:21:03,16.5,1.0,0.0,5,0,51
19,Latifi,2021-05-11_16:21:03,6.4,1.0,0.0,4,0,22
20,Schumacher,2021-05-11_16:21:03,5.9,1.0,0.1,28,1,0
21,Red Bull,2021-05-11_16:21:03,26.1,1.0,0.0,32,2,0
22,Stroll,2021-05-11_16:21:03,13.5,1.0,0.0,8,0,64
23,Williams,2021-05-11_16:21:03,6.3,1.0,0.0,4,0,39
24,Giovinazzi,2021-05-11_16:21:03,7.8,1.0,0.0,7,0,43
25,Bottas,2021-05-11_16:21:03,23.2,1.0,-0.1,11,0,10
26,Ferrari,2021-05-11_16:21:03,18.7,1.0,0.0,11,15,0
27,Norris,2021-05-11_16:21:03,13.9,1.0,0.0,63,11,0
28,Sainz,2021-05-11_16:21:03,14.3,1.0,0.0,26,0,31
29,Alfa Romeo,2021-05-11_16:21:03,8.9,1.0,0.0,4,69,0
