,name,request_time,price,chance_of_playing,weekly_price_change,current_selection_percentage,probability_price_up_percentage,probability_price_down_percentage
0,AlphaTauri,2021-06-05_21:11:02,12.6,1.0,0.0,5,0,22
1,Perez,2021-06-05_21:11:02,18.2,1.0,0.2,31,55,0
2,Alpine,2021-06-05_21:11:02,15.1,1.0,-0.1,4,0,0
3,Williams,2021-06-05_21:11:02,6.3,1.0,0.0,4,0,42
4,Norris,2021-06-05_21:11:02,13.9,1.0,0.0,63,41,0
5,Sainz,2021-06-05_21:11:02,14.7,1.0,0.2,31,86,0
6,Alfa Romeo,2021-06-05_21:11:02,9.2,1.0,0.0,4,0,31
7,Mazepin,2021-06-05_21:11:02,5.3,1.0,0.0,5,0,26
8,Hamilton,2021-06-05_21:11:02,33.2,1.0,-0.1,26,0,84
9,Raikkonen,2021-06-05_21:11:02,9.3,1.0,-0.1,13,0,5
10,Gasly,2021-06-05_21:11:02,11.7,1.0,0.2,42,6,0
11,Vettel,2021-06-05_21:11:02,14.9,1.0,0.0,12,6,0
12,Tsunoda,2021-06-05_21:11:02,8.4,1.0,-0.2,22,0,1
13,Verstappen,2021-06-05_21:11:02,25.5,1.0,0.1,58,39,0
14,Red Bull,2021-06-05_21:11:02,26.1,1.0,0.1,32,35,0
15,Haas,2021-06-05_21:11:02,6.1,1.0,0.0,4,0,25
16,Latifi,2021-06-05_21:11:02,6.4,1.0,0.0,4,0,27
17,Russell,2021-06-05_21:11:02,6.2,1.0,0.0,41,0,45
18,Alonso,2021-06-05_21:11:02,14.8,1.0,0.0,9,0,81
19,McLaren,2021-06-05_21:11:02,18.6,1.0,-0.1,27,0,36
20,Giovinazzi,2021-06-05_21:11:02,8.0,1.0,0.2,9,62,0
21,Mercedes,2021-06-05_21:11:02,37.3,1.0,-0.2,9,0,1
22,Aston Martin,2021-06-05_21:11:02,16.4,1.0,0.0,5,0,0
23,Ferrari,2021-06-05_21:11:02,19.7,1.0,0.2,14,0,77
24,Stroll,2021-06-05_21:11:02,13.4,1.0,0.0,8,0,75
25,Ricciardo,2021-06-05_21:11:02,16.0,1.0,-0.2,27,0,8
26,Ocon,2021-06-05_21:11:02,10.5,1.0,0.0,23,0,77
27,Leclerc,2021-06-05_21:11:02,18.3,1.0,0.0,41,0,41
28,Schumacher,2021-06-05_21:11:02,5.8,1.0,-0.1,26,0,40
29,Bottas,2021-06-05_21:11:02,23.0,1.0,-0.2,10,0,3
