,name,request_time,price,chance_of_playing,weekly_price_change,current_selection_percentage,probability_price_up_percentage,probability_price_down_percentage
0,Gasly,2021-07-31_08:31:02,11.9,1.0,0.0,45,6,0
1,Vettel,2021-07-31_08:31:02,15.2,1.0,0.0,13,0,31
2,Tsunoda,2021-07-31_08:31:02,8.5,1.0,0.0,22,0,60
3,Ocon,2021-07-31_08:31:02,10.0,1.0,-0.1,19,2,0
4,Bottas,2021-07-31_08:31:02,23.0,1.0,0.0,10,0,2
5,Williams,2021-07-31_08:31:02,6.3,1.0,0.0,4,0,39
6,Norris,2021-07-31_08:31:02,14.2,1.0,0.1,66,0,0
7,Ferrari,2021-07-31_08:31:02,18.7,1.0,0.0,11,0,39
8,Red Bull,2021-07-31_08:31:02,26.7,1.0,0.1,36,0,32
9,Stroll,2021-07-31_08:31:02,13.3,1.0,0.0,8,0,2
10,Hamilton,2021-07-31_08:31:02,33.0,1.0,0.0,24,0,48
11,Mazepin,2021-07-31_08:31:02,5.3,1.0,0.0,5,0,9
12,Mercedes,2021-07-31_08:31:02,37.1,1.0,-0.1,8,0,10
13,AlphaTauri,2021-07-31_08:31:02,12.7,1.0,0.0,5,0,31
14,Haas,2021-07-31_08:31:02,6.1,1.0,0.0,4,0,25
15,Aston Martin,2021-07-31_08:31:02,16.4,1.0,0.0,5,60,0
16,Perez,2021-07-31_08:31:02,18.7,1.0,-0.1,35,0,14
17,Alpine,2021-07-31_08:31:02,15.1,1.0,0.0,4,0,76
18,Raikkonen,2021-07-31_08:31:02,9.3,1.0,0.0,13,0,73
19,Sainz,2021-07-31_08:31:02,14.4,1.0,0.1,28,10,0
20,Alfa Romeo,2021-07-31_08:31:02,9.2,1.0,0.0,4,0,84
21,McLaren,2021-07-31_08:31:02,18.6,1.0,0.0,28,59,0
22,Ricciardo,2021-07-31_08:31:02,15.8,1.0,0.0,25,0,59
23,Schumacher,2021-07-31_08:31:02,5.8,1.0,0.0,27,36,0
24,Leclerc,2021-07-31_08:31:02,17.6,1.0,0.1,35,14,0
25,Giovinazzi,2021-07-31_08:31:02,8.1,1.0,0.1,9,0,28
26,Latifi,2021-07-31_08:31:02,6.4,1.0,0.0,4,0,61
27,Russell,2021-07-31_08:31:02,6.2,1.0,0.0,41,0,24
28,Alonso,2021-07-31_08:31:02,14.9,1.0,0.1,10,2,0
29,Verstappen,2021-07-31_08:31:02,25.7,1.0,0.0,61,70,0
