,name,request_time,price,chance_of_playing,weekly_price_change,current_selection_percentage,probability_price_up_percentage,probability_price_down_percentage
0,Stroll,2021-05-15_09:01:02,13.5,1.0,0.0,8,0,79
1,Raikkonen,2021-05-15_09:01:02,9.3,1.0,0.0,13,0,44
2,Perez,2021-05-15_09:01:02,18.1,1.0,-0.1,30,0,37
3,Alpine,2021-05-15_09:01:02,15.3,1.0,0.1,4,0,14
4,AlphaTauri,2021-05-15_09:01:02,12.8,1.0,0.0,6,0,78
5,Red Bull,2021-05-15_09:01:02,26.1,1.0,0.0,32,6,0
6,Gasly,2021-05-15_09:01:02,11.6,1.0,-0.1,40,0,80
7,Hamilton,2021-05-15_09:01:02,33.3,1.0,0.0,28,27,0
8,Vettel,2021-05-15_09:01:02,14.9,1.0,-0.1,12,0,9
9,Ferrari,2021-05-15_09:01:02,18.7,1.0,0.0,11,38,0
10,Bottas,2021-05-15_09:01:02,23.2,1.0,-0.1,11,0,18
11,Mazepin,2021-05-15_09:01:02,5.3,1.0,0.0,5,0,48
12,Alonso,2021-05-15_09:01:02,14.9,1.0,-0.1,10,0,26
13,Verstappen,2021-05-15_09:01:02,25.3,1.0,0.0,56,94,0
14,Leclerc,2021-05-15_09:01:02,18.1,1.0,0.1,40,55,0
15,Schumacher,2021-05-15_09:01:02,5.9,1.0,0.1,29,17,0
16,Russell,2021-05-15_09:01:02,6.2,1.0,-0.1,42,0,1
17,Tsunoda,2021-05-15_09:01:02,8.8,1.0,-0.1,26,0,78
18,Ocon,2021-05-15_09:01:02,10.5,1.0,0.2,24,71,0
19,McLaren,2021-05-15_09:01:02,18.9,1.0,0.0,30,0,10
20,Ricciardo,2021-05-15_09:01:02,16.2,1.0,0.0,29,35,0
21,Latifi,2021-05-15_09:01:02,6.4,1.0,0.0,4,0,23
22,Aston Martin,2021-05-15_09:01:02,16.5,1.0,0.0,5,0,63
23,Williams,2021-05-15_09:01:02,6.3,1.0,0.0,4,0,36
24,Haas,2021-05-15_09:01:02,6.1,1.0,0.0,4,0,17
25,Mercedes,2021-05-15_09:01:02,37.6,1.0,0.0,10,0,77
26,Giovinazzi,2021-05-15_09:01:02,7.8,1.0,0.0,7,0,45
27,Norris,2021-05-15_09:01:02,13.9,1.0,0.0,63,14,0
28,Alfa Romeo,2021-05-15_09:01:02,9.0,1.0,0.1,4,0,0
29,Sainz,2021-05-15_09:01:02,14.3,1.0,0.0,26,0,42
