,name,request_time,price,chance_of_playing,weekly_price_change,current_selection_percentage,probability_price_up_percentage,probability_price_down_percentage
0,Gasly,2021-09-01_17:21:03,11.9,1.0,0.0,45,0,2
1,Vettel,2021-09-01_17:21:03,15.2,1.0,0.0,14,58,0
2,Tsunoda,2021-09-01_17:21:03,8.4,1.0,-0.1,21,0,54
3,Ocon,2021-09-01_17:21:03,10.2,1.0,0.2,20,11,0
4,Williams,2021-09-01_17:21:03,6.3,1.0,0.0,4,0,17
5,Norris,2021-09-01_17:21:03,14.2,1.0,0.0,66,12,0
6,Bottas,2021-09-01_17:21:03,23.0,1.0,0.0,10,0,40
7,Ferrari,2021-09-01_17:21:03,18.8,1.0,0.1,11,0,72
8,Red Bull,2021-09-01_17:21:03,26.6,1.0,0.1,35,10,0
9,Stroll,2021-09-01_17:21:03,13.3,1.0,0.0,7,0,10
10,Mazepin,2021-09-01_17:21:03,5.3,1.0,0.0,5,0,11
11,Mercedes,2021-09-01_17:21:03,37.1,1.0,0.0,8,0,12
12,Haas,2021-09-01_17:21:03,6.1,1.0,0.0,4,0,25
13,Aston Martin,2021-09-01_17:21:03,16.5,1.0,0.1,5,0,50
14,AlphaTauri,2021-09-01_17:21:03,12.7,1.0,0.0,5,0,86
15,Perez,2021-09-01_17:21:03,18.5,1.0,-0.2,34,39,0
16,Alpine,2021-09-01_17:21:03,15.1,1.0,0.0,4,58,0
17,Hamilton,2021-09-01_17:21:03,33.0,1.0,0.0,24,0,14
18,Raikkonen,2021-09-01_17:21:03,9.2,1.0,-0.1,12,0,8
19,Sainz,2021-09-01_17:21:03,14.5,1.0,0.1,29,50,0
20,Alfa Romeo,2021-09-01_17:21:03,9.1,1.0,-0.1,4,0,0
21,McLaren,2021-09-01_17:21:03,18.7,1.0,0.1,28,0,51
22,Ricciardo,2021-09-01_17:21:03,15.7,1.0,-0.1,24,0,42
23,Leclerc,2021-09-01_17:21:03,17.6,1.0,0.0,35,0,47
24,Schumacher,2021-09-01_17:21:03,5.8,1.0,0.0,26,0,28
25,Giovinazzi,2021-09-01_17:21:03,8.0,1.0,-0.1,9,0,50
26,Latifi,2021-09-01_17:21:03,6.4,1.0,0.0,4,0,46
27,Russell,2021-09-01_17:21:03,6.2,1.0,0.0,43,27,0
28,Alonso,2021-09-01_17:21:03,15.0,1.0,0.1,11,53,0
29,Verstappen,2021-09-01_17:21:03,25.7,1.0,0.0,61,59,0
