,name,request_time,price,chance_of_playing,weekly_price_change,current_selection_percentage,probability_price_up_percentage,probability_price_down_percentage
0,Stroll,2021-05-11_19:41:02,13.5,1.0,0.0,8,0,65
1,Raikkonen,2021-05-11_19:41:02,9.3,1.0,0.0,13,0,47
2,Perez,2021-05-11_19:41:02,18.1,1.0,-0.1,30,0,17
3,Alpine,2021-05-11_19:41:02,15.3,1.0,0.1,4,0,10
4,AlphaTauri,2021-05-11_19:41:02,12.8,1.0,0.0,6,0,63
5,Red Bull,2021-05-11_19:41:02,26.1,1.0,0.0,32,3,0
6,Gasly,2021-05-11_19:41:02,11.6,1.0,-0.1,40,0,61
7,Hamilton,2021-05-11_19:41:02,33.3,1.0,0.0,28,26,0
8,Vettel,2021-05-11_19:41:02,15.0,1.0,0.0,12,0,97
9,Ferrari,2021-05-11_19:41:02,18.7,1.0,0.0,11,17,0
10,Bottas,2021-05-11_19:41:02,23.2,1.0,-0.1,11,0,10
11,Mazepin,2021-05-11_19:41:02,5.3,1.0,0.0,5,0,48
12,Alonso,2021-05-11_19:41:02,14.9,1.0,-0.1,10,0,11
13,Verstappen,2021-05-11_19:41:02,25.3,1.0,0.0,56,89,0
14,Leclerc,2021-05-11_19:41:02,18.1,1.0,0.1,40,31,0
15,Schumacher,2021-05-11_19:41:02,5.9,1.0,0.1,28,2,0
16,Russell,2021-05-11_19:41:02,6.2,1.0,-0.1,42,0,0
17,Tsunoda,2021-05-11_19:41:02,8.8,1.0,-0.1,26,0,47
18,Ocon,2021-05-11_19:41:02,10.5,1.0,0.2,24,29,0
19,McLaren,2021-05-11_19:41:02,18.9,1.0,0.0,30,0,1
20,Ricciardo,2021-05-11_19:41:02,16.2,1.0,0.0,29,23,0
21,Latifi,2021-05-11_19:41:02,6.4,1.0,0.0,4,0,22
22,Aston Martin,2021-05-11_19:41:02,16.5,1.0,0.0,5,0,53
23,Williams,2021-05-11_19:41:02,6.3,1.0,0.0,4,0,39
24,Haas,2021-05-11_19:41:02,6.1,1.0,0.0,4,0,17
25,Mercedes,2021-05-11_19:41:02,37.6,1.0,0.0,10,0,74
26,Giovinazzi,2021-05-11_19:41:02,7.8,1.0,0.0,7,0,43
27,Norris,2021-05-11_19:41:02,13.9,1.0,0.0,63,12,0
28,Alfa Romeo,2021-05-11_19:41:02,8.9,1.0,0.0,4,70,0
29,Sainz,2021-05-11_19:41:02,14.3,1.0,0.0,26,0,32
