,name,request_time,price,chance_of_playing,weekly_price_change,current_selection_percentage,probability_price_up_percentage,probability_price_down_percentage
0,AlphaTauri,2021-07-04_05:01:03,12.7,1.0,0.0,6,39,0
1,Perez,2021-07-04_05:01:03,18.8,1.0,0.1,37,61,0
2,Alpine,2021-07-04_05:01:03,15.1,1.0,-0.1,4,0,52
3,Vettel,2021-07-04_05:01:03,15.2,1.0,0.0,13,5,0
4,Ferrari,2021-07-04_05:01:03,18.7,1.0,0.0,11,0,17
5,Red Bull,2021-07-04_05:01:03,26.6,1.0,0.1,36,67,0
6,Stroll,2021-07-04_05:01:03,13.3,1.0,0.0,8,46,0
7,Williams,2021-07-04_05:01:03,6.3,1.0,0.0,4,0,46
8,Mazepin,2021-07-04_05:01:03,5.3,1.0,0.0,5,0,9
9,Hamilton,2021-07-04_05:01:03,33.0,1.0,-0.1,24,0,28
10,Raikkonen,2021-07-04_05:01:03,9.3,1.0,0.0,13,0,54
11,Gasly,2021-07-04_05:01:03,11.9,1.0,0.0,46,60,0
12,Tsunoda,2021-07-04_05:01:03,8.5,1.0,0.1,23,35,0
13,Bottas,2021-07-04_05:01:03,23.0,1.0,0.0,10,0,47
14,Giovinazzi,2021-07-04_05:01:03,8.0,1.0,0.0,9,58,0
15,Sainz,2021-07-04_05:01:03,14.3,1.0,0.0,27,10,0
16,Alfa Romeo,2021-07-04_05:01:03,9.2,1.0,0.0,4,0,72
17,Mercedes,2021-07-04_05:01:03,37.2,1.0,0.0,9,0,51
18,Haas,2021-07-04_05:01:03,6.1,1.0,0.0,4,0,26
19,Aston Martin,2021-07-04_05:01:03,16.4,1.0,0.0,5,75,0
20,McLaren,2021-07-04_05:01:03,18.6,1.0,0.0,27,0,49
21,Ricciardo,2021-07-04_05:01:03,15.8,1.0,-0.1,25,0,20
22,Ocon,2021-07-04_05:01:03,10.2,1.0,-0.2,20,0,83
23,Leclerc,2021-07-04_05:01:03,17.6,1.0,0.0,34,0,83
24,Schumacher,2021-07-04_05:01:03,5.8,1.0,0.0,27,0,6
25,Norris,2021-07-04_05:01:03,14.0,1.0,0.0,65,66,0
26,Latifi,2021-07-04_05:01:03,6.4,1.0,0.0,4,0,52
27,Russell,2021-07-04_05:01:03,6.2,1.0,0.0,41,0,54
28,Alonso,2021-07-04_05:01:03,14.8,1.0,0.0,10,14,0
29,Verstappen,2021-07-04_05:01:03,25.7,1.0,0.1,60,22,0
