,name,request_time,price,chance_of_playing,weekly_price_change,current_selection_percentage,probability_price_up_percentage,probability_price_down_percentage
0,AlphaTauri,2021-05-21_00:11:03,12.7,1.0,-0.1,5,0,12
1,Perez,2021-05-21_00:11:03,18.1,1.0,-0.1,29,0,77
2,Alpine,2021-05-21_00:11:03,15.3,1.0,0.1,4,0,39
3,Gasly,2021-05-21_00:11:03,11.5,1.0,-0.2,39,2,0
4,Vettel,2021-05-21_00:11:03,14.9,1.0,-0.1,11,0,25
5,Tsunoda,2021-05-21_00:11:03,8.7,1.0,-0.2,24,0,75
6,Verstappen,2021-05-21_00:11:03,25.4,1.0,0.1,56,5,0
7,Mazepin,2021-05-21_00:11:03,5.3,1.0,0.0,5,0,47
8,Hamilton,2021-05-21_00:11:03,33.3,1.0,0.0,28,24,0
9,Raikkonen,2021-05-21_00:11:03,9.3,1.0,0.0,13,0,32
10,Alonso,2021-05-21_00:11:03,14.9,1.0,-0.1,10,0,61
11,McLaren,2021-05-21_00:11:03,18.9,1.0,0.0,29,0,60
12,Mercedes,2021-05-21_00:11:03,37.6,1.0,0.0,10,0,94
13,Haas,2021-05-21_00:11:03,6.1,1.0,0.0,4,0,14
14,Aston Martin,2021-05-21_00:11:03,16.5,1.0,0.0,5,0,84
15,Latifi,2021-05-21_00:11:03,6.4,1.0,0.0,4,0,24
16,Russell,2021-05-21_00:11:03,6.2,1.0,-0.1,42,0,4
17,Ricciardo,2021-05-21_00:11:03,16.2,1.0,0.0,29,59,0
18,Schumacher,2021-05-21_00:11:03,5.9,1.0,0.1,29,35,0
19,Ocon,2021-05-21_00:11:03,10.6,1.0,0.3,25,34,0
20,Leclerc,2021-05-21_00:11:03,18.2,1.0,0.2,41,9,0
21,Bottas,2021-05-21_00:11:03,23.2,1.0,-0.1,11,0,39
22,Ferrari,2021-05-21_00:11:03,18.8,1.0,0.1,11,68,0
23,Red Bull,2021-05-21_00:11:03,26.1,1.0,0.0,31,0,31
24,Stroll,2021-05-21_00:11:03,13.4,1.0,-0.1,8,0,4
25,Williams,2021-05-21_00:11:03,6.3,1.0,0.0,4,0,34
26,Norris,2021-05-21_00:11:03,13.9,1.0,0.0,63,14,0
27,Giovinazzi,2021-05-21_00:11:03,7.8,1.0,0.0,7,0,36
28,Sainz,2021-05-21_00:11:03,14.3,1.0,0.0,26,0,0
29,Alfa Romeo,2021-05-21_00:11:03,9.1,1.0,0.2,4,45,0
