,name,request_time,price,chance_of_playing,weekly_price_change,current_selection_percentage,probability_price_up_percentage,probability_price_down_percentage
0,Gasly,2021-07-18_06:51:02,11.9,1.0,0.0,46,33,0
1,Vettel,2021-07-18_06:51:02,15.2,1.0,0.0,13,0,4
2,Tsunoda,2021-07-18_06:51:02,8.5,1.0,0.0,23,0,18
3,Ocon,2021-07-18_06:51:02,10.1,1.0,-0.1,19,0,87
4,Bottas,2021-07-18_06:51:02,23.0,1.0,0.0,10,0,38
5,Ferrari,2021-07-18_06:51:02,18.7,1.0,0.0,10,0,80
6,Red Bull,2021-07-18_06:51:02,26.7,1.0,0.1,36,34,0
7,Stroll,2021-07-18_06:51:02,13.3,1.0,0.0,8,6,0
8,Williams,2021-07-18_06:51:02,6.3,1.0,0.0,4,0,43
9,Norris,2021-07-18_06:51:02,14.1,1.0,0.1,66,78,0
10,Mazepin,2021-07-18_06:51:02,5.3,1.0,0.0,5,0,10
11,Mercedes,2021-07-18_06:51:02,37.1,1.0,-0.1,8,0,0
12,Haas,2021-07-18_06:51:02,6.1,1.0,0.0,4,0,27
13,AlphaTauri,2021-07-18_06:51:02,12.7,1.0,0.0,6,0,2
14,Aston Martin,2021-07-18_06:51:02,16.4,1.0,0.0,5,57,0
15,Perez,2021-07-18_06:51:02,18.8,1.0,0.0,36,0,1
16,Alpine,2021-07-18_06:51:02,15.1,1.0,0.0,4,0,80
17,Hamilton,2021-07-18_06:51:02,33.0,1.0,0.0,24,0,61
18,Raikkonen,2021-07-18_06:51:02,9.3,1.0,0.0,13,0,67
19,McLaren,2021-07-18_06:51:02,18.6,1.0,0.0,28,0,0
20,Ricciardo,2021-07-18_06:51:02,15.8,1.0,0.0,25,0,50
21,Schumacher,2021-07-18_06:51:02,5.8,1.0,0.0,27,32,0
22,Leclerc,2021-07-18_06:51:02,17.5,1.0,-0.1,34,0,3
23,Giovinazzi,2021-07-18_06:51:02,8.0,1.0,0.0,9,73,0
24,Sainz,2021-07-18_06:51:02,14.4,1.0,0.1,28,1,0
25,Alfa Romeo,2021-07-18_06:51:02,9.2,1.0,0.0,4,0,79
26,Latifi,2021-07-18_06:51:02,6.4,1.0,0.0,4,0,58
27,Russell,2021-07-18_06:51:02,6.2,1.0,0.0,41,0,40
28,Alonso,2021-07-18_06:51:02,14.8,1.0,0.0,10,43,0
29,Verstappen,2021-07-18_06:51:02,25.7,1.0,0.0,61,77,0
