,name,request_time,price,chance_of_playing,weekly_price_change,current_selection_percentage,probability_price_up_percentage,probability_price_down_percentage
0,AlphaTauri,2021-05-07_07:01:02,12.9,1.0,-0.2,6,0,43
1,Perez,2021-05-07_07:01:02,18.3,1.0,0.0,31,0,48
2,Alpine,2021-05-07_07:01:02,15.2,1.0,0.2,4,49,0
3,Raikkonen,2021-05-07_07:01:02,9.3,1.0,-0.1,13,0,17
4,Hamilton,2021-05-07_07:01:02,33.3,1.0,-0.1,27,0,0
5,Gasly,2021-05-07_07:01:02,11.7,1.0,0.0,42,0,32
6,Red Bull,2021-05-07_07:01:02,26.1,1.0,0.0,32,0,4
7,Stroll,2021-05-07_07:01:02,13.6,1.0,0.0,9,0,64
8,Mazepin,2021-05-07_07:01:02,5.3,1.0,0.0,5,0,44
9,Vettel,2021-05-07_07:01:02,15.0,1.0,-0.1,12,0,41
10,Tsunoda,2021-05-07_07:01:02,9.0,1.0,-0.3,28,0,32
11,Russell,2021-05-07_07:01:02,6.3,1.0,0.1,43,0,31
12,Alonso,2021-05-07_07:01:02,15.0,1.0,0.0,10,0,87
13,Verstappen,2021-05-07_07:01:02,25.3,1.0,0.0,56,71,0
14,McLaren,2021-05-07_07:01:02,18.9,1.0,0.1,30,28,0
15,Ricciardo,2021-05-07_07:01:02,16.3,1.0,-0.2,29,0,13
16,Ocon,2021-05-07_07:01:02,10.2,1.0,0.4,20,28,0
17,Schumacher,2021-05-07_07:01:02,5.7,1.0,0.0,26,45,0
18,Leclerc,2021-05-07_07:01:02,17.9,1.0,0.1,38,28,0
19,Bottas,2021-05-07_07:01:02,23.3,1.0,0.0,11,0,74
20,Ferrari,2021-05-07_07:01:02,18.8,1.0,-0.1,11,0,96
21,Mercedes,2021-05-07_07:01:02,37.6,1.0,0.0,10,0,64
22,Haas,2021-05-07_07:01:02,6.1,1.0,0.0,4,0,26
23,Aston Martin,2021-05-07_07:01:02,16.6,1.0,0.0,5,0,90
24,Latifi,2021-05-07_07:01:02,6.4,1.0,-0.1,4,0,12
25,Williams,2021-05-07_07:01:02,6.3,1.0,0.0,4,0,39
26,Giovinazzi,2021-05-07_07:01:02,7.8,1.0,0.0,7,0,60
27,Norris,2021-05-07_07:01:02,13.8,1.0,0.1,62,34,0
28,Sainz,2021-05-07_07:01:02,14.4,1.0,0.1,27,0,73
29,Alfa Romeo,2021-05-07_07:01:02,8.9,1.0,0.0,4,34,0
