,name,request_time,price,chance_of_playing,weekly_price_change,current_selection_percentage,probability_price_up_percentage,probability_price_down_percentage
0,Mercedes,2021-04-14_09:20:03,37.8,1.0,-0.2,12,0,1
1,Haas,2021-04-14_09:20:03,6.1,1.0,0.0,4,0,23
2,Williams,2021-04-14_09:20:03,6.3,1.0,0.0,4,0,36
3,Mazepin,2021-04-14_09:20:03,5.4,1.0,-0.0999999999999996,5,0,68
4,Stroll,2021-04-14_09:20:03,13.7,1.0,-0.2,10,0,17
5,Alfa Romeo,2021-04-14_09:20:03,8.9,1.0,0.0,4,2,0
6,McLaren,2021-04-14_09:20:03,18.9,1.0,0.0,29,0,66
7,Alpine,2021-04-14_09:20:03,15.2,1.0,-0.2,4,0,82
8,Raikkonen,2021-04-14_09:20:03,9.5,1.0,-0.1,14,0,56
9,Aston Martin,2021-04-14_09:20:03,17.0,1.0,-0.6,6,0,18
10,Latifi,2021-04-14_09:20:03,6.5,1.0,0.0,4,0,56
11,Bottas,2021-04-14_09:20:03,23.5,1.0,-0.100000000000001,12,0,66
12,Vettel,2021-04-14_09:20:03,15.6,1.0,-0.6,16,0,62
13,Hamilton,2021-04-14_09:20:03,33.4,1.0,-0.1,28,0,14
14,Perez,2021-04-14_09:20:03,18.4,1.0,0.0,33,16,0
15,Sainz,2021-04-14_09:20:03,14.3,1.0,-0.1,26,0,19
16,Leclerc,2021-04-14_09:20:03,17.3,1.0,0.5,31,20,0
17,Ferrari,2021-04-14_09:20:03,18.5,1.0,0.4,9,51,0
18,Alonso,2021-04-14_09:20:03,15.3,1.0,-0.3,12,0,71
19,Schumacher,2021-04-14_09:20:03,5.8,1.0,0.0,26,0,53
20,Red Bull,2021-04-14_09:20:03,26.0,1.0,0.100000000000001,31,49,0
21,Verstappen,2021-04-14_09:20:03,25.1,1.0,0.3,53,16,0
22,Ricciardo,2021-04-14_09:20:03,16.9,1.0,-0.4,35,0,11
23,Tsunoda,2021-04-14_09:20:03,9.3,1.0,0.5,33,59,0
24,Russell,2021-04-14_09:20:03,6.2,1.0,0.0,42,5,0
25,Norris,2021-04-14_09:20:03,13.4,1.0,0.3,55,18,0
26,Giovinazzi,2021-04-14_09:20:03,7.9,1.0,0.0,8,0,80
27,Ocon,2021-04-14_09:20:03,9.8,1.0,-0.3,15,0,58
28,AlphaTauri,2021-04-14_09:20:03,13.1,1.0,0.4,7,49,0
29,Gasly,2021-04-14_09:20:03,11.7,1.0,0.0,42,0,0
