,name,request_time,price,chance_of_playing,weekly_price_change,current_selection_percentage,probability_price_up_percentage,probability_price_down_percentage
0,Perez,2021-05-21_21:31:02,18.0,1.0,-0.2,29,0,12
1,Alpine,2021-05-21_21:31:02,15.3,1.0,0.1,4,0,55
2,Gasly,2021-05-21_21:31:02,11.5,1.0,-0.2,39,1,0
3,Verstappen,2021-05-21_21:31:02,25.4,1.0,0.1,57,7,0
4,AlphaTauri,2021-05-21_21:31:02,12.7,1.0,-0.1,5,0,72
5,Mazepin,2021-05-21_21:31:02,5.3,1.0,0.0,5,0,47
6,Raikkonen,2021-05-21_21:31:02,9.3,1.0,0.0,13,0,25
7,Hamilton,2021-05-21_21:31:02,33.3,1.0,0.0,28,23,0
8,Vettel,2021-05-21_21:31:02,14.9,1.0,-0.1,11,0,28
9,Tsunoda,2021-05-21_21:31:02,8.6,1.0,-0.3,24,0,10
10,Mercedes,2021-05-21_21:31:02,37.5,1.0,-0.1,10,0,3
11,Aston Martin,2021-05-21_21:31:02,16.5,1.0,0.0,5,0,89
12,Haas,2021-05-21_21:31:02,6.1,1.0,0.0,4,0,13
13,Latifi,2021-05-21_21:31:02,6.4,1.0,0.0,4,0,25
14,Russell,2021-05-21_21:31:02,6.2,1.0,-0.1,42,1,0
15,Alonso,2021-05-21_21:31:02,14.9,1.0,-0.1,10,0,76
16,McLaren,2021-05-21_21:31:02,18.9,1.0,0.0,29,0,97
17,Ricciardo,2021-05-21_21:31:02,16.2,1.0,0.0,29,56,0
18,Leclerc,2021-05-21_21:31:02,18.2,1.0,0.2,41,38,0
19,Ocon,2021-05-21_21:31:02,10.6,1.0,0.3,25,42,0
20,Schumacher,2021-05-21_21:31:02,5.9,1.0,0.1,29,35,0
21,Bottas,2021-05-21_21:31:02,23.2,1.0,-0.1,11,0,48
22,Ferrari,2021-05-21_21:31:02,18.9,1.0,0.2,12,97,0
23,Red Bull,2021-05-21_21:31:02,26.1,1.0,0.0,31,0,50
24,Stroll,2021-05-21_21:31:02,13.4,1.0,-0.1,8,0,11
25,Williams,2021-05-21_21:31:02,6.3,1.0,0.0,4,0,33
26,Norris,2021-05-21_21:31:02,13.9,1.0,0.0,63,12,0
27,Giovinazzi,2021-05-21_21:31:02,7.8,1.0,0.0,7,0,30
28,Sainz,2021-05-21_21:31:02,14.3,1.0,0.0,27,35,0
29,Alfa Romeo,2021-05-21_21:31:02,9.2,1.0,0.3,4,1,0
