,name,request_time,price,chance_of_playing,weekly_price_change,current_selection_percentage,probability_price_up_percentage,probability_price_down_percentage
0,AlphaTauri,2021-05-30_05:01:03,12.6,1.0,-0.2,5,0,43
1,Perez,2021-05-30_05:01:03,18.0,1.0,-0.2,29,0,63
2,Alpine,2021-05-30_05:01:03,15.2,1.0,0.0,4,0,71
3,Hamilton,2021-05-30_05:01:03,33.3,1.0,0.0,27,0,59
4,Raikkonen,2021-05-30_05:01:03,9.4,1.0,0.1,14,36,0
5,Gasly,2021-05-30_05:01:03,11.5,1.0,-0.2,40,36,0
6,Red Bull,2021-05-30_05:01:03,26.0,1.0,-0.1,31,0,47
7,Stroll,2021-05-30_05:01:03,13.4,1.0,-0.1,8,0,50
8,Leclerc,2021-05-30_05:01:03,18.3,1.0,0.3,42,71,0
9,Bottas,2021-05-30_05:01:03,23.1,1.0,-0.1,10,0,20
10,Ferrari,2021-05-30_05:01:03,19.7,1.0,0.2,15,2,0
11,Mazepin,2021-05-30_05:01:03,5.3,1.0,0.0,5,0,15
12,Vettel,2021-05-30_05:01:03,14.9,1.0,-0.1,12,0,2
13,Tsunoda,2021-05-30_05:01:03,8.5,1.0,-0.1,22,0,66
14,Russell,2021-05-30_05:01:03,6.2,1.0,-0.1,42,2,0
15,Alonso,2021-05-30_05:01:03,14.8,1.0,-0.2,9,0,77
16,Verstappen,2021-05-30_05:01:03,25.4,1.0,0.1,57,85,0
17,McLaren,2021-05-30_05:01:03,18.7,1.0,-0.2,28,0,77
18,Ricciardo,2021-05-30_05:01:03,16.1,1.0,-0.1,28,0,11
19,Ocon,2021-05-30_05:01:03,10.5,1.0,0.2,23,0,34
20,Schumacher,2021-05-30_05:01:03,5.8,1.0,-0.1,27,0,12
21,Haas,2021-05-30_05:01:03,6.1,1.0,0.0,4,0,19
22,Latifi,2021-05-30_05:01:03,6.4,1.0,0.0,4,0,25
23,Williams,2021-05-30_05:01:03,6.3,1.0,0.0,4,0,33
24,Giovinazzi,2021-05-30_05:01:03,7.9,1.0,0.1,9,73,0
25,Mercedes,2021-05-30_05:01:03,37.4,1.0,-0.1,10,0,5
26,Aston Martin,2021-05-30_05:01:03,16.4,1.0,-0.1,5,0,0
27,Norris,2021-05-30_05:01:03,13.9,1.0,0.0,63,52,0
28,Sainz,2021-05-30_05:01:03,14.7,1.0,0.2,30,9,0
29,Alfa Romeo,2021-05-30_05:01:03,9.2,1.0,0.3,4,0,5
