,name,request_time,price,chance_of_playing,weekly_price_change,current_selection_percentage,probability_price_up_percentage,probability_price_down_percentage
0,AlphaTauri,2021-06-15_10:31:02,12.6,1.0,0.0,5,8,0
1,Perez,2021-06-15_10:31:02,18.3,1.0,0.1,32,84,0
2,Alpine,2021-06-15_10:31:02,15.1,1.0,-0.1,4,0,26
3,Williams,2021-06-15_10:31:02,6.3,1.0,0.0,4,0,46
4,Norris,2021-06-15_10:31:02,13.9,1.0,0.0,63,56,0
5,Mazepin,2021-06-15_10:31:02,5.3,1.0,0.0,5,0,24
6,Hamilton,2021-06-15_10:31:02,33.1,1.0,-0.1,25,0,14
7,Raikkonen,2021-06-15_10:31:02,9.3,1.0,-0.1,13,0,12
8,Gasly,2021-06-15_10:31:02,11.7,1.0,0.2,43,77,0
9,Vettel,2021-06-15_10:31:02,15.0,1.0,0.1,12,49,0
10,Tsunoda,2021-06-15_10:31:02,8.4,1.0,-0.2,22,17,0
11,Red Bull,2021-06-15_10:31:02,26.2,1.0,0.1,32,17,0
12,Sainz,2021-06-15_10:31:02,14.7,1.0,0.2,31,72,0
13,Alfa Romeo,2021-06-15_10:31:02,9.2,1.0,0.0,4,0,37
14,Mercedes,2021-06-15_10:31:02,37.3,1.0,-0.2,9,0,50
15,Aston Martin,2021-06-15_10:31:02,16.4,1.0,0.0,5,32,0
16,Haas,2021-06-15_10:31:02,6.1,1.0,0.0,4,0,25
17,Latifi,2021-06-15_10:31:02,6.4,1.0,0.0,4,0,31
18,Russell,2021-06-15_10:31:02,6.2,1.0,0.0,40,0,74
19,Alonso,2021-06-15_10:31:02,14.7,1.0,-0.1,9,0,5
20,Verstappen,2021-06-15_10:31:02,25.5,1.0,0.1,58,55,0
21,McLaren,2021-06-15_10:31:02,18.6,1.0,-0.1,27,0,67
22,Giovinazzi,2021-06-15_10:31:02,8.0,1.0,0.2,9,76,0
23,Ricciardo,2021-06-15_10:31:02,16.0,1.0,-0.2,26,0,91
24,Leclerc,2021-06-15_10:31:02,18.2,1.0,-0.1,41,0,6
25,Schumacher,2021-06-15_10:31:02,5.8,1.0,-0.1,26,0,35
26,Ocon,2021-06-15_10:31:02,10.4,1.0,-0.1,22,0,67
27,Bottas,2021-06-15_10:31:02,23.0,1.0,-0.2,10,0,67
28,Ferrari,2021-06-15_10:31:02,19.6,1.0,-0.1,14,0,40
29,Stroll,2021-06-15_10:31:02,13.4,1.0,0.0,8,0,96
