,name,request_time,price,chance_of_playing,weekly_price_change,current_selection_percentage,probability_price_up_percentage,probability_price_down_percentage
0,Gasly,2021-07-27_23:21:02,11.9,1.0,0.0,45,15,0
1,Vettel,2021-07-27_23:21:02,15.2,1.0,0.0,13,0,21
2,Tsunoda,2021-07-27_23:21:02,8.5,1.0,0.0,23,0,39
3,Ocon,2021-07-27_23:21:02,10.0,1.0,-0.1,19,0,6
4,Bottas,2021-07-27_23:21:02,23.0,1.0,0.0,10,0,35
5,Williams,2021-07-27_23:21:02,6.3,1.0,0.0,4,0,41
6,Norris,2021-07-27_23:21:02,14.1,1.0,0.1,66,95,0
7,Ferrari,2021-07-27_23:21:02,18.7,1.0,0.0,10,0,67
8,Red Bull,2021-07-27_23:21:02,26.7,1.0,0.1,36,1,0
9,Stroll,2021-07-27_23:21:02,13.3,1.0,0.0,8,1,0
10,Hamilton,2021-07-27_23:21:02,33.0,1.0,0.0,24,0,59
11,Mazepin,2021-07-27_23:21:02,5.3,1.0,0.0,5,0,10
12,Mercedes,2021-07-27_23:21:02,37.1,1.0,-0.1,8,0,11
13,Aston Martin,2021-07-27_23:21:02,16.4,1.0,0.0,5,65,0
14,Haas,2021-07-27_23:21:02,6.1,1.0,0.0,4,0,26
15,AlphaTauri,2021-07-27_23:21:02,12.7,1.0,0.0,5,0,18
16,Perez,2021-07-27_23:21:02,18.8,1.0,0.0,36,0,67
17,Alpine,2021-07-27_23:21:02,15.1,1.0,0.0,4,0,85
18,Raikkonen,2021-07-27_23:21:02,9.3,1.0,0.0,13,0,70
19,McLaren,2021-07-27_23:21:02,18.6,1.0,0.0,28,36,0
20,Ricciardo,2021-07-27_23:21:02,15.8,1.0,0.0,25,0,54
21,Schumacher,2021-07-27_23:21:02,5.8,1.0,0.0,27,31,0
22,Leclerc,2021-07-27_23:21:02,17.5,1.0,-0.1,35,72,0
23,Giovinazzi,2021-07-27_23:21:02,8.1,1.0,0.1,10,0,5
24,Sainz,2021-07-27_23:21:02,14.4,1.0,0.1,28,1,0
25,Alfa Romeo,2021-07-27_23:21:02,9.2,1.0,0.0,4,0,81
26,Latifi,2021-07-27_23:21:02,6.4,1.0,0.0,4,0,60
27,Russell,2021-07-27_23:21:02,6.2,1.0,0.0,41,0,31
28,Alonso,2021-07-27_23:21:02,14.8,1.0,0.0,10,87,0
29,Verstappen,2021-07-27_23:21:02,25.7,1.0,0.0,61,76,0
