,name,request_time,price,chance_of_playing,weekly_price_change,current_selection_percentage,probability_price_up_percentage,probability_price_down_percentage
0,AlphaTauri,2021-05-25_03:21:02,12.6,1.0,-0.2,5,0,30
1,Perez,2021-05-25_03:21:02,18.0,1.0,-0.2,29,0,61
2,Alpine,2021-05-25_03:21:02,15.2,1.0,0.0,4,0,56
3,Gasly,2021-05-25_03:21:02,11.5,1.0,-0.2,40,18,0
4,Verstappen,2021-05-25_03:21:02,25.4,1.0,0.1,57,68,0
5,Giovinazzi,2021-05-25_03:21:02,7.9,1.0,0.1,8,31,0
6,Sainz,2021-05-25_03:21:02,14.6,1.0,0.1,30,64,0
7,Alfa Romeo,2021-05-25_03:21:02,9.2,1.0,0.3,4,0,3
8,Mazepin,2021-05-25_03:21:02,5.3,1.0,0.0,5,0,14
9,Hamilton,2021-05-25_03:21:02,33.3,1.0,0.0,27,0,45
10,Raikkonen,2021-05-25_03:21:02,9.4,1.0,0.1,14,39,0
11,Vettel,2021-05-25_03:21:02,14.9,1.0,-0.1,12,0,16
12,Tsunoda,2021-05-25_03:21:02,8.5,1.0,-0.1,23,0,28
13,Red Bull,2021-05-25_03:21:02,26.0,1.0,-0.1,30,0,61
14,Stroll,2021-05-25_03:21:02,13.4,1.0,-0.1,8,0,40
15,Williams,2021-05-25_03:21:02,6.3,1.0,0.0,4,0,34
16,Norris,2021-05-25_03:21:02,13.9,1.0,0.0,63,27,0
17,Mercedes,2021-05-25_03:21:02,37.5,1.0,-0.1,10,0,87
18,Haas,2021-05-25_03:21:02,6.1,1.0,0.0,4,0,17
19,Aston Martin,2021-05-25_03:21:02,16.4,1.0,-0.1,5,0,0
20,Latifi,2021-05-25_03:21:02,6.4,1.0,0.0,4,0,23
21,Russell,2021-05-25_03:21:02,6.2,1.0,-0.1,42,2,0
22,Alonso,2021-05-25_03:21:02,14.8,1.0,-0.2,10,0,52
23,McLaren,2021-05-25_03:21:02,18.7,1.0,-0.2,28,0,64
24,Ocon,2021-05-25_03:21:02,10.5,1.0,0.2,23,0,33
25,Leclerc,2021-05-25_03:21:02,18.3,1.0,0.3,42,68,0
26,Bottas,2021-05-25_03:21:02,23.1,1.0,-0.1,10,0,11
27,Ferrari,2021-05-25_03:21:02,19.6,1.0,0.1,15,62,0
28,Ricciardo,2021-05-25_03:21:02,16.2,1.0,0.0,28,0,50
29,Schumacher,2021-05-25_03:21:02,5.8,1.0,-0.1,27,0,0
